{"componentChunkName":"component---src-templates-home-js","path":"/42/","result":{"data":{"allMarkdownRemark":{"edges":[{"node":{"excerpt":"架构模式，也叫架构风格，它是一个通用的、可重用的解决方案，用于在给定上下文中的软件体系结构中经常出现的问题。架构模式与软件设计模式类似，但具有更广泛的范围。一个架构模式常常可以分解成很多个设计模式的联合使用。MVC…","id":"76d385e3-39f1-5932-a60a-43447f29f407","frontmatter":{"title":"架构模式","template":"post","has_more_link":null,"more_link_text":null,"excerpt":"","canonical_url":null,"date":"2021-02-23T12:10:47","img_path":null,"positive_reactions_count":null,"stackbit_url_path":"posts/ttf7ny"}}},{"node":{"excerpt":"…","id":"86511305-64f9-5cb0-b0ac-c4d4d5f0f1c7","frontmatter":{"title":"大型外企和国内互联网小厂的文化对比","template":"post","has_more_link":null,"more_link_text":null,"excerpt":"","canonical_url":null,"date":"2021-02-23T11:33:09","img_path":null,"positive_reactions_count":null,"stackbit_url_path":"posts/knmp7u"}}},{"node":{"excerpt":"","id":"b36ae8e0-cfd9-59c0-a7a2-1ec28cc625c0","frontmatter":{"title":"架构模式","template":"post","has_more_link":null,"more_link_text":null,"excerpt":"","canonical_url":null,"date":"2021-02-23T10:48:55","img_path":null,"positive_reactions_count":null,"stackbit_url_path":"posts/nxc3tc"}}},{"node":{"excerpt":"…","id":"8b16a9f5-eaae-53b4-83c7-3cda4d825244","frontmatter":{"title":"最近一年的成长","template":"post","has_more_link":null,"more_link_text":null,"excerpt":"","canonical_url":null,"date":"2021-02-23T10:47:29","img_path":null,"positive_reactions_count":null,"stackbit_url_path":"posts/yu7tea"}}},{"node":{"excerpt":"吞吐量 如果一个网页应用每秒钟接收到 50 个请求，但是它实际上每秒钟只能处理 30 个，那么另外的 20 个请求就只能在一个队列中等待。在性能测试结果中，吞吐量的表现经常使用 TPS 来表示。  测试策略 可以使用负载测试找到应用的 TPS…","id":"444e63f4-bc91-5e7f-995e-17bdcca33dec","frontmatter":{"title":"使用 k6 快速测出一个 api 的大致吞吐量","template":"post","has_more_link":null,"more_link_text":null,"excerpt":"","canonical_url":null,"date":"2021-02-22T09:11:47","img_path":null,"positive_reactions_count":null,"stackbit_url_path":"posts/idlkas"}}}]}},"pageContext":{"limit":5,"skip":205,"totalPages":187,"totalItems":931,"currentPage":42,"frontmatter":{"canonical_url":null,"comments_count":null,"title":"Home","template":"home","more_link_text":"Keep reading / 查看全部","date":null,"excerpt":"Jeff Tian's homepage","has_more_link":true},"url":"/","relativePath":"/","base":"","site":{"siteMetadata":{"title":"Jeff Tian","author":"@zizhujy","description":"A wild full stack developer","palette":"yellow","header":{"title":"Jeff Tian","tagline":"A wild developer","logo_img":"https://images.ctfassets.net/qixg1o8tujmf/7z1ua3nTOC5B7DwwzAki8I/4e1a05f8db770c285a492eeb1eaa398f/imageedit_3_2509022194.png","background_img":"https://images.ctfassets.net/qixg1o8tujmf/7m0jrKYaDBwEvlc5lo8nt6/6d50a5050d9cdc0d4d2047e35feac292/10648733_696750647079056_2800539603462658695_o.jpg","has_nav":true,"nav_links":[{"label":"Home","url":"/","style":"link","type":"action"},{"label":"About","url":"/about","style":"link","type":"action"},{"label":"关于","url":"https://ggyy.pa-pa.me/about","style":"link","icon_class":"lorem-ipsum","new_window":true,"type":"action"},{"label":"Contact","url":"/contact","style":"link","type":"action"},{"label":"Support Me","url":"/support-me","style":"link","type":"action"},{"label":"叽叽歪歪","url":"https://ggyy.pa-pa.me/","style":"link","icon_class":"lorem-ipsum","new_window":true,"type":"action"}],"has_social":true,"social_links":[{"label":"Twitter","url":"https://twitter.com/zizhujy","style":"icon","icon_class":"fa-twitter","new_window":true,"type":"action"},{"label":"Instagram","url":"https://www.instagram.com/jefftian5","style":"icon","icon_class":"fa-instagram","new_window":true,"type":"action"},{"label":"GitHub","url":"https://github.com/jeff-tian","style":"icon","icon_class":"fa-github","new_window":true,"type":"action"},{"label":"LinkedIn","url":"https://www.linkedin.com/jeff~tian","style":"icon","icon_class":"fa-linkedin","new_window":true,"type":"action"},{"label":"DEV","url":"https://dev.to/jefftian","style":"icon","icon_class":"fa-dev","new_window":true,"type":"action"},{"label":"知乎","url":"https://www.zhihu.com/people/jefftian","style":"icon","icon_class":"fa-zhihu","new_window":true,"type":"action"}],"type":"header"},"footer":{"content":"&copy; All rights reserved.","links":[{"label":"Made with Stackbit.","url":"https://www.stackbit.com","style":"link","new_window":true,"type":"action"},{"label":"紫竹叽歪","url":"https://zizhujy.apphb.com","style":"link","icon_class":"http://zizhujy.apphb.com/Content/Images/logo.png","new_window":true,"type":"action"}],"type":"footer"}},"pathPrefix":"","data":{"data":{"author":{"name":"Jeff Tian","avatar":"https://res.cloudinary.com/practicaldev/image/fetch/s--a5qDZLv3--/c_fill,f_auto,fl_progressive,h_640,q_auto,w_640/https://dev-to-uploads.s3.amazonaws.com/uploads/user/profile_image/318420/3bfd2d99-430c-4049-8dd5-e2adc961e1e0.png"},"social":{"devto":{"username":"jefftian"},"twitter":{"username":"zizhujy"},"github":{"username":"Jeff-Tian"}}}}},"menus":{}}},"staticQueryHashes":[],"slicesMap":{}}