{"componentChunkName":"component---src-templates-home-js","path":"/53","result":{"data":{"allMarkdownRemark":{"edges":[{"node":{"excerpt":"","id":"00b89d5c-1502-5378-896c-ea74e0db8364","frontmatter":{"title":"VC++ 6 中 Project –> Add To Project –> Files 命令出错的解决办法","template":"post","has_more_link":null,"more_link_text":null,"excerpt":"","canonical_url":"https://be-net.azurewebsites.net/post/2010/11/27/VC2b2b-6-e4b8ad-Project-e280933e-Add-To-Project-e280933e-Files-e591bde4bba4e587bae99499e79a84e8a7a3e586b3e58a9ee6b395","date":"2010-11-27 21:20:00","img_path":null,"positive_reactions_count":0,"stackbit_url_path":"posts/VC2b2b-6-e4b8ad-Project-e280933e-Add-To-Project-e280933e-Files-e591bde4bba4e587bae99499e79a84e8a7a3e586b3e58a9ee6b395"}}},{"node":{"excerpt":"","id":"43b00195-f836-5854-9dc9-ffb79a47f1ec","frontmatter":{"title":"累死百度的手写识别程序","template":"post","has_more_link":null,"more_link_text":null,"excerpt":"","canonical_url":"https://be-net.azurewebsites.net/post/2010/11/27/e7b4afe6adbbe799bee5baa6e79a84e6898be58699e8af86e588abe7a88be5ba8f","date":"2010-11-27 13:32:00","img_path":null,"positive_reactions_count":0,"stackbit_url_path":"posts/e7b4afe6adbbe799bee5baa6e79a84e6898be58699e8af86e588abe7a88be5ba8f"}}},{"node":{"excerpt":"","id":"b23b7700-d69e-5b08-be68-4bb27cd3d458","frontmatter":{"title":"酒桌与梦魇","template":"post","has_more_link":null,"more_link_text":null,"excerpt":"","canonical_url":"https://be-net.azurewebsites.net/post/2010/11/26/e98592e6a18ce4b88ee6a2a6e9ad87","date":"2010-11-26 21:12:00","img_path":null,"positive_reactions_count":0,"stackbit_url_path":"posts/e98592e6a18ce4b88ee6a2a6e9ad87"}}},{"node":{"excerpt":"","id":"8d7e4bf0-a211-543e-a4e9-32a86e947b5c","frontmatter":{"title":"直升机","template":"post","has_more_link":null,"more_link_text":null,"excerpt":"","canonical_url":"https://be-net.azurewebsites.net/post/2010/11/23/e79bb4e58d87e69cba","date":"2010-11-23 19:41:00","img_path":null,"positive_reactions_count":0,"stackbit_url_path":"posts/e79bb4e58d87e69cba"}}},{"node":{"excerpt":"","id":"c9ed5b5b-e3d5-5ee5-bea9-b35412568b3c","frontmatter":{"title":"不明飞行物","template":"post","has_more_link":null,"more_link_text":null,"excerpt":"","canonical_url":"https://be-net.azurewebsites.net/post/2010/11/23/e4b88de6988ee9a39ee8a18ce789a9","date":"2010-11-23 12:31:00","img_path":null,"positive_reactions_count":0,"stackbit_url_path":"posts/e4b88de6988ee9a39ee8a18ce789a9"}}}]}},"pageContext":{"limit":5,"skip":260,"totalPages":140,"totalItems":699,"currentPage":53,"frontmatter":{"canonical_url":null,"comments_count":null,"title":"Home","template":"home","more_link_text":"Keep reading / 查看全部","date":null,"excerpt":"Jeff Tian's homepage","has_more_link":true},"url":"/","relativePath":"/","base":"","site":{"siteMetadata":{"title":"Jeff Tian","description":"Full Stack Developer, good at OAuth 2.0","palette":"yellow","header":{"title":"Jeff Tian","tagline":"A wild developer","logo_img":"https://images.ctfassets.net/qixg1o8tujmf/7z1ua3nTOC5B7DwwzAki8I/4e1a05f8db770c285a492eeb1eaa398f/imageedit_3_2509022194.png","background_img":"https://images.ctfassets.net/qixg1o8tujmf/7m0jrKYaDBwEvlc5lo8nt6/6d50a5050d9cdc0d4d2047e35feac292/10648733_696750647079056_2800539603462658695_o.jpg","has_nav":true,"nav_links":[{"label":"Home","url":"/","style":"link","type":"action"},{"label":"About","url":"/about","style":"link","type":"action"},{"label":"关于","url":"https://ggyy.pa-pa.me/about","style":"link","icon_class":"lorem-ipsum","new_window":true,"type":"action"},{"label":"Contact","url":"/contact","style":"link","type":"action"},{"label":"Support Me","url":"/support-me","style":"link","type":"action"},{"label":"叽叽歪歪","url":"https://ggyy.pa-pa.me/","style":"link","icon_class":"lorem-ipsum","new_window":true,"type":"action"}],"has_social":true,"social_links":[{"label":"Twitter","url":"https://twitter.com/zizhujy","style":"icon","icon_class":"fa-twitter","new_window":true,"type":"action"},{"label":"Instagram","url":"https://www.instagram.com/jefftian5","style":"icon","icon_class":"fa-instagram","new_window":true,"type":"action"},{"label":"GitHub","url":"https://github.com/jeff-tian","style":"icon","icon_class":"fa-github","new_window":true,"type":"action"},{"label":"LinkedIn","url":"https://www.linkedin.com/jeff~tian","style":"icon","icon_class":"fa-linkedin","new_window":true,"type":"action"},{"label":"DEV","url":"https://dev.to/jefftian","style":"icon","icon_class":"fa-dev","new_window":true,"type":"action"},{"label":"知乎","url":"https://www.zhihu.com/people/jefftian","style":"icon","icon_class":"fa-zhihu","new_window":true,"type":"action"}],"type":"header"},"footer":{"content":"&copy; All rights reserved.","links":[{"label":"本站源码","url":"https://github.com/Jeff-Tian/space","style":"link","icon_class":"fa-github","new_window":true,"type":"action"},{"label":"紫竹叽歪","url":"https://zizhujy.apphb.com","style":"link","icon_class":"http://zizhujy.apphb.com/Content/Images/logo.png","new_window":true,"type":"action"}],"type":"footer"}},"pathPrefix":"","data":{"data":{"author":{"name":"Jeff Tian","avatar":"https://res.cloudinary.com/practicaldev/image/fetch/s--a5qDZLv3--/c_fill,f_auto,fl_progressive,h_640,q_auto,w_640/https://dev-to-uploads.s3.amazonaws.com/uploads/user/profile_image/318420/3bfd2d99-430c-4049-8dd5-e2adc961e1e0.png"},"social":{"devto":{"username":"jefftian"},"twitter":{"username":"zizhujy"},"github":{"username":"Jeff-Tian"}}}}},"menus":{}}},"staticQueryHashes":[]}