{"componentChunkName":"component---src-templates-home-js","path":"/146","result":{"data":{"allMarkdownRemark":{"edges":[{"node":{"excerpt":"","id":"5aad0e52-408c-55b2-84cc-9a6ddd96c8aa","frontmatter":{"title":"获取网站根目录路径","template":"post","has_more_link":null,"more_link_text":null,"excerpt":"","canonical_url":"https://be-net.azurewebsites.net/post/2010/02/05/获取网站根目录路径","date":"2010-02-05 14:26:58","img_path":null,"positive_reactions_count":0,"stackbit_url_path":"posts/获取网站根目录路径"}}},{"node":{"excerpt":"","id":"1eb9a477-d184-569d-9270-0d7d34b0a611","frontmatter":{"title":"金融数据取数网址","template":"post","has_more_link":null,"more_link_text":null,"excerpt":"","canonical_url":"https://be-net.azurewebsites.net/post/2010/02/04/金融数据取数网址","date":"2010-02-04 22:08:34","img_path":null,"positive_reactions_count":0,"stackbit_url_path":"posts/金融数据取数网址"}}},{"node":{"excerpt":"","id":"d5a1b5d9-3e70-5ce2-8509-49503e3798ea","frontmatter":{"title":"峰度","template":"post","has_more_link":null,"more_link_text":null,"excerpt":"","canonical_url":"https://be-net.azurewebsites.net/post/2010/02/04/峰度","date":"2010-02-04 21:29:51","img_path":null,"positive_reactions_count":0,"stackbit_url_path":"posts/峰度"}}},{"node":{"excerpt":"","id":"921b40b6-e646-5401-9be6-f8de30c23a22","frontmatter":{"title":"使用 Google 电子表格画正态分布概率密度函数","template":"post","has_more_link":null,"more_link_text":null,"excerpt":"","canonical_url":"https://be-net.azurewebsites.net/post/2010/02/04/使用-Google-电子表格画正态分布概率密度函数","date":"2010-02-04 20:51:28","img_path":null,"positive_reactions_count":0,"stackbit_url_path":"posts/使用-Google-电子表格画正态分布概率密度函数"}}},{"node":{"excerpt":"","id":"8bde9383-06a3-5355-bd09-ec8c256f9f39","frontmatter":{"title":"Spearman 偏度系数","template":"post","has_more_link":null,"more_link_text":null,"excerpt":"","canonical_url":"https://be-net.azurewebsites.net/post/2010/02/04/Spearman-偏度系数","date":"2010-02-04 20:37:04","img_path":null,"positive_reactions_count":0,"stackbit_url_path":"posts/Spearman-偏度系数"}}}]}},"pageContext":{"limit":5,"skip":725,"totalPages":170,"totalItems":850,"currentPage":146,"frontmatter":{"canonical_url":null,"comments_count":null,"title":"Home","template":"home","more_link_text":"Keep reading / 查看全部","date":null,"excerpt":"Jeff Tian's homepage","has_more_link":true},"url":"/","relativePath":"/","base":"","site":{"siteMetadata":{"title":"Jeff Tian","description":"Full Stack Developer, good at OAuth 2.0","palette":"yellow","header":{"title":"Jeff Tian","tagline":"A wild developer","logo_img":"https://images.ctfassets.net/qixg1o8tujmf/7z1ua3nTOC5B7DwwzAki8I/4e1a05f8db770c285a492eeb1eaa398f/imageedit_3_2509022194.png","background_img":"https://images.ctfassets.net/qixg1o8tujmf/7m0jrKYaDBwEvlc5lo8nt6/6d50a5050d9cdc0d4d2047e35feac292/10648733_696750647079056_2800539603462658695_o.jpg","has_nav":true,"nav_links":[{"label":"Home","url":"/","style":"link","type":"action"},{"label":"About","url":"/about","style":"link","type":"action"},{"label":"关于","url":"https://ggyy.pa-pa.me/about","style":"link","icon_class":"lorem-ipsum","new_window":true,"type":"action"},{"label":"Contact","url":"/contact","style":"link","type":"action"},{"label":"Support Me","url":"/support-me","style":"link","type":"action"},{"label":"叽叽歪歪","url":"https://ggyy.pa-pa.me/","style":"link","icon_class":"lorem-ipsum","new_window":true,"type":"action"}],"has_social":true,"social_links":[{"label":"Twitter","url":"https://twitter.com/zizhujy","style":"icon","icon_class":"fa-twitter","new_window":true,"type":"action"},{"label":"Instagram","url":"https://www.instagram.com/jefftian5","style":"icon","icon_class":"fa-instagram","new_window":true,"type":"action"},{"label":"GitHub","url":"https://github.com/jeff-tian","style":"icon","icon_class":"fa-github","new_window":true,"type":"action"},{"label":"LinkedIn","url":"https://www.linkedin.com/jeff~tian","style":"icon","icon_class":"fa-linkedin","new_window":true,"type":"action"},{"label":"DEV","url":"https://dev.to/jefftian","style":"icon","icon_class":"fa-dev","new_window":true,"type":"action"},{"label":"知乎","url":"https://www.zhihu.com/people/jefftian","style":"icon","icon_class":"fa-zhihu","new_window":true,"type":"action"}],"type":"header"},"footer":{"content":"&copy; All rights reserved.","links":[{"label":"本站源码","url":"https://github.com/Jeff-Tian/space","style":"link","icon_class":"fa-github","new_window":true,"type":"action"},{"label":"紫竹叽歪","url":"https://zizhujy.apphb.com","style":"link","icon_class":"http://zizhujy.apphb.com/Content/Images/logo.png","new_window":true,"type":"action"}],"type":"footer"}},"pathPrefix":"","data":{"data":{"author":{"name":"Jeff Tian","avatar":"https://res.cloudinary.com/practicaldev/image/fetch/s--a5qDZLv3--/c_fill,f_auto,fl_progressive,h_640,q_auto,w_640/https://dev-to-uploads.s3.amazonaws.com/uploads/user/profile_image/318420/3bfd2d99-430c-4049-8dd5-e2adc961e1e0.png"},"social":{"devto":{"username":"jefftian"},"twitter":{"username":"zizhujy"},"github":{"username":"Jeff-Tian"}}}}},"menus":{}}},"staticQueryHashes":[]}