{"componentChunkName":"component---src-templates-home-js","path":"/52","result":{"data":{"allMarkdownRemark":{"edges":[{"node":{"excerpt":"","id":"0ae817f9-1e8c-5acf-9a17-409426e13e75","frontmatter":{"title":"长跑随想","template":"post","has_more_link":null,"more_link_text":null,"excerpt":"","canonical_url":"https://be-net.azurewebsites.net/post/2012/02/12/长跑随想","date":"2012-02-12 02:47:33.574388","img_path":null,"positive_reactions_count":0,"stackbit_url_path":"posts/长跑随想"}}},{"node":{"excerpt":"","id":"99170bbc-6900-5ce7-9a6e-0ce3eae76f0c","frontmatter":{"title":"无语","template":"post","has_more_link":null,"more_link_text":null,"excerpt":"","canonical_url":"https://be-net.azurewebsites.net/post/2012/02/10/无语","date":"2012-02-10 07:51:37.5222262","img_path":null,"positive_reactions_count":0,"stackbit_url_path":"posts/无语"}}},{"node":{"excerpt":"","id":"76abb707-dc51-5814-ad3e-c1310b2260f5","frontmatter":{"title":"女保镖特训之《人体蜈蚣》版","template":"post","has_more_link":null,"more_link_text":null,"excerpt":"","canonical_url":"https://be-net.azurewebsites.net/post/2012/02/09/女保镖特训之《人体蜈蚣》版","date":"2012-02-09 04:21:21.9776842","img_path":null,"positive_reactions_count":0,"stackbit_url_path":"posts/女保镖特训之《人体蜈蚣》版"}}},{"node":{"excerpt":"","id":"a9383553-1016-51a4-a0ce-72fd9c16d711","frontmatter":{"title":"How to directly connect to a security server from local PC","template":"post","has_more_link":null,"more_link_text":null,"excerpt":"","canonical_url":"https://be-net.azurewebsites.net/post/2012/02/09/How-to-directly-connect-to-a-security-server-from-local-PC","date":"2012-02-09 01:15:47.4176368","img_path":null,"positive_reactions_count":0,"stackbit_url_path":"posts/How-to-directly-connect-to-a-security-server-from-local-PC"}}},{"node":{"excerpt":"$(\"#btnGo\").click(function(){\r\nvar url = $(\"#txtUrl\").val();\r\nvar re = /?.url=([^&])&/;\r\nvar targetUrl = url.match(re…","id":"9a26e732-2997-5325-9864-c601f8a128bb","frontmatter":{"title":"Google搜索结果链接打不开的解决方案（二）","template":"post","has_more_link":null,"more_link_text":null,"excerpt":"","canonical_url":"https://be-net.azurewebsites.net/post/2012/02/08/Google搜索结果链接打不开的解决方案（二）","date":"2012-02-08 04:38:25.7491023","img_path":null,"positive_reactions_count":0,"stackbit_url_path":"posts/Google搜索结果链接打不开的解决方案（二）"}}}]}},"pageContext":{"limit":5,"skip":255,"totalPages":166,"totalItems":827,"currentPage":52,"frontmatter":{"canonical_url":null,"comments_count":null,"title":"Home","template":"home","more_link_text":"Keep reading / 查看全部","date":null,"excerpt":"Jeff Tian's homepage","has_more_link":true},"url":"/","relativePath":"/","base":"","site":{"siteMetadata":{"title":"Jeff Tian","description":"A wild full stack developer","palette":"yellow","header":{"title":"Jeff Tian","tagline":"A wild developer","logo_img":"https://images.ctfassets.net/qixg1o8tujmf/7z1ua3nTOC5B7DwwzAki8I/4e1a05f8db770c285a492eeb1eaa398f/imageedit_3_2509022194.png","background_img":"https://images.ctfassets.net/qixg1o8tujmf/7m0jrKYaDBwEvlc5lo8nt6/6d50a5050d9cdc0d4d2047e35feac292/10648733_696750647079056_2800539603462658695_o.jpg","has_nav":true,"nav_links":[{"label":"Home","url":"/","style":"link","type":"action"},{"label":"About","url":"/about","style":"link","type":"action"},{"label":"关于","url":"https://ggyy.pa-pa.me/about","style":"link","icon_class":"lorem-ipsum","new_window":true,"type":"action"},{"label":"Contact","url":"/contact","style":"link","type":"action"},{"label":"Support Me","url":"/support-me","style":"link","type":"action"},{"label":"叽叽歪歪","url":"https://ggyy.pa-pa.me/","style":"link","icon_class":"lorem-ipsum","new_window":true,"type":"action"}],"has_social":true,"social_links":[{"label":"Twitter","url":"https://twitter.com/zizhujy","style":"icon","icon_class":"fa-twitter","new_window":true,"type":"action"},{"label":"Instagram","url":"https://www.instagram.com/jefftian5","style":"icon","icon_class":"fa-instagram","new_window":true,"type":"action"},{"label":"GitHub","url":"https://github.com/jeff-tian","style":"icon","icon_class":"fa-github","new_window":true,"type":"action"},{"label":"LinkedIn","url":"https://www.linkedin.com/jeff~tian","style":"icon","icon_class":"fa-linkedin","new_window":true,"type":"action"},{"label":"DEV","url":"https://dev.to/jefftian","style":"icon","icon_class":"fa-dev","new_window":true,"type":"action"},{"label":"知乎","url":"https://www.zhihu.com/people/jefftian","style":"icon","icon_class":"fa-zhihu","new_window":true,"type":"action"}],"type":"header"},"footer":{"content":"&copy; All rights reserved.","links":[{"label":"本站源码","url":"https://github.com/Jeff-Tian/space","style":"link","icon_class":"fa-github","new_window":true,"type":"action"},{"label":"紫竹叽歪","url":"https://zizhujy.apphb.com","style":"link","icon_class":"http://zizhujy.apphb.com/Content/Images/logo.png","new_window":true,"type":"action"}],"type":"footer"}},"pathPrefix":"","data":{"data":{"author":{"name":"Jeff Tian","avatar":"https://res.cloudinary.com/practicaldev/image/fetch/s--a5qDZLv3--/c_fill,f_auto,fl_progressive,h_640,q_auto,w_640/https://dev-to-uploads.s3.amazonaws.com/uploads/user/profile_image/318420/3bfd2d99-430c-4049-8dd5-e2adc961e1e0.png"},"social":{"devto":{"username":"jefftian"},"twitter":{"username":"zizhujy"},"github":{"username":"Jeff-Tian"}}}}},"menus":{}}},"staticQueryHashes":[]}