{"componentChunkName":"component---src-templates-home-js","path":"/12","result":{"data":{"allMarkdownRemark":{"edges":[{"node":{"excerpt":"Free Arch 是我的杜撰，这是一种个人开发者的架构风格。个人开发者，穷，所以是尽量使用免费资源。架构说到底就是一种权衡，采用免费资源，是像我这样穷困的个人开发者不得已的选择。为了免费，甚至不惜牺牲用户体验。当然，这只是 Free Arch 的第一层。\nFree Arch…","id":"d704ef0a-3e04-5035-9bea-fa759cd8de71","frontmatter":{"title":"Free Arch: 将 React 井字棋搬到小程序之三","template":"post","has_more_link":null,"more_link_text":null,"excerpt":"","canonical_url":null,"date":"2022-01-21T14:25:26","img_path":null,"positive_reactions_count":null,"stackbit_url_path":"posts/wxorit"}}},{"node":{"excerpt":"在前几天，我宣称通过少量开发，通过 react view 可以在一定程度上打破微信个人版小程序不能使用 web view 的限制。并展示了一个基本的例子，即将 react…","id":"44669190-0bab-5fcd-b186-7c9a58603f74","frontmatter":{"title":"Free Arch: 将React 井字棋搬到微信小程序之二","template":"post","has_more_link":null,"more_link_text":null,"excerpt":"","canonical_url":null,"date":"2022-01-02T13:19:58","img_path":null,"positive_reactions_count":null,"stackbit_url_path":"posts/ubz2zg"}}},{"node":{"excerpt":"在昨天分享的《FreeArch: 将 React 教程的井字棋游戏搬到微信小程序》里提到的，通过实现一个 react-view，可以部分解决个人版微信小程序不能使用 webview 的缺憾。 虽然完全可以在前端使用 babel standalone，动态转译 tsx…","id":"4ca8ec35-34f5-5635-a070-999f7ad0e938","frontmatter":{"title":"Free Arch: babel as a service","template":"post","has_more_link":null,"more_link_text":null,"excerpt":"","canonical_url":null,"date":"2021-12-31T10:58:23","img_path":null,"positive_reactions_count":null,"stackbit_url_path":"posts/evv5x9"}}},{"node":{"excerpt":"FreeArch，即免费架构。Free，在英文里，不仅有免费的意思，还有自由的意思。这个词是我的杜撰，旨在指引像我一样穷困的个人开发者，仅通过使用免费的资源，拼凑出勉强可用甚至高可用的服务或者应用。不仅没有或者只有少量的花费，而且还要突破各种技术限制，实现技术自由。 image…","id":"950ae170-99a9-5ff5-a8cf-ae4b08e75c8b","frontmatter":{"title":"FreeArch: 将 React 教程的井字棋游戏搬到微信小程序","template":"post","has_more_link":null,"more_link_text":null,"excerpt":"","canonical_url":null,"date":"2021-12-30T12:27:42","img_path":null,"positive_reactions_count":null,"stackbit_url_path":"posts/pwpl3e"}}},{"node":{"excerpt":"简介 详细讨论如何通过迭代演进，最终实现一个以微信小程序作为认证媒介的 OAuth 2 验证流程，在保证安全的前提下，为网页提供获取系统用户信息的能力。 本文最终探讨了如何将微信小程序作为系统的 OAuth…","id":"0b400f24-2417-50f0-80e0-0c1e56610ae6","frontmatter":{"title":"webview 复用微信小程序获取用户信息的解决方案","template":"post","has_more_link":null,"more_link_text":null,"excerpt":"","canonical_url":null,"date":"2021-12-16T12:07:32","img_path":null,"positive_reactions_count":null,"stackbit_url_path":"posts/qk8kep"}}}]}},"pageContext":{"limit":5,"skip":55,"totalPages":170,"totalItems":850,"currentPage":12,"frontmatter":{"canonical_url":null,"comments_count":null,"title":"Home","template":"home","more_link_text":"Keep reading / 查看全部","date":null,"excerpt":"Jeff Tian's homepage","has_more_link":true},"url":"/","relativePath":"/","base":"","site":{"siteMetadata":{"title":"Jeff Tian","description":"Full Stack Developer, good at OAuth 2.0","palette":"yellow","header":{"title":"Jeff Tian","tagline":"A wild developer","logo_img":"https://images.ctfassets.net/qixg1o8tujmf/7z1ua3nTOC5B7DwwzAki8I/4e1a05f8db770c285a492eeb1eaa398f/imageedit_3_2509022194.png","background_img":"https://images.ctfassets.net/qixg1o8tujmf/7m0jrKYaDBwEvlc5lo8nt6/6d50a5050d9cdc0d4d2047e35feac292/10648733_696750647079056_2800539603462658695_o.jpg","has_nav":true,"nav_links":[{"label":"Home","url":"/","style":"link","type":"action"},{"label":"About","url":"/about","style":"link","type":"action"},{"label":"关于","url":"https://ggyy.pa-pa.me/about","style":"link","icon_class":"lorem-ipsum","new_window":true,"type":"action"},{"label":"Contact","url":"/contact","style":"link","type":"action"},{"label":"Support Me","url":"/support-me","style":"link","type":"action"},{"label":"叽叽歪歪","url":"https://ggyy.pa-pa.me/","style":"link","icon_class":"lorem-ipsum","new_window":true,"type":"action"}],"has_social":true,"social_links":[{"label":"Twitter","url":"https://twitter.com/zizhujy","style":"icon","icon_class":"fa-twitter","new_window":true,"type":"action"},{"label":"Instagram","url":"https://www.instagram.com/jefftian5","style":"icon","icon_class":"fa-instagram","new_window":true,"type":"action"},{"label":"GitHub","url":"https://github.com/jeff-tian","style":"icon","icon_class":"fa-github","new_window":true,"type":"action"},{"label":"LinkedIn","url":"https://www.linkedin.com/jeff~tian","style":"icon","icon_class":"fa-linkedin","new_window":true,"type":"action"},{"label":"DEV","url":"https://dev.to/jefftian","style":"icon","icon_class":"fa-dev","new_window":true,"type":"action"},{"label":"知乎","url":"https://www.zhihu.com/people/jefftian","style":"icon","icon_class":"fa-zhihu","new_window":true,"type":"action"}],"type":"header"},"footer":{"content":"&copy; All rights reserved.","links":[{"label":"本站源码","url":"https://github.com/Jeff-Tian/space","style":"link","icon_class":"fa-github","new_window":true,"type":"action"},{"label":"紫竹叽歪","url":"https://zizhujy.apphb.com","style":"link","icon_class":"http://zizhujy.apphb.com/Content/Images/logo.png","new_window":true,"type":"action"}],"type":"footer"}},"pathPrefix":"","data":{"data":{"author":{"name":"Jeff Tian","avatar":"https://res.cloudinary.com/practicaldev/image/fetch/s--a5qDZLv3--/c_fill,f_auto,fl_progressive,h_640,q_auto,w_640/https://dev-to-uploads.s3.amazonaws.com/uploads/user/profile_image/318420/3bfd2d99-430c-4049-8dd5-e2adc961e1e0.png"},"social":{"devto":{"username":"jefftian"},"twitter":{"username":"zizhujy"},"github":{"username":"Jeff-Tian"}}}}},"menus":{}}},"staticQueryHashes":[]}