{"componentChunkName":"component---src-templates-home-js","path":"/149","result":{"data":{"allMarkdownRemark":{"edges":[{"node":{"excerpt":"","id":"72aad576-aa87-57d8-bf46-628b871763a9","frontmatter":{"title":"如何下载POP字体","template":"post","has_more_link":null,"more_link_text":null,"excerpt":"","canonical_url":"https://be-net.azurewebsites.net/post/2010/01/14/如何下载POP字体","date":"2010-01-14 13:46:39","img_path":null,"positive_reactions_count":0,"stackbit_url_path":"posts/如何下载POP字体"}}},{"node":{"excerpt":"","id":"0e00a709-20c9-5a5c-90ef-5e3344790f6d","frontmatter":{"title":"Photoshop CS 3 序列号","template":"post","has_more_link":null,"more_link_text":null,"excerpt":"","canonical_url":"https://be-net.azurewebsites.net/post/2010/01/14/Photoshop-CS-3-序列号","date":"2010-01-14 04:46:40","img_path":null,"positive_reactions_count":0,"stackbit_url_path":"posts/Photoshop-CS-3-序列号"}}},{"node":{"excerpt":"","id":"76b3c22b-d914-5d93-9593-c7534241ac58","frontmatter":{"title":"伊朗政府网站被中国黑客黑了","template":"post","has_more_link":null,"more_link_text":null,"excerpt":"","canonical_url":"https://be-net.azurewebsites.net/post/2010/01/13/伊朗政府网站被中国黑客黑了","date":"2010-01-13 14:40:20","img_path":null,"positive_reactions_count":0,"stackbit_url_path":"posts/伊朗政府网站被中国黑客黑了"}}},{"node":{"excerpt":"","id":"2c8a864b-740b-5139-993f-358f443d54e9","frontmatter":{"title":"随想","template":"post","has_more_link":null,"more_link_text":null,"excerpt":"","canonical_url":"https://be-net.azurewebsites.net/post/2010/01/10/随想","date":"2010-01-10 16:37:02","img_path":null,"positive_reactions_count":0,"stackbit_url_path":"posts/随想"}}},{"node":{"excerpt":"","id":"89d4c7b5-bb3a-5c86-8dba-b8841bc4c919","frontmatter":{"title":"环境变量的设置","template":"post","has_more_link":null,"more_link_text":null,"excerpt":"","canonical_url":"https://be-net.azurewebsites.net/post/2010/01/07/环境变量的设置","date":"2010-01-07 16:28:39","img_path":null,"positive_reactions_count":0,"stackbit_url_path":"posts/环境变量的设置"}}}]}},"pageContext":{"limit":5,"skip":740,"totalPages":165,"totalItems":822,"currentPage":149,"frontmatter":{"canonical_url":null,"comments_count":null,"title":"Home","template":"home","more_link_text":"Keep reading / 查看全部","date":null,"excerpt":"Jeff Tian's homepage","has_more_link":true},"url":"/","relativePath":"/","base":"","site":{"siteMetadata":{"title":"Jeff Tian","description":"A wild full stack developer","palette":"yellow","header":{"title":"Jeff Tian","tagline":"A wild developer","logo_img":"https://images.ctfassets.net/qixg1o8tujmf/7z1ua3nTOC5B7DwwzAki8I/4e1a05f8db770c285a492eeb1eaa398f/imageedit_3_2509022194.png","background_img":"https://images.ctfassets.net/qixg1o8tujmf/7m0jrKYaDBwEvlc5lo8nt6/6d50a5050d9cdc0d4d2047e35feac292/10648733_696750647079056_2800539603462658695_o.jpg","has_nav":true,"nav_links":[{"label":"Home","url":"/","style":"link","type":"action"},{"label":"About","url":"/about","style":"link","type":"action"},{"label":"关于","url":"https://ggyy.pa-pa.me/about","style":"link","icon_class":"lorem-ipsum","new_window":true,"type":"action"},{"label":"Contact","url":"/contact","style":"link","type":"action"},{"label":"Support Me","url":"/support-me","style":"link","type":"action"},{"label":"叽叽歪歪","url":"https://ggyy.pa-pa.me/","style":"link","icon_class":"lorem-ipsum","new_window":true,"type":"action"}],"has_social":true,"social_links":[{"label":"Twitter","url":"https://twitter.com/zizhujy","style":"icon","icon_class":"fa-twitter","new_window":true,"type":"action"},{"label":"Instagram","url":"https://www.instagram.com/jefftian5","style":"icon","icon_class":"fa-instagram","new_window":true,"type":"action"},{"label":"GitHub","url":"https://github.com/jeff-tian","style":"icon","icon_class":"fa-github","new_window":true,"type":"action"},{"label":"LinkedIn","url":"https://www.linkedin.com/jeff~tian","style":"icon","icon_class":"fa-linkedin","new_window":true,"type":"action"},{"label":"DEV","url":"https://dev.to/jefftian","style":"icon","icon_class":"fa-dev","new_window":true,"type":"action"},{"label":"知乎","url":"https://www.zhihu.com/people/jefftian","style":"icon","icon_class":"fa-zhihu","new_window":true,"type":"action"}],"type":"header"},"footer":{"content":"&copy; All rights reserved.","links":[{"label":"Made with Stackbit.","url":"https://www.stackbit.com","style":"link","new_window":true,"type":"action"},{"label":"紫竹叽歪","url":"https://zizhujy.apphb.com","style":"link","icon_class":"http://zizhujy.apphb.com/Content/Images/logo.png","new_window":true,"type":"action"}],"type":"footer"}},"pathPrefix":"","data":{"data":{"author":{"name":"Jeff Tian","avatar":"https://res.cloudinary.com/practicaldev/image/fetch/s--a5qDZLv3--/c_fill,f_auto,fl_progressive,h_640,q_auto,w_640/https://dev-to-uploads.s3.amazonaws.com/uploads/user/profile_image/318420/3bfd2d99-430c-4049-8dd5-e2adc961e1e0.png"},"social":{"devto":{"username":"jefftian"},"twitter":{"username":"zizhujy"},"github":{"username":"Jeff-Tian"}}}}},"menus":{}}},"staticQueryHashes":[]}