{"componentChunkName":"component---src-templates-home-js","path":"/170","result":{"data":{"allMarkdownRemark":{"edges":[{"node":{"excerpt":"","id":"3ebe706d-0764-5f2f-9797-b0aeee1bafca","frontmatter":{"title":"怎样上传网站？","template":"post","has_more_link":null,"more_link_text":null,"excerpt":"","canonical_url":"https://be-net.azurewebsites.net/post/2009/11/11/怎样上传网站？","date":"2009-11-11 08:19:33","img_path":null,"positive_reactions_count":0,"stackbit_url_path":"posts/怎样上传网站？"}}},{"node":{"excerpt":"proc arima;\nidentify var = x nlag = 864 outcov = out1;\nrun…","id":"cd5bbe9f-c190-5c55-a490-bcbcf47ccbe8","frontmatter":{"title":"用EXCEL VBA 计算一组数据的自相关函数和偏自相关函数","template":"post","has_more_link":null,"more_link_text":null,"excerpt":"","canonical_url":"https://be-net.azurewebsites.net/post/2009/11/11/用EXCEL-VBA-计算一组数据的自相关函数和偏自相关函数","date":"2009-11-11 07:45:58","img_path":null,"positive_reactions_count":0,"stackbit_url_path":"posts/用EXCEL-VBA-计算一组数据的自相关函数和偏自相关函数"}}},{"node":{"excerpt":"%>\n<html>\n<head>\n<meta http-equiv=\"Content-Type\" content=\"text/html; charset=utf-8\">\n<style type=\"text/css\">\nform label\n{\nwidth: 3em…","id":"e07ee609-9dae-5f7a-8c0b-72872f140e97","frontmatter":{"title":"怎样无组件上传文件？","template":"post","has_more_link":null,"more_link_text":null,"excerpt":"","canonical_url":"https://be-net.azurewebsites.net/post/2009/11/09/怎样无组件上传文件？","date":"2009-11-09 15:08:44","img_path":null,"positive_reactions_count":0,"stackbit_url_path":"posts/怎样无组件上传文件？"}}},{"node":{"excerpt":"#compressGUIMenu ul {\nlist-style: none;\npadding: 0;\nmargin: 0;\n} #compressGUIMenu ul.menu0 li {\nfloat: left;\nposition: relative;\npadding:…","id":"584bc092-c989-5a29-884e-10642848b115","frontmatter":{"title":"怎样构建网页下拉菜单","template":"post","has_more_link":null,"more_link_text":null,"excerpt":"","canonical_url":"https://be-net.azurewebsites.net/post/2009/11/09/怎样构建网页下拉菜单","date":"2009-11-09 10:58:16","img_path":null,"positive_reactions_count":0,"stackbit_url_path":"posts/怎样构建网页下拉菜单"}}},{"node":{"excerpt":"","id":"2bd9130a-f231-5a6a-acc1-e560e45b7d6a","frontmatter":{"title":"如何自己制作Ajax“加载中”图像？","template":"post","has_more_link":null,"more_link_text":null,"excerpt":"","canonical_url":"https://be-net.azurewebsites.net/post/2009/11/05/如何自己制作Ajax“加载中”图像？","date":"2009-11-05 09:10:06","img_path":null,"positive_reactions_count":0,"stackbit_url_path":"posts/如何自己制作Ajax“加载中”图像？"}}}]}},"pageContext":{"limit":5,"skip":845,"totalPages":170,"totalItems":850,"currentPage":170,"frontmatter":{"canonical_url":null,"comments_count":null,"title":"Home","template":"home","more_link_text":"Keep reading / 查看全部","date":null,"excerpt":"Jeff Tian's homepage","has_more_link":true},"url":"/","relativePath":"/","base":"","site":{"siteMetadata":{"title":"Jeff Tian","description":"Full Stack Developer, good at OAuth 2.0","palette":"yellow","header":{"title":"Jeff Tian","tagline":"A wild developer","logo_img":"https://images.ctfassets.net/qixg1o8tujmf/7z1ua3nTOC5B7DwwzAki8I/4e1a05f8db770c285a492eeb1eaa398f/imageedit_3_2509022194.png","background_img":"https://images.ctfassets.net/qixg1o8tujmf/7m0jrKYaDBwEvlc5lo8nt6/6d50a5050d9cdc0d4d2047e35feac292/10648733_696750647079056_2800539603462658695_o.jpg","has_nav":true,"nav_links":[{"label":"Home","url":"/","style":"link","type":"action"},{"label":"About","url":"/about","style":"link","type":"action"},{"label":"关于","url":"https://ggyy.pa-pa.me/about","style":"link","icon_class":"lorem-ipsum","new_window":true,"type":"action"},{"label":"Contact","url":"/contact","style":"link","type":"action"},{"label":"Support Me","url":"/support-me","style":"link","type":"action"},{"label":"叽叽歪歪","url":"https://ggyy.pa-pa.me/","style":"link","icon_class":"lorem-ipsum","new_window":true,"type":"action"}],"has_social":true,"social_links":[{"label":"Twitter","url":"https://twitter.com/zizhujy","style":"icon","icon_class":"fa-twitter","new_window":true,"type":"action"},{"label":"Instagram","url":"https://www.instagram.com/jefftian5","style":"icon","icon_class":"fa-instagram","new_window":true,"type":"action"},{"label":"GitHub","url":"https://github.com/jeff-tian","style":"icon","icon_class":"fa-github","new_window":true,"type":"action"},{"label":"LinkedIn","url":"https://www.linkedin.com/jeff~tian","style":"icon","icon_class":"fa-linkedin","new_window":true,"type":"action"},{"label":"DEV","url":"https://dev.to/jefftian","style":"icon","icon_class":"fa-dev","new_window":true,"type":"action"},{"label":"知乎","url":"https://www.zhihu.com/people/jefftian","style":"icon","icon_class":"fa-zhihu","new_window":true,"type":"action"}],"type":"header"},"footer":{"content":"&copy; All rights reserved.","links":[{"label":"本站源码","url":"https://github.com/Jeff-Tian/space","style":"link","icon_class":"fa-github","new_window":true,"type":"action"},{"label":"紫竹叽歪","url":"https://zizhujy.apphb.com","style":"link","icon_class":"http://zizhujy.apphb.com/Content/Images/logo.png","new_window":true,"type":"action"}],"type":"footer"}},"pathPrefix":"","data":{"data":{"author":{"name":"Jeff Tian","avatar":"https://res.cloudinary.com/practicaldev/image/fetch/s--a5qDZLv3--/c_fill,f_auto,fl_progressive,h_640,q_auto,w_640/https://dev-to-uploads.s3.amazonaws.com/uploads/user/profile_image/318420/3bfd2d99-430c-4049-8dd5-e2adc961e1e0.png"},"social":{"devto":{"username":"jefftian"},"twitter":{"username":"zizhujy"},"github":{"username":"Jeff-Tian"}}}}},"menus":{}}},"staticQueryHashes":[]}