{"componentChunkName":"component---src-templates-home-js","path":"/11/","result":{"data":{"allMarkdownRemark":{"edges":[{"node":{"excerpt":"最终成果 部署了一个免费的 IdentityServer 实例： https://id6-jeff-tian.cloud.okteto.net/   相关代码提交 一共 3 个，以这个为主：https://github.com/Jeff-Tian/IdentityServer…","id":"a4c6438b-c8b5-54bd-b423-b08a7b2220be","frontmatter":{"title":"Free Arch： 将 IdentityServer 部署到 Okteto","template":"post","has_more_link":null,"more_link_text":null,"excerpt":"","canonical_url":null,"date":"2022-12-14T12:10:49","img_path":null,"positive_reactions_count":null,"stackbit_url_path":"posts/hsnbxhp84mme3hnz"}}},{"node":{"excerpt":"前情提要 《使用 IdentityServer 保护 Web 应用（AntD Pro 前端 + SpringBoot 后端） - Jeff Tian的文章 - 知乎 》中记录了使用 IdentityServer 保护前后端的过程，其中的前端工程是以 UMI Js…","id":"c6988ed7-da4d-50a8-a6f2-0b963803d421","frontmatter":{"title":"使用 IdentityServer  保护 Vue 前端","template":"post","has_more_link":null,"more_link_text":null,"excerpt":"","canonical_url":null,"date":"2022-12-13T09:54:23","img_path":null,"positive_reactions_count":null,"stackbit_url_path":"posts/zhioedzdepo38mny"}}},{"node":{"excerpt":"…","id":"9966f978-4954-5048-807e-cae33e04584e","frontmatter":{"title":"Dance in the moment","template":"post","has_more_link":null,"more_link_text":null,"excerpt":"","canonical_url":null,"date":"2022-12-12T15:28:03","img_path":null,"positive_reactions_count":null,"stackbit_url_path":"posts/zoomd7fxe6gefrzd"}}},{"node":{"excerpt":"前情提要 之前在《使用 IdentityServer 保护 Web 应用（AntD Pro 前端 + SpringBoot 后端） - Jeff Tian的文章 - 知乎 》中记录了如何使用 IdentityServer 保护 SpringBoot…","id":"70409a2c-276c-5b69-abed-0e44b4db16db","frontmatter":{"title":"【已解决】spring-boot - 无效的 JWToken : kid is a required JOSE Header","template":"post","has_more_link":null,"more_link_text":null,"excerpt":"","canonical_url":null,"date":"2022-12-11T12:58:02","img_path":null,"positive_reactions_count":null,"stackbit_url_path":"posts/ssgxk1c230khqtuh"}}},{"node":{"excerpt":"接上一篇《Free Arch: 在 Okteto 上部署 backstage （第一部分： PostgreSQL） - Jeff Tian的文章 - 知乎  》，完成在 Okteto 上对 backstage 的部署。上一篇部署了 backstage…","id":"36724a95-165d-50ab-90c6-620d6058b30f","frontmatter":{"title":"Free Arch： 在 Okteto 上部署 backstage（第二部分）","template":"post","has_more_link":null,"more_link_text":null,"excerpt":"","canonical_url":null,"date":"2022-12-09T11:42:34","img_path":null,"positive_reactions_count":null,"stackbit_url_path":"posts/ra4080d5wcexyvc1"}}}]}},"pageContext":{"limit":5,"skip":50,"totalPages":187,"totalItems":931,"currentPage":11,"frontmatter":{"canonical_url":null,"comments_count":null,"title":"Home","template":"home","more_link_text":"Keep reading / 查看全部","date":null,"excerpt":"Jeff Tian's homepage","has_more_link":true},"url":"/","relativePath":"/","base":"","site":{"siteMetadata":{"title":"Jeff Tian","author":"@zizhujy","description":"A wild full stack developer","palette":"yellow","header":{"title":"Jeff Tian","tagline":"A wild developer","logo_img":"https://images.ctfassets.net/qixg1o8tujmf/7z1ua3nTOC5B7DwwzAki8I/4e1a05f8db770c285a492eeb1eaa398f/imageedit_3_2509022194.png","background_img":"https://images.ctfassets.net/qixg1o8tujmf/7m0jrKYaDBwEvlc5lo8nt6/6d50a5050d9cdc0d4d2047e35feac292/10648733_696750647079056_2800539603462658695_o.jpg","has_nav":true,"nav_links":[{"label":"Home","url":"/","style":"link","type":"action"},{"label":"About","url":"/about","style":"link","type":"action"},{"label":"关于","url":"https://ggyy.pa-pa.me/about","style":"link","icon_class":"lorem-ipsum","new_window":true,"type":"action"},{"label":"Contact","url":"/contact","style":"link","type":"action"},{"label":"Support Me","url":"/support-me","style":"link","type":"action"},{"label":"叽叽歪歪","url":"https://ggyy.pa-pa.me/","style":"link","icon_class":"lorem-ipsum","new_window":true,"type":"action"}],"has_social":true,"social_links":[{"label":"Twitter","url":"https://twitter.com/zizhujy","style":"icon","icon_class":"fa-twitter","new_window":true,"type":"action"},{"label":"Instagram","url":"https://www.instagram.com/jefftian5","style":"icon","icon_class":"fa-instagram","new_window":true,"type":"action"},{"label":"GitHub","url":"https://github.com/jeff-tian","style":"icon","icon_class":"fa-github","new_window":true,"type":"action"},{"label":"LinkedIn","url":"https://www.linkedin.com/jeff~tian","style":"icon","icon_class":"fa-linkedin","new_window":true,"type":"action"},{"label":"DEV","url":"https://dev.to/jefftian","style":"icon","icon_class":"fa-dev","new_window":true,"type":"action"},{"label":"知乎","url":"https://www.zhihu.com/people/jefftian","style":"icon","icon_class":"fa-zhihu","new_window":true,"type":"action"}],"type":"header"},"footer":{"content":"&copy; All rights reserved.","links":[{"label":"Made with Stackbit.","url":"https://www.stackbit.com","style":"link","new_window":true,"type":"action"},{"label":"紫竹叽歪","url":"https://zizhujy.apphb.com","style":"link","icon_class":"http://zizhujy.apphb.com/Content/Images/logo.png","new_window":true,"type":"action"}],"type":"footer"}},"pathPrefix":"","data":{"data":{"author":{"name":"Jeff Tian","avatar":"https://res.cloudinary.com/practicaldev/image/fetch/s--a5qDZLv3--/c_fill,f_auto,fl_progressive,h_640,q_auto,w_640/https://dev-to-uploads.s3.amazonaws.com/uploads/user/profile_image/318420/3bfd2d99-430c-4049-8dd5-e2adc961e1e0.png"},"social":{"devto":{"username":"jefftian"},"twitter":{"username":"zizhujy"},"github":{"username":"Jeff-Tian"}}}}},"menus":{}}},"staticQueryHashes":[],"slicesMap":{}}