{"componentChunkName":"component---src-templates-home-js","path":"/167","result":{"data":{"allMarkdownRemark":{"edges":[{"node":{"excerpt":"","id":"692309c2-768b-59fd-b7b3-ec756fbf5cb8","frontmatter":{"title":"如何使用SMTP将一个报文从发送邮件服务器传送到接收邮件服务器","template":"post","has_more_link":null,"more_link_text":null,"excerpt":"","canonical_url":"https://be-net.azurewebsites.net/post/2009/11/30/如何使用SMTP将一个报文从发送邮件服务器传送到接收邮件服务器","date":"2009-11-30 15:32:52","img_path":null,"positive_reactions_count":0,"stackbit_url_path":"posts/如何使用SMTP将一个报文从发送邮件服务器传送到接收邮件服务器"}}},{"node":{"excerpt":"","id":"6eaf07a9-8827-5ca7-922c-a0c1c7726a9e","frontmatter":{"title":"无耻的中国电信","template":"post","has_more_link":null,"more_link_text":null,"excerpt":"","canonical_url":"https://be-net.azurewebsites.net/post/2009/11/30/无耻的中国电信","date":"2009-11-30 10:34:13","img_path":null,"positive_reactions_count":0,"stackbit_url_path":"posts/无耻的中国电信"}}},{"node":{"excerpt":"","id":"de78de07-a11f-5007-9d07-5bbbb2557bf1","frontmatter":{"title":"一张神奇的照片","template":"post","has_more_link":null,"more_link_text":null,"excerpt":"","canonical_url":"https://be-net.azurewebsites.net/post/2009/11/27/一张神奇的照片","date":"2009-11-27 06:08:23","img_path":null,"positive_reactions_count":0,"stackbit_url_path":"posts/一张神奇的照片"}}},{"node":{"excerpt":"","id":"e590623b-18ad-5b7a-ad99-be8229567b20","frontmatter":{"title":"几款屏保程序","template":"post","has_more_link":null,"more_link_text":null,"excerpt":"","canonical_url":"https://be-net.azurewebsites.net/post/2009/11/27/几款屏保程序","date":"2009-11-27 05:55:47","img_path":null,"positive_reactions_count":0,"stackbit_url_path":"posts/几款屏保程序"}}},{"node":{"excerpt":"","id":"10799728-cd23-5db8-b874-0ad5fd00ee67","frontmatter":{"title":"Windows Update 老是提示重启","template":"post","has_more_link":null,"more_link_text":null,"excerpt":"","canonical_url":"https://be-net.azurewebsites.net/post/2009/11/27/Windows-Update-老是提示重启","date":"2009-11-27 04:47:58","img_path":null,"positive_reactions_count":0,"stackbit_url_path":"posts/Windows-Update-老是提示重启"}}}]}},"pageContext":{"limit":5,"skip":830,"totalPages":174,"totalItems":868,"currentPage":167,"frontmatter":{"canonical_url":null,"comments_count":null,"title":"Home","template":"home","more_link_text":"Keep reading / 查看全部","date":null,"excerpt":"Jeff Tian's homepage","has_more_link":true},"url":"/","relativePath":"/","base":"","site":{"siteMetadata":{"title":"Jeff Tian","description":"A wild full stack developer","palette":"yellow","header":{"title":"Jeff Tian","tagline":"A wild developer","logo_img":"https://images.ctfassets.net/qixg1o8tujmf/7z1ua3nTOC5B7DwwzAki8I/4e1a05f8db770c285a492eeb1eaa398f/imageedit_3_2509022194.png","background_img":"https://images.ctfassets.net/qixg1o8tujmf/7m0jrKYaDBwEvlc5lo8nt6/6d50a5050d9cdc0d4d2047e35feac292/10648733_696750647079056_2800539603462658695_o.jpg","has_nav":true,"nav_links":[{"label":"Home","url":"/","style":"link","type":"action"},{"label":"About","url":"/about","style":"link","type":"action"},{"label":"关于","url":"https://ggyy.pa-pa.me/about","style":"link","icon_class":"lorem-ipsum","new_window":true,"type":"action"},{"label":"Contact","url":"/contact","style":"link","type":"action"},{"label":"Support Me","url":"/support-me","style":"link","type":"action"},{"label":"叽叽歪歪","url":"https://ggyy.pa-pa.me/","style":"link","icon_class":"lorem-ipsum","new_window":true,"type":"action"}],"has_social":true,"social_links":[{"label":"Twitter","url":"https://twitter.com/zizhujy","style":"icon","icon_class":"fa-twitter","new_window":true,"type":"action"},{"label":"Instagram","url":"https://www.instagram.com/jefftian5","style":"icon","icon_class":"fa-instagram","new_window":true,"type":"action"},{"label":"GitHub","url":"https://github.com/jeff-tian","style":"icon","icon_class":"fa-github","new_window":true,"type":"action"},{"label":"LinkedIn","url":"https://www.linkedin.com/jeff~tian","style":"icon","icon_class":"fa-linkedin","new_window":true,"type":"action"},{"label":"DEV","url":"https://dev.to/jefftian","style":"icon","icon_class":"fa-dev","new_window":true,"type":"action"},{"label":"知乎","url":"https://www.zhihu.com/people/jefftian","style":"icon","icon_class":"fa-zhihu","new_window":true,"type":"action"}],"type":"header"},"footer":{"content":"&copy; All rights reserved.","links":[{"label":"Made with Stackbit.","url":"https://www.stackbit.com","style":"link","new_window":true,"type":"action"},{"label":"紫竹叽歪","url":"https://zizhujy.apphb.com","style":"link","icon_class":"http://zizhujy.apphb.com/Content/Images/logo.png","new_window":true,"type":"action"}],"type":"footer"}},"pathPrefix":"","data":{"data":{"author":{"name":"Jeff Tian","avatar":"https://res.cloudinary.com/practicaldev/image/fetch/s--a5qDZLv3--/c_fill,f_auto,fl_progressive,h_640,q_auto,w_640/https://dev-to-uploads.s3.amazonaws.com/uploads/user/profile_image/318420/3bfd2d99-430c-4049-8dd5-e2adc961e1e0.png"},"social":{"devto":{"username":"jefftian"},"twitter":{"username":"zizhujy"},"github":{"username":"Jeff-Tian"}}}}},"menus":{}}},"staticQueryHashes":[]}