{"componentChunkName":"component---src-templates-home-js","path":"/49/","result":{"data":{"allMarkdownRemark":{"edges":[{"node":{"excerpt":"","id":"544e0c08-17bf-5b5f-a1aa-7a4f285091e1","frontmatter":{"title":"华尔街日报不能注册！","template":"post","has_more_link":null,"more_link_text":null,"excerpt":"","canonical_url":"https://be-net.azurewebsites.net/post/2011/12/10/华尔街日报不能注册！","date":"2011-12-10 01:40:31.4785605","img_path":null,"positive_reactions_count":0,"stackbit_url_path":"posts/华尔街日报不能注册！"}}},{"node":{"excerpt":"","id":"95885bc1-900b-56b6-92cc-75786bd03838","frontmatter":{"title":"牡、牝、钥匙与锁","template":"post","has_more_link":null,"more_link_text":null,"excerpt":"","canonical_url":"https://be-net.azurewebsites.net/post/2011/11/23/牡、牝、钥匙与锁","date":"2011-11-23 04:52:01.8179714","img_path":null,"positive_reactions_count":0,"stackbit_url_path":"posts/牡、牝、钥匙与锁"}}},{"node":{"excerpt":"","id":"5d39d10b-00ef-510a-944e-2c17eb2a49f9","frontmatter":{"title":"怪异的先知","template":"post","has_more_link":null,"more_link_text":null,"excerpt":"","canonical_url":"https://be-net.azurewebsites.net/post/2011/11/19/怪异的先知","date":"2011-11-19 16:24:58.48729","img_path":null,"positive_reactions_count":0,"stackbit_url_path":"posts/怪异的先知"}}},{"node":{"excerpt":"","id":"68de62bf-2a64-5410-9838-7591fb3c8eb6","frontmatter":{"title":"数据点的最小二乘多项式拟合","template":"post","has_more_link":null,"more_link_text":null,"excerpt":"","canonical_url":"https://be-net.azurewebsites.net/post/2011/11/18/数据点的最小二乘多项式拟合","date":"2011-11-18 22:09:23.2827922","img_path":null,"positive_reactions_count":0,"stackbit_url_path":"posts/数据点的最小二乘多项式拟合"}}},{"node":{"excerpt":"","id":"71dac61f-d81b-5cde-94cd-4476730adb3a","frontmatter":{"title":"今天我赢了比赛","template":"post","has_more_link":null,"more_link_text":null,"excerpt":"","canonical_url":"https://be-net.azurewebsites.net/post/2011/11/18/今天我赢了比赛","date":"2011-11-18 17:43:49.7350992","img_path":null,"positive_reactions_count":0,"stackbit_url_path":"posts/今天我赢了比赛"}}}]}},"pageContext":{"limit":5,"skip":240,"totalPages":159,"totalItems":793,"currentPage":49,"frontmatter":{"canonical_url":null,"comments_count":null,"title":"Home","template":"home","more_link_text":"Keep reading / 查看全部","date":null,"excerpt":"Jeff Tian's homepage","has_more_link":true},"url":"/","relativePath":"/","base":"","site":{"siteMetadata":{"title":"Jeff Tian","author":"@zizhujy","description":"A wild full stack developer","palette":"yellow","header":{"title":"Jeff Tian","tagline":"A wild developer","logo_img":"https://images.ctfassets.net/qixg1o8tujmf/7z1ua3nTOC5B7DwwzAki8I/4e1a05f8db770c285a492eeb1eaa398f/imageedit_3_2509022194.png","background_img":"https://images.ctfassets.net/qixg1o8tujmf/7m0jrKYaDBwEvlc5lo8nt6/6d50a5050d9cdc0d4d2047e35feac292/10648733_696750647079056_2800539603462658695_o.jpg","has_nav":true,"nav_links":[{"label":"Home","url":"/","style":"link","type":"action"},{"label":"About","url":"/about","style":"link","type":"action"},{"label":"关于","url":"https://ggyy.pa-pa.me/about","style":"link","icon_class":"lorem-ipsum","new_window":true,"type":"action"},{"label":"Contact","url":"/contact","style":"link","type":"action"},{"label":"Support Me","url":"/support-me","style":"link","type":"action"},{"label":"叽叽歪歪","url":"https://ggyy.pa-pa.me/","style":"link","icon_class":"lorem-ipsum","new_window":true,"type":"action"}],"has_social":true,"social_links":[{"label":"Twitter","url":"https://twitter.com/zizhujy","style":"icon","icon_class":"fa-twitter","new_window":true,"type":"action"},{"label":"Instagram","url":"https://www.instagram.com/jefftian5","style":"icon","icon_class":"fa-instagram","new_window":true,"type":"action"},{"label":"GitHub","url":"https://github.com/jeff-tian","style":"icon","icon_class":"fa-github","new_window":true,"type":"action"},{"label":"LinkedIn","url":"https://www.linkedin.com/jeff~tian","style":"icon","icon_class":"fa-linkedin","new_window":true,"type":"action"},{"label":"DEV","url":"https://dev.to/jefftian","style":"icon","icon_class":"fa-dev","new_window":true,"type":"action"},{"label":"知乎","url":"https://www.zhihu.com/people/jefftian","style":"icon","icon_class":"fa-zhihu","new_window":true,"type":"action"}],"type":"header"},"footer":{"content":"&copy; All rights reserved.","links":[{"label":"Made with Stackbit.","url":"https://www.stackbit.com","style":"link","new_window":true,"type":"action"},{"label":"紫竹叽歪","url":"https://zizhujy.apphb.com","style":"link","icon_class":"http://zizhujy.apphb.com/Content/Images/logo.png","new_window":true,"type":"action"}],"type":"footer"}},"pathPrefix":"","data":{"data":{"author":{"name":"Jeff Tian","avatar":"https://res.cloudinary.com/practicaldev/image/fetch/s--a5qDZLv3--/c_fill,f_auto,fl_progressive,h_640,q_auto,w_640/https://dev-to-uploads.s3.amazonaws.com/uploads/user/profile_image/318420/3bfd2d99-430c-4049-8dd5-e2adc961e1e0.png"},"social":{"devto":{"username":"jefftian"},"twitter":{"username":"zizhujy"},"github":{"username":"Jeff-Tian"}}}}},"menus":{}}},"staticQueryHashes":[],"slicesMap":{}}