{"componentChunkName":"component---src-templates-home-js","path":"/101/","result":{"data":{"allMarkdownRemark":{"edges":[{"node":{"excerpt":"","id":"71f28ea3-3036-5e49-8599-6882f067470a","frontmatter":{"title":"在Excel中把数字按位分配到相应的单元格","template":"post","has_more_link":null,"more_link_text":null,"excerpt":"","canonical_url":"https://be-net.azurewebsites.net/post/2010/03/31/在Excel中把数字按位分配到相应的单元格","date":"2010-03-31 11:33:56","img_path":null,"positive_reactions_count":0,"stackbit_url_path":"posts/在Excel中把数字按位分配到相应的单元格"}}},{"node":{"excerpt":"","id":"66a2e0f9-7216-5f04-9c99-2dd4ea8e3dee","frontmatter":{"title":"颠倒的生活","template":"post","has_more_link":null,"more_link_text":null,"excerpt":"","canonical_url":"https://be-net.azurewebsites.net/post/2010/03/31/颠倒的生活","date":"2010-03-31 11:05:47","img_path":null,"positive_reactions_count":0,"stackbit_url_path":"posts/颠倒的生活"}}},{"node":{"excerpt":"","id":"b109b203-5486-59cc-9279-5f573fbe4450","frontmatter":{"title":"酷站推荐：Delicious","template":"post","has_more_link":null,"more_link_text":null,"excerpt":"","canonical_url":"https://be-net.azurewebsites.net/post/2010/03/31/酷站推荐：Delicious","date":"2010-03-31 11:01:29","img_path":null,"positive_reactions_count":0,"stackbit_url_path":"posts/酷站推荐：Delicious"}}},{"node":{"excerpt":"","id":"bc5f91e7-25a6-5199-82ee-364c4d0688d9","frontmatter":{"title":"马化腾李彦宏马云首次对话：一小时掌声不断","template":"post","has_more_link":null,"more_link_text":null,"excerpt":"","canonical_url":"https://be-net.azurewebsites.net/post/2010/03/29/马化腾李彦宏马云首次对话：一小时掌声不断","date":"2010-03-29 12:39:36","img_path":null,"positive_reactions_count":0,"stackbit_url_path":"posts/马化腾李彦宏马云首次对话：一小时掌声不断"}}},{"node":{"excerpt":"%>","id":"ee64a7f3-ac0d-571f-a2de-445899c5974f","frontmatter":{"title":"使用ASP批量删除文件","template":"post","has_more_link":null,"more_link_text":null,"excerpt":"","canonical_url":"https://be-net.azurewebsites.net/post/2010/03/28/使用ASP批量删除文件","date":"2010-03-28 04:27:50","img_path":null,"positive_reactions_count":0,"stackbit_url_path":"posts/使用ASP批量删除文件"}}}]}},"pageContext":{"limit":5,"skip":500,"totalPages":159,"totalItems":793,"currentPage":101,"frontmatter":{"canonical_url":null,"comments_count":null,"title":"Home","template":"home","more_link_text":"Keep reading / 查看全部","date":null,"excerpt":"Jeff Tian's homepage","has_more_link":true},"url":"/","relativePath":"/","base":"","site":{"siteMetadata":{"title":"Jeff Tian","author":"@zizhujy","description":"A wild full stack developer","palette":"yellow","header":{"title":"Jeff Tian","tagline":"A wild developer","logo_img":"https://images.ctfassets.net/qixg1o8tujmf/7z1ua3nTOC5B7DwwzAki8I/4e1a05f8db770c285a492eeb1eaa398f/imageedit_3_2509022194.png","background_img":"https://images.ctfassets.net/qixg1o8tujmf/7m0jrKYaDBwEvlc5lo8nt6/6d50a5050d9cdc0d4d2047e35feac292/10648733_696750647079056_2800539603462658695_o.jpg","has_nav":true,"nav_links":[{"label":"Home","url":"/","style":"link","type":"action"},{"label":"About","url":"/about","style":"link","type":"action"},{"label":"关于","url":"https://ggyy.pa-pa.me/about","style":"link","icon_class":"lorem-ipsum","new_window":true,"type":"action"},{"label":"Contact","url":"/contact","style":"link","type":"action"},{"label":"Support Me","url":"/support-me","style":"link","type":"action"},{"label":"叽叽歪歪","url":"https://ggyy.pa-pa.me/","style":"link","icon_class":"lorem-ipsum","new_window":true,"type":"action"}],"has_social":true,"social_links":[{"label":"Twitter","url":"https://twitter.com/zizhujy","style":"icon","icon_class":"fa-twitter","new_window":true,"type":"action"},{"label":"Instagram","url":"https://www.instagram.com/jefftian5","style":"icon","icon_class":"fa-instagram","new_window":true,"type":"action"},{"label":"GitHub","url":"https://github.com/jeff-tian","style":"icon","icon_class":"fa-github","new_window":true,"type":"action"},{"label":"LinkedIn","url":"https://www.linkedin.com/jeff~tian","style":"icon","icon_class":"fa-linkedin","new_window":true,"type":"action"},{"label":"DEV","url":"https://dev.to/jefftian","style":"icon","icon_class":"fa-dev","new_window":true,"type":"action"},{"label":"知乎","url":"https://www.zhihu.com/people/jefftian","style":"icon","icon_class":"fa-zhihu","new_window":true,"type":"action"}],"type":"header"},"footer":{"content":"&copy; All rights reserved.","links":[{"label":"Made with Stackbit.","url":"https://www.stackbit.com","style":"link","new_window":true,"type":"action"},{"label":"紫竹叽歪","url":"https://zizhujy.apphb.com","style":"link","icon_class":"http://zizhujy.apphb.com/Content/Images/logo.png","new_window":true,"type":"action"}],"type":"footer"}},"pathPrefix":"","data":{"data":{"author":{"name":"Jeff Tian","avatar":"https://res.cloudinary.com/practicaldev/image/fetch/s--a5qDZLv3--/c_fill,f_auto,fl_progressive,h_640,q_auto,w_640/https://dev-to-uploads.s3.amazonaws.com/uploads/user/profile_image/318420/3bfd2d99-430c-4049-8dd5-e2adc961e1e0.png"},"social":{"devto":{"username":"jefftian"},"twitter":{"username":"zizhujy"},"github":{"username":"Jeff-Tian"}}}}}}},"staticQueryHashes":[],"slicesMap":{}}