{"componentChunkName":"component---src-templates-home-js","path":"/109","result":{"data":{"allMarkdownRemark":{"edges":[{"node":{"excerpt":"","id":"cdefc003-98d2-5b41-b10b-dabb4c59791b","frontmatter":{"title":"JSP 中，不要同时用page指令和HTML标签来指定contentType","template":"post","has_more_link":null,"more_link_text":null,"excerpt":"","canonical_url":"https://be-net.azurewebsites.net/post/2010/04/04/JSP-中，不要同时用page指令和HTML标签来指定contentType","date":"2010-04-04 17:37:02","img_path":null,"positive_reactions_count":0,"stackbit_url_path":"posts/JSP-中，不要同时用page指令和HTML标签来指定contentType"}}},{"node":{"excerpt":"","id":"f0fb59e0-2a1b-54f1-914a-6e85dc608dea","frontmatter":{"title":"MySQL 与 JDBC 的下载地址","template":"post","has_more_link":null,"more_link_text":null,"excerpt":"","canonical_url":"https://be-net.azurewebsites.net/post/2010/04/04/MySQL-与-JDBC-的下载地址","date":"2010-04-04 14:16:46","img_path":null,"positive_reactions_count":0,"stackbit_url_path":"posts/MySQL-与-JDBC-的下载地址"}}},{"node":{"excerpt":"","id":"99ec8770-2c0c-5c3e-9292-68ebb6e7243b","frontmatter":{"title":"解决在Eclipse中不能保存JSP文件的方法","template":"post","has_more_link":null,"more_link_text":null,"excerpt":"","canonical_url":"https://be-net.azurewebsites.net/post/2010/04/04/解决在Eclipse中不能保存JSP文件的方法","date":"2010-04-04 13:57:01","img_path":null,"positive_reactions_count":0,"stackbit_url_path":"posts/解决在Eclipse中不能保存JSP文件的方法"}}},{"node":{"excerpt":"%>","id":"83f8680d-d4d5-5b8f-8225-6903f6d5bd18","frontmatter":{"title":"解决JFreeChart的中文乱码问题","template":"post","has_more_link":null,"more_link_text":null,"excerpt":"","canonical_url":"https://be-net.azurewebsites.net/post/2010/04/04/解决JFreeChart的中文乱码问题","date":"2010-04-04 13:01:23","img_path":null,"positive_reactions_count":0,"stackbit_url_path":"posts/解决JFreeChart的中文乱码问题"}}},{"node":{"excerpt":"C:&gt;tasklist|findstr \"4308\"\nReportingServicesService.   4308 Console                 0     54,364 K","id":"09f0daff-fcd3-5f47-9335-702e15e5dd01","frontmatter":{"title":"如何查看端口占用情况","template":"post","has_more_link":null,"more_link_text":null,"excerpt":"","canonical_url":"https://be-net.azurewebsites.net/post/2010/04/04/如何查看端口占用情况","date":"2010-04-04 12:36:19","img_path":null,"positive_reactions_count":0,"stackbit_url_path":"posts/如何查看端口占用情况"}}}]}},"pageContext":{"limit":5,"skip":540,"totalPages":170,"totalItems":850,"currentPage":109,"frontmatter":{"canonical_url":null,"comments_count":null,"title":"Home","template":"home","more_link_text":"Keep reading / 查看全部","date":null,"excerpt":"Jeff Tian's homepage","has_more_link":true},"url":"/","relativePath":"/","base":"","site":{"siteMetadata":{"title":"Jeff Tian","description":"Full Stack Developer, good at OAuth 2.0","palette":"yellow","header":{"title":"Jeff Tian","tagline":"A wild developer","logo_img":"https://images.ctfassets.net/qixg1o8tujmf/7z1ua3nTOC5B7DwwzAki8I/4e1a05f8db770c285a492eeb1eaa398f/imageedit_3_2509022194.png","background_img":"https://images.ctfassets.net/qixg1o8tujmf/7m0jrKYaDBwEvlc5lo8nt6/6d50a5050d9cdc0d4d2047e35feac292/10648733_696750647079056_2800539603462658695_o.jpg","has_nav":true,"nav_links":[{"label":"Home","url":"/","style":"link","type":"action"},{"label":"About","url":"/about","style":"link","type":"action"},{"label":"关于","url":"https://ggyy.pa-pa.me/about","style":"link","icon_class":"lorem-ipsum","new_window":true,"type":"action"},{"label":"Contact","url":"/contact","style":"link","type":"action"},{"label":"Support Me","url":"/support-me","style":"link","type":"action"},{"label":"叽叽歪歪","url":"https://ggyy.pa-pa.me/","style":"link","icon_class":"lorem-ipsum","new_window":true,"type":"action"}],"has_social":true,"social_links":[{"label":"Twitter","url":"https://twitter.com/zizhujy","style":"icon","icon_class":"fa-twitter","new_window":true,"type":"action"},{"label":"Instagram","url":"https://www.instagram.com/jefftian5","style":"icon","icon_class":"fa-instagram","new_window":true,"type":"action"},{"label":"GitHub","url":"https://github.com/jeff-tian","style":"icon","icon_class":"fa-github","new_window":true,"type":"action"},{"label":"LinkedIn","url":"https://www.linkedin.com/jeff~tian","style":"icon","icon_class":"fa-linkedin","new_window":true,"type":"action"},{"label":"DEV","url":"https://dev.to/jefftian","style":"icon","icon_class":"fa-dev","new_window":true,"type":"action"},{"label":"知乎","url":"https://www.zhihu.com/people/jefftian","style":"icon","icon_class":"fa-zhihu","new_window":true,"type":"action"}],"type":"header"},"footer":{"content":"&copy; All rights reserved.","links":[{"label":"本站源码","url":"https://github.com/Jeff-Tian/space","style":"link","icon_class":"fa-github","new_window":true,"type":"action"},{"label":"紫竹叽歪","url":"https://zizhujy.apphb.com","style":"link","icon_class":"http://zizhujy.apphb.com/Content/Images/logo.png","new_window":true,"type":"action"}],"type":"footer"}},"pathPrefix":"","data":{"data":{"author":{"name":"Jeff Tian","avatar":"https://res.cloudinary.com/practicaldev/image/fetch/s--a5qDZLv3--/c_fill,f_auto,fl_progressive,h_640,q_auto,w_640/https://dev-to-uploads.s3.amazonaws.com/uploads/user/profile_image/318420/3bfd2d99-430c-4049-8dd5-e2adc961e1e0.png"},"social":{"devto":{"username":"jefftian"},"twitter":{"username":"zizhujy"},"github":{"username":"Jeff-Tian"}}}}},"menus":{}}},"staticQueryHashes":[]}