{"componentChunkName":"component---src-templates-home-js","path":"/29/","result":{"data":{"allMarkdownRemark":{"edges":[{"node":{"excerpt":"","id":"fb53eea1-31d6-5117-ac04-997a29de2e2e","frontmatter":{"title":"函数涂鸦板升级啦！Online Function Grapher Updated!","template":"post","has_more_link":null,"more_link_text":null,"excerpt":"","canonical_url":"https://be-net.azurewebsites.net/post/2013/06/12/函数涂鸦板升级啦！","date":"2013-06-12 02:37:05.8729406","img_path":null,"positive_reactions_count":0,"stackbit_url_path":"posts/函数涂鸦板升级啦！"}}},{"node":{"excerpt":"","id":"fa751d61-a7a0-5e87-a322-0236ab82687f","frontmatter":{"title":"一下思绪飞回从前","template":"post","has_more_link":null,"more_link_text":null,"excerpt":"","canonical_url":"https://be-net.azurewebsites.net/post/2013/04/19/一下思绪飞回从前","date":"2013-04-19 18:57:21.8745349","img_path":null,"positive_reactions_count":0,"stackbit_url_path":"posts/一下思绪飞回从前"}}},{"node":{"excerpt":"","id":"8fca8151-24f6-5072-aa97-39d699b6e318","frontmatter":{"title":"绞刑架的启示","template":"post","has_more_link":null,"more_link_text":null,"excerpt":"","canonical_url":"https://be-net.azurewebsites.net/post/2013/03/26/绞刑架的启示","date":"2013-03-26 04:57:46.653239","img_path":null,"positive_reactions_count":0,"stackbit_url_path":"posts/绞刑架的启示"}}},{"node":{"excerpt":"","id":"aa473e3b-5445-584f-9f39-643eca851e9d","frontmatter":{"title":"Resolved: Compound change types like ‘add+branch from’ are not supported.","template":"post","has_more_link":null,"more_link_text":null,"excerpt":"","canonical_url":"https://be-net.azurewebsites.net/post/2013/02/28/Resolve-Compound-change-types-like-add-branch-from-are-not-supported","date":"2013-02-28 05:50:00","img_path":null,"positive_reactions_count":0,"stackbit_url_path":"posts/Resolve-Compound-change-types-like-add-branch-from-are-not-supported"}}},{"node":{"excerpt":"","id":"3e0bc55e-d412-5b91-b1a1-de037aa38cff","frontmatter":{"title":"Fixed: unable to cast object of type \"asp._page_admin_default_cshtml\" to type \"system.web.ihttphandler\" error","template":"post","has_more_link":null,"more_link_text":null,"excerpt":"","canonical_url":"https://be-net.azurewebsites.net/post/2013/02/14/Fixed-unable-to-cast-object-of-type-asp_page_admin_default_cshtml-to-type-systemwebihttphandler-error","date":"2013-02-14 18:53:35.7706178","img_path":null,"positive_reactions_count":0,"stackbit_url_path":"posts/Fixed-unable-to-cast-object-of-type-asp_page_admin_default_cshtml-to-type-systemwebihttphandler-error"}}}]}},"pageContext":{"limit":5,"skip":140,"totalPages":159,"totalItems":793,"currentPage":29,"frontmatter":{"canonical_url":null,"comments_count":null,"title":"Home","template":"home","more_link_text":"Keep reading / 查看全部","date":null,"excerpt":"Jeff Tian's homepage","has_more_link":true},"url":"/","relativePath":"/","base":"","site":{"siteMetadata":{"title":"Jeff Tian","author":"@zizhujy","description":"A wild full stack developer","palette":"yellow","header":{"title":"Jeff Tian","tagline":"A wild developer","logo_img":"https://images.ctfassets.net/qixg1o8tujmf/7z1ua3nTOC5B7DwwzAki8I/4e1a05f8db770c285a492eeb1eaa398f/imageedit_3_2509022194.png","background_img":"https://images.ctfassets.net/qixg1o8tujmf/7m0jrKYaDBwEvlc5lo8nt6/6d50a5050d9cdc0d4d2047e35feac292/10648733_696750647079056_2800539603462658695_o.jpg","has_nav":true,"nav_links":[{"label":"Home","url":"/","style":"link","type":"action"},{"label":"About","url":"/about","style":"link","type":"action"},{"label":"关于","url":"https://ggyy.pa-pa.me/about","style":"link","icon_class":"lorem-ipsum","new_window":true,"type":"action"},{"label":"Contact","url":"/contact","style":"link","type":"action"},{"label":"Support Me","url":"/support-me","style":"link","type":"action"},{"label":"叽叽歪歪","url":"https://ggyy.pa-pa.me/","style":"link","icon_class":"lorem-ipsum","new_window":true,"type":"action"}],"has_social":true,"social_links":[{"label":"Twitter","url":"https://twitter.com/zizhujy","style":"icon","icon_class":"fa-twitter","new_window":true,"type":"action"},{"label":"Instagram","url":"https://www.instagram.com/jefftian5","style":"icon","icon_class":"fa-instagram","new_window":true,"type":"action"},{"label":"GitHub","url":"https://github.com/jeff-tian","style":"icon","icon_class":"fa-github","new_window":true,"type":"action"},{"label":"LinkedIn","url":"https://www.linkedin.com/jeff~tian","style":"icon","icon_class":"fa-linkedin","new_window":true,"type":"action"},{"label":"DEV","url":"https://dev.to/jefftian","style":"icon","icon_class":"fa-dev","new_window":true,"type":"action"},{"label":"知乎","url":"https://www.zhihu.com/people/jefftian","style":"icon","icon_class":"fa-zhihu","new_window":true,"type":"action"}],"type":"header"},"footer":{"content":"&copy; All rights reserved.","links":[{"label":"Made with Stackbit.","url":"https://www.stackbit.com","style":"link","new_window":true,"type":"action"},{"label":"紫竹叽歪","url":"https://zizhujy.apphb.com","style":"link","icon_class":"http://zizhujy.apphb.com/Content/Images/logo.png","new_window":true,"type":"action"}],"type":"footer"}},"pathPrefix":"","data":{"data":{"author":{"name":"Jeff Tian","avatar":"https://res.cloudinary.com/practicaldev/image/fetch/s--a5qDZLv3--/c_fill,f_auto,fl_progressive,h_640,q_auto,w_640/https://dev-to-uploads.s3.amazonaws.com/uploads/user/profile_image/318420/3bfd2d99-430c-4049-8dd5-e2adc961e1e0.png"},"social":{"devto":{"username":"jefftian"},"twitter":{"username":"zizhujy"},"github":{"username":"Jeff-Tian"}}}}},"menus":{}}},"staticQueryHashes":[],"slicesMap":{}}