{"componentChunkName":"component---src-templates-home-js","path":"/59/","result":{"data":{"allMarkdownRemark":{"edges":[{"node":{"excerpt":"namespace Learning\r\n{\r\nclass Inspector\r\n{\r\nstatic void Main()\r\n{\r\nA a = new A() { PropA = \"A\", PropB = \"B\", PropC = \"C\" };\r\nConsole…","id":"9ab4d273-9b6b-54bc-aff7-9378f047b572","frontmatter":{"title":"How to iterate through all the properties of a class in C#","template":"post","has_more_link":null,"more_link_text":null,"excerpt":"","canonical_url":"https://be-net.azurewebsites.net/post/2012/09/12/How-to-iterate-through-all-the-properties-of-a-class-in-C","date":"2012-09-12 02:10:14.5387634","img_path":null,"positive_reactions_count":0,"stackbit_url_path":"posts/How-to-iterate-through-all-the-properties-of-a-class-in-C"}}},{"node":{"excerpt":"","id":"c38242ac-fbc8-5520-b91b-1fff944d496a","frontmatter":{"title":"秋夜","template":"post","has_more_link":null,"more_link_text":null,"excerpt":"","canonical_url":"https://be-net.azurewebsites.net/post/2012/08/26/秋夜","date":"2012-08-26 06:03:47.616713","img_path":null,"positive_reactions_count":0,"stackbit_url_path":"posts/秋夜"}}},{"node":{"excerpt":"","id":"8fcb25ca-611e-5e15-8cd7-b70c2ab3752b","frontmatter":{"title":"在线统计计算器增加多项式函数拟合功能","template":"post","has_more_link":null,"more_link_text":null,"excerpt":"","canonical_url":"https://be-net.azurewebsites.net/post/2012/08/19/在线统计计算器增加多项式函数拟合功能","date":"2012-08-19 06:06:03.3166953","img_path":null,"positive_reactions_count":0,"stackbit_url_path":"posts/在线统计计算器增加多项式函数拟合功能"}}},{"node":{"excerpt":"","id":"b146b589-abf7-555d-a08e-1d14e88137e7","frontmatter":{"title":"周末","template":"post","has_more_link":null,"more_link_text":null,"excerpt":"","canonical_url":"https://be-net.azurewebsites.net/post/2012/08/13/周末","date":"2012-08-13 06:03:22.0720428","img_path":null,"positive_reactions_count":0,"stackbit_url_path":"posts/周末"}}},{"node":{"excerpt":"namespace Learning\r\n{\r\nclass ArrayTesting\r\n{\r\nstatic void Main()\r\n{\r\nint[] a = new int[] { 1, 2, 3, 4, 5 };\r\n// Have each element in the…","id":"bec08310-18d6-59b7-bd43-166e39b0d201","frontmatter":{"title":"Batch operates all the elements in an array","template":"post","has_more_link":null,"more_link_text":null,"excerpt":"","canonical_url":"https://be-net.azurewebsites.net/post/2012/08/01/Batch-operates-all-the-elements-in-an-array","date":"2012-08-01 03:24:12.6440944","img_path":null,"positive_reactions_count":0,"stackbit_url_path":"posts/Batch-operates-all-the-elements-in-an-array"}}}]}},"pageContext":{"limit":5,"skip":290,"totalPages":187,"totalItems":931,"currentPage":59,"frontmatter":{"canonical_url":null,"comments_count":null,"title":"Home","template":"home","more_link_text":"Keep reading / 查看全部","date":null,"excerpt":"Jeff Tian's homepage","has_more_link":true},"url":"/","relativePath":"/","base":"","site":{"siteMetadata":{"title":"Jeff Tian","author":"@zizhujy","description":"A wild full stack developer","palette":"yellow","header":{"title":"Jeff Tian","tagline":"A wild developer","logo_img":"https://images.ctfassets.net/qixg1o8tujmf/7z1ua3nTOC5B7DwwzAki8I/4e1a05f8db770c285a492eeb1eaa398f/imageedit_3_2509022194.png","background_img":"https://images.ctfassets.net/qixg1o8tujmf/7m0jrKYaDBwEvlc5lo8nt6/6d50a5050d9cdc0d4d2047e35feac292/10648733_696750647079056_2800539603462658695_o.jpg","has_nav":true,"nav_links":[{"label":"Home","url":"/","style":"link","type":"action"},{"label":"About","url":"/about","style":"link","type":"action"},{"label":"关于","url":"https://ggyy.pa-pa.me/about","style":"link","icon_class":"lorem-ipsum","new_window":true,"type":"action"},{"label":"Contact","url":"/contact","style":"link","type":"action"},{"label":"Support Me","url":"/support-me","style":"link","type":"action"},{"label":"叽叽歪歪","url":"https://ggyy.pa-pa.me/","style":"link","icon_class":"lorem-ipsum","new_window":true,"type":"action"}],"has_social":true,"social_links":[{"label":"Twitter","url":"https://twitter.com/zizhujy","style":"icon","icon_class":"fa-twitter","new_window":true,"type":"action"},{"label":"Instagram","url":"https://www.instagram.com/jefftian5","style":"icon","icon_class":"fa-instagram","new_window":true,"type":"action"},{"label":"GitHub","url":"https://github.com/jeff-tian","style":"icon","icon_class":"fa-github","new_window":true,"type":"action"},{"label":"LinkedIn","url":"https://www.linkedin.com/jeff~tian","style":"icon","icon_class":"fa-linkedin","new_window":true,"type":"action"},{"label":"DEV","url":"https://dev.to/jefftian","style":"icon","icon_class":"fa-dev","new_window":true,"type":"action"},{"label":"知乎","url":"https://www.zhihu.com/people/jefftian","style":"icon","icon_class":"fa-zhihu","new_window":true,"type":"action"}],"type":"header"},"footer":{"content":"&copy; All rights reserved.","links":[{"label":"Made with Stackbit.","url":"https://www.stackbit.com","style":"link","new_window":true,"type":"action"},{"label":"紫竹叽歪","url":"https://zizhujy.apphb.com","style":"link","icon_class":"http://zizhujy.apphb.com/Content/Images/logo.png","new_window":true,"type":"action"}],"type":"footer"}},"pathPrefix":"","data":{"data":{"author":{"name":"Jeff Tian","avatar":"https://res.cloudinary.com/practicaldev/image/fetch/s--a5qDZLv3--/c_fill,f_auto,fl_progressive,h_640,q_auto,w_640/https://dev-to-uploads.s3.amazonaws.com/uploads/user/profile_image/318420/3bfd2d99-430c-4049-8dd5-e2adc961e1e0.png"},"social":{"devto":{"username":"jefftian"},"twitter":{"username":"zizhujy"},"github":{"username":"Jeff-Tian"}}}}},"menus":{}}},"staticQueryHashes":[],"slicesMap":{}}