{"componentChunkName":"component---src-templates-home-js","path":"/65","result":{"data":{"allMarkdownRemark":{"edges":[{"node":{"excerpt":"","id":"2e614d64-5c22-50e5-b0e6-a380ef606df4","frontmatter":{"title":"Windows 系统定时关机","template":"post","has_more_link":null,"more_link_text":null,"excerpt":"在网上看到有很多小软件，有一些居然能够很流行。比如网上有很多定时关机的小软件。其实Windows系统自带了此功能啊。","canonical_url":"https://be-net.azurewebsites.net/post/2011/08/13/Windows-系统定时关机","date":"2011-08-13 19:47:00","img_path":null,"positive_reactions_count":0,"stackbit_url_path":"posts/Windows-系统定时关机"}}},{"node":{"excerpt":"","id":"a52a5827-31bf-52d1-bf53-b8c1d503ea0f","frontmatter":{"title":"BlogEngine.NET的图片护卫插件","template":"post","has_more_link":null,"more_link_text":null,"excerpt":"","canonical_url":"https://be-net.azurewebsites.net/post/2011/08/12/BlogEngineNET的图片护卫插件","date":"2011-08-12 08:06:05.4170837","img_path":null,"positive_reactions_count":0,"stackbit_url_path":"posts/BlogEngineNET的图片护卫插件"}}},{"node":{"excerpt":"","id":"d9979cc3-a992-59ab-ad8b-7199367cd684","frontmatter":{"title":"Image Guard Extension for BlogEngine.NET","template":"post","has_more_link":null,"more_link_text":null,"excerpt":"Image Guard is the first (if not unique, at least for the moment) BlogEngine.NET extension that allows you guard your image files in blog posts in three different ways when they are displayed on other sites.\nWatermark: Add watermark to your images. (That’s a good way to spread your web site, isn’t it ? : ) );\nBlock: Replace the image that other sites request with a block image, such as an image only shows Not Allowed text on it;\nReject: Responde the request with 403 code.","canonical_url":"https://be-net.azurewebsites.net/post/2011/08/11/Image-Guard-Extension-for-BlogEngineNET","date":"2011-08-11 07:32:00","img_path":null,"positive_reactions_count":0,"stackbit_url_path":"posts/Image-Guard-Extension-for-BlogEngineNET"}}},{"node":{"excerpt":"","id":"d07c5f10-3ae9-5edd-8d79-38dc40b3a39d","frontmatter":{"title":"JavaScript 版 StringBuffer 类","template":"post","has_more_link":null,"more_link_text":null,"excerpt":"本文介绍了大量字符串拼接操作潜在的问题，以及解决方法。并提供了一个JavaScript版本的StringBuffer类。","canonical_url":"https://be-net.azurewebsites.net/post/2011/08/02/StringBuffer-class-in-JavaScript","date":"2011-08-02 22:35:00","img_path":null,"positive_reactions_count":0,"stackbit_url_path":"posts/StringBuffer-class-in-JavaScript"}}},{"node":{"excerpt":"","id":"19a94111-df6e-5f59-95ef-0a321b5cb0a9","frontmatter":{"title":"给JavaScript的String对象添加一个format方法","template":"post","has_more_link":null,"more_link_text":null,"excerpt":"本文给JavaScript的String对象添加了一个format()方法，使得在JavaScript中也能像在C#中一样使用 String.format(\"Current Page Index: {0}, Total Pages: {1}\", 10, 150)这样的语句了。","canonical_url":"https://be-net.azurewebsites.net/post/2011/08/02/add-format-method-to-string-object-in-javascript","date":"2011-08-02 03:53:00","img_path":null,"positive_reactions_count":0,"stackbit_url_path":"posts/add-format-method-to-string-object-in-javascript"}}}]}},"pageContext":{"limit":5,"skip":320,"totalPages":165,"totalItems":824,"currentPage":65,"frontmatter":{"canonical_url":null,"comments_count":null,"title":"Home","template":"home","more_link_text":"Keep reading / 查看全部","date":null,"excerpt":"Jeff Tian's homepage","has_more_link":true},"url":"/","relativePath":"/","base":"","site":{"siteMetadata":{"title":"Jeff Tian","description":"A wild full stack developer","palette":"yellow","header":{"title":"Jeff Tian","tagline":"A wild developer","logo_img":"https://images.ctfassets.net/qixg1o8tujmf/7z1ua3nTOC5B7DwwzAki8I/4e1a05f8db770c285a492eeb1eaa398f/imageedit_3_2509022194.png","background_img":"https://images.ctfassets.net/qixg1o8tujmf/7m0jrKYaDBwEvlc5lo8nt6/6d50a5050d9cdc0d4d2047e35feac292/10648733_696750647079056_2800539603462658695_o.jpg","has_nav":true,"nav_links":[{"label":"Home","url":"/","style":"link","type":"action"},{"label":"About","url":"/about","style":"link","type":"action"},{"label":"关于","url":"https://ggyy.pa-pa.me/about","style":"link","icon_class":"lorem-ipsum","new_window":true,"type":"action"},{"label":"Contact","url":"/contact","style":"link","type":"action"},{"label":"Support Me","url":"/support-me","style":"link","type":"action"},{"label":"叽叽歪歪","url":"https://ggyy.pa-pa.me/","style":"link","icon_class":"lorem-ipsum","new_window":true,"type":"action"}],"has_social":true,"social_links":[{"label":"Twitter","url":"https://twitter.com/zizhujy","style":"icon","icon_class":"fa-twitter","new_window":true,"type":"action"},{"label":"Instagram","url":"https://www.instagram.com/jefftian5","style":"icon","icon_class":"fa-instagram","new_window":true,"type":"action"},{"label":"GitHub","url":"https://github.com/jeff-tian","style":"icon","icon_class":"fa-github","new_window":true,"type":"action"},{"label":"LinkedIn","url":"https://www.linkedin.com/jeff~tian","style":"icon","icon_class":"fa-linkedin","new_window":true,"type":"action"},{"label":"DEV","url":"https://dev.to/jefftian","style":"icon","icon_class":"fa-dev","new_window":true,"type":"action"},{"label":"知乎","url":"https://www.zhihu.com/people/jefftian","style":"icon","icon_class":"fa-zhihu","new_window":true,"type":"action"}],"type":"header"},"footer":{"content":"&copy; All rights reserved.","links":[{"label":"本站源码","url":"https://github.com/Jeff-Tian/space","style":"link","icon_class":"fa-github","new_window":true,"type":"action"},{"label":"紫竹叽歪","url":"https://zizhujy.apphb.com","style":"link","icon_class":"http://zizhujy.apphb.com/Content/Images/logo.png","new_window":true,"type":"action"}],"type":"footer"}},"pathPrefix":"","data":{"data":{"author":{"name":"Jeff Tian","avatar":"https://res.cloudinary.com/practicaldev/image/fetch/s--a5qDZLv3--/c_fill,f_auto,fl_progressive,h_640,q_auto,w_640/https://dev-to-uploads.s3.amazonaws.com/uploads/user/profile_image/318420/3bfd2d99-430c-4049-8dd5-e2adc961e1e0.png"},"social":{"devto":{"username":"jefftian"},"twitter":{"username":"zizhujy"},"github":{"username":"Jeff-Tian"}}}}},"menus":{}}},"staticQueryHashes":[]}