{"componentChunkName":"component---src-templates-home-js","path":"/132/","result":{"data":{"allMarkdownRemark":{"edges":[{"node":{"excerpt":"","id":"d2b7b5b7-f957-546c-b8ba-6632342cef90","frontmatter":{"title":"To Althea, From Prison","template":"post","has_more_link":null,"more_link_text":null,"excerpt":"","canonical_url":"https://be-net.azurewebsites.net/post/2010/02/12/To-Althea-From-Prison","date":"2010-02-12 04:51:32","img_path":null,"positive_reactions_count":0,"stackbit_url_path":"posts/To-Althea-From-Prison"}}},{"node":{"excerpt":"","id":"0b3d7a69-06ed-5bb9-9ad5-0f695976e57d","frontmatter":{"title":"莫迪里亚尼的几幅画","template":"post","has_more_link":null,"more_link_text":null,"excerpt":"","canonical_url":"https://be-net.azurewebsites.net/post/2010/02/12/莫迪里亚尼的几幅画","date":"2010-02-12 02:05:55","img_path":null,"positive_reactions_count":0,"stackbit_url_path":"posts/莫迪里亚尼的几幅画"}}},{"node":{"excerpt":"","id":"57ba4d4a-3b9f-5f0d-9d11-a2a3152e11b7","frontmatter":{"title":"零均值平稳序列的自相关函数和偏自相关函数的统计特性","template":"post","has_more_link":null,"more_link_text":null,"excerpt":"","canonical_url":"https://be-net.azurewebsites.net/post/2010/02/10/零均值平稳序列的自相关函数和偏自相关函数的统计特性","date":"2010-02-10 12:32:26","img_path":null,"positive_reactions_count":0,"stackbit_url_path":"posts/零均值平稳序列的自相关函数和偏自相关函数的统计特性"}}},{"node":{"excerpt":"","id":"e700eb11-9380-5a99-9d91-ba1effe24168","frontmatter":{"title":"一张有意思的图片","template":"post","has_more_link":null,"more_link_text":null,"excerpt":"","canonical_url":"https://be-net.azurewebsites.net/post/2010/02/10/一张有意思的图片","date":"2010-02-10 01:25:47","img_path":null,"positive_reactions_count":0,"stackbit_url_path":"posts/一张有意思的图片"}}},{"node":{"excerpt":"proc gplot data=mydata;\nsymbol v=star;\nplot y*x;\nrun;","id":"a2987985-765c-5716-a66a-f99028416a7a","frontmatter":{"title":"SAS 画散点图","template":"post","has_more_link":null,"more_link_text":null,"excerpt":"","canonical_url":"https://be-net.azurewebsites.net/post/2010/02/09/SAS-画散点图","date":"2010-02-09 15:31:52","img_path":null,"positive_reactions_count":0,"stackbit_url_path":"posts/SAS-画散点图"}}}]}},"pageContext":{"limit":5,"skip":655,"totalPages":159,"totalItems":793,"currentPage":132,"frontmatter":{"canonical_url":null,"comments_count":null,"title":"Home","template":"home","more_link_text":"Keep reading / 查看全部","date":null,"excerpt":"Jeff Tian's homepage","has_more_link":true},"url":"/","relativePath":"/","base":"","site":{"siteMetadata":{"title":"Jeff Tian","author":"@zizhujy","description":"A wild full stack developer","palette":"yellow","header":{"title":"Jeff Tian","tagline":"A wild developer","logo_img":"https://images.ctfassets.net/qixg1o8tujmf/7z1ua3nTOC5B7DwwzAki8I/4e1a05f8db770c285a492eeb1eaa398f/imageedit_3_2509022194.png","background_img":"https://images.ctfassets.net/qixg1o8tujmf/7m0jrKYaDBwEvlc5lo8nt6/6d50a5050d9cdc0d4d2047e35feac292/10648733_696750647079056_2800539603462658695_o.jpg","has_nav":true,"nav_links":[{"label":"Home","url":"/","style":"link","type":"action"},{"label":"About","url":"/about","style":"link","type":"action"},{"label":"关于","url":"https://ggyy.pa-pa.me/about","style":"link","icon_class":"lorem-ipsum","new_window":true,"type":"action"},{"label":"Contact","url":"/contact","style":"link","type":"action"},{"label":"Support Me","url":"/support-me","style":"link","type":"action"},{"label":"叽叽歪歪","url":"https://ggyy.pa-pa.me/","style":"link","icon_class":"lorem-ipsum","new_window":true,"type":"action"}],"has_social":true,"social_links":[{"label":"Twitter","url":"https://twitter.com/zizhujy","style":"icon","icon_class":"fa-twitter","new_window":true,"type":"action"},{"label":"Instagram","url":"https://www.instagram.com/jefftian5","style":"icon","icon_class":"fa-instagram","new_window":true,"type":"action"},{"label":"GitHub","url":"https://github.com/jeff-tian","style":"icon","icon_class":"fa-github","new_window":true,"type":"action"},{"label":"LinkedIn","url":"https://www.linkedin.com/jeff~tian","style":"icon","icon_class":"fa-linkedin","new_window":true,"type":"action"},{"label":"DEV","url":"https://dev.to/jefftian","style":"icon","icon_class":"fa-dev","new_window":true,"type":"action"},{"label":"知乎","url":"https://www.zhihu.com/people/jefftian","style":"icon","icon_class":"fa-zhihu","new_window":true,"type":"action"}],"type":"header"},"footer":{"content":"&copy; All rights reserved.","links":[{"label":"Made with Stackbit.","url":"https://www.stackbit.com","style":"link","new_window":true,"type":"action"},{"label":"紫竹叽歪","url":"https://zizhujy.apphb.com","style":"link","icon_class":"http://zizhujy.apphb.com/Content/Images/logo.png","new_window":true,"type":"action"}],"type":"footer"}},"pathPrefix":"","data":{"data":{"author":{"name":"Jeff Tian","avatar":"https://res.cloudinary.com/practicaldev/image/fetch/s--a5qDZLv3--/c_fill,f_auto,fl_progressive,h_640,q_auto,w_640/https://dev-to-uploads.s3.amazonaws.com/uploads/user/profile_image/318420/3bfd2d99-430c-4049-8dd5-e2adc961e1e0.png"},"social":{"devto":{"username":"jefftian"},"twitter":{"username":"zizhujy"},"github":{"username":"Jeff-Tian"}}}}}}},"staticQueryHashes":[],"slicesMap":{}}