{"componentChunkName":"component---src-templates-home-js","path":"/6/","result":{"data":{"allMarkdownRemark":{"edges":[{"node":{"excerpt":"最近在项目中看到一段代码，惊掉了下巴。\ncsharp\npublic override async Task PasswordSignInAsync(string username, string password, bool rememberMe)｛\nvar user…","id":"1b01f1a1-21be-5f9a-8894-ce34c2a965bc","frontmatter":{"title":"用户名都不存在，却还要哈希密码？","template":"post","has_more_link":null,"more_link_text":null,"excerpt":"","canonical_url":null,"date":"2023-10-16T15:04:03","img_path":null,"positive_reactions_count":null,"stackbit_url_path":"posts/llbmzruepagdxag5"}}},{"node":{"excerpt":"…","id":"c77b904a-473d-5965-97e4-249c8cf38c60","frontmatter":{"title":"如何衡量一个软件工程的质量？","template":"post","has_more_link":null,"more_link_text":null,"excerpt":"","canonical_url":null,"date":"2023-10-11T10:38:58","img_path":null,"positive_reactions_count":null,"stackbit_url_path":"posts/glzasd54e43alfpg"}}},{"node":{"excerpt":"和Web相比，微信小程序有哪些限制？ 微信小程序作为一种独立的应用开发平台，与传统的 Web 应用相比，存在一些特定的限制和差异。了解这些限制对于在微信小程序中集成身份认证平台至关重要。在本节中，我们将介绍微信小程序相对于 Web…","id":"02acf330-9f5d-5c8a-93bd-743016fa89f8","frontmatter":{"title":"在微信小程序中使用 Cookie","template":"post","has_more_link":null,"more_link_text":null,"excerpt":"","canonical_url":null,"date":"2023-10-08T14:13:19","img_path":null,"positive_reactions_count":null,"stackbit_url_path":"posts/ubuw50k40w0g1o6l"}}},{"node":{"excerpt":"2023 年 7 月 25 日到 7 月 27 日，我去 AWS 公司参加了 AWS 的架构课，详见《AWS 架构课整体回顾以及学习资源分享 - Jeff Tian的文章 - 知乎 》。在学习该课程之前，我对 Serverless 用得较多，具体来说，就是对 AWS lambda…","id":"d66eed44-5d5b-539e-b300-c4a9947d3ff5","frontmatter":{"title":"通过关联 VPC 让 AWS lambda 拥有固定出口 IP 地址","template":"post","has_more_link":null,"more_link_text":null,"excerpt":"","canonical_url":null,"date":"2023-10-03T09:14:18","img_path":null,"positive_reactions_count":null,"stackbit_url_path":"posts/liegp9w5to7v2hzz"}}},{"node":{"excerpt":"在多个系统之间进行账号互联，有账号链接和用户联邦两种方式，这里列举一下我观察到的一些区别。\n 协议不同 账号链接一般使用 OAuth 2.0/OIDC 或者 SAML 协议。尽管可能存在其他协议，或者定制化的方式，但是很少见。而用户联邦一般使用LDAP或者Kerberos…","id":"534730b7-971b-55ef-a92c-9133313e3b16","frontmatter":{"title":"账号链接与用户联邦的区别","template":"post","has_more_link":null,"more_link_text":null,"excerpt":"","canonical_url":null,"date":"2023-10-02T12:08:22","img_path":null,"positive_reactions_count":null,"stackbit_url_path":"posts/ltdlnkcecvttt18f"}}}]}},"pageContext":{"limit":5,"skip":25,"totalPages":159,"totalItems":793,"currentPage":6,"frontmatter":{"canonical_url":null,"comments_count":null,"title":"Home","template":"home","more_link_text":"Keep reading / 查看全部","date":null,"excerpt":"Jeff Tian's homepage","has_more_link":true},"url":"/","relativePath":"/","base":"","site":{"siteMetadata":{"title":"Jeff Tian","author":"@zizhujy","description":"A wild full stack developer","palette":"yellow","header":{"title":"Jeff Tian","tagline":"A wild developer","logo_img":"https://images.ctfassets.net/qixg1o8tujmf/7z1ua3nTOC5B7DwwzAki8I/4e1a05f8db770c285a492eeb1eaa398f/imageedit_3_2509022194.png","background_img":"https://images.ctfassets.net/qixg1o8tujmf/7m0jrKYaDBwEvlc5lo8nt6/6d50a5050d9cdc0d4d2047e35feac292/10648733_696750647079056_2800539603462658695_o.jpg","has_nav":true,"nav_links":[{"label":"Home","url":"/","style":"link","type":"action"},{"label":"About","url":"/about","style":"link","type":"action"},{"label":"关于","url":"https://ggyy.pa-pa.me/about","style":"link","icon_class":"lorem-ipsum","new_window":true,"type":"action"},{"label":"Contact","url":"/contact","style":"link","type":"action"},{"label":"Support Me","url":"/support-me","style":"link","type":"action"},{"label":"叽叽歪歪","url":"https://ggyy.pa-pa.me/","style":"link","icon_class":"lorem-ipsum","new_window":true,"type":"action"}],"has_social":true,"social_links":[{"label":"Twitter","url":"https://twitter.com/zizhujy","style":"icon","icon_class":"fa-twitter","new_window":true,"type":"action"},{"label":"Instagram","url":"https://www.instagram.com/jefftian5","style":"icon","icon_class":"fa-instagram","new_window":true,"type":"action"},{"label":"GitHub","url":"https://github.com/jeff-tian","style":"icon","icon_class":"fa-github","new_window":true,"type":"action"},{"label":"LinkedIn","url":"https://www.linkedin.com/jeff~tian","style":"icon","icon_class":"fa-linkedin","new_window":true,"type":"action"},{"label":"DEV","url":"https://dev.to/jefftian","style":"icon","icon_class":"fa-dev","new_window":true,"type":"action"},{"label":"知乎","url":"https://www.zhihu.com/people/jefftian","style":"icon","icon_class":"fa-zhihu","new_window":true,"type":"action"}],"type":"header"},"footer":{"content":"&copy; All rights reserved.","links":[{"label":"Made with Stackbit.","url":"https://www.stackbit.com","style":"link","new_window":true,"type":"action"},{"label":"紫竹叽歪","url":"https://zizhujy.apphb.com","style":"link","icon_class":"http://zizhujy.apphb.com/Content/Images/logo.png","new_window":true,"type":"action"}],"type":"footer"}},"pathPrefix":"","data":{"data":{"author":{"name":"Jeff Tian","avatar":"https://res.cloudinary.com/practicaldev/image/fetch/s--a5qDZLv3--/c_fill,f_auto,fl_progressive,h_640,q_auto,w_640/https://dev-to-uploads.s3.amazonaws.com/uploads/user/profile_image/318420/3bfd2d99-430c-4049-8dd5-e2adc961e1e0.png"},"social":{"devto":{"username":"jefftian"},"twitter":{"username":"zizhujy"},"github":{"username":"Jeff-Tian"}}}}},"menus":{}}},"staticQueryHashes":[],"slicesMap":{}}