{"componentChunkName":"component---src-templates-home-js","path":"/84/","result":{"data":{"allMarkdownRemark":{"edges":[{"node":{"excerpt":"/* 仿Google的表格样式; 涂鸦， 2010-1-21 */ table.tbLikeGoogle { } table.tbLikeGoogle tr { } /* 鼠标经过的样式 */ table.tbLikeGoogle tr:hover { } table…","id":"c1fbee39-6687-536a-bb49-e957bb50b3ad","frontmatter":{"title":"仿Google样式的表格","template":"post","has_more_link":null,"more_link_text":null,"excerpt":"","canonical_url":"https://be-net.azurewebsites.net/post/2011/09/09/仿Google样式的表格","date":"2011-09-09 23:29:37.6795142","img_path":null,"positive_reactions_count":0,"stackbit_url_path":"posts/仿Google样式的表格"}}},{"node":{"excerpt":"","id":"f25389fe-9cd5-5891-a6fe-7a2471f84828","frontmatter":{"title":"没有安全感","template":"post","has_more_link":null,"more_link_text":null,"excerpt":"","canonical_url":"https://be-net.azurewebsites.net/post/2011/09/08/没有安全感","date":"2011-09-08 19:32:54.0967071","img_path":null,"positive_reactions_count":0,"stackbit_url_path":"posts/没有安全感"}}},{"node":{"excerpt":"","id":"d5314e1e-0cfd-51c9-9666-4d746ebdbb40","frontmatter":{"title":"得梅毒死掉的神父","template":"post","has_more_link":null,"more_link_text":null,"excerpt":"","canonical_url":"https://be-net.azurewebsites.net/post/2011/09/04/得梅毒死掉的神父","date":"2011-09-04 01:04:27.5595505","img_path":null,"positive_reactions_count":0,"stackbit_url_path":"posts/得梅毒死掉的神父"}}},{"node":{"excerpt":"","id":"4d344599-c919-5a79-bb25-855db2209ba0","frontmatter":{"title":"三十岁恐惧症","template":"post","has_more_link":null,"more_link_text":null,"excerpt":"","canonical_url":"https://be-net.azurewebsites.net/post/2011/09/03/三十岁恐惧症","date":"2011-09-03 08:20:59.2143063","img_path":null,"positive_reactions_count":0,"stackbit_url_path":"posts/三十岁恐惧症"}}},{"node":{"excerpt":"","id":"17b0f522-187f-58db-a39d-415a1169ea73","frontmatter":{"title":"笔记：《北京法源寺》中李十力对康有为的一段话","template":"post","has_more_link":null,"more_link_text":null,"excerpt":"","canonical_url":"https://be-net.azurewebsites.net/post/2011/09/03/笔记：《北京法源寺》中李十力对康有为的一段话","date":"2011-09-03 06:23:19.5045863","img_path":null,"positive_reactions_count":0,"stackbit_url_path":"posts/笔记：《北京法源寺》中李十力对康有为的一段话"}}}]}},"pageContext":{"limit":5,"skip":415,"totalPages":187,"totalItems":931,"currentPage":84,"frontmatter":{"canonical_url":null,"comments_count":null,"title":"Home","template":"home","more_link_text":"Keep reading / 查看全部","date":null,"excerpt":"Jeff Tian's homepage","has_more_link":true},"url":"/","relativePath":"/","base":"","site":{"siteMetadata":{"title":"Jeff Tian","author":"@zizhujy","description":"A wild full stack developer","palette":"yellow","header":{"title":"Jeff Tian","tagline":"A wild developer","logo_img":"https://images.ctfassets.net/qixg1o8tujmf/7z1ua3nTOC5B7DwwzAki8I/4e1a05f8db770c285a492eeb1eaa398f/imageedit_3_2509022194.png","background_img":"https://images.ctfassets.net/qixg1o8tujmf/7m0jrKYaDBwEvlc5lo8nt6/6d50a5050d9cdc0d4d2047e35feac292/10648733_696750647079056_2800539603462658695_o.jpg","has_nav":true,"nav_links":[{"label":"Home","url":"/","style":"link","type":"action"},{"label":"About","url":"/about","style":"link","type":"action"},{"label":"关于","url":"https://ggyy.pa-pa.me/about","style":"link","icon_class":"lorem-ipsum","new_window":true,"type":"action"},{"label":"Contact","url":"/contact","style":"link","type":"action"},{"label":"Support Me","url":"/support-me","style":"link","type":"action"},{"label":"叽叽歪歪","url":"https://ggyy.pa-pa.me/","style":"link","icon_class":"lorem-ipsum","new_window":true,"type":"action"}],"has_social":true,"social_links":[{"label":"Twitter","url":"https://twitter.com/zizhujy","style":"icon","icon_class":"fa-twitter","new_window":true,"type":"action"},{"label":"Instagram","url":"https://www.instagram.com/jefftian5","style":"icon","icon_class":"fa-instagram","new_window":true,"type":"action"},{"label":"GitHub","url":"https://github.com/jeff-tian","style":"icon","icon_class":"fa-github","new_window":true,"type":"action"},{"label":"LinkedIn","url":"https://www.linkedin.com/jeff~tian","style":"icon","icon_class":"fa-linkedin","new_window":true,"type":"action"},{"label":"DEV","url":"https://dev.to/jefftian","style":"icon","icon_class":"fa-dev","new_window":true,"type":"action"},{"label":"知乎","url":"https://www.zhihu.com/people/jefftian","style":"icon","icon_class":"fa-zhihu","new_window":true,"type":"action"}],"type":"header"},"footer":{"content":"&copy; All rights reserved.","links":[{"label":"Made with Stackbit.","url":"https://www.stackbit.com","style":"link","new_window":true,"type":"action"},{"label":"紫竹叽歪","url":"https://zizhujy.apphb.com","style":"link","icon_class":"http://zizhujy.apphb.com/Content/Images/logo.png","new_window":true,"type":"action"}],"type":"footer"}},"pathPrefix":"","data":{"data":{"author":{"name":"Jeff Tian","avatar":"https://res.cloudinary.com/practicaldev/image/fetch/s--a5qDZLv3--/c_fill,f_auto,fl_progressive,h_640,q_auto,w_640/https://dev-to-uploads.s3.amazonaws.com/uploads/user/profile_image/318420/3bfd2d99-430c-4049-8dd5-e2adc961e1e0.png"},"social":{"devto":{"username":"jefftian"},"twitter":{"username":"zizhujy"},"github":{"username":"Jeff-Tian"}}}}},"menus":{}}},"staticQueryHashes":[],"slicesMap":{}}