{"componentChunkName":"component---src-templates-home-js","path":"/4","result":{"data":{"allMarkdownRemark":{"edges":[{"node":{"excerpt":"<script type=\"text/javascript\" src=\"/Scripts/syntaxhighlighter/shAutoloader.js\" defer=\"defer\" async=\"async\"></script>\r\n<script type=\"text…","id":"60164d9c-7dc5-5abf-98ae-3e64dc935979","frontmatter":{"title":"[Solved] SyntaxHighlighter issues after upgrading BlogEngine.NET from 2.6 to 2.7","template":"post","has_more_link":null,"more_link_text":null,"excerpt":"","canonical_url":"https://be-net.azurewebsites.net/post/2014/04/21/Solved-SyntaxHighlighter-issues-after-upgrading-BlogEngineNET-from-26-to-27","date":"2014-04-21 19:54:08.7373952","img_path":null,"positive_reactions_count":0,"stackbit_url_path":"posts/Solved-SyntaxHighlighter-issues-after-upgrading-BlogEngineNET-from-26-to-27"}}},{"node":{"excerpt":"","id":"5b3e1180-ab28-5822-a284-90bbb4a3afd0","frontmatter":{"title":"[Solved] Uncaught Error: Can’t find closing comment tag to match: ko if: ***.","template":"post","has_more_link":null,"more_link_text":null,"excerpt":"","canonical_url":"https://be-net.azurewebsites.net/post/2014/04/17/Solved-Uncaught-Error-Cant-find-closing-comment-tag-to-match-ko-if-","date":"2014-04-17 23:34:28.5506316","img_path":null,"positive_reactions_count":0,"stackbit_url_path":"posts/Solved-Uncaught-Error-Cant-find-closing-comment-tag-to-match-ko-if-"}}},{"node":{"excerpt":"#if DEBUG\r\nforeach (var bundle in BundleTable.Bundles)\r\n{\r\nbundle.Transforms.Clear();\r\n}\r\n#else\r\nforeach(var bundle in BundleTable.Bundles…","id":"2aa7d26a-8302-5b9e-9cf1-0b4463edef6e","frontmatter":{"title":"Bundle javascripts safely in ASP.NET MVC","template":"post","has_more_link":null,"more_link_text":null,"excerpt":"","canonical_url":"https://be-net.azurewebsites.net/post/2014/04/01/Bundle-javascripts-safely-in-ASPNET-MVC","date":"2014-04-01 04:01:42.796428","img_path":null,"positive_reactions_count":0,"stackbit_url_path":"posts/Bundle-javascripts-safely-in-ASPNET-MVC"}}},{"node":{"excerpt":"","id":"f0ec7fff-8f10-52df-a51c-fe09ae868c9f","frontmatter":{"title":"Git subtree cheatsheet","template":"post","has_more_link":null,"more_link_text":null,"excerpt":"","canonical_url":"https://be-net.azurewebsites.net/post/2014/03/02/Git-subtree-cheatsheet","date":"2014-03-02 01:52:00","img_path":null,"positive_reactions_count":0,"stackbit_url_path":"posts/Git-subtree-cheatsheet"}}},{"node":{"excerpt":"<div id=\"dispatching-history-report-window\" title=\"Dispatching History\" style=\"display: none;\"></div> <!-- Delete the following Telerik…","id":"01935c0a-7c34-522b-a928-2a8569855fb3","frontmatter":{"title":"Replace Telerik window with jquery-ui dialog","template":"post","has_more_link":null,"more_link_text":null,"excerpt":"","canonical_url":"https://be-net.azurewebsites.net/post/2014/02/28/Replace-Telerik-window-with-jquery-ui-dialog","date":"2014-02-28 04:06:49.2072017","img_path":null,"positive_reactions_count":0,"stackbit_url_path":"posts/Replace-Telerik-window-with-jquery-ui-dialog"}}}]}},"pageContext":{"limit":5,"skip":15,"totalPages":140,"totalItems":699,"currentPage":4,"frontmatter":{"canonical_url":null,"comments_count":null,"title":"Home","template":"home","more_link_text":"Keep reading / 查看全部","date":null,"excerpt":"Jeff Tian's homepage","has_more_link":true},"url":"/","relativePath":"/","base":"","site":{"siteMetadata":{"title":"Jeff Tian","description":"Full Stack Developer, good at OAuth 2.0","palette":"yellow","header":{"title":"Jeff Tian","tagline":"A wild developer","logo_img":"https://images.ctfassets.net/qixg1o8tujmf/7z1ua3nTOC5B7DwwzAki8I/4e1a05f8db770c285a492eeb1eaa398f/imageedit_3_2509022194.png","background_img":"https://images.ctfassets.net/qixg1o8tujmf/7m0jrKYaDBwEvlc5lo8nt6/6d50a5050d9cdc0d4d2047e35feac292/10648733_696750647079056_2800539603462658695_o.jpg","has_nav":true,"nav_links":[{"label":"Home","url":"/","style":"link","type":"action"},{"label":"About","url":"/about","style":"link","type":"action"},{"label":"关于","url":"https://ggyy.pa-pa.me/about","style":"link","icon_class":"lorem-ipsum","new_window":true,"type":"action"},{"label":"Contact","url":"/contact","style":"link","type":"action"},{"label":"Support Me","url":"/support-me","style":"link","type":"action"},{"label":"叽叽歪歪","url":"https://ggyy.pa-pa.me/","style":"link","icon_class":"lorem-ipsum","new_window":true,"type":"action"}],"has_social":true,"social_links":[{"label":"Twitter","url":"https://twitter.com/zizhujy","style":"icon","icon_class":"fa-twitter","new_window":true,"type":"action"},{"label":"Instagram","url":"https://www.instagram.com/jefftian5","style":"icon","icon_class":"fa-instagram","new_window":true,"type":"action"},{"label":"GitHub","url":"https://github.com/jeff-tian","style":"icon","icon_class":"fa-github","new_window":true,"type":"action"},{"label":"LinkedIn","url":"https://www.linkedin.com/jeff~tian","style":"icon","icon_class":"fa-linkedin","new_window":true,"type":"action"},{"label":"DEV","url":"https://dev.to/jefftian","style":"icon","icon_class":"fa-dev","new_window":true,"type":"action"},{"label":"知乎","url":"https://www.zhihu.com/people/jefftian","style":"icon","icon_class":"fa-zhihu","new_window":true,"type":"action"}],"type":"header"},"footer":{"content":"&copy; All rights reserved.","links":[{"label":"本站源码","url":"https://github.com/Jeff-Tian/space","style":"link","icon_class":"fa-github","new_window":true,"type":"action"},{"label":"紫竹叽歪","url":"https://zizhujy.apphb.com","style":"link","icon_class":"http://zizhujy.apphb.com/Content/Images/logo.png","new_window":true,"type":"action"}],"type":"footer"}},"pathPrefix":"","data":{"data":{"author":{"name":"Jeff Tian","avatar":"https://res.cloudinary.com/practicaldev/image/fetch/s--a5qDZLv3--/c_fill,f_auto,fl_progressive,h_640,q_auto,w_640/https://dev-to-uploads.s3.amazonaws.com/uploads/user/profile_image/318420/3bfd2d99-430c-4049-8dd5-e2adc961e1e0.png"},"social":{"devto":{"username":"jefftian"},"twitter":{"username":"zizhujy"},"github":{"username":"Jeff-Tian"}}}}},"menus":{}}},"staticQueryHashes":[]}