{"componentChunkName":"component---src-templates-home-js","path":"/61/","result":{"data":{"allMarkdownRemark":{"edges":[{"node":{"excerpt":"namespace zizhujy.Controllers\r\n{\r\npublic class TestController : Controller\r\n{\r\npublic void AddWatermark()\r\n{\r\nImage originImage = Image…","id":"6efdf7c8-4a9a-5a3d-9364-8ea978fcb2c2","frontmatter":{"title":"给图片添加水印的C#类库","template":"post","has_more_link":null,"more_link_text":null,"excerpt":"本文提供了一个给图片添加水印的C#类库，首先介绍了它的使用方法，其次介绍了该类库的结构，最后公开了它的源代码以及整个项目文件。","canonical_url":"https://be-net.azurewebsites.net/post/2011/07/12/the-csharp-class-library-for-adding-watermark-image","date":"2011-07-12 16:57:00","img_path":null,"positive_reactions_count":0,"stackbit_url_path":"posts/the-csharp-class-library-for-adding-watermark-image"}}},{"node":{"excerpt":"namespace AddWatermark\n{\nclass Program\n{\nstatic void Main(string[] args)\n{\nstring workingDirectory = @\"C:\";\nstring copyright = \"www.zizhujy…","id":"32ac3770-fdd3-52a3-a394-808d8f295fb7","frontmatter":{"title":"使用.NET的GDI+技术给图片加水印","template":"post","has_more_link":null,"more_link_text":null,"excerpt":"本文描述了使用.NET中的C#与GDI+来在图片上添加一个水印层的过程。","canonical_url":"https://be-net.azurewebsites.net/post/2011/07/12/add-watermark-to-image-using-csharp-and-gdiplus","date":"2011-07-12 16:44:00","img_path":null,"positive_reactions_count":0,"stackbit_url_path":"posts/add-watermark-to-image-using-csharp-and-gdiplus"}}},{"node":{"excerpt":"","id":"a63d495a-b2ce-5c6d-8312-d3d3b96c5538","frontmatter":{"title":"梦·地狱·人间·天堂·梦","template":"post","has_more_link":null,"more_link_text":null,"excerpt":"","canonical_url":"https://be-net.azurewebsites.net/post/2011/07/10/dream-hell-mortalworld-heaven-dream","date":"2011-07-10 12:07:00","img_path":null,"positive_reactions_count":0,"stackbit_url_path":"posts/dream-hell-mortalworld-heaven-dream"}}},{"node":{"excerpt":"","id":"7e54d072-e887-5957-9e83-e808b58b3833","frontmatter":{"title":"纳税的党员有多少？","template":"post","has_more_link":null,"more_link_text":null,"excerpt":"","canonical_url":"https://be-net.azurewebsites.net/post/2011/07/02/纳税的党员有多少？","date":"2011-07-02 06:39:50","img_path":null,"positive_reactions_count":0,"stackbit_url_path":"posts/纳税的党员有多少？"}}},{"node":{"excerpt":"","id":"282232e0-2748-5fb5-9a1e-8c79f8f0bda0","frontmatter":{"title":"拿最少的钱，负最大的责任","template":"post","has_more_link":null,"more_link_text":null,"excerpt":"","canonical_url":"https://be-net.azurewebsites.net/post/2011/06/22/拿最少的钱，负最大的责任","date":"2011-06-22 19:18:13","img_path":null,"positive_reactions_count":0,"stackbit_url_path":"posts/拿最少的钱，负最大的责任"}}}]}},"pageContext":{"limit":5,"skip":300,"totalPages":159,"totalItems":793,"currentPage":61,"frontmatter":{"canonical_url":null,"comments_count":null,"title":"Home","template":"home","more_link_text":"Keep reading / 查看全部","date":null,"excerpt":"Jeff Tian's homepage","has_more_link":true},"url":"/","relativePath":"/","base":"","site":{"siteMetadata":{"title":"Jeff Tian","author":"@zizhujy","description":"A wild full stack developer","palette":"yellow","header":{"title":"Jeff Tian","tagline":"A wild developer","logo_img":"https://images.ctfassets.net/qixg1o8tujmf/7z1ua3nTOC5B7DwwzAki8I/4e1a05f8db770c285a492eeb1eaa398f/imageedit_3_2509022194.png","background_img":"https://images.ctfassets.net/qixg1o8tujmf/7m0jrKYaDBwEvlc5lo8nt6/6d50a5050d9cdc0d4d2047e35feac292/10648733_696750647079056_2800539603462658695_o.jpg","has_nav":true,"nav_links":[{"label":"Home","url":"/","style":"link","type":"action"},{"label":"About","url":"/about","style":"link","type":"action"},{"label":"关于","url":"https://ggyy.pa-pa.me/about","style":"link","icon_class":"lorem-ipsum","new_window":true,"type":"action"},{"label":"Contact","url":"/contact","style":"link","type":"action"},{"label":"Support Me","url":"/support-me","style":"link","type":"action"},{"label":"叽叽歪歪","url":"https://ggyy.pa-pa.me/","style":"link","icon_class":"lorem-ipsum","new_window":true,"type":"action"}],"has_social":true,"social_links":[{"label":"Twitter","url":"https://twitter.com/zizhujy","style":"icon","icon_class":"fa-twitter","new_window":true,"type":"action"},{"label":"Instagram","url":"https://www.instagram.com/jefftian5","style":"icon","icon_class":"fa-instagram","new_window":true,"type":"action"},{"label":"GitHub","url":"https://github.com/jeff-tian","style":"icon","icon_class":"fa-github","new_window":true,"type":"action"},{"label":"LinkedIn","url":"https://www.linkedin.com/jeff~tian","style":"icon","icon_class":"fa-linkedin","new_window":true,"type":"action"},{"label":"DEV","url":"https://dev.to/jefftian","style":"icon","icon_class":"fa-dev","new_window":true,"type":"action"},{"label":"知乎","url":"https://www.zhihu.com/people/jefftian","style":"icon","icon_class":"fa-zhihu","new_window":true,"type":"action"}],"type":"header"},"footer":{"content":"&copy; All rights reserved.","links":[{"label":"Made with Stackbit.","url":"https://www.stackbit.com","style":"link","new_window":true,"type":"action"},{"label":"紫竹叽歪","url":"https://zizhujy.apphb.com","style":"link","icon_class":"http://zizhujy.apphb.com/Content/Images/logo.png","new_window":true,"type":"action"}],"type":"footer"}},"pathPrefix":"","data":{"data":{"author":{"name":"Jeff Tian","avatar":"https://res.cloudinary.com/practicaldev/image/fetch/s--a5qDZLv3--/c_fill,f_auto,fl_progressive,h_640,q_auto,w_640/https://dev-to-uploads.s3.amazonaws.com/uploads/user/profile_image/318420/3bfd2d99-430c-4049-8dd5-e2adc961e1e0.png"},"social":{"devto":{"username":"jefftian"},"twitter":{"username":"zizhujy"},"github":{"username":"Jeff-Tian"}}}}}}},"staticQueryHashes":[],"slicesMap":{}}