{"componentChunkName":"component---src-templates-home-js","path":"/34/","result":{"data":{"allMarkdownRemark":{"edges":[{"node":{"excerpt":"前段时间，Github 推出了 copilot，一石激起千层浪，引起纷纷热议，也得到很多批评，说它只是 Google 和 StackOverflow 的搬运工而已。 而我，竟然有幸收到了 Github 在 7 月 1…","id":"64ab5f0a-fed9-592b-9968-ba9f49c84923","frontmatter":{"title":"我成了一个只会敲 Tab 键的工具人了！","template":"post","has_more_link":null,"more_link_text":null,"excerpt":"","canonical_url":null,"date":"2021-08-17T08:49:17","img_path":null,"positive_reactions_count":null,"stackbit_url_path":"posts/hlr5nd"}}},{"node":{"excerpt":"问题背景 类似这种沟通很没有效率，不如直接扔一个 cURL，减少沟通来回次数。 这种情况，在《使用 cURL 提高前后端开发连调中的沟通效率》一文里反复说明了并且给了解决方案。今天又遇到一个情况，就是测试和后端开发的沟通，而且是压测，具体地说，是使用 jmeter…","id":"d46b54ed-0d7f-519d-bad0-69e286631aea","frontmatter":{"title":"使用 jmeter 做压测，如何提供 cURL","template":"post","has_more_link":null,"more_link_text":null,"excerpt":"","canonical_url":null,"date":"2021-08-11T04:18:00","img_path":null,"positive_reactions_count":null,"stackbit_url_path":"posts/iuwfv9"}}},{"node":{"excerpt":"背景 最近在公司的 Java 项目中看到很多这样的代码： java\npublic void maskData(List list) {\n...\nfor (ReservationDto dto : list) {\nfor (String fieldName : fields…","id":"4dce0fdd-3561-5c49-8f52-37cc036075db","frontmatter":{"title":"使用 Logback 给日志中的敏感数据打码","template":"post","has_more_link":null,"more_link_text":null,"excerpt":"","canonical_url":null,"date":"2021-08-04T03:30:21","img_path":null,"positive_reactions_count":null,"stackbit_url_path":"posts/owp0hc"}}},{"node":{"excerpt":"【症状】 在 Mac OS 打印时弹出 pstopsRV1.app cant be opened because Apple cannot check it for malicious software 错误对话框，导致打印任务不能发送到服务器。  但是点击“show in…","id":"d4de78fa-29b5-50e9-a397-652b4e10c385","frontmatter":{"title":"【已解决】Mac OS 打印时弹出 pstopsRV1.app cant be opened because Apple cannot check it for malicious software 错误框的问题","template":"post","has_more_link":null,"more_link_text":null,"excerpt":"","canonical_url":null,"date":"2021-07-29T08:22:34","img_path":null,"positive_reactions_count":null,"stackbit_url_path":"posts/oy9rro"}}},{"node":{"excerpt":"背景 在云原生开发越来越热的今天，公司采用云服务提供商的托管 Kubernetes 集群部署应用很常见。如果采用了 AWS 的 EKS，并且公司网络和集群的网络没有打通的情况下，要查看集群资源，可以通过 AWS 的会话管理器，启动 Web Console…","id":"68e4e8ca-2315-5df7-90da-0c03446d4211","frontmatter":{"title":"使用 aws ssm cli 连接跳板机","template":"post","has_more_link":null,"more_link_text":null,"excerpt":"","canonical_url":null,"date":"2021-07-28T09:21:10","img_path":null,"positive_reactions_count":null,"stackbit_url_path":"posts/vd5wq4"}}}]}},"pageContext":{"limit":5,"skip":165,"totalPages":187,"totalItems":931,"currentPage":34,"frontmatter":{"canonical_url":null,"comments_count":null,"title":"Home","template":"home","more_link_text":"Keep reading / 查看全部","date":null,"excerpt":"Jeff Tian's homepage","has_more_link":true},"url":"/","relativePath":"/","base":"","site":{"siteMetadata":{"title":"Jeff Tian","author":"@zizhujy","description":"A wild full stack developer","palette":"yellow","header":{"title":"Jeff Tian","tagline":"A wild developer","logo_img":"https://images.ctfassets.net/qixg1o8tujmf/7z1ua3nTOC5B7DwwzAki8I/4e1a05f8db770c285a492eeb1eaa398f/imageedit_3_2509022194.png","background_img":"https://images.ctfassets.net/qixg1o8tujmf/7m0jrKYaDBwEvlc5lo8nt6/6d50a5050d9cdc0d4d2047e35feac292/10648733_696750647079056_2800539603462658695_o.jpg","has_nav":true,"nav_links":[{"label":"Home","url":"/","style":"link","type":"action"},{"label":"About","url":"/about","style":"link","type":"action"},{"label":"关于","url":"https://ggyy.pa-pa.me/about","style":"link","icon_class":"lorem-ipsum","new_window":true,"type":"action"},{"label":"Contact","url":"/contact","style":"link","type":"action"},{"label":"Support Me","url":"/support-me","style":"link","type":"action"},{"label":"叽叽歪歪","url":"https://ggyy.pa-pa.me/","style":"link","icon_class":"lorem-ipsum","new_window":true,"type":"action"}],"has_social":true,"social_links":[{"label":"Twitter","url":"https://twitter.com/zizhujy","style":"icon","icon_class":"fa-twitter","new_window":true,"type":"action"},{"label":"Instagram","url":"https://www.instagram.com/jefftian5","style":"icon","icon_class":"fa-instagram","new_window":true,"type":"action"},{"label":"GitHub","url":"https://github.com/jeff-tian","style":"icon","icon_class":"fa-github","new_window":true,"type":"action"},{"label":"LinkedIn","url":"https://www.linkedin.com/jeff~tian","style":"icon","icon_class":"fa-linkedin","new_window":true,"type":"action"},{"label":"DEV","url":"https://dev.to/jefftian","style":"icon","icon_class":"fa-dev","new_window":true,"type":"action"},{"label":"知乎","url":"https://www.zhihu.com/people/jefftian","style":"icon","icon_class":"fa-zhihu","new_window":true,"type":"action"}],"type":"header"},"footer":{"content":"&copy; All rights reserved.","links":[{"label":"Made with Stackbit.","url":"https://www.stackbit.com","style":"link","new_window":true,"type":"action"},{"label":"紫竹叽歪","url":"https://zizhujy.apphb.com","style":"link","icon_class":"http://zizhujy.apphb.com/Content/Images/logo.png","new_window":true,"type":"action"}],"type":"footer"}},"pathPrefix":"","data":{"data":{"author":{"name":"Jeff Tian","avatar":"https://res.cloudinary.com/practicaldev/image/fetch/s--a5qDZLv3--/c_fill,f_auto,fl_progressive,h_640,q_auto,w_640/https://dev-to-uploads.s3.amazonaws.com/uploads/user/profile_image/318420/3bfd2d99-430c-4049-8dd5-e2adc961e1e0.png"},"social":{"devto":{"username":"jefftian"},"twitter":{"username":"zizhujy"},"github":{"username":"Jeff-Tian"}}}}},"menus":{}}},"staticQueryHashes":[],"slicesMap":{}}