{"componentChunkName":"component---src-templates-home-js","path":"/2","result":{"data":{"allMarkdownRemark":{"edges":[{"node":{"excerpt":"…","id":"fa4c2452-dfcc-54e8-9162-3c7d5e238da7","frontmatter":{"title":"闭包的妙用——智能数据对象","template":"post","has_more_link":null,"more_link_text":null,"excerpt":"","canonical_url":null,"date":"2022-10-16T09:00:36","img_path":null,"positive_reactions_count":null,"stackbit_url_path":"posts/dh981x"}}},{"node":{"excerpt":"知乎的付费咨询，是怎么分账的呢？以下是我的一点观察。 我从去年开始成为知乎的重度用户，并且立即注意到了它的“付费咨询”频道。先是花了一块钱旁听一个感兴趣的咨询，后来又花了 30…","id":"e8b02700-744d-596f-b306-efeb8f4660d1","frontmatter":{"title":"知乎付费咨询分账观察","template":"post","has_more_link":null,"more_link_text":null,"excerpt":"","canonical_url":null,"date":"2022-10-12T11:45:36","img_path":null,"positive_reactions_count":null,"stackbit_url_path":"posts/yqh85a"}}},{"node":{"excerpt":"Keycloak Keycloak 是一个开源的身份认证与访问授权管理系统。对于开发者来说，通过它，可以关注自己的应用业务逻辑，而不必每个系统都单独开发用户系统。无论是写前端、BFF 还是后端，都可以直接“接入” Keycloak…","id":"e76e79de-a028-5977-87ca-c8f4a92733d9","frontmatter":{"title":"实战案例：在 Umi Js 项目中通过 umi-plugin-oauth2 插件对接 Keycloak","template":"post","has_more_link":null,"more_link_text":null,"excerpt":"","canonical_url":null,"date":"2022-10-12T05:09:48","img_path":null,"positive_reactions_count":null,"stackbit_url_path":"posts/ptp1hr"}}},{"node":{"excerpt":"背景 在《https://zhuanlan.zhihu.com/p/482103322》中，我将 IdentityServer demo 应用免费部署到了 Azure Apps：https://id6.azurewebsites.net/Account/Login。image…","id":"00bf3922-563e-55d5-b9b4-b1178ed294f0","frontmatter":{"title":"解决 IdentityServer 在多个 pod 情况下的登录失败问题","template":"post","has_more_link":null,"more_link_text":null,"excerpt":"","canonical_url":null,"date":"2022-10-09T10:12:53","img_path":null,"positive_reactions_count":null,"stackbit_url_path":"posts/qzq0nm"}}},{"node":{"excerpt":"WX20221008-141040@2x.png  Naive BFF 在《https://zhuanlan.zhihu.com/p/442433967》一文里，以 BFF 为中心，简要地回顾了一下自己做的项目。从 2018 年开始，就一直和 BFF…","id":"96a60810-8e63-5125-9505-693a6548e307","frontmatter":{"title":"BFF 进化","template":"post","has_more_link":null,"more_link_text":null,"excerpt":"","canonical_url":null,"date":"2022-10-08T10:34:07","img_path":null,"positive_reactions_count":null,"stackbit_url_path":"posts/tr37p2"}}}]}},"pageContext":{"limit":5,"skip":5,"totalPages":174,"totalItems":868,"currentPage":2,"frontmatter":{"canonical_url":null,"comments_count":null,"title":"Home","template":"home","more_link_text":"Keep reading / 查看全部","date":null,"excerpt":"Jeff Tian's homepage","has_more_link":true},"url":"/","relativePath":"/","base":"","site":{"siteMetadata":{"title":"Jeff Tian","description":"A wild full stack developer","palette":"yellow","header":{"title":"Jeff Tian","tagline":"A wild developer","logo_img":"https://images.ctfassets.net/qixg1o8tujmf/7z1ua3nTOC5B7DwwzAki8I/4e1a05f8db770c285a492eeb1eaa398f/imageedit_3_2509022194.png","background_img":"https://images.ctfassets.net/qixg1o8tujmf/7m0jrKYaDBwEvlc5lo8nt6/6d50a5050d9cdc0d4d2047e35feac292/10648733_696750647079056_2800539603462658695_o.jpg","has_nav":true,"nav_links":[{"label":"Home","url":"/","style":"link","type":"action"},{"label":"About","url":"/about","style":"link","type":"action"},{"label":"关于","url":"https://ggyy.pa-pa.me/about","style":"link","icon_class":"lorem-ipsum","new_window":true,"type":"action"},{"label":"Contact","url":"/contact","style":"link","type":"action"},{"label":"Support Me","url":"/support-me","style":"link","type":"action"},{"label":"叽叽歪歪","url":"https://ggyy.pa-pa.me/","style":"link","icon_class":"lorem-ipsum","new_window":true,"type":"action"}],"has_social":true,"social_links":[{"label":"Twitter","url":"https://twitter.com/zizhujy","style":"icon","icon_class":"fa-twitter","new_window":true,"type":"action"},{"label":"Instagram","url":"https://www.instagram.com/jefftian5","style":"icon","icon_class":"fa-instagram","new_window":true,"type":"action"},{"label":"GitHub","url":"https://github.com/jeff-tian","style":"icon","icon_class":"fa-github","new_window":true,"type":"action"},{"label":"LinkedIn","url":"https://www.linkedin.com/jeff~tian","style":"icon","icon_class":"fa-linkedin","new_window":true,"type":"action"},{"label":"DEV","url":"https://dev.to/jefftian","style":"icon","icon_class":"fa-dev","new_window":true,"type":"action"},{"label":"知乎","url":"https://www.zhihu.com/people/jefftian","style":"icon","icon_class":"fa-zhihu","new_window":true,"type":"action"}],"type":"header"},"footer":{"content":"&copy; All rights reserved.","links":[{"label":"Made with Stackbit.","url":"https://www.stackbit.com","style":"link","new_window":true,"type":"action"},{"label":"紫竹叽歪","url":"https://zizhujy.apphb.com","style":"link","icon_class":"http://zizhujy.apphb.com/Content/Images/logo.png","new_window":true,"type":"action"}],"type":"footer"}},"pathPrefix":"","data":{"data":{"author":{"name":"Jeff Tian","avatar":"https://res.cloudinary.com/practicaldev/image/fetch/s--a5qDZLv3--/c_fill,f_auto,fl_progressive,h_640,q_auto,w_640/https://dev-to-uploads.s3.amazonaws.com/uploads/user/profile_image/318420/3bfd2d99-430c-4049-8dd5-e2adc961e1e0.png"},"social":{"devto":{"username":"jefftian"},"twitter":{"username":"zizhujy"},"github":{"username":"Jeff-Tian"}}}}},"menus":{}}},"staticQueryHashes":[]}