{"componentChunkName":"component---src-templates-home-js","path":"/175/","result":{"data":{"allMarkdownRemark":{"edges":[{"node":{"excerpt":"","id":"1f8281c0-438d-5a07-bb02-3276f91ac5aa","frontmatter":{"title":"如何以正确的编码格式来读取文本文件？ 使用_autodetect_all","template":"post","has_more_link":null,"more_link_text":null,"excerpt":"","canonical_url":"https://be-net.azurewebsites.net/post/2009/12/26/如何以正确的编码格式来读取文本文件？-使用_autodetect_all","date":"2009-12-26 16:08:34","img_path":null,"positive_reactions_count":0,"stackbit_url_path":"posts/如何以正确的编码格式来读取文本文件？-使用_autodetect_all"}}},{"node":{"excerpt":"","id":"524a6048-44a4-5ba9-8348-c5afebd8ac39","frontmatter":{"title":"骗子，我感谢你","template":"post","has_more_link":null,"more_link_text":null,"excerpt":"","canonical_url":"https://be-net.azurewebsites.net/post/2009/12/26/骗子，我感谢你","date":"2009-12-26 06:38:00","img_path":null,"positive_reactions_count":0,"stackbit_url_path":"posts/骗子，我感谢你"}}},{"node":{"excerpt":"","id":"5bb38b81-bec1-5bce-a006-46ad1d3b7307","frontmatter":{"title":"ASP中读取文本文件","template":"post","has_more_link":null,"more_link_text":null,"excerpt":"","canonical_url":"https://be-net.azurewebsites.net/post/2009/12/25/ASP中读取文本文件","date":"2009-12-25 16:46:26","img_path":null,"positive_reactions_count":0,"stackbit_url_path":"posts/ASP中读取文本文件"}}},{"node":{"excerpt":"End Function","id":"a6a748dc-3e00-546a-a600-16522fe51069","frontmatter":{"title":"在ASP中组装QueryString的函数","template":"post","has_more_link":null,"more_link_text":null,"excerpt":"","canonical_url":"https://be-net.azurewebsites.net/post/2009/12/25/在ASP中组装QueryString的函数","date":"2009-12-25 16:20:24","img_path":null,"positive_reactions_count":0,"stackbit_url_path":"posts/在ASP中组装QueryString的函数"}}},{"node":{"excerpt":"table.tbDoodles caption\n{\nfont-size: 1.2em;\nfont-weight: bold;\nmargin: 1em 0;\n} table.tbDoodles col\n{\nborder-right: solid 1px #ccc;\n} table…","id":"8afa7808-02e3-5204-ae6e-44bc236d871d","frontmatter":{"title":"使用JavaScript高亮显示指定的列表元素","template":"post","has_more_link":null,"more_link_text":null,"excerpt":"","canonical_url":"https://be-net.azurewebsites.net/post/2009/12/20/使用JavaScript高亮显示指定的列表元素","date":"2009-12-20 16:23:00","img_path":null,"positive_reactions_count":0,"stackbit_url_path":"posts/使用JavaScript高亮显示指定的列表元素"}}}]}},"pageContext":{"limit":5,"skip":870,"totalPages":187,"totalItems":931,"currentPage":175,"frontmatter":{"canonical_url":null,"comments_count":null,"title":"Home","template":"home","more_link_text":"Keep reading / 查看全部","date":null,"excerpt":"Jeff Tian's homepage","has_more_link":true},"url":"/","relativePath":"/","base":"","site":{"siteMetadata":{"title":"Jeff Tian","author":"@zizhujy","description":"A wild full stack developer","palette":"yellow","header":{"title":"Jeff Tian","tagline":"A wild developer","logo_img":"https://images.ctfassets.net/qixg1o8tujmf/7z1ua3nTOC5B7DwwzAki8I/4e1a05f8db770c285a492eeb1eaa398f/imageedit_3_2509022194.png","background_img":"https://images.ctfassets.net/qixg1o8tujmf/7m0jrKYaDBwEvlc5lo8nt6/6d50a5050d9cdc0d4d2047e35feac292/10648733_696750647079056_2800539603462658695_o.jpg","has_nav":true,"nav_links":[{"label":"Home","url":"/","style":"link","type":"action"},{"label":"About","url":"/about","style":"link","type":"action"},{"label":"关于","url":"https://ggyy.pa-pa.me/about","style":"link","icon_class":"lorem-ipsum","new_window":true,"type":"action"},{"label":"Contact","url":"/contact","style":"link","type":"action"},{"label":"Support Me","url":"/support-me","style":"link","type":"action"},{"label":"叽叽歪歪","url":"https://ggyy.pa-pa.me/","style":"link","icon_class":"lorem-ipsum","new_window":true,"type":"action"}],"has_social":true,"social_links":[{"label":"Twitter","url":"https://twitter.com/zizhujy","style":"icon","icon_class":"fa-twitter","new_window":true,"type":"action"},{"label":"Instagram","url":"https://www.instagram.com/jefftian5","style":"icon","icon_class":"fa-instagram","new_window":true,"type":"action"},{"label":"GitHub","url":"https://github.com/jeff-tian","style":"icon","icon_class":"fa-github","new_window":true,"type":"action"},{"label":"LinkedIn","url":"https://www.linkedin.com/jeff~tian","style":"icon","icon_class":"fa-linkedin","new_window":true,"type":"action"},{"label":"DEV","url":"https://dev.to/jefftian","style":"icon","icon_class":"fa-dev","new_window":true,"type":"action"},{"label":"知乎","url":"https://www.zhihu.com/people/jefftian","style":"icon","icon_class":"fa-zhihu","new_window":true,"type":"action"}],"type":"header"},"footer":{"content":"&copy; All rights reserved.","links":[{"label":"Made with Stackbit.","url":"https://www.stackbit.com","style":"link","new_window":true,"type":"action"},{"label":"紫竹叽歪","url":"https://zizhujy.apphb.com","style":"link","icon_class":"http://zizhujy.apphb.com/Content/Images/logo.png","new_window":true,"type":"action"}],"type":"footer"}},"pathPrefix":"","data":{"data":{"author":{"name":"Jeff Tian","avatar":"https://res.cloudinary.com/practicaldev/image/fetch/s--a5qDZLv3--/c_fill,f_auto,fl_progressive,h_640,q_auto,w_640/https://dev-to-uploads.s3.amazonaws.com/uploads/user/profile_image/318420/3bfd2d99-430c-4049-8dd5-e2adc961e1e0.png"},"social":{"devto":{"username":"jefftian"},"twitter":{"username":"zizhujy"},"github":{"username":"Jeff-Tian"}}}}},"menus":{}}},"staticQueryHashes":[],"slicesMap":{}}