{"componentChunkName":"component---src-templates-home-js","path":"/126/","result":{"data":{"allMarkdownRemark":{"edges":[{"node":{"excerpt":"C:&gt;tasklist|findstr \"4308\"\nReportingServicesService.   4308 Console                 0     54,364 K","id":"5c623018-1fa9-5405-b18e-327180583805","frontmatter":{"title":"如何查看端口占用情况","template":"post","has_more_link":null,"more_link_text":null,"excerpt":"","canonical_url":"https://be-net.azurewebsites.net/post/2010/04/04/如何查看端口占用情况","date":"2010-04-04 12:36:19","img_path":null,"positive_reactions_count":0,"stackbit_url_path":"posts/如何查看端口占用情况"}}},{"node":{"excerpt":"","id":"5eb8ab14-3a2c-5623-83f6-e4df6d2b0ea6","frontmatter":{"title":"【转】如何判断系统是32位还是64位？","template":"post","has_more_link":null,"more_link_text":null,"excerpt":"","canonical_url":"https://be-net.azurewebsites.net/post/2010/04/04/【转】如何判断系统是32位还是64位？","date":"2010-04-04 12:31:11","img_path":null,"positive_reactions_count":0,"stackbit_url_path":"posts/【转】如何判断系统是32位还是64位？"}}},{"node":{"excerpt":"今天下了一个Eclipse galileo，不过解压后运行有点问题，出现了jvm terminated.Exit code=-1的错误。如下图所示：","id":"07b16eec-4a50-5d31-b76a-ce947d6885e5","frontmatter":{"title":"【转】  Eclipse 3.5 中的jvm terminated.Exit code=-1错误的解决 ","template":"post","has_more_link":null,"more_link_text":null,"excerpt":"","canonical_url":"https://be-net.azurewebsites.net/post/2010/04/04/【转】-Eclipse-35-中的jvm-terminatedExit-code=-1错误的解决-","date":"2010-04-04 11:27:32","img_path":null,"positive_reactions_count":0,"stackbit_url_path":"posts/【转】-Eclipse-35-中的jvm-terminatedExit-code=-1错误的解决-"}}},{"node":{"excerpt":"问题描述：","id":"af755c2c-dfdc-5776-8866-fab7a984913d","frontmatter":{"title":"Eclispe JSP \"Your Web Application Project must be configured to use a JDK in order to use JSPs.\"解决方案","template":"post","has_more_link":null,"more_link_text":null,"excerpt":"","canonical_url":"https://be-net.azurewebsites.net/post/2010/04/03/Eclispe-JSP-Your-Web-Application-Project-must-be-configured-to-use-a-JDK-in-order-to-use-JSPs解决方案","date":"2010-04-03 22:28:55","img_path":null,"positive_reactions_count":0,"stackbit_url_path":"posts/Eclispe-JSP-Your-Web-Application-Project-must-be-configured-to-use-a-JDK-in-order-to-use-JSPs解决方案"}}},{"node":{"excerpt":"","id":"25ee0972-9a9f-52ab-9d11-a84d87768062","frontmatter":{"title":"如何引用已知数据左边列的数据","template":"post","has_more_link":null,"more_link_text":null,"excerpt":"","canonical_url":"https://be-net.azurewebsites.net/post/2010/04/03/如何引用已知数据左边列的数据","date":"2010-04-03 18:06:49","img_path":null,"positive_reactions_count":0,"stackbit_url_path":"posts/如何引用已知数据左边列的数据"}}}]}},"pageContext":{"limit":5,"skip":625,"totalPages":187,"totalItems":931,"currentPage":126,"frontmatter":{"canonical_url":null,"comments_count":null,"title":"Home","template":"home","more_link_text":"Keep reading / 查看全部","date":null,"excerpt":"Jeff Tian's homepage","has_more_link":true},"url":"/","relativePath":"/","base":"","site":{"siteMetadata":{"title":"Jeff Tian","author":"@zizhujy","description":"A wild full stack developer","palette":"yellow","header":{"title":"Jeff Tian","tagline":"A wild developer","logo_img":"https://images.ctfassets.net/qixg1o8tujmf/7z1ua3nTOC5B7DwwzAki8I/4e1a05f8db770c285a492eeb1eaa398f/imageedit_3_2509022194.png","background_img":"https://images.ctfassets.net/qixg1o8tujmf/7m0jrKYaDBwEvlc5lo8nt6/6d50a5050d9cdc0d4d2047e35feac292/10648733_696750647079056_2800539603462658695_o.jpg","has_nav":true,"nav_links":[{"label":"Home","url":"/","style":"link","type":"action"},{"label":"About","url":"/about","style":"link","type":"action"},{"label":"关于","url":"https://ggyy.pa-pa.me/about","style":"link","icon_class":"lorem-ipsum","new_window":true,"type":"action"},{"label":"Contact","url":"/contact","style":"link","type":"action"},{"label":"Support Me","url":"/support-me","style":"link","type":"action"},{"label":"叽叽歪歪","url":"https://ggyy.pa-pa.me/","style":"link","icon_class":"lorem-ipsum","new_window":true,"type":"action"}],"has_social":true,"social_links":[{"label":"Twitter","url":"https://twitter.com/zizhujy","style":"icon","icon_class":"fa-twitter","new_window":true,"type":"action"},{"label":"Instagram","url":"https://www.instagram.com/jefftian5","style":"icon","icon_class":"fa-instagram","new_window":true,"type":"action"},{"label":"GitHub","url":"https://github.com/jeff-tian","style":"icon","icon_class":"fa-github","new_window":true,"type":"action"},{"label":"LinkedIn","url":"https://www.linkedin.com/jeff~tian","style":"icon","icon_class":"fa-linkedin","new_window":true,"type":"action"},{"label":"DEV","url":"https://dev.to/jefftian","style":"icon","icon_class":"fa-dev","new_window":true,"type":"action"},{"label":"知乎","url":"https://www.zhihu.com/people/jefftian","style":"icon","icon_class":"fa-zhihu","new_window":true,"type":"action"}],"type":"header"},"footer":{"content":"&copy; All rights reserved.","links":[{"label":"Made with Stackbit.","url":"https://www.stackbit.com","style":"link","new_window":true,"type":"action"},{"label":"紫竹叽歪","url":"https://zizhujy.apphb.com","style":"link","icon_class":"http://zizhujy.apphb.com/Content/Images/logo.png","new_window":true,"type":"action"}],"type":"footer"}},"pathPrefix":"","data":{"data":{"author":{"name":"Jeff Tian","avatar":"https://res.cloudinary.com/practicaldev/image/fetch/s--a5qDZLv3--/c_fill,f_auto,fl_progressive,h_640,q_auto,w_640/https://dev-to-uploads.s3.amazonaws.com/uploads/user/profile_image/318420/3bfd2d99-430c-4049-8dd5-e2adc961e1e0.png"},"social":{"devto":{"username":"jefftian"},"twitter":{"username":"zizhujy"},"github":{"username":"Jeff-Tian"}}}}},"menus":{}}},"staticQueryHashes":[],"slicesMap":{}}