{"componentChunkName":"component---src-templates-home-js","path":"/39","result":{"data":{"allMarkdownRemark":{"edges":[{"node":{"excerpt":"","id":"29abd9b8-9569-51a2-9230-f2f7e49f496a","frontmatter":{"title":"Git subtree 命令的几条常用场景","template":"post","has_more_link":null,"more_link_text":null,"excerpt":"","canonical_url":"https://be-net.azurewebsites.net/post/2014/02/13/Git-subtree-命令的几条常用场景","date":"2014-02-13 02:30:00","img_path":null,"positive_reactions_count":0,"stackbit_url_path":"posts/Git-subtree-命令的几条常用场景"}}},{"node":{"excerpt":"","id":"492ea2c0-cf15-5be6-9c62-e633b6ec4754","frontmatter":{"title":"Speed up opening file explorer in Windows 8 ","template":"post","has_more_link":null,"more_link_text":null,"excerpt":"","canonical_url":"https://be-net.azurewebsites.net/post/2014/02/07/Speed-up-opening-file-explorer-in-Windows-8-","date":"2014-02-07 22:33:00","img_path":null,"positive_reactions_count":0,"stackbit_url_path":"posts/Speed-up-opening-file-explorer-in-Windows-8-"}}},{"node":{"excerpt":"","id":"a7032776-2f1c-5924-9a54-5f0527e2f0c2","frontmatter":{"title":"将小数转化为分数的算法","template":"post","has_more_link":null,"more_link_text":null,"excerpt":"","canonical_url":"https://be-net.azurewebsites.net/post/2014/01/21/将小数转化为分数的算法","date":"2014-01-21 04:53:33.176653","img_path":null,"positive_reactions_count":0,"stackbit_url_path":"posts/将小数转化为分数的算法"}}},{"node":{"excerpt":"","id":"922de7c3-a0f7-50cc-86e2-e21bf3de9c23","frontmatter":{"title":"销售线索强制分布派发算法","template":"post","has_more_link":null,"more_link_text":null,"excerpt":"","canonical_url":"https://be-net.azurewebsites.net/post/2014/01/12/SalesLeadsForceDistributiveDispatchingAlgorithm","date":"2014-01-12 00:28:00","img_path":null,"positive_reactions_count":0,"stackbit_url_path":"posts/SalesLeadsForceDistributiveDispatchingAlgorithm"}}},{"node":{"excerpt":"","id":"ff1a5f1d-ddcf-5372-a163-4dc7ea5bada0","frontmatter":{"title":"Solved: Error resizing the VirtualBox VM’s disk","template":"post","has_more_link":null,"more_link_text":null,"excerpt":"","canonical_url":"https://be-net.azurewebsites.net/post/2013/11/20/Solved-Error-resizing-the-VirtualBox-VMs-disk","date":"2013-11-20 21:59:44.0386852","img_path":null,"positive_reactions_count":0,"stackbit_url_path":"posts/Solved-Error-resizing-the-VirtualBox-VMs-disk"}}}]}},"pageContext":{"limit":5,"skip":190,"totalPages":174,"totalItems":868,"currentPage":39,"frontmatter":{"canonical_url":null,"comments_count":null,"title":"Home","template":"home","more_link_text":"Keep reading / 查看全部","date":null,"excerpt":"Jeff Tian's homepage","has_more_link":true},"url":"/","relativePath":"/","base":"","site":{"siteMetadata":{"title":"Jeff Tian","description":"A wild full stack developer","palette":"yellow","header":{"title":"Jeff Tian","tagline":"A wild developer","logo_img":"https://images.ctfassets.net/qixg1o8tujmf/7z1ua3nTOC5B7DwwzAki8I/4e1a05f8db770c285a492eeb1eaa398f/imageedit_3_2509022194.png","background_img":"https://images.ctfassets.net/qixg1o8tujmf/7m0jrKYaDBwEvlc5lo8nt6/6d50a5050d9cdc0d4d2047e35feac292/10648733_696750647079056_2800539603462658695_o.jpg","has_nav":true,"nav_links":[{"label":"Home","url":"/","style":"link","type":"action"},{"label":"About","url":"/about","style":"link","type":"action"},{"label":"关于","url":"https://ggyy.pa-pa.me/about","style":"link","icon_class":"lorem-ipsum","new_window":true,"type":"action"},{"label":"Contact","url":"/contact","style":"link","type":"action"},{"label":"Support Me","url":"/support-me","style":"link","type":"action"},{"label":"叽叽歪歪","url":"https://ggyy.pa-pa.me/","style":"link","icon_class":"lorem-ipsum","new_window":true,"type":"action"}],"has_social":true,"social_links":[{"label":"Twitter","url":"https://twitter.com/zizhujy","style":"icon","icon_class":"fa-twitter","new_window":true,"type":"action"},{"label":"Instagram","url":"https://www.instagram.com/jefftian5","style":"icon","icon_class":"fa-instagram","new_window":true,"type":"action"},{"label":"GitHub","url":"https://github.com/jeff-tian","style":"icon","icon_class":"fa-github","new_window":true,"type":"action"},{"label":"LinkedIn","url":"https://www.linkedin.com/jeff~tian","style":"icon","icon_class":"fa-linkedin","new_window":true,"type":"action"},{"label":"DEV","url":"https://dev.to/jefftian","style":"icon","icon_class":"fa-dev","new_window":true,"type":"action"},{"label":"知乎","url":"https://www.zhihu.com/people/jefftian","style":"icon","icon_class":"fa-zhihu","new_window":true,"type":"action"}],"type":"header"},"footer":{"content":"&copy; All rights reserved.","links":[{"label":"Made with Stackbit.","url":"https://www.stackbit.com","style":"link","new_window":true,"type":"action"},{"label":"紫竹叽歪","url":"https://zizhujy.apphb.com","style":"link","icon_class":"http://zizhujy.apphb.com/Content/Images/logo.png","new_window":true,"type":"action"}],"type":"footer"}},"pathPrefix":"","data":{"data":{"author":{"name":"Jeff Tian","avatar":"https://res.cloudinary.com/practicaldev/image/fetch/s--a5qDZLv3--/c_fill,f_auto,fl_progressive,h_640,q_auto,w_640/https://dev-to-uploads.s3.amazonaws.com/uploads/user/profile_image/318420/3bfd2d99-430c-4049-8dd5-e2adc961e1e0.png"},"social":{"devto":{"username":"jefftian"},"twitter":{"username":"zizhujy"},"github":{"username":"Jeff-Tian"}}}}},"menus":{}}},"staticQueryHashes":[]}