{"componentChunkName":"component---src-templates-home-js","path":"/26","result":{"data":{"allMarkdownRemark":{"edges":[{"node":{"excerpt":"这里有一个完整的示例：https://github.com/Jeff-Tian/me。它不仅实现了本地 Docker 化开发，还利用 Travis CI （https://travis-ci.com/Jeff-Tian/me）在每次提交代码后自动打包新的镜像并推送至 Docker…","id":"af27318b-ef5c-557f-986a-f41c723706cf","frontmatter":{"title":"Taro 项目的 Docker 化开发","template":"post","has_more_link":null,"more_link_text":null,"excerpt":"","canonical_url":null,"date":"2019-11-04T12:53:00","img_path":null,"positive_reactions_count":null,"stackbit_url_path":"posts/wrorcm"}}},{"node":{"excerpt":"让一切自动化，干掉所有人肉操作。对于 npm 包的作者来说，利用 semantic-release 就能解放双手，只需要提交代码，让发包自动进行。如果代码托管在 GitHub 上，而且 npm 包最后是要发布到官方仓库里的话，那么可以配合 TravisCI…","id":"09d852a6-4bf0-5646-a1b1-791936c46b97","frontmatter":{"title":"Coding.Net + 阿里云 npm 模块仓库 自动化发包","template":"post","has_more_link":null,"more_link_text":null,"excerpt":"","canonical_url":null,"date":"2019-11-02T09:47:00","img_path":null,"positive_reactions_count":null,"stackbit_url_path":"posts/eoqqzc"}}},{"node":{"excerpt":"如《前端开发的正确姿势》所述，前后端分离开发，并行任务时，前端需要使用到 mock 模式。如果使用 umi 项目，自带 mock 模式；这篇文章给出一个非 umi 项目的纯 webpack 例子，说明如何进行 mock…","id":"57b95207-089c-56c1-b4f9-ece4c2bb1aee","frontmatter":{"title":"纯 webpack 项目，配置 mock 模式","template":"post","has_more_link":null,"more_link_text":null,"excerpt":"","canonical_url":null,"date":"2019-11-02T07:45:29","img_path":null,"positive_reactions_count":null,"stackbit_url_path":"posts/shmd9d"}}},{"node":{"excerpt":"…","id":"0047fff0-834d-531c-ad3f-0b9f12c61054","frontmatter":{"title":"前端开发的正确姿势","template":"post","has_more_link":null,"more_link_text":null,"excerpt":"","canonical_url":null,"date":"2019-09-12T13:48:52","img_path":null,"positive_reactions_count":null,"stackbit_url_path":"posts/xo3zza"}}},{"node":{"excerpt":"","id":"c34ff086-7f10-542c-9e27-d458880f0134","frontmatter":{"title":"何以解忧，唯有打油","template":"post","has_more_link":null,"more_link_text":null,"excerpt":"","canonical_url":"https://be-net.azurewebsites.net/post/2014/07/18/poem","date":"2014-07-18 23:29:00","img_path":null,"positive_reactions_count":0,"stackbit_url_path":"posts/poem"}}}]}},"pageContext":{"limit":5,"skip":125,"totalPages":165,"totalItems":824,"currentPage":26,"frontmatter":{"canonical_url":null,"comments_count":null,"title":"Home","template":"home","more_link_text":"Keep reading / 查看全部","date":null,"excerpt":"Jeff Tian's homepage","has_more_link":true},"url":"/","relativePath":"/","base":"","site":{"siteMetadata":{"title":"Jeff Tian","description":"A wild full stack developer","palette":"yellow","header":{"title":"Jeff Tian","tagline":"A wild developer","logo_img":"https://images.ctfassets.net/qixg1o8tujmf/7z1ua3nTOC5B7DwwzAki8I/4e1a05f8db770c285a492eeb1eaa398f/imageedit_3_2509022194.png","background_img":"https://images.ctfassets.net/qixg1o8tujmf/7m0jrKYaDBwEvlc5lo8nt6/6d50a5050d9cdc0d4d2047e35feac292/10648733_696750647079056_2800539603462658695_o.jpg","has_nav":true,"nav_links":[{"label":"Home","url":"/","style":"link","type":"action"},{"label":"About","url":"/about","style":"link","type":"action"},{"label":"关于","url":"https://ggyy.pa-pa.me/about","style":"link","icon_class":"lorem-ipsum","new_window":true,"type":"action"},{"label":"Contact","url":"/contact","style":"link","type":"action"},{"label":"Support Me","url":"/support-me","style":"link","type":"action"},{"label":"叽叽歪歪","url":"https://ggyy.pa-pa.me/","style":"link","icon_class":"lorem-ipsum","new_window":true,"type":"action"}],"has_social":true,"social_links":[{"label":"Twitter","url":"https://twitter.com/zizhujy","style":"icon","icon_class":"fa-twitter","new_window":true,"type":"action"},{"label":"Instagram","url":"https://www.instagram.com/jefftian5","style":"icon","icon_class":"fa-instagram","new_window":true,"type":"action"},{"label":"GitHub","url":"https://github.com/jeff-tian","style":"icon","icon_class":"fa-github","new_window":true,"type":"action"},{"label":"LinkedIn","url":"https://www.linkedin.com/jeff~tian","style":"icon","icon_class":"fa-linkedin","new_window":true,"type":"action"},{"label":"DEV","url":"https://dev.to/jefftian","style":"icon","icon_class":"fa-dev","new_window":true,"type":"action"},{"label":"知乎","url":"https://www.zhihu.com/people/jefftian","style":"icon","icon_class":"fa-zhihu","new_window":true,"type":"action"}],"type":"header"},"footer":{"content":"&copy; All rights reserved.","links":[{"label":"本站源码","url":"https://github.com/Jeff-Tian/space","style":"link","icon_class":"fa-github","new_window":true,"type":"action"},{"label":"紫竹叽歪","url":"https://zizhujy.apphb.com","style":"link","icon_class":"http://zizhujy.apphb.com/Content/Images/logo.png","new_window":true,"type":"action"}],"type":"footer"}},"pathPrefix":"","data":{"data":{"author":{"name":"Jeff Tian","avatar":"https://res.cloudinary.com/practicaldev/image/fetch/s--a5qDZLv3--/c_fill,f_auto,fl_progressive,h_640,q_auto,w_640/https://dev-to-uploads.s3.amazonaws.com/uploads/user/profile_image/318420/3bfd2d99-430c-4049-8dd5-e2adc961e1e0.png"},"social":{"devto":{"username":"jefftian"},"twitter":{"username":"zizhujy"},"github":{"username":"Jeff-Tian"}}}}},"menus":{}}},"staticQueryHashes":[]}