{"componentChunkName":"component---src-templates-home-js","path":"/14/","result":{"data":{"allMarkdownRemark":{"edges":[{"node":{"excerpt":"前情提要 上次，在《使用 IdentityServer 保护 Vue 前端 - Jeff Tian的文章 - 知乎  》中记录了直接在 Vue 项目里，不使用任何状态管理包，直接使用 oidc-client js 来对接 Duende IdentityServer…","id":"1495c4f1-277f-56a4-a0ee-e26b3867c1e7","frontmatter":{"title":"使用 vuex-oidc 在 Vue 项目中对接 Duende IdentityServer","template":"post","has_more_link":null,"more_link_text":null,"excerpt":"","canonical_url":null,"date":"2023-03-14T11:29:41","img_path":null,"positive_reactions_count":null,"stackbit_url_path":"posts/ik93h4q0mo566an7"}}},{"node":{"excerpt":"前情提要 好几年前，我 fork 了一个项目（https://github.com/Jeff-Tian/keycloak-heroku）并做了一些修改，将 Keycloak 适配到了 Heroku 的免费 Dyno 上，并添加了一键部署按钮。但是，如《Free Arch: Bye…","id":"ebcd0c09-5e37-52f1-bb1b-8253bdb649e9","frontmatter":{"title":"【免费架构】Heroku 不免费了，何去何从之 Keycloak 的容器化部署之路","template":"post","has_more_link":null,"more_link_text":null,"excerpt":"","canonical_url":null,"date":"2023-03-06T11:53:55","img_path":null,"positive_reactions_count":null,"stackbit_url_path":"posts/ssqtd19r0p1tch3o"}}},{"node":{"excerpt":"前情提要 我好几年前，将自己的 eggjs 项目（https://github.com/Jeff-Tian/alpha），部署在了 Heroku 上，运行得非常好。部署过程也非常丝滑，只需要添加一个 Procfile，内部写上：web: egg-scripts start…","id":"97d370aa-6029-56c8-adc4-14a4828d97e6","frontmatter":{"title":"免费架构：Heroku 不免费了，何去何从之 eggjs 的容器化部署之路","template":"post","has_more_link":null,"more_link_text":null,"excerpt":"","canonical_url":null,"date":"2023-03-03T10:49:08","img_path":null,"positive_reactions_count":null,"stackbit_url_path":"posts/gsn8f3k6b3e7nupt"}}},{"node":{"excerpt":"2021 年第一次接触 AWS DeepRacer，详见：《机器学习之 AWS DeepRacer 初体验 - Jeff Tian的文章 - 知乎 》。不知不觉时间过去了两年，期间我也换了一份工作，但公司仍然是 AWS 的客户，于是又有了一次带薪玩 AWS DeepRacer…","id":"485f78c9-a2b6-5716-9189-611dc6cff042","frontmatter":{"title":"细思极恐：使用 ChatGPT 玩 AWS DeepRacer","template":"post","has_more_link":null,"more_link_text":null,"excerpt":"","canonical_url":null,"date":"2023-02-19T07:48:01","img_path":null,"positive_reactions_count":null,"stackbit_url_path":"posts/ykd9kh9uvo104fvk"}}},{"node":{"excerpt":"计算机领域的任何问题都可以通过增加一个间接的中间层来解决……除非是中间层太多了。  什么是一团乱麻问题？ 两个层之间分别有多个应用或者服务，而它们之间存在多对多的调用关系，如下图所示：  这样，如果有n个应用，m个服务，相互调用的关系就是 nxm…","id":"ae243949-2531-5368-b3fb-1acae00fd264","frontmatter":{"title":"架构整洁：增加代理层解决一团乱麻的问题","template":"post","has_more_link":null,"more_link_text":null,"excerpt":"","canonical_url":null,"date":"2023-02-16T11:52:46","img_path":null,"positive_reactions_count":null,"stackbit_url_path":"posts/fwz4gicvp6nhgsw0"}}}]}},"pageContext":{"limit":5,"skip":65,"totalPages":159,"totalItems":793,"currentPage":14,"frontmatter":{"canonical_url":null,"comments_count":null,"title":"Home","template":"home","more_link_text":"Keep reading / 查看全部","date":null,"excerpt":"Jeff Tian's homepage","has_more_link":true},"url":"/","relativePath":"/","base":"","site":{"siteMetadata":{"title":"Jeff Tian","author":"@zizhujy","description":"A wild full stack developer","palette":"yellow","header":{"title":"Jeff Tian","tagline":"A wild developer","logo_img":"https://images.ctfassets.net/qixg1o8tujmf/7z1ua3nTOC5B7DwwzAki8I/4e1a05f8db770c285a492eeb1eaa398f/imageedit_3_2509022194.png","background_img":"https://images.ctfassets.net/qixg1o8tujmf/7m0jrKYaDBwEvlc5lo8nt6/6d50a5050d9cdc0d4d2047e35feac292/10648733_696750647079056_2800539603462658695_o.jpg","has_nav":true,"nav_links":[{"label":"Home","url":"/","style":"link","type":"action"},{"label":"About","url":"/about","style":"link","type":"action"},{"label":"关于","url":"https://ggyy.pa-pa.me/about","style":"link","icon_class":"lorem-ipsum","new_window":true,"type":"action"},{"label":"Contact","url":"/contact","style":"link","type":"action"},{"label":"Support Me","url":"/support-me","style":"link","type":"action"},{"label":"叽叽歪歪","url":"https://ggyy.pa-pa.me/","style":"link","icon_class":"lorem-ipsum","new_window":true,"type":"action"}],"has_social":true,"social_links":[{"label":"Twitter","url":"https://twitter.com/zizhujy","style":"icon","icon_class":"fa-twitter","new_window":true,"type":"action"},{"label":"Instagram","url":"https://www.instagram.com/jefftian5","style":"icon","icon_class":"fa-instagram","new_window":true,"type":"action"},{"label":"GitHub","url":"https://github.com/jeff-tian","style":"icon","icon_class":"fa-github","new_window":true,"type":"action"},{"label":"LinkedIn","url":"https://www.linkedin.com/jeff~tian","style":"icon","icon_class":"fa-linkedin","new_window":true,"type":"action"},{"label":"DEV","url":"https://dev.to/jefftian","style":"icon","icon_class":"fa-dev","new_window":true,"type":"action"},{"label":"知乎","url":"https://www.zhihu.com/people/jefftian","style":"icon","icon_class":"fa-zhihu","new_window":true,"type":"action"}],"type":"header"},"footer":{"content":"&copy; All rights reserved.","links":[{"label":"Made with Stackbit.","url":"https://www.stackbit.com","style":"link","new_window":true,"type":"action"},{"label":"紫竹叽歪","url":"https://zizhujy.apphb.com","style":"link","icon_class":"http://zizhujy.apphb.com/Content/Images/logo.png","new_window":true,"type":"action"}],"type":"footer"}},"pathPrefix":"","data":{"data":{"author":{"name":"Jeff Tian","avatar":"https://res.cloudinary.com/practicaldev/image/fetch/s--a5qDZLv3--/c_fill,f_auto,fl_progressive,h_640,q_auto,w_640/https://dev-to-uploads.s3.amazonaws.com/uploads/user/profile_image/318420/3bfd2d99-430c-4049-8dd5-e2adc961e1e0.png"},"social":{"devto":{"username":"jefftian"},"twitter":{"username":"zizhujy"},"github":{"username":"Jeff-Tian"}}}}},"menus":{}}},"staticQueryHashes":[],"slicesMap":{}}