{"componentChunkName":"component---src-templates-home-js","path":"/137","result":{"data":{"allMarkdownRemark":{"edges":[{"node":{"excerpt":"","id":"078d26a8-c791-5f0c-9ca3-98666fd733d3","frontmatter":{"title":"李敖对于知识分子的态度","template":"post","has_more_link":null,"more_link_text":null,"excerpt":"","canonical_url":"https://be-net.azurewebsites.net/post/2010/02/12/李敖对于知识分子的态度","date":"2010-02-12 09:01:44","img_path":null,"positive_reactions_count":0,"stackbit_url_path":"posts/李敖对于知识分子的态度"}}},{"node":{"excerpt":"","id":"7e1149c7-1b7f-5874-aef7-beee468c0222","frontmatter":{"title":"李敖对于钱的言论","template":"post","has_more_link":null,"more_link_text":null,"excerpt":"","canonical_url":"https://be-net.azurewebsites.net/post/2010/02/12/李敖对于钱的言论","date":"2010-02-12 08:20:20","img_path":null,"positive_reactions_count":0,"stackbit_url_path":"posts/李敖对于钱的言论"}}},{"node":{"excerpt":"","id":"c36d3756-3ebd-5230-a973-582021e09532","frontmatter":{"title":"再随笔","template":"post","has_more_link":null,"more_link_text":null,"excerpt":"","canonical_url":"https://be-net.azurewebsites.net/post/2010/02/12/再随笔","date":"2010-02-12 06:25:50","img_path":null,"positive_reactions_count":0,"stackbit_url_path":"posts/再随笔"}}},{"node":{"excerpt":"","id":"09bf7ba9-08ce-5c25-a225-6b9cab4721e7","frontmatter":{"title":"戈登结","template":"post","has_more_link":null,"more_link_text":null,"excerpt":"","canonical_url":"https://be-net.azurewebsites.net/post/2010/02/12/戈登结","date":"2010-02-12 06:08:23","img_path":null,"positive_reactions_count":0,"stackbit_url_path":"posts/戈登结"}}},{"node":{"excerpt":"","id":"574a1229-93e7-5bcf-8ddc-270302ef745c","frontmatter":{"title":"随笔","template":"post","has_more_link":null,"more_link_text":null,"excerpt":"","canonical_url":"https://be-net.azurewebsites.net/post/2010/02/12/随笔","date":"2010-02-12 05:40:16","img_path":null,"positive_reactions_count":0,"stackbit_url_path":"posts/随笔"}}}]}},"pageContext":{"limit":5,"skip":680,"totalPages":165,"totalItems":824,"currentPage":137,"frontmatter":{"canonical_url":null,"comments_count":null,"title":"Home","template":"home","more_link_text":"Keep reading / 查看全部","date":null,"excerpt":"Jeff Tian's homepage","has_more_link":true},"url":"/","relativePath":"/","base":"","site":{"siteMetadata":{"title":"Jeff Tian","description":"A wild full stack developer","palette":"yellow","header":{"title":"Jeff Tian","tagline":"A wild developer","logo_img":"https://images.ctfassets.net/qixg1o8tujmf/7z1ua3nTOC5B7DwwzAki8I/4e1a05f8db770c285a492eeb1eaa398f/imageedit_3_2509022194.png","background_img":"https://images.ctfassets.net/qixg1o8tujmf/7m0jrKYaDBwEvlc5lo8nt6/6d50a5050d9cdc0d4d2047e35feac292/10648733_696750647079056_2800539603462658695_o.jpg","has_nav":true,"nav_links":[{"label":"Home","url":"/","style":"link","type":"action"},{"label":"About","url":"/about","style":"link","type":"action"},{"label":"关于","url":"https://ggyy.pa-pa.me/about","style":"link","icon_class":"lorem-ipsum","new_window":true,"type":"action"},{"label":"Contact","url":"/contact","style":"link","type":"action"},{"label":"Support Me","url":"/support-me","style":"link","type":"action"},{"label":"叽叽歪歪","url":"https://ggyy.pa-pa.me/","style":"link","icon_class":"lorem-ipsum","new_window":true,"type":"action"}],"has_social":true,"social_links":[{"label":"Twitter","url":"https://twitter.com/zizhujy","style":"icon","icon_class":"fa-twitter","new_window":true,"type":"action"},{"label":"Instagram","url":"https://www.instagram.com/jefftian5","style":"icon","icon_class":"fa-instagram","new_window":true,"type":"action"},{"label":"GitHub","url":"https://github.com/jeff-tian","style":"icon","icon_class":"fa-github","new_window":true,"type":"action"},{"label":"LinkedIn","url":"https://www.linkedin.com/jeff~tian","style":"icon","icon_class":"fa-linkedin","new_window":true,"type":"action"},{"label":"DEV","url":"https://dev.to/jefftian","style":"icon","icon_class":"fa-dev","new_window":true,"type":"action"},{"label":"知乎","url":"https://www.zhihu.com/people/jefftian","style":"icon","icon_class":"fa-zhihu","new_window":true,"type":"action"}],"type":"header"},"footer":{"content":"&copy; All rights reserved.","links":[{"label":"本站源码","url":"https://github.com/Jeff-Tian/space","style":"link","icon_class":"fa-github","new_window":true,"type":"action"},{"label":"紫竹叽歪","url":"https://zizhujy.apphb.com","style":"link","icon_class":"http://zizhujy.apphb.com/Content/Images/logo.png","new_window":true,"type":"action"}],"type":"footer"}},"pathPrefix":"","data":{"data":{"author":{"name":"Jeff Tian","avatar":"https://res.cloudinary.com/practicaldev/image/fetch/s--a5qDZLv3--/c_fill,f_auto,fl_progressive,h_640,q_auto,w_640/https://dev-to-uploads.s3.amazonaws.com/uploads/user/profile_image/318420/3bfd2d99-430c-4049-8dd5-e2adc961e1e0.png"},"social":{"devto":{"username":"jefftian"},"twitter":{"username":"zizhujy"},"github":{"username":"Jeff-Tian"}}}}},"menus":{}}},"staticQueryHashes":[]}