{"componentChunkName":"component---src-templates-home-js","path":"/133","result":{"data":{"allMarkdownRemark":{"edges":[{"node":{"excerpt":"","id":"f0bab4f6-aaff-58ba-a6a8-8dedf160cac1","frontmatter":{"title":"洗脑无处不在","template":"post","has_more_link":null,"more_link_text":null,"excerpt":"","canonical_url":"https://be-net.azurewebsites.net/post/2010/02/20/洗脑无处不在","date":"2010-02-20 01:11:08","img_path":null,"positive_reactions_count":0,"stackbit_url_path":"posts/洗脑无处不在"}}},{"node":{"excerpt":"","id":"10584c42-e7cf-5cdc-a00d-716ebe63d379","frontmatter":{"title":"蝶","template":"post","has_more_link":null,"more_link_text":null,"excerpt":"","canonical_url":"https://be-net.azurewebsites.net/post/2010/02/19/蝶","date":"2010-02-19 14:39:09","img_path":null,"positive_reactions_count":0,"stackbit_url_path":"posts/蝶"}}},{"node":{"excerpt":"","id":"7651d7df-e934-54d1-88ea-7725aad70a4d","frontmatter":{"title":"爱是纯快乐  ","template":"post","has_more_link":null,"more_link_text":null,"excerpt":"","canonical_url":"https://be-net.azurewebsites.net/post/2010/02/18/爱是纯快乐","date":"2010-02-18 16:08:00","img_path":null,"positive_reactions_count":0,"stackbit_url_path":"posts/爱是纯快乐"}}},{"node":{"excerpt":"","id":"19b8caed-e908-5168-bc22-8acfed9a20d8","frontmatter":{"title":"爱里","template":"post","has_more_link":null,"more_link_text":null,"excerpt":"","canonical_url":"https://be-net.azurewebsites.net/post/2010/02/18/爱里","date":"2010-02-18 15:42:47","img_path":null,"positive_reactions_count":0,"stackbit_url_path":"posts/爱里"}}},{"node":{"excerpt":"","id":"1445cbfd-383e-588a-acae-5c135f15f6b8","frontmatter":{"title":"然后就去远行  ","template":"post","has_more_link":null,"more_link_text":null,"excerpt":"","canonical_url":"https://be-net.azurewebsites.net/post/2010/02/18/然后就去远行-","date":"2010-02-18 15:40:55","img_path":null,"positive_reactions_count":0,"stackbit_url_path":"posts/然后就去远行-"}}}]}},"pageContext":{"limit":5,"skip":660,"totalPages":165,"totalItems":824,"currentPage":133,"frontmatter":{"canonical_url":null,"comments_count":null,"title":"Home","template":"home","more_link_text":"Keep reading / 查看全部","date":null,"excerpt":"Jeff Tian's homepage","has_more_link":true},"url":"/","relativePath":"/","base":"","site":{"siteMetadata":{"title":"Jeff Tian","description":"A wild full stack developer","palette":"yellow","header":{"title":"Jeff Tian","tagline":"A wild developer","logo_img":"https://images.ctfassets.net/qixg1o8tujmf/7z1ua3nTOC5B7DwwzAki8I/4e1a05f8db770c285a492eeb1eaa398f/imageedit_3_2509022194.png","background_img":"https://images.ctfassets.net/qixg1o8tujmf/7m0jrKYaDBwEvlc5lo8nt6/6d50a5050d9cdc0d4d2047e35feac292/10648733_696750647079056_2800539603462658695_o.jpg","has_nav":true,"nav_links":[{"label":"Home","url":"/","style":"link","type":"action"},{"label":"About","url":"/about","style":"link","type":"action"},{"label":"关于","url":"https://ggyy.pa-pa.me/about","style":"link","icon_class":"lorem-ipsum","new_window":true,"type":"action"},{"label":"Contact","url":"/contact","style":"link","type":"action"},{"label":"Support Me","url":"/support-me","style":"link","type":"action"},{"label":"叽叽歪歪","url":"https://ggyy.pa-pa.me/","style":"link","icon_class":"lorem-ipsum","new_window":true,"type":"action"}],"has_social":true,"social_links":[{"label":"Twitter","url":"https://twitter.com/zizhujy","style":"icon","icon_class":"fa-twitter","new_window":true,"type":"action"},{"label":"Instagram","url":"https://www.instagram.com/jefftian5","style":"icon","icon_class":"fa-instagram","new_window":true,"type":"action"},{"label":"GitHub","url":"https://github.com/jeff-tian","style":"icon","icon_class":"fa-github","new_window":true,"type":"action"},{"label":"LinkedIn","url":"https://www.linkedin.com/jeff~tian","style":"icon","icon_class":"fa-linkedin","new_window":true,"type":"action"},{"label":"DEV","url":"https://dev.to/jefftian","style":"icon","icon_class":"fa-dev","new_window":true,"type":"action"},{"label":"知乎","url":"https://www.zhihu.com/people/jefftian","style":"icon","icon_class":"fa-zhihu","new_window":true,"type":"action"}],"type":"header"},"footer":{"content":"&copy; All rights reserved.","links":[{"label":"本站源码","url":"https://github.com/Jeff-Tian/space","style":"link","icon_class":"fa-github","new_window":true,"type":"action"},{"label":"紫竹叽歪","url":"https://zizhujy.apphb.com","style":"link","icon_class":"http://zizhujy.apphb.com/Content/Images/logo.png","new_window":true,"type":"action"}],"type":"footer"}},"pathPrefix":"","data":{"data":{"author":{"name":"Jeff Tian","avatar":"https://res.cloudinary.com/practicaldev/image/fetch/s--a5qDZLv3--/c_fill,f_auto,fl_progressive,h_640,q_auto,w_640/https://dev-to-uploads.s3.amazonaws.com/uploads/user/profile_image/318420/3bfd2d99-430c-4049-8dd5-e2adc961e1e0.png"},"social":{"devto":{"username":"jefftian"},"twitter":{"username":"zizhujy"},"github":{"username":"Jeff-Tian"}}}}},"menus":{}}},"staticQueryHashes":[]}