{"componentChunkName":"component---src-templates-home-js","path":"/37","result":{"data":{"allMarkdownRemark":{"edges":[{"node":{"excerpt":"","id":"657e7466-82c0-5bc8-b1e4-96d66ee09e15","frontmatter":{"title":"随机图的连通概率递推公式","template":"post","has_more_link":null,"more_link_text":null,"excerpt":"","canonical_url":"https://be-net.azurewebsites.net/post/2014/06/07/随机图的连通概率递推公式","date":"2014-06-07 05:08:00","img_path":null,"positive_reactions_count":0,"stackbit_url_path":"posts/随机图的连通概率递推公式"}}},{"node":{"excerpt":"lo        Link encap:Local Loopback inet addr:127.0.0.1  Mask:255.0.0.0\ninet6 addr: ::1/128 Scope:Host\nUP LOOPBACK RUNNING  MTU:6553…","id":"c422787e-7f7d-5010-89bd-075d1f4e14bd","frontmatter":{"title":"如何允许 Windows 7 主机与 Ubuntu 虚拟机互相 ping 通","template":"post","has_more_link":null,"more_link_text":null,"excerpt":"","canonical_url":"https://be-net.azurewebsites.net/post/2014/05/26/如何允许-Windows-7-主机与-Ubuntu-虚拟机互相-ping-通","date":"2014-05-26 03:49:00","img_path":null,"positive_reactions_count":0,"stackbit_url_path":"posts/如何允许-Windows-7-主机与-Ubuntu-虚拟机互相-ping-通"}}},{"node":{"excerpt":"","id":"3e6b68c5-c42a-5b77-8795-b55d0be4954a","frontmatter":{"title":"在 Windows 7 (64 位) 的 IIS 7 上运行 32 位应用程序","template":"post","has_more_link":null,"more_link_text":null,"excerpt":"","canonical_url":"https://be-net.azurewebsites.net/post/2014/05/24/在-Windows-7-(64-位)-的-IIS-7-上运行-32-位应用程序","date":"2014-05-24 05:21:21.8458402","img_path":null,"positive_reactions_count":0,"stackbit_url_path":"posts/在-Windows-7-(64-位)-的-IIS-7-上运行-32-位应用程序"}}},{"node":{"excerpt":"","id":"4f7dc68e-ae3a-56b9-bffc-bcff8564fe9f","frontmatter":{"title":"低风险高收益的投资平台","template":"post","has_more_link":null,"more_link_text":null,"excerpt":"","canonical_url":"https://be-net.azurewebsites.net/post/2014/05/17/低风险高收益的投资平台","date":"2014-05-17 02:10:00","img_path":null,"positive_reactions_count":0,"stackbit_url_path":"posts/低风险高收益的投资平台"}}},{"node":{"excerpt":"<script type=\"text/javascript\" src=\"/Scripts/syntaxhighlighter/shAutoloader.js\" defer=\"defer\" async=\"async\"></script>\r\n<script type=\"text…","id":"60164d9c-7dc5-5abf-98ae-3e64dc935979","frontmatter":{"title":"[Solved] SyntaxHighlighter issues after upgrading BlogEngine.NET from 2.6 to 2.7","template":"post","has_more_link":null,"more_link_text":null,"excerpt":"","canonical_url":"https://be-net.azurewebsites.net/post/2014/04/21/Solved-SyntaxHighlighter-issues-after-upgrading-BlogEngineNET-from-26-to-27","date":"2014-04-21 19:54:08.7373952","img_path":null,"positive_reactions_count":0,"stackbit_url_path":"posts/Solved-SyntaxHighlighter-issues-after-upgrading-BlogEngineNET-from-26-to-27"}}}]}},"pageContext":{"limit":5,"skip":180,"totalPages":174,"totalItems":868,"currentPage":37,"frontmatter":{"canonical_url":null,"comments_count":null,"title":"Home","template":"home","more_link_text":"Keep reading / 查看全部","date":null,"excerpt":"Jeff Tian's homepage","has_more_link":true},"url":"/","relativePath":"/","base":"","site":{"siteMetadata":{"title":"Jeff Tian","description":"A wild full stack developer","palette":"yellow","header":{"title":"Jeff Tian","tagline":"A wild developer","logo_img":"https://images.ctfassets.net/qixg1o8tujmf/7z1ua3nTOC5B7DwwzAki8I/4e1a05f8db770c285a492eeb1eaa398f/imageedit_3_2509022194.png","background_img":"https://images.ctfassets.net/qixg1o8tujmf/7m0jrKYaDBwEvlc5lo8nt6/6d50a5050d9cdc0d4d2047e35feac292/10648733_696750647079056_2800539603462658695_o.jpg","has_nav":true,"nav_links":[{"label":"Home","url":"/","style":"link","type":"action"},{"label":"About","url":"/about","style":"link","type":"action"},{"label":"关于","url":"https://ggyy.pa-pa.me/about","style":"link","icon_class":"lorem-ipsum","new_window":true,"type":"action"},{"label":"Contact","url":"/contact","style":"link","type":"action"},{"label":"Support Me","url":"/support-me","style":"link","type":"action"},{"label":"叽叽歪歪","url":"https://ggyy.pa-pa.me/","style":"link","icon_class":"lorem-ipsum","new_window":true,"type":"action"}],"has_social":true,"social_links":[{"label":"Twitter","url":"https://twitter.com/zizhujy","style":"icon","icon_class":"fa-twitter","new_window":true,"type":"action"},{"label":"Instagram","url":"https://www.instagram.com/jefftian5","style":"icon","icon_class":"fa-instagram","new_window":true,"type":"action"},{"label":"GitHub","url":"https://github.com/jeff-tian","style":"icon","icon_class":"fa-github","new_window":true,"type":"action"},{"label":"LinkedIn","url":"https://www.linkedin.com/jeff~tian","style":"icon","icon_class":"fa-linkedin","new_window":true,"type":"action"},{"label":"DEV","url":"https://dev.to/jefftian","style":"icon","icon_class":"fa-dev","new_window":true,"type":"action"},{"label":"知乎","url":"https://www.zhihu.com/people/jefftian","style":"icon","icon_class":"fa-zhihu","new_window":true,"type":"action"}],"type":"header"},"footer":{"content":"&copy; All rights reserved.","links":[{"label":"Made with Stackbit.","url":"https://www.stackbit.com","style":"link","new_window":true,"type":"action"},{"label":"紫竹叽歪","url":"https://zizhujy.apphb.com","style":"link","icon_class":"http://zizhujy.apphb.com/Content/Images/logo.png","new_window":true,"type":"action"}],"type":"footer"}},"pathPrefix":"","data":{"data":{"author":{"name":"Jeff Tian","avatar":"https://res.cloudinary.com/practicaldev/image/fetch/s--a5qDZLv3--/c_fill,f_auto,fl_progressive,h_640,q_auto,w_640/https://dev-to-uploads.s3.amazonaws.com/uploads/user/profile_image/318420/3bfd2d99-430c-4049-8dd5-e2adc961e1e0.png"},"social":{"devto":{"username":"jefftian"},"twitter":{"username":"zizhujy"},"github":{"username":"Jeff-Tian"}}}}},"menus":{}}},"staticQueryHashes":[]}