{"componentChunkName":"component---src-templates-home-js","path":"/67/","result":{"data":{"allMarkdownRemark":{"edges":[{"node":{"excerpt":"","id":"579186e3-fbc0-5d75-950b-f4b2f59b0f61","frontmatter":{"title":"愚人有道","template":"post","has_more_link":null,"more_link_text":null,"excerpt":"","canonical_url":"https://be-net.azurewebsites.net/post/2012/03/31/愚人有道","date":"2012-03-31 22:00:58.6738347","img_path":null,"positive_reactions_count":0,"stackbit_url_path":"posts/愚人有道"}}},{"node":{"excerpt":"","id":"704a1b51-efaa-5131-8e76-e8970842d048","frontmatter":{"title":"月份与进制","template":"post","has_more_link":null,"more_link_text":null,"excerpt":"","canonical_url":"https://be-net.azurewebsites.net/post/2012/03/30/月份与进制","date":"2012-03-30 17:51:30.7388484","img_path":null,"positive_reactions_count":0,"stackbit_url_path":"posts/月份与进制"}}},{"node":{"excerpt":"","id":"2dba63e6-3170-5faf-ae7c-32ad99a276ce","frontmatter":{"title":"C# access modifiers’ scope","template":"post","has_more_link":null,"more_link_text":null,"excerpt":"","canonical_url":"https://be-net.azurewebsites.net/post/2012/03/29/C-access-modifiers’-scope","date":"2012-03-29 07:30:10.9993111","img_path":null,"positive_reactions_count":0,"stackbit_url_path":"posts/C-access-modifiers’-scope"}}},{"node":{"excerpt":"","id":"f2d289d1-ad6f-53eb-80c2-e5e9f1ced6d1","frontmatter":{"title":"图形统计计算器上线百度应用","template":"post","has_more_link":null,"more_link_text":null,"excerpt":"","canonical_url":"https://be-net.azurewebsites.net/post/2012/03/26/图形统计计算器上线百度应用","date":"2012-03-26 21:25:16.4036456","img_path":null,"positive_reactions_count":0,"stackbit_url_path":"posts/图形统计计算器上线百度应用"}}},{"node":{"excerpt":"","id":"ab440f23-bbfa-5f26-9bdb-29bc3428383d","frontmatter":{"title":"避孕套函数","template":"post","has_more_link":null,"more_link_text":null,"excerpt":"","canonical_url":"https://be-net.azurewebsites.net/post/2012/03/25/避孕套函数","date":"2012-03-25 03:21:05.5291988","img_path":null,"positive_reactions_count":0,"stackbit_url_path":"posts/避孕套函数"}}}]}},"pageContext":{"limit":5,"skip":330,"totalPages":187,"totalItems":931,"currentPage":67,"frontmatter":{"canonical_url":null,"comments_count":null,"title":"Home","template":"home","more_link_text":"Keep reading / 查看全部","date":null,"excerpt":"Jeff Tian's homepage","has_more_link":true},"url":"/","relativePath":"/","base":"","site":{"siteMetadata":{"title":"Jeff Tian","author":"@zizhujy","description":"A wild full stack developer","palette":"yellow","header":{"title":"Jeff Tian","tagline":"A wild developer","logo_img":"https://images.ctfassets.net/qixg1o8tujmf/7z1ua3nTOC5B7DwwzAki8I/4e1a05f8db770c285a492eeb1eaa398f/imageedit_3_2509022194.png","background_img":"https://images.ctfassets.net/qixg1o8tujmf/7m0jrKYaDBwEvlc5lo8nt6/6d50a5050d9cdc0d4d2047e35feac292/10648733_696750647079056_2800539603462658695_o.jpg","has_nav":true,"nav_links":[{"label":"Home","url":"/","style":"link","type":"action"},{"label":"About","url":"/about","style":"link","type":"action"},{"label":"关于","url":"https://ggyy.pa-pa.me/about","style":"link","icon_class":"lorem-ipsum","new_window":true,"type":"action"},{"label":"Contact","url":"/contact","style":"link","type":"action"},{"label":"Support Me","url":"/support-me","style":"link","type":"action"},{"label":"叽叽歪歪","url":"https://ggyy.pa-pa.me/","style":"link","icon_class":"lorem-ipsum","new_window":true,"type":"action"}],"has_social":true,"social_links":[{"label":"Twitter","url":"https://twitter.com/zizhujy","style":"icon","icon_class":"fa-twitter","new_window":true,"type":"action"},{"label":"Instagram","url":"https://www.instagram.com/jefftian5","style":"icon","icon_class":"fa-instagram","new_window":true,"type":"action"},{"label":"GitHub","url":"https://github.com/jeff-tian","style":"icon","icon_class":"fa-github","new_window":true,"type":"action"},{"label":"LinkedIn","url":"https://www.linkedin.com/jeff~tian","style":"icon","icon_class":"fa-linkedin","new_window":true,"type":"action"},{"label":"DEV","url":"https://dev.to/jefftian","style":"icon","icon_class":"fa-dev","new_window":true,"type":"action"},{"label":"知乎","url":"https://www.zhihu.com/people/jefftian","style":"icon","icon_class":"fa-zhihu","new_window":true,"type":"action"}],"type":"header"},"footer":{"content":"&copy; All rights reserved.","links":[{"label":"Made with Stackbit.","url":"https://www.stackbit.com","style":"link","new_window":true,"type":"action"},{"label":"紫竹叽歪","url":"https://zizhujy.apphb.com","style":"link","icon_class":"http://zizhujy.apphb.com/Content/Images/logo.png","new_window":true,"type":"action"}],"type":"footer"}},"pathPrefix":"","data":{"data":{"author":{"name":"Jeff Tian","avatar":"https://res.cloudinary.com/practicaldev/image/fetch/s--a5qDZLv3--/c_fill,f_auto,fl_progressive,h_640,q_auto,w_640/https://dev-to-uploads.s3.amazonaws.com/uploads/user/profile_image/318420/3bfd2d99-430c-4049-8dd5-e2adc961e1e0.png"},"social":{"devto":{"username":"jefftian"},"twitter":{"username":"zizhujy"},"github":{"username":"Jeff-Tian"}}}}},"menus":{}}},"staticQueryHashes":[],"slicesMap":{}}