{"componentChunkName":"component---src-templates-home-js","path":"/144","result":{"data":{"allMarkdownRemark":{"edges":[{"node":{"excerpt":"","id":"2ba705dd-0012-5540-bb4f-901101495160","frontmatter":{"title":"一张有意思的图片","template":"post","has_more_link":null,"more_link_text":null,"excerpt":"","canonical_url":"https://be-net.azurewebsites.net/post/2010/02/10/一张有意思的图片","date":"2010-02-10 01:25:47","img_path":null,"positive_reactions_count":0,"stackbit_url_path":"posts/一张有意思的图片"}}},{"node":{"excerpt":"proc gplot data=mydata;\nsymbol v=star;\nplot y*x;\nrun;","id":"765d7eab-ca5e-5599-a8a7-7f4834a8c8a7","frontmatter":{"title":"SAS 画散点图","template":"post","has_more_link":null,"more_link_text":null,"excerpt":"","canonical_url":"https://be-net.azurewebsites.net/post/2010/02/09/SAS-画散点图","date":"2010-02-09 15:31:52","img_path":null,"positive_reactions_count":0,"stackbit_url_path":"posts/SAS-画散点图"}}},{"node":{"excerpt":"","id":"3e1d18fd-107a-5373-ab34-2a6d1dba3104","frontmatter":{"title":"ZBlog 学习笔记（二）","template":"post","has_more_link":null,"more_link_text":null,"excerpt":"","canonical_url":"https://be-net.azurewebsites.net/post/2010/02/09/ZBlog-学习笔记（二）","date":"2010-02-09 13:49:32","img_path":null,"positive_reactions_count":0,"stackbit_url_path":"posts/ZBlog-学习笔记（二）"}}},{"node":{"excerpt":"' 目的：    检查参数，将弱类型 source 变量转换成指定的期望\n'           类型的变量\n'\n' 位置：    /FUNCTION/c_function.asp\n'\n' 参数：    source…","id":"fd25ca5f-84a7-517f-a4a3-78affcc03613","frontmatter":{"title":"ZBlog 学习笔记","template":"post","has_more_link":null,"more_link_text":null,"excerpt":"","canonical_url":"https://be-net.azurewebsites.net/post/2010/02/09/ZBlog-学习笔记","date":"2010-02-09 05:33:52","img_path":null,"positive_reactions_count":0,"stackbit_url_path":"posts/ZBlog-学习笔记"}}},{"node":{"excerpt":"","id":"0a28eefe-7951-550f-aae4-2ce73ebcedc5","frontmatter":{"title":"ASP 的 Execute  ","template":"post","has_more_link":null,"more_link_text":null,"excerpt":"","canonical_url":"https://be-net.azurewebsites.net/post/2010/02/09/ASP-的-Execute-","date":"2010-02-09 03:48:48","img_path":null,"positive_reactions_count":0,"stackbit_url_path":"posts/ASP-的-Execute-"}}}]}},"pageContext":{"limit":5,"skip":715,"totalPages":170,"totalItems":850,"currentPage":144,"frontmatter":{"canonical_url":null,"comments_count":null,"title":"Home","template":"home","more_link_text":"Keep reading / 查看全部","date":null,"excerpt":"Jeff Tian's homepage","has_more_link":true},"url":"/","relativePath":"/","base":"","site":{"siteMetadata":{"title":"Jeff Tian","description":"Full Stack Developer, good at OAuth 2.0","palette":"yellow","header":{"title":"Jeff Tian","tagline":"A wild developer","logo_img":"https://images.ctfassets.net/qixg1o8tujmf/7z1ua3nTOC5B7DwwzAki8I/4e1a05f8db770c285a492eeb1eaa398f/imageedit_3_2509022194.png","background_img":"https://images.ctfassets.net/qixg1o8tujmf/7m0jrKYaDBwEvlc5lo8nt6/6d50a5050d9cdc0d4d2047e35feac292/10648733_696750647079056_2800539603462658695_o.jpg","has_nav":true,"nav_links":[{"label":"Home","url":"/","style":"link","type":"action"},{"label":"About","url":"/about","style":"link","type":"action"},{"label":"关于","url":"https://ggyy.pa-pa.me/about","style":"link","icon_class":"lorem-ipsum","new_window":true,"type":"action"},{"label":"Contact","url":"/contact","style":"link","type":"action"},{"label":"Support Me","url":"/support-me","style":"link","type":"action"},{"label":"叽叽歪歪","url":"https://ggyy.pa-pa.me/","style":"link","icon_class":"lorem-ipsum","new_window":true,"type":"action"}],"has_social":true,"social_links":[{"label":"Twitter","url":"https://twitter.com/zizhujy","style":"icon","icon_class":"fa-twitter","new_window":true,"type":"action"},{"label":"Instagram","url":"https://www.instagram.com/jefftian5","style":"icon","icon_class":"fa-instagram","new_window":true,"type":"action"},{"label":"GitHub","url":"https://github.com/jeff-tian","style":"icon","icon_class":"fa-github","new_window":true,"type":"action"},{"label":"LinkedIn","url":"https://www.linkedin.com/jeff~tian","style":"icon","icon_class":"fa-linkedin","new_window":true,"type":"action"},{"label":"DEV","url":"https://dev.to/jefftian","style":"icon","icon_class":"fa-dev","new_window":true,"type":"action"},{"label":"知乎","url":"https://www.zhihu.com/people/jefftian","style":"icon","icon_class":"fa-zhihu","new_window":true,"type":"action"}],"type":"header"},"footer":{"content":"&copy; All rights reserved.","links":[{"label":"本站源码","url":"https://github.com/Jeff-Tian/space","style":"link","icon_class":"fa-github","new_window":true,"type":"action"},{"label":"紫竹叽歪","url":"https://zizhujy.apphb.com","style":"link","icon_class":"http://zizhujy.apphb.com/Content/Images/logo.png","new_window":true,"type":"action"}],"type":"footer"}},"pathPrefix":"","data":{"data":{"author":{"name":"Jeff Tian","avatar":"https://res.cloudinary.com/practicaldev/image/fetch/s--a5qDZLv3--/c_fill,f_auto,fl_progressive,h_640,q_auto,w_640/https://dev-to-uploads.s3.amazonaws.com/uploads/user/profile_image/318420/3bfd2d99-430c-4049-8dd5-e2adc961e1e0.png"},"social":{"devto":{"username":"jefftian"},"twitter":{"username":"zizhujy"},"github":{"username":"Jeff-Tian"}}}}},"menus":{}}},"staticQueryHashes":[]}