{"componentChunkName":"component---src-templates-home-js","path":"/157","result":{"data":{"allMarkdownRemark":{"edges":[{"node":{"excerpt":"","id":"449ce87c-c99e-5f26-818f-f5a44d6bab3e","frontmatter":{"title":"想变珍珠的沙子","template":"post","has_more_link":null,"more_link_text":null,"excerpt":"","canonical_url":"https://be-net.azurewebsites.net/post/2009/12/07/想变珍珠的沙子","date":"2009-12-07 07:08:20","img_path":null,"positive_reactions_count":0,"stackbit_url_path":"posts/想变珍珠的沙子"}}},{"node":{"excerpt":"","id":"b6a9f41a-3122-5675-8e31-b86689d6d95a","frontmatter":{"title":"一根意大利面条？<有意思的数学函数图形>","template":"post","has_more_link":null,"more_link_text":null,"excerpt":"","canonical_url":"https://be-net.azurewebsites.net/post/2009/12/06/一根意大利面条？&lt;有意思的数学函数图形&gt;","date":"2009-12-06 08:25:07","img_path":null,"positive_reactions_count":0,"stackbit_url_path":"posts/一根意大利面条？&lt;有意思的数学函数图形&gt;"}}},{"node":{"excerpt":"","id":"bf246fa5-83c4-5caa-9209-b22f2319c0ab","frontmatter":{"title":"在命令行下使用SMTP协议发送邮件","template":"post","has_more_link":null,"more_link_text":null,"excerpt":"","canonical_url":"https://be-net.azurewebsites.net/post/2009/12/04/在命令行下使用SMTP协议发送邮件","date":"2009-12-04 14:32:42","img_path":null,"positive_reactions_count":0,"stackbit_url_path":"posts/在命令行下使用SMTP协议发送邮件"}}},{"node":{"excerpt":"","id":"bd8ab5f6-fc9b-528e-b497-06e06eeccb2d","frontmatter":{"title":"在VC++中如何解决链接错误 LNK2001 之无法解析的外部符号 __imp__WSAStartup@8","template":"post","has_more_link":null,"more_link_text":null,"excerpt":"","canonical_url":"https://be-net.azurewebsites.net/post/2009/12/02/在VC++中如何解决链接错误-LNK2001-之无法解析的外部符号-__imp__WSAStartup8","date":"2009-12-02 01:43:25","img_path":null,"positive_reactions_count":0,"stackbit_url_path":"posts/在VC++中如何解决链接错误-LNK2001-之无法解析的外部符号-__imp__WSAStartup8"}}},{"node":{"excerpt":"","id":"b0609d53-43f6-5877-8c96-c43cc2a7274c","frontmatter":{"title":"TCP数据报的报文格式","template":"post","has_more_link":null,"more_link_text":null,"excerpt":"","canonical_url":"https://be-net.azurewebsites.net/post/2009/12/01/TCP数据报的报文格式","date":"2009-12-01 15:29:59","img_path":null,"positive_reactions_count":0,"stackbit_url_path":"posts/TCP数据报的报文格式"}}}]}},"pageContext":{"limit":5,"skip":780,"totalPages":165,"totalItems":824,"currentPage":157,"frontmatter":{"canonical_url":null,"comments_count":null,"title":"Home","template":"home","more_link_text":"Keep reading / 查看全部","date":null,"excerpt":"Jeff Tian's homepage","has_more_link":true},"url":"/","relativePath":"/","base":"","site":{"siteMetadata":{"title":"Jeff Tian","description":"A wild full stack developer","palette":"yellow","header":{"title":"Jeff Tian","tagline":"A wild developer","logo_img":"https://images.ctfassets.net/qixg1o8tujmf/7z1ua3nTOC5B7DwwzAki8I/4e1a05f8db770c285a492eeb1eaa398f/imageedit_3_2509022194.png","background_img":"https://images.ctfassets.net/qixg1o8tujmf/7m0jrKYaDBwEvlc5lo8nt6/6d50a5050d9cdc0d4d2047e35feac292/10648733_696750647079056_2800539603462658695_o.jpg","has_nav":true,"nav_links":[{"label":"Home","url":"/","style":"link","type":"action"},{"label":"About","url":"/about","style":"link","type":"action"},{"label":"关于","url":"https://ggyy.pa-pa.me/about","style":"link","icon_class":"lorem-ipsum","new_window":true,"type":"action"},{"label":"Contact","url":"/contact","style":"link","type":"action"},{"label":"Support Me","url":"/support-me","style":"link","type":"action"},{"label":"叽叽歪歪","url":"https://ggyy.pa-pa.me/","style":"link","icon_class":"lorem-ipsum","new_window":true,"type":"action"}],"has_social":true,"social_links":[{"label":"Twitter","url":"https://twitter.com/zizhujy","style":"icon","icon_class":"fa-twitter","new_window":true,"type":"action"},{"label":"Instagram","url":"https://www.instagram.com/jefftian5","style":"icon","icon_class":"fa-instagram","new_window":true,"type":"action"},{"label":"GitHub","url":"https://github.com/jeff-tian","style":"icon","icon_class":"fa-github","new_window":true,"type":"action"},{"label":"LinkedIn","url":"https://www.linkedin.com/jeff~tian","style":"icon","icon_class":"fa-linkedin","new_window":true,"type":"action"},{"label":"DEV","url":"https://dev.to/jefftian","style":"icon","icon_class":"fa-dev","new_window":true,"type":"action"},{"label":"知乎","url":"https://www.zhihu.com/people/jefftian","style":"icon","icon_class":"fa-zhihu","new_window":true,"type":"action"}],"type":"header"},"footer":{"content":"&copy; All rights reserved.","links":[{"label":"本站源码","url":"https://github.com/Jeff-Tian/space","style":"link","icon_class":"fa-github","new_window":true,"type":"action"},{"label":"紫竹叽歪","url":"https://zizhujy.apphb.com","style":"link","icon_class":"http://zizhujy.apphb.com/Content/Images/logo.png","new_window":true,"type":"action"}],"type":"footer"}},"pathPrefix":"","data":{"data":{"author":{"name":"Jeff Tian","avatar":"https://res.cloudinary.com/practicaldev/image/fetch/s--a5qDZLv3--/c_fill,f_auto,fl_progressive,h_640,q_auto,w_640/https://dev-to-uploads.s3.amazonaws.com/uploads/user/profile_image/318420/3bfd2d99-430c-4049-8dd5-e2adc961e1e0.png"},"social":{"devto":{"username":"jefftian"},"twitter":{"username":"zizhujy"},"github":{"username":"Jeff-Tian"}}}}},"menus":{}}},"staticQueryHashes":[]}