{"componentChunkName":"component---src-templates-home-js","path":"/87/","result":{"data":{"allMarkdownRemark":{"edges":[{"node":{"excerpt":"","id":"34d0288c-be83-5fe0-8742-f1116f7a8d9d","frontmatter":{"title":"JavaScript 版 StringBuffer 类","template":"post","has_more_link":null,"more_link_text":null,"excerpt":"本文介绍了大量字符串拼接操作潜在的问题，以及解决方法。并提供了一个JavaScript版本的StringBuffer类。","canonical_url":"https://be-net.azurewebsites.net/post/2011/08/02/StringBuffer-class-in-JavaScript","date":"2011-08-02 22:35:00","img_path":null,"positive_reactions_count":0,"stackbit_url_path":"posts/StringBuffer-class-in-JavaScript"}}},{"node":{"excerpt":"","id":"955a81ba-0b3f-549a-bc94-e8fe9e9c9689","frontmatter":{"title":"给JavaScript的String对象添加一个format方法","template":"post","has_more_link":null,"more_link_text":null,"excerpt":"本文给JavaScript的String对象添加了一个format()方法，使得在JavaScript中也能像在C#中一样使用 String.format(\"Current Page Index: {0}, Total Pages: {1}\", 10, 150)这样的语句了。","canonical_url":"https://be-net.azurewebsites.net/post/2011/08/02/add-format-method-to-string-object-in-javascript","date":"2011-08-02 03:53:00","img_path":null,"positive_reactions_count":0,"stackbit_url_path":"posts/add-format-method-to-string-object-in-javascript"}}},{"node":{"excerpt":"</head>","id":"461148a4-1022-5894-9da8-b4ada54a537d","frontmatter":{"title":"ASP.NET MVC 3 Razor Engine 给页面添加头元素的最佳实践","template":"post","has_more_link":null,"more_link_text":null,"excerpt":"在实际应用中，会有给页面元素添加头元素的需要。比如要在页面文档中添加SEO数据如description、keywords等，或者在文档头部添加CSS样式、javascript 脚本等。而这些不在ASP.NET MVC 3 Razor Engine的默认特性中。本文给出了增加此特性的最佳决方案。","canonical_url":"https://be-net.azurewebsites.net/post/2011/07/27/best-practice-of-adding-meta-data-to-page-in-ASPNET-MVC-3-Razor-Engine","date":"2011-07-27 06:45:00","img_path":null,"positive_reactions_count":0,"stackbit_url_path":"posts/best-practice-of-adding-meta-data-to-page-in-ASPNET-MVC-3-Razor-Engine"}}},{"node":{"excerpt":"","id":"30e7829f-d0f5-511e-af24-7947bdcc6c02","frontmatter":{"title":"博客迁移通告","template":"post","has_more_link":null,"more_link_text":null,"excerpt":"为了有更好的访问速度，本博客迁移至 紫竹叽歪。 http://www.zizhujy.com/blog","canonical_url":"https://be-net.azurewebsites.net/post/2011/07/26/博客迁移通告","date":"2011-07-26 17:12:00","img_path":null,"positive_reactions_count":0,"stackbit_url_path":"posts/博客迁移通告"}}},{"node":{"excerpt":"","id":"27862be3-d340-5149-82b4-e8c75dcea1cb","frontmatter":{"title":"更正BlogEngine.NET的日历显示","template":"post","has_more_link":null,"more_link_text":null,"excerpt":"本文解释了在BlogEngine.NET中，日历部件显示问题的出现原因，以及解决办法。","canonical_url":"https://be-net.azurewebsites.net/post/2011/07/26/Fix-Calendar-Display-Of-BlogEngineNET","date":"2011-07-26 08:22:00","img_path":null,"positive_reactions_count":0,"stackbit_url_path":"posts/Fix-Calendar-Display-Of-BlogEngineNET"}}}]}},"pageContext":{"limit":5,"skip":430,"totalPages":187,"totalItems":931,"currentPage":87,"frontmatter":{"canonical_url":null,"comments_count":null,"title":"Home","template":"home","more_link_text":"Keep reading / 查看全部","date":null,"excerpt":"Jeff Tian's homepage","has_more_link":true},"url":"/","relativePath":"/","base":"","site":{"siteMetadata":{"title":"Jeff Tian","author":"@zizhujy","description":"A wild full stack developer","palette":"yellow","header":{"title":"Jeff Tian","tagline":"A wild developer","logo_img":"https://images.ctfassets.net/qixg1o8tujmf/7z1ua3nTOC5B7DwwzAki8I/4e1a05f8db770c285a492eeb1eaa398f/imageedit_3_2509022194.png","background_img":"https://images.ctfassets.net/qixg1o8tujmf/7m0jrKYaDBwEvlc5lo8nt6/6d50a5050d9cdc0d4d2047e35feac292/10648733_696750647079056_2800539603462658695_o.jpg","has_nav":true,"nav_links":[{"label":"Home","url":"/","style":"link","type":"action"},{"label":"About","url":"/about","style":"link","type":"action"},{"label":"关于","url":"https://ggyy.pa-pa.me/about","style":"link","icon_class":"lorem-ipsum","new_window":true,"type":"action"},{"label":"Contact","url":"/contact","style":"link","type":"action"},{"label":"Support Me","url":"/support-me","style":"link","type":"action"},{"label":"叽叽歪歪","url":"https://ggyy.pa-pa.me/","style":"link","icon_class":"lorem-ipsum","new_window":true,"type":"action"}],"has_social":true,"social_links":[{"label":"Twitter","url":"https://twitter.com/zizhujy","style":"icon","icon_class":"fa-twitter","new_window":true,"type":"action"},{"label":"Instagram","url":"https://www.instagram.com/jefftian5","style":"icon","icon_class":"fa-instagram","new_window":true,"type":"action"},{"label":"GitHub","url":"https://github.com/jeff-tian","style":"icon","icon_class":"fa-github","new_window":true,"type":"action"},{"label":"LinkedIn","url":"https://www.linkedin.com/jeff~tian","style":"icon","icon_class":"fa-linkedin","new_window":true,"type":"action"},{"label":"DEV","url":"https://dev.to/jefftian","style":"icon","icon_class":"fa-dev","new_window":true,"type":"action"},{"label":"知乎","url":"https://www.zhihu.com/people/jefftian","style":"icon","icon_class":"fa-zhihu","new_window":true,"type":"action"}],"type":"header"},"footer":{"content":"&copy; All rights reserved.","links":[{"label":"Made with Stackbit.","url":"https://www.stackbit.com","style":"link","new_window":true,"type":"action"},{"label":"紫竹叽歪","url":"https://zizhujy.apphb.com","style":"link","icon_class":"http://zizhujy.apphb.com/Content/Images/logo.png","new_window":true,"type":"action"}],"type":"footer"}},"pathPrefix":"","data":{"data":{"author":{"name":"Jeff Tian","avatar":"https://res.cloudinary.com/practicaldev/image/fetch/s--a5qDZLv3--/c_fill,f_auto,fl_progressive,h_640,q_auto,w_640/https://dev-to-uploads.s3.amazonaws.com/uploads/user/profile_image/318420/3bfd2d99-430c-4049-8dd5-e2adc961e1e0.png"},"social":{"devto":{"username":"jefftian"},"twitter":{"username":"zizhujy"},"github":{"username":"Jeff-Tian"}}}}},"menus":{}}},"staticQueryHashes":[],"slicesMap":{}}