{"componentChunkName":"component---src-templates-home-js","path":"/147","result":{"data":{"allMarkdownRemark":{"edges":[{"node":{"excerpt":"Starting Nmap 5.21 ( http://nmap.org ) at 2010-01-30 21:30 中国标准时间\nNmap scan report for 192.168.1.1\nHost is up (0.0020s latency).\nNot shown…","id":"702489ae-6f11-5600-94e1-8c937dd64670","frontmatter":{"title":"使用 nmap 对局域网进行 UDP 扫描一例","template":"post","has_more_link":null,"more_link_text":null,"excerpt":"","canonical_url":"https://be-net.azurewebsites.net/post/2010/01/30/使用-nmap-对局域网进行-UDP-扫描一例","date":"2010-01-30 13:26:37","img_path":null,"positive_reactions_count":0,"stackbit_url_path":"posts/使用-nmap-对局域网进行-UDP-扫描一例"}}},{"node":{"excerpt":"","id":"26e7e434-452b-51ec-bd5c-63470e06a059","frontmatter":{"title":"使用 nmap 扫描局域网内所有主机的打开的端口","template":"post","has_more_link":null,"more_link_text":null,"excerpt":"","canonical_url":"https://be-net.azurewebsites.net/post/2010/01/30/使用-nmap-扫描局域网内所有主机的打开的端口","date":"2010-01-30 12:52:40","img_path":null,"positive_reactions_count":0,"stackbit_url_path":"posts/使用-nmap-扫描局域网内所有主机的打开的端口"}}},{"node":{"excerpt":"","id":"757bf659-8747-5332-8811-05d888ce8ded","frontmatter":{"title":"偏度","template":"post","has_more_link":null,"more_link_text":null,"excerpt":"","canonical_url":"https://be-net.azurewebsites.net/post/2010/01/29/偏度","date":"2010-01-29 15:23:29","img_path":null,"positive_reactions_count":0,"stackbit_url_path":"posts/偏度"}}},{"node":{"excerpt":"","id":"1858fea5-2342-5674-86c8-c7d0f0bc9407","frontmatter":{"title":"时间序列的平稳性","template":"post","has_more_link":null,"more_link_text":null,"excerpt":"","canonical_url":"https://be-net.azurewebsites.net/post/2010/01/29/时间序列的平稳性","date":"2010-01-29 11:31:39","img_path":null,"positive_reactions_count":0,"stackbit_url_path":"posts/时间序列的平稳性"}}},{"node":{"excerpt":"function mfDomKit() {\nthis.version = '1.…","id":"b1f0c600-7910-5b2a-a254-79fb0537568e","frontmatter":{"title":"使用 JavaScript 更改网页中Dom元素的显示与隐藏状态","template":"post","has_more_link":null,"more_link_text":null,"excerpt":"","canonical_url":"https://be-net.azurewebsites.net/post/2010/01/29/使用-JavaScript-更改网页中Dom元素的显示与隐藏状态","date":"2010-01-29 07:00:43","img_path":null,"positive_reactions_count":0,"stackbit_url_path":"posts/使用-JavaScript-更改网页中Dom元素的显示与隐藏状态"}}}]}},"pageContext":{"limit":5,"skip":730,"totalPages":169,"totalItems":842,"currentPage":147,"frontmatter":{"canonical_url":null,"comments_count":null,"title":"Home","template":"home","more_link_text":"Keep reading / 查看全部","date":null,"excerpt":"Jeff Tian's homepage","has_more_link":true},"url":"/","relativePath":"/","base":"","site":{"siteMetadata":{"title":"Jeff Tian","description":"A wild full stack developer","palette":"yellow","header":{"title":"Jeff Tian","tagline":"A wild developer","logo_img":"https://images.ctfassets.net/qixg1o8tujmf/7z1ua3nTOC5B7DwwzAki8I/4e1a05f8db770c285a492eeb1eaa398f/imageedit_3_2509022194.png","background_img":"https://images.ctfassets.net/qixg1o8tujmf/7m0jrKYaDBwEvlc5lo8nt6/6d50a5050d9cdc0d4d2047e35feac292/10648733_696750647079056_2800539603462658695_o.jpg","has_nav":true,"nav_links":[{"label":"Home","url":"/","style":"link","type":"action"},{"label":"About","url":"/about","style":"link","type":"action"},{"label":"关于","url":"https://ggyy.pa-pa.me/about","style":"link","icon_class":"lorem-ipsum","new_window":true,"type":"action"},{"label":"Contact","url":"/contact","style":"link","type":"action"},{"label":"Support Me","url":"/support-me","style":"link","type":"action"},{"label":"叽叽歪歪","url":"https://ggyy.pa-pa.me/","style":"link","icon_class":"lorem-ipsum","new_window":true,"type":"action"}],"has_social":true,"social_links":[{"label":"Twitter","url":"https://twitter.com/zizhujy","style":"icon","icon_class":"fa-twitter","new_window":true,"type":"action"},{"label":"Instagram","url":"https://www.instagram.com/jefftian5","style":"icon","icon_class":"fa-instagram","new_window":true,"type":"action"},{"label":"GitHub","url":"https://github.com/jeff-tian","style":"icon","icon_class":"fa-github","new_window":true,"type":"action"},{"label":"LinkedIn","url":"https://www.linkedin.com/jeff~tian","style":"icon","icon_class":"fa-linkedin","new_window":true,"type":"action"},{"label":"DEV","url":"https://dev.to/jefftian","style":"icon","icon_class":"fa-dev","new_window":true,"type":"action"},{"label":"知乎","url":"https://www.zhihu.com/people/jefftian","style":"icon","icon_class":"fa-zhihu","new_window":true,"type":"action"}],"type":"header"},"footer":{"content":"&copy; All rights reserved.","links":[{"label":"本站源码","url":"https://github.com/Jeff-Tian/space","style":"link","icon_class":"fa-github","new_window":true,"type":"action"},{"label":"紫竹叽歪","url":"https://zizhujy.apphb.com","style":"link","icon_class":"http://zizhujy.apphb.com/Content/Images/logo.png","new_window":true,"type":"action"}],"type":"footer"}},"pathPrefix":"","data":{"data":{"author":{"name":"Jeff Tian","avatar":"https://res.cloudinary.com/practicaldev/image/fetch/s--a5qDZLv3--/c_fill,f_auto,fl_progressive,h_640,q_auto,w_640/https://dev-to-uploads.s3.amazonaws.com/uploads/user/profile_image/318420/3bfd2d99-430c-4049-8dd5-e2adc961e1e0.png"},"social":{"devto":{"username":"jefftian"},"twitter":{"username":"zizhujy"},"github":{"username":"Jeff-Tian"}}}}},"menus":{}}},"staticQueryHashes":[]}