{"componentChunkName":"component---src-templates-home-js","path":"/121","result":{"data":{"allMarkdownRemark":{"edges":[{"node":{"excerpt":"","id":"4e6717e3-a1b5-52d0-a1e0-b0c42ee8f645","frontmatter":{"title":"南无阿弥陀佛是什么意思？","template":"post","has_more_link":null,"more_link_text":null,"excerpt":"","canonical_url":"https://be-net.azurewebsites.net/post/2010/03/14/南无阿弥陀佛是什么意思？","date":"2010-03-14 13:53:08","img_path":null,"positive_reactions_count":0,"stackbit_url_path":"posts/南无阿弥陀佛是什么意思？"}}},{"node":{"excerpt":"","id":"27e60156-4af1-5dc8-aa77-984e9805d61f","frontmatter":{"title":"我对于公平的理解：公平是宏观的","template":"post","has_more_link":null,"more_link_text":null,"excerpt":"","canonical_url":"https://be-net.azurewebsites.net/post/2010/03/12/我对于公平的理解：公平是宏观的","date":"2010-03-12 14:45:30","img_path":null,"positive_reactions_count":0,"stackbit_url_path":"posts/我对于公平的理解：公平是宏观的"}}},{"node":{"excerpt":"","id":"48cacec7-bb34-5c28-a4d3-73cf3c437111","frontmatter":{"title":"震惊！Oracle 收购了 Sun！","template":"post","has_more_link":null,"more_link_text":null,"excerpt":"","canonical_url":"https://be-net.azurewebsites.net/post/2010/03/12/震惊！Oracle-收购了-Sun！","date":"2010-03-12 08:18:49","img_path":null,"positive_reactions_count":0,"stackbit_url_path":"posts/震惊！Oracle-收购了-Sun！"}}},{"node":{"excerpt":"%>\n<%\n'\n' 将指定的二进制串转换成特定编码的文本\n'\nPublic Function Cbns2TextStream(ByRef bns, ByRef sCharset)\nDim stm %>","id":"6002fc50-3b1b-57df-9e48-9d0d1180153e","frontmatter":{"title":"涂鸦网页代理文件的改进版 version 1.0","template":"post","has_more_link":null,"more_link_text":null,"excerpt":"","canonical_url":"https://be-net.azurewebsites.net/post/2010/03/12/涂鸦网页代理文件的改进版-version-10","date":"2010-03-12 06:48:00","img_path":null,"positive_reactions_count":0,"stackbit_url_path":"posts/涂鸦网页代理文件的改进版-version-10"}}},{"node":{"excerpt":"","id":"05f1323b-73be-5b67-b2af-aebdc1247b3a","frontmatter":{"title":"求一般的ARMA模型的自协方差函数","template":"post","has_more_link":null,"more_link_text":null,"excerpt":"","canonical_url":"https://be-net.azurewebsites.net/post/2010/03/12/求一般的ARMA模型的自协方差函数","date":"2010-03-12 06:14:51","img_path":null,"positive_reactions_count":0,"stackbit_url_path":"posts/求一般的ARMA模型的自协方差函数"}}}]}},"pageContext":{"limit":5,"skip":600,"totalPages":165,"totalItems":824,"currentPage":121,"frontmatter":{"canonical_url":null,"comments_count":null,"title":"Home","template":"home","more_link_text":"Keep reading / 查看全部","date":null,"excerpt":"Jeff Tian's homepage","has_more_link":true},"url":"/","relativePath":"/","base":"","site":{"siteMetadata":{"title":"Jeff Tian","description":"A wild full stack developer","palette":"yellow","header":{"title":"Jeff Tian","tagline":"A wild developer","logo_img":"https://images.ctfassets.net/qixg1o8tujmf/7z1ua3nTOC5B7DwwzAki8I/4e1a05f8db770c285a492eeb1eaa398f/imageedit_3_2509022194.png","background_img":"https://images.ctfassets.net/qixg1o8tujmf/7m0jrKYaDBwEvlc5lo8nt6/6d50a5050d9cdc0d4d2047e35feac292/10648733_696750647079056_2800539603462658695_o.jpg","has_nav":true,"nav_links":[{"label":"Home","url":"/","style":"link","type":"action"},{"label":"About","url":"/about","style":"link","type":"action"},{"label":"关于","url":"https://ggyy.pa-pa.me/about","style":"link","icon_class":"lorem-ipsum","new_window":true,"type":"action"},{"label":"Contact","url":"/contact","style":"link","type":"action"},{"label":"Support Me","url":"/support-me","style":"link","type":"action"},{"label":"叽叽歪歪","url":"https://ggyy.pa-pa.me/","style":"link","icon_class":"lorem-ipsum","new_window":true,"type":"action"}],"has_social":true,"social_links":[{"label":"Twitter","url":"https://twitter.com/zizhujy","style":"icon","icon_class":"fa-twitter","new_window":true,"type":"action"},{"label":"Instagram","url":"https://www.instagram.com/jefftian5","style":"icon","icon_class":"fa-instagram","new_window":true,"type":"action"},{"label":"GitHub","url":"https://github.com/jeff-tian","style":"icon","icon_class":"fa-github","new_window":true,"type":"action"},{"label":"LinkedIn","url":"https://www.linkedin.com/jeff~tian","style":"icon","icon_class":"fa-linkedin","new_window":true,"type":"action"},{"label":"DEV","url":"https://dev.to/jefftian","style":"icon","icon_class":"fa-dev","new_window":true,"type":"action"},{"label":"知乎","url":"https://www.zhihu.com/people/jefftian","style":"icon","icon_class":"fa-zhihu","new_window":true,"type":"action"}],"type":"header"},"footer":{"content":"&copy; All rights reserved.","links":[{"label":"本站源码","url":"https://github.com/Jeff-Tian/space","style":"link","icon_class":"fa-github","new_window":true,"type":"action"},{"label":"紫竹叽歪","url":"https://zizhujy.apphb.com","style":"link","icon_class":"http://zizhujy.apphb.com/Content/Images/logo.png","new_window":true,"type":"action"}],"type":"footer"}},"pathPrefix":"","data":{"data":{"author":{"name":"Jeff Tian","avatar":"https://res.cloudinary.com/practicaldev/image/fetch/s--a5qDZLv3--/c_fill,f_auto,fl_progressive,h_640,q_auto,w_640/https://dev-to-uploads.s3.amazonaws.com/uploads/user/profile_image/318420/3bfd2d99-430c-4049-8dd5-e2adc961e1e0.png"},"social":{"devto":{"username":"jefftian"},"twitter":{"username":"zizhujy"},"github":{"username":"Jeff-Tian"}}}}},"menus":{}}},"staticQueryHashes":[]}