{"componentChunkName":"component---src-templates-home-js","path":"/127/","result":{"data":{"allMarkdownRemark":{"edges":[{"node":{"excerpt":"","id":"c33106d1-8d34-5969-a742-6f4f5cfeec58","frontmatter":{"title":"摘录","template":"post","has_more_link":null,"more_link_text":null,"excerpt":"","canonical_url":"https://be-net.azurewebsites.net/post/2010/04/03/摘录","date":"2010-04-03 09:48:25","img_path":null,"positive_reactions_count":0,"stackbit_url_path":"posts/摘录"}}},{"node":{"excerpt":"","id":"eda0f094-daf2-5653-8cee-83d9eedfa14d","frontmatter":{"title":"温思罗普谈到的两种自由","template":"post","has_more_link":null,"more_link_text":null,"excerpt":"","canonical_url":"https://be-net.azurewebsites.net/post/2010/04/03/温思罗普谈到的两种自由","date":"2010-04-03 09:42:13","img_path":null,"positive_reactions_count":0,"stackbit_url_path":"posts/温思罗普谈到的两种自由"}}},{"node":{"excerpt":"-->\n</style>\n<div class=\"workflow\">\n<div class=\"item\">\n<div class=\"left\">\n<div class=\"top\">\n<div class=\"left\"></div>\n<div class=\"right…","id":"650d2a57-ac64-5ef6-8b1c-b006a2c38586","frontmatter":{"title":"用DIV + CSS 打造垂直V形列表","template":"post","has_more_link":null,"more_link_text":null,"excerpt":"","canonical_url":"https://be-net.azurewebsites.net/post/2010/04/03/用DIV-+-CSS-打造垂直V形列表","date":"2010-04-03 09:26:29","img_path":null,"positive_reactions_count":0,"stackbit_url_path":"posts/用DIV-+-CSS-打造垂直V形列表"}}},{"node":{"excerpt":"","id":"3419b532-1fa8-5097-bbc0-fa42c4a87736","frontmatter":{"title":"清教徒的感恩之心","template":"post","has_more_link":null,"more_link_text":null,"excerpt":"","canonical_url":"https://be-net.azurewebsites.net/post/2010/04/03/清教徒的感恩之心","date":"2010-04-03 09:11:56","img_path":null,"positive_reactions_count":0,"stackbit_url_path":"posts/清教徒的感恩之心"}}},{"node":{"excerpt":"","id":"41cd9abd-e1ef-5780-b6f7-f959e5a182d7","frontmatter":{"title":"酷站推荐","template":"post","has_more_link":null,"more_link_text":null,"excerpt":"","canonical_url":"https://be-net.azurewebsites.net/post/2010/04/02/酷站推荐","date":"2010-04-02 17:36:21","img_path":null,"positive_reactions_count":0,"stackbit_url_path":"posts/酷站推荐"}}}]}},"pageContext":{"limit":5,"skip":630,"totalPages":187,"totalItems":931,"currentPage":127,"frontmatter":{"canonical_url":null,"comments_count":null,"title":"Home","template":"home","more_link_text":"Keep reading / 查看全部","date":null,"excerpt":"Jeff Tian's homepage","has_more_link":true},"url":"/","relativePath":"/","base":"","site":{"siteMetadata":{"title":"Jeff Tian","author":"@zizhujy","description":"A wild full stack developer","palette":"yellow","header":{"title":"Jeff Tian","tagline":"A wild developer","logo_img":"https://images.ctfassets.net/qixg1o8tujmf/7z1ua3nTOC5B7DwwzAki8I/4e1a05f8db770c285a492eeb1eaa398f/imageedit_3_2509022194.png","background_img":"https://images.ctfassets.net/qixg1o8tujmf/7m0jrKYaDBwEvlc5lo8nt6/6d50a5050d9cdc0d4d2047e35feac292/10648733_696750647079056_2800539603462658695_o.jpg","has_nav":true,"nav_links":[{"label":"Home","url":"/","style":"link","type":"action"},{"label":"About","url":"/about","style":"link","type":"action"},{"label":"关于","url":"https://ggyy.pa-pa.me/about","style":"link","icon_class":"lorem-ipsum","new_window":true,"type":"action"},{"label":"Contact","url":"/contact","style":"link","type":"action"},{"label":"Support Me","url":"/support-me","style":"link","type":"action"},{"label":"叽叽歪歪","url":"https://ggyy.pa-pa.me/","style":"link","icon_class":"lorem-ipsum","new_window":true,"type":"action"}],"has_social":true,"social_links":[{"label":"Twitter","url":"https://twitter.com/zizhujy","style":"icon","icon_class":"fa-twitter","new_window":true,"type":"action"},{"label":"Instagram","url":"https://www.instagram.com/jefftian5","style":"icon","icon_class":"fa-instagram","new_window":true,"type":"action"},{"label":"GitHub","url":"https://github.com/jeff-tian","style":"icon","icon_class":"fa-github","new_window":true,"type":"action"},{"label":"LinkedIn","url":"https://www.linkedin.com/jeff~tian","style":"icon","icon_class":"fa-linkedin","new_window":true,"type":"action"},{"label":"DEV","url":"https://dev.to/jefftian","style":"icon","icon_class":"fa-dev","new_window":true,"type":"action"},{"label":"知乎","url":"https://www.zhihu.com/people/jefftian","style":"icon","icon_class":"fa-zhihu","new_window":true,"type":"action"}],"type":"header"},"footer":{"content":"&copy; All rights reserved.","links":[{"label":"Made with Stackbit.","url":"https://www.stackbit.com","style":"link","new_window":true,"type":"action"},{"label":"紫竹叽歪","url":"https://zizhujy.apphb.com","style":"link","icon_class":"http://zizhujy.apphb.com/Content/Images/logo.png","new_window":true,"type":"action"}],"type":"footer"}},"pathPrefix":"","data":{"data":{"author":{"name":"Jeff Tian","avatar":"https://res.cloudinary.com/practicaldev/image/fetch/s--a5qDZLv3--/c_fill,f_auto,fl_progressive,h_640,q_auto,w_640/https://dev-to-uploads.s3.amazonaws.com/uploads/user/profile_image/318420/3bfd2d99-430c-4049-8dd5-e2adc961e1e0.png"},"social":{"devto":{"username":"jefftian"},"twitter":{"username":"zizhujy"},"github":{"username":"Jeff-Tian"}}}}},"menus":{}}},"staticQueryHashes":[],"slicesMap":{}}