{"componentChunkName":"component---src-templates-home-js","path":"/151/","result":{"data":{"allMarkdownRemark":{"edges":[{"node":{"excerpt":"","id":"3d2ba852-80da-5020-8d10-d2e7f35cff08","frontmatter":{"title":"Flash 8 的序列号","template":"post","has_more_link":null,"more_link_text":null,"excerpt":"","canonical_url":"https://be-net.azurewebsites.net/post/2010/03/01/Flash-8-的序列号","date":"2010-03-01 08:16:45","img_path":null,"positive_reactions_count":0,"stackbit_url_path":"posts/Flash-8-的序列号"}}},{"node":{"excerpt":"","id":"fbc788f3-7169-5e33-9cab-ad99ae41302f","frontmatter":{"title":"文明社会中的粗野","template":"post","has_more_link":null,"more_link_text":null,"excerpt":"","canonical_url":"https://be-net.azurewebsites.net/post/2010/03/01/文明社会中的粗野","date":"2010-03-01 08:05:42","img_path":null,"positive_reactions_count":0,"stackbit_url_path":"posts/文明社会中的粗野"}}},{"node":{"excerpt":"","id":"03101a0b-5b7d-581b-bdb7-fb7b722ff9fb","frontmatter":{"title":"地球是个婴儿","template":"post","has_more_link":null,"more_link_text":null,"excerpt":"","canonical_url":"https://be-net.azurewebsites.net/post/2010/02/28/地球是个婴儿","date":"2010-02-28 06:31:57","img_path":null,"positive_reactions_count":0,"stackbit_url_path":"posts/地球是个婴儿"}}},{"node":{"excerpt":"","id":"b2f0df52-cf0e-5aee-831c-2a6a23af2bbc","frontmatter":{"title":"做下棋的人","template":"post","has_more_link":null,"more_link_text":null,"excerpt":"","canonical_url":"https://be-net.azurewebsites.net/post/2010/02/27/做下棋的人","date":"2010-02-27 05:47:49","img_path":null,"positive_reactions_count":0,"stackbit_url_path":"posts/做下棋的人"}}},{"node":{"excerpt":"","id":"6e864c2f-87e2-5949-82ca-349b697c48a1","frontmatter":{"title":"《ASP.NET 3.5 入门》第 2 章 练习","template":"post","has_more_link":null,"more_link_text":null,"excerpt":"","canonical_url":"https://be-net.azurewebsites.net/post/2010/02/26/《ASPNET-35-入门》第-2-章-练习","date":"2010-02-26 06:44:26","img_path":null,"positive_reactions_count":0,"stackbit_url_path":"posts/《ASPNET-35-入门》第-2-章-练习"}}}]}},"pageContext":{"limit":5,"skip":750,"totalPages":187,"totalItems":931,"currentPage":151,"frontmatter":{"canonical_url":null,"comments_count":null,"title":"Home","template":"home","more_link_text":"Keep reading / 查看全部","date":null,"excerpt":"Jeff Tian's homepage","has_more_link":true},"url":"/","relativePath":"/","base":"","site":{"siteMetadata":{"title":"Jeff Tian","author":"@zizhujy","description":"A wild full stack developer","palette":"yellow","header":{"title":"Jeff Tian","tagline":"A wild developer","logo_img":"https://images.ctfassets.net/qixg1o8tujmf/7z1ua3nTOC5B7DwwzAki8I/4e1a05f8db770c285a492eeb1eaa398f/imageedit_3_2509022194.png","background_img":"https://images.ctfassets.net/qixg1o8tujmf/7m0jrKYaDBwEvlc5lo8nt6/6d50a5050d9cdc0d4d2047e35feac292/10648733_696750647079056_2800539603462658695_o.jpg","has_nav":true,"nav_links":[{"label":"Home","url":"/","style":"link","type":"action"},{"label":"About","url":"/about","style":"link","type":"action"},{"label":"关于","url":"https://ggyy.pa-pa.me/about","style":"link","icon_class":"lorem-ipsum","new_window":true,"type":"action"},{"label":"Contact","url":"/contact","style":"link","type":"action"},{"label":"Support Me","url":"/support-me","style":"link","type":"action"},{"label":"叽叽歪歪","url":"https://ggyy.pa-pa.me/","style":"link","icon_class":"lorem-ipsum","new_window":true,"type":"action"}],"has_social":true,"social_links":[{"label":"Twitter","url":"https://twitter.com/zizhujy","style":"icon","icon_class":"fa-twitter","new_window":true,"type":"action"},{"label":"Instagram","url":"https://www.instagram.com/jefftian5","style":"icon","icon_class":"fa-instagram","new_window":true,"type":"action"},{"label":"GitHub","url":"https://github.com/jeff-tian","style":"icon","icon_class":"fa-github","new_window":true,"type":"action"},{"label":"LinkedIn","url":"https://www.linkedin.com/jeff~tian","style":"icon","icon_class":"fa-linkedin","new_window":true,"type":"action"},{"label":"DEV","url":"https://dev.to/jefftian","style":"icon","icon_class":"fa-dev","new_window":true,"type":"action"},{"label":"知乎","url":"https://www.zhihu.com/people/jefftian","style":"icon","icon_class":"fa-zhihu","new_window":true,"type":"action"}],"type":"header"},"footer":{"content":"&copy; All rights reserved.","links":[{"label":"Made with Stackbit.","url":"https://www.stackbit.com","style":"link","new_window":true,"type":"action"},{"label":"紫竹叽歪","url":"https://zizhujy.apphb.com","style":"link","icon_class":"http://zizhujy.apphb.com/Content/Images/logo.png","new_window":true,"type":"action"}],"type":"footer"}},"pathPrefix":"","data":{"data":{"author":{"name":"Jeff Tian","avatar":"https://res.cloudinary.com/practicaldev/image/fetch/s--a5qDZLv3--/c_fill,f_auto,fl_progressive,h_640,q_auto,w_640/https://dev-to-uploads.s3.amazonaws.com/uploads/user/profile_image/318420/3bfd2d99-430c-4049-8dd5-e2adc961e1e0.png"},"social":{"devto":{"username":"jefftian"},"twitter":{"username":"zizhujy"},"github":{"username":"Jeff-Tian"}}}}},"menus":{}}},"staticQueryHashes":[],"slicesMap":{}}