{"componentChunkName":"component---src-templates-home-js","path":"/43/","result":{"data":{"allMarkdownRemark":{"edges":[{"node":{"excerpt":"缘起 前几天学习了 AWS Lambda，非常棒。首先，未来的开发者都会是云原生的，就是说，他们所有的开发工作都会在云上进行，而 AWS Lambda…","id":"44052243-e6a8-5bf8-b268-2696d33bed59","frontmatter":{"title":"使用 Mocha 和 Chai 测试驱动开发 AWS Lambda API","template":"post","has_more_link":null,"more_link_text":null,"excerpt":"","canonical_url":null,"date":"2021-02-21T08:58:59","img_path":null,"positive_reactions_count":null,"stackbit_url_path":"posts/gghbmx"}}},{"node":{"excerpt":"自我认知和定位 我是一名全栈开发者。尽管我目前的官方职位是资深后端开发工程师，但是我有前端工程实战经验，以前也做过测试工程师，拥有多元视角，对系统有整体的认识。尽管我最近 6 年专注在 NodeJs…","id":"dffa5367-2fbe-5d59-8dbb-f84e07287870","frontmatter":{"title":"我是谁？","template":"post","has_more_link":null,"more_link_text":null,"excerpt":"","canonical_url":null,"date":"2021-02-21T06:25:44","img_path":null,"positive_reactions_count":null,"stackbit_url_path":"posts/iysdhg"}}},{"node":{"excerpt":"使用 Mozilla SOPS 来加密 Kubernetes 集群中的敏感信息 Kubernetes 已经成为运行容器工作负载的事实标准，在很多大型企业的数字开放平台也处于中心地位。然而，和 Kubernetes…","id":"767be5dc-1d62-5b99-b6c5-aa8f0369eeb5","frontmatter":{"title":"加密 Kubernetes 集群中的敏感信息","template":"post","has_more_link":null,"more_link_text":null,"excerpt":"","canonical_url":null,"date":"2021-02-19T12:08:40","img_path":null,"positive_reactions_count":null,"stackbit_url_path":"posts/zb1gdu"}}},{"node":{"excerpt":"…","id":"6bdecf34-fb9b-5e11-8a06-13dd302e2f6a","frontmatter":{"title":"做纯洁的人，写纯洁的代码","template":"post","has_more_link":null,"more_link_text":null,"excerpt":"","canonical_url":null,"date":"2021-02-18T12:16:03","img_path":null,"positive_reactions_count":null,"stackbit_url_path":"posts/giuoee"}}},{"node":{"excerpt":"从 2013 年开始，我开始尝试股权投资。因为听过太多关于 A 股的负面消息，所以还是很怕的。但决定下马过河，自己一定得试一试。于是特别小心，从几千块钱开始，累计到现在一共投入了 10 万左右，目前市值接近 3…","id":"8928f5ac-f2f3-5648-9f55-1f2aab75eba8","frontmatter":{"title":"在股市上赚钱是可能的，即使是 A 股","template":"post","has_more_link":null,"more_link_text":null,"excerpt":"","canonical_url":null,"date":"2021-02-17T05:02:13","img_path":null,"positive_reactions_count":null,"stackbit_url_path":"posts/vkl18e"}}}]}},"pageContext":{"limit":5,"skip":210,"totalPages":187,"totalItems":931,"currentPage":43,"frontmatter":{"canonical_url":null,"comments_count":null,"title":"Home","template":"home","more_link_text":"Keep reading / 查看全部","date":null,"excerpt":"Jeff Tian's homepage","has_more_link":true},"url":"/","relativePath":"/","base":"","site":{"siteMetadata":{"title":"Jeff Tian","author":"@zizhujy","description":"A wild full stack developer","palette":"yellow","header":{"title":"Jeff Tian","tagline":"A wild developer","logo_img":"https://images.ctfassets.net/qixg1o8tujmf/7z1ua3nTOC5B7DwwzAki8I/4e1a05f8db770c285a492eeb1eaa398f/imageedit_3_2509022194.png","background_img":"https://images.ctfassets.net/qixg1o8tujmf/7m0jrKYaDBwEvlc5lo8nt6/6d50a5050d9cdc0d4d2047e35feac292/10648733_696750647079056_2800539603462658695_o.jpg","has_nav":true,"nav_links":[{"label":"Home","url":"/","style":"link","type":"action"},{"label":"About","url":"/about","style":"link","type":"action"},{"label":"关于","url":"https://ggyy.pa-pa.me/about","style":"link","icon_class":"lorem-ipsum","new_window":true,"type":"action"},{"label":"Contact","url":"/contact","style":"link","type":"action"},{"label":"Support Me","url":"/support-me","style":"link","type":"action"},{"label":"叽叽歪歪","url":"https://ggyy.pa-pa.me/","style":"link","icon_class":"lorem-ipsum","new_window":true,"type":"action"}],"has_social":true,"social_links":[{"label":"Twitter","url":"https://twitter.com/zizhujy","style":"icon","icon_class":"fa-twitter","new_window":true,"type":"action"},{"label":"Instagram","url":"https://www.instagram.com/jefftian5","style":"icon","icon_class":"fa-instagram","new_window":true,"type":"action"},{"label":"GitHub","url":"https://github.com/jeff-tian","style":"icon","icon_class":"fa-github","new_window":true,"type":"action"},{"label":"LinkedIn","url":"https://www.linkedin.com/jeff~tian","style":"icon","icon_class":"fa-linkedin","new_window":true,"type":"action"},{"label":"DEV","url":"https://dev.to/jefftian","style":"icon","icon_class":"fa-dev","new_window":true,"type":"action"},{"label":"知乎","url":"https://www.zhihu.com/people/jefftian","style":"icon","icon_class":"fa-zhihu","new_window":true,"type":"action"}],"type":"header"},"footer":{"content":"&copy; All rights reserved.","links":[{"label":"Made with Stackbit.","url":"https://www.stackbit.com","style":"link","new_window":true,"type":"action"},{"label":"紫竹叽歪","url":"https://zizhujy.apphb.com","style":"link","icon_class":"http://zizhujy.apphb.com/Content/Images/logo.png","new_window":true,"type":"action"}],"type":"footer"}},"pathPrefix":"","data":{"data":{"author":{"name":"Jeff Tian","avatar":"https://res.cloudinary.com/practicaldev/image/fetch/s--a5qDZLv3--/c_fill,f_auto,fl_progressive,h_640,q_auto,w_640/https://dev-to-uploads.s3.amazonaws.com/uploads/user/profile_image/318420/3bfd2d99-430c-4049-8dd5-e2adc961e1e0.png"},"social":{"devto":{"username":"jefftian"},"twitter":{"username":"zizhujy"},"github":{"username":"Jeff-Tian"}}}}},"menus":{}}},"staticQueryHashes":[],"slicesMap":{}}