{"componentChunkName":"component---src-templates-home-js","path":"/31","result":{"data":{"allMarkdownRemark":{"edges":[{"node":{"excerpt":"…","id":"6bdecf34-fb9b-5e11-8a06-13dd302e2f6a","frontmatter":{"title":"做纯洁的人，写纯洁的代码","template":"post","has_more_link":null,"more_link_text":null,"excerpt":"","canonical_url":null,"date":"2021-02-18T12:16:03","img_path":null,"positive_reactions_count":null,"stackbit_url_path":"posts/giuoee"}}},{"node":{"excerpt":"从 2013 年开始，我开始尝试股权投资。因为听过太多关于 A 股的负面消息，所以还是很怕的。但决定下马过河，自己一定得试一试。于是特别小心，从几千块钱开始，累计到现在一共投入了 10 万左右，目前市值接近 3…","id":"8928f5ac-f2f3-5648-9f55-1f2aab75eba8","frontmatter":{"title":"在股市上赚钱是可能的，即使是 A 股","template":"post","has_more_link":null,"more_link_text":null,"excerpt":"","canonical_url":null,"date":"2021-02-17T05:02:13","img_path":null,"positive_reactions_count":null,"stackbit_url_path":"posts/vkl18e"}}},{"node":{"excerpt":"前面聊过，作为程序员，如果不尽早晋升，在 3…","id":"7736f246-4d10-5c4d-b5d8-5c1b460c0c10","frontmatter":{"title":"程序员影响产品经理的利器","template":"post","has_more_link":null,"more_link_text":null,"excerpt":"","canonical_url":null,"date":"2021-02-15T08:52:07","img_path":null,"positive_reactions_count":null,"stackbit_url_path":"posts/tk12p8"}}},{"node":{"excerpt":"《5 天学会画画》 我本来不喜欢那种速成教材，号称 30 天学会英语，7 天学会编程等等。但是却被一本书吸引到了：《5 天学会画画》。几年前一口气看完，今天又看了一遍作者录的视频，也是一口气看完。 当然，由于是一口气看完，所以只花了几个小时，远没有花到…","id":"ec12be7a-57b2-5765-b3fa-f72a37948bde","frontmatter":{"title":"阴形思维的妙用","template":"post","has_more_link":null,"more_link_text":null,"excerpt":"","canonical_url":null,"date":"2021-02-14T07:31:26","img_path":null,"positive_reactions_count":null,"stackbit_url_path":"posts/xd2s4g"}}},{"node":{"excerpt":"某乎上有个热门问题：3…","id":"7b3bc215-2265-55a8-812b-15a0556fb705","frontmatter":{"title":"我，不想做外卖员","template":"post","has_more_link":null,"more_link_text":null,"excerpt":"","canonical_url":null,"date":"2021-02-13T14:00:05","img_path":null,"positive_reactions_count":null,"stackbit_url_path":"posts/myltwz"}}}]}},"pageContext":{"limit":5,"skip":150,"totalPages":174,"totalItems":868,"currentPage":31,"frontmatter":{"canonical_url":null,"comments_count":null,"title":"Home","template":"home","more_link_text":"Keep reading / 查看全部","date":null,"excerpt":"Jeff Tian's homepage","has_more_link":true},"url":"/","relativePath":"/","base":"","site":{"siteMetadata":{"title":"Jeff Tian","description":"A wild full stack developer","palette":"yellow","header":{"title":"Jeff Tian","tagline":"A wild developer","logo_img":"https://images.ctfassets.net/qixg1o8tujmf/7z1ua3nTOC5B7DwwzAki8I/4e1a05f8db770c285a492eeb1eaa398f/imageedit_3_2509022194.png","background_img":"https://images.ctfassets.net/qixg1o8tujmf/7m0jrKYaDBwEvlc5lo8nt6/6d50a5050d9cdc0d4d2047e35feac292/10648733_696750647079056_2800539603462658695_o.jpg","has_nav":true,"nav_links":[{"label":"Home","url":"/","style":"link","type":"action"},{"label":"About","url":"/about","style":"link","type":"action"},{"label":"关于","url":"https://ggyy.pa-pa.me/about","style":"link","icon_class":"lorem-ipsum","new_window":true,"type":"action"},{"label":"Contact","url":"/contact","style":"link","type":"action"},{"label":"Support Me","url":"/support-me","style":"link","type":"action"},{"label":"叽叽歪歪","url":"https://ggyy.pa-pa.me/","style":"link","icon_class":"lorem-ipsum","new_window":true,"type":"action"}],"has_social":true,"social_links":[{"label":"Twitter","url":"https://twitter.com/zizhujy","style":"icon","icon_class":"fa-twitter","new_window":true,"type":"action"},{"label":"Instagram","url":"https://www.instagram.com/jefftian5","style":"icon","icon_class":"fa-instagram","new_window":true,"type":"action"},{"label":"GitHub","url":"https://github.com/jeff-tian","style":"icon","icon_class":"fa-github","new_window":true,"type":"action"},{"label":"LinkedIn","url":"https://www.linkedin.com/jeff~tian","style":"icon","icon_class":"fa-linkedin","new_window":true,"type":"action"},{"label":"DEV","url":"https://dev.to/jefftian","style":"icon","icon_class":"fa-dev","new_window":true,"type":"action"},{"label":"知乎","url":"https://www.zhihu.com/people/jefftian","style":"icon","icon_class":"fa-zhihu","new_window":true,"type":"action"}],"type":"header"},"footer":{"content":"&copy; All rights reserved.","links":[{"label":"Made with Stackbit.","url":"https://www.stackbit.com","style":"link","new_window":true,"type":"action"},{"label":"紫竹叽歪","url":"https://zizhujy.apphb.com","style":"link","icon_class":"http://zizhujy.apphb.com/Content/Images/logo.png","new_window":true,"type":"action"}],"type":"footer"}},"pathPrefix":"","data":{"data":{"author":{"name":"Jeff Tian","avatar":"https://res.cloudinary.com/practicaldev/image/fetch/s--a5qDZLv3--/c_fill,f_auto,fl_progressive,h_640,q_auto,w_640/https://dev-to-uploads.s3.amazonaws.com/uploads/user/profile_image/318420/3bfd2d99-430c-4049-8dd5-e2adc961e1e0.png"},"social":{"devto":{"username":"jefftian"},"twitter":{"username":"zizhujy"},"github":{"username":"Jeff-Tian"}}}}},"menus":{}}},"staticQueryHashes":[]}