{"componentChunkName":"component---src-templates-home-js","path":"/74","result":{"data":{"allMarkdownRemark":{"edges":[{"node":{"excerpt":"The ping protocol allows a client machine to send a packet of data to a remote machine, and have the remote machine return the data back to…","id":"7fbac24a-b5e8-5ef3-b6df-bb67f56c0620","frontmatter":{"title":"自己写一个基于UDP的Ping客户机与服务器程序","template":"post","has_more_link":null,"more_link_text":null,"excerpt":"","canonical_url":"https://be-net.azurewebsites.net/post/2011/06/18/自己写一个基于UDP的Ping客户机与服务器程序","date":"2011-06-18 06:30:51","img_path":null,"positive_reactions_count":0,"stackbit_url_path":"posts/自己写一个基于UDP的Ping客户机与服务器程序"}}},{"node":{"excerpt":"","id":"67d953bd-535c-59f1-a737-f2957be4e059","frontmatter":{"title":"何为裤子内长？","template":"post","has_more_link":null,"more_link_text":null,"excerpt":"","canonical_url":"https://be-net.azurewebsites.net/post/2011/06/17/何为裤子内长？","date":"2011-06-17 09:28:41","img_path":null,"positive_reactions_count":0,"stackbit_url_path":"posts/何为裤子内长？"}}},{"node":{"excerpt":"","id":"90e78b80-36c6-5035-96cc-1ffa1e8001de","frontmatter":{"title":"一个奇怪的梦","template":"post","has_more_link":null,"more_link_text":null,"excerpt":"","canonical_url":"https://be-net.azurewebsites.net/post/2011/06/16/一个奇怪的梦","date":"2011-06-16 17:20:43","img_path":null,"positive_reactions_count":0,"stackbit_url_path":"posts/一个奇怪的梦"}}},{"node":{"excerpt":"","id":"6965750f-63de-55d0-a943-76a8708be2a8","frontmatter":{"title":"关于英语","template":"post","has_more_link":null,"more_link_text":null,"excerpt":"","canonical_url":"https://be-net.azurewebsites.net/post/2011/06/15/关于英语","date":"2011-06-15 06:54:52","img_path":null,"positive_reactions_count":0,"stackbit_url_path":"posts/关于英语"}}},{"node":{"excerpt":"<h2>@ViewBag.Message</h2>\n<p> </p> namespace zizhujy.Controllers\n{\npublic class HomeController : Controller\n{\npublic ActionResult Index…","id":"ae93944c-3b27-549a-a4c1-3068a83b5bec","frontmatter":{"title":"Best Practices for Localization of ASP.NET MVC 3","template":"post","has_more_link":null,"more_link_text":null,"excerpt":"","canonical_url":"https://be-net.azurewebsites.net/post/2011/06/13/Localization-in-ASPNET-MVC-3-Best-Practice","date":"2011-06-13 07:24:00","img_path":null,"positive_reactions_count":0,"stackbit_url_path":"posts/Localization-in-ASPNET-MVC-3-Best-Practice"}}}]}},"pageContext":{"limit":5,"skip":365,"totalPages":170,"totalItems":850,"currentPage":74,"frontmatter":{"canonical_url":null,"comments_count":null,"title":"Home","template":"home","more_link_text":"Keep reading / 查看全部","date":null,"excerpt":"Jeff Tian's homepage","has_more_link":true},"url":"/","relativePath":"/","base":"","site":{"siteMetadata":{"title":"Jeff Tian","description":"Full Stack Developer, good at OAuth 2.0","palette":"yellow","header":{"title":"Jeff Tian","tagline":"A wild developer","logo_img":"https://images.ctfassets.net/qixg1o8tujmf/7z1ua3nTOC5B7DwwzAki8I/4e1a05f8db770c285a492eeb1eaa398f/imageedit_3_2509022194.png","background_img":"https://images.ctfassets.net/qixg1o8tujmf/7m0jrKYaDBwEvlc5lo8nt6/6d50a5050d9cdc0d4d2047e35feac292/10648733_696750647079056_2800539603462658695_o.jpg","has_nav":true,"nav_links":[{"label":"Home","url":"/","style":"link","type":"action"},{"label":"About","url":"/about","style":"link","type":"action"},{"label":"关于","url":"https://ggyy.pa-pa.me/about","style":"link","icon_class":"lorem-ipsum","new_window":true,"type":"action"},{"label":"Contact","url":"/contact","style":"link","type":"action"},{"label":"Support Me","url":"/support-me","style":"link","type":"action"},{"label":"叽叽歪歪","url":"https://ggyy.pa-pa.me/","style":"link","icon_class":"lorem-ipsum","new_window":true,"type":"action"}],"has_social":true,"social_links":[{"label":"Twitter","url":"https://twitter.com/zizhujy","style":"icon","icon_class":"fa-twitter","new_window":true,"type":"action"},{"label":"Instagram","url":"https://www.instagram.com/jefftian5","style":"icon","icon_class":"fa-instagram","new_window":true,"type":"action"},{"label":"GitHub","url":"https://github.com/jeff-tian","style":"icon","icon_class":"fa-github","new_window":true,"type":"action"},{"label":"LinkedIn","url":"https://www.linkedin.com/jeff~tian","style":"icon","icon_class":"fa-linkedin","new_window":true,"type":"action"},{"label":"DEV","url":"https://dev.to/jefftian","style":"icon","icon_class":"fa-dev","new_window":true,"type":"action"},{"label":"知乎","url":"https://www.zhihu.com/people/jefftian","style":"icon","icon_class":"fa-zhihu","new_window":true,"type":"action"}],"type":"header"},"footer":{"content":"&copy; All rights reserved.","links":[{"label":"本站源码","url":"https://github.com/Jeff-Tian/space","style":"link","icon_class":"fa-github","new_window":true,"type":"action"},{"label":"紫竹叽歪","url":"https://zizhujy.apphb.com","style":"link","icon_class":"http://zizhujy.apphb.com/Content/Images/logo.png","new_window":true,"type":"action"}],"type":"footer"}},"pathPrefix":"","data":{"data":{"author":{"name":"Jeff Tian","avatar":"https://res.cloudinary.com/practicaldev/image/fetch/s--a5qDZLv3--/c_fill,f_auto,fl_progressive,h_640,q_auto,w_640/https://dev-to-uploads.s3.amazonaws.com/uploads/user/profile_image/318420/3bfd2d99-430c-4049-8dd5-e2adc961e1e0.png"},"social":{"devto":{"username":"jefftian"},"twitter":{"username":"zizhujy"},"github":{"username":"Jeff-Tian"}}}}},"menus":{}}},"staticQueryHashes":[]}