{"componentChunkName":"component---src-templates-home-js","path":"/30","result":{"data":{"allMarkdownRemark":{"edges":[{"node":{"excerpt":"问题 期初借入一笔钱，月利率为 i。问：其等价的年利率 r 是多少？\n 分析 为了简单起见，假设期初借入的是 1 块钱。这 1 块钱经过 12 个月，也就是一年后，变成了：即\n 结论","id":"b5a97609-8f2e-51c6-8cfa-71ad04d81158","frontmatter":{"title":"贷款计算：月利率换年化利率","template":"post","has_more_link":null,"more_link_text":null,"excerpt":"","canonical_url":null,"date":"2020-03-29T07:44:36","img_path":null,"positive_reactions_count":null,"stackbit_url_path":"posts/mmcpk3"}}},{"node":{"excerpt":"I added a Layout Feature to the Latex Workshop and published it as Tex Workshop .  Layout Feature You can create a layout.tex under the…","id":"14ccdabd-6824-5ced-a957-20cb6efb83a6","frontmatter":{"title":"Tex Workshop vscode extension","template":"post","has_more_link":null,"more_link_text":null,"excerpt":"","canonical_url":null,"date":"2020-03-09T14:43:15","img_path":null,"positive_reactions_count":null,"stackbit_url_path":"posts/roa7f9"}}},{"node":{"excerpt":"Sympton shell\nvagrant@vagrant-ubuntu-trusty-64:~$ docker start mongoDB\nError response from daemon: OCI runtime create failed: container…","id":"4e5bc32b-bcaa-5371-b796-f086090b9416","frontmatter":{"title":"[Solved]docker start error:  copying bootstrap data to pipe caused write init-p: broken pipe","template":"post","has_more_link":null,"more_link_text":null,"excerpt":"","canonical_url":null,"date":"2020-02-27T05:27:23","img_path":null,"positive_reactions_count":null,"stackbit_url_path":"posts/nal6rz"}}},{"node":{"excerpt":"Sympton: TypeScript Webpack Project with StoryBook enabled, when running npm run storybook the following error occurs: powershell\nERROR in…","id":"00a9ee98-3c25-5a59-8427-d0909e752616","frontmatter":{"title":"[Workaround] webpack error: Variable require must be of type Require, but here has type NodeRequire.","template":"post","has_more_link":null,"more_link_text":null,"excerpt":"","canonical_url":null,"date":"2020-02-18T03:53:17","img_path":null,"positive_reactions_count":null,"stackbit_url_path":"posts/ze4cvy"}}},{"node":{"excerpt":"问题： 在 macOS 编写的一些操作 docker 的脚本，想要不用修改，直接在 Windows cmd 上运行。\n 解决方案： 安装 bash  scoop install bash  bash -c export DOCKER_HOST=tcp://0.0.0.0:237…","id":"efba6d85-f930-517b-bf94-c68cba3247b7","frontmatter":{"title":"在 Windows 上运行 shell docker 脚本","template":"post","has_more_link":null,"more_link_text":null,"excerpt":"","canonical_url":null,"date":"2020-02-11T05:03:54","img_path":null,"positive_reactions_count":null,"stackbit_url_path":"posts/sgx82e"}}}]}},"pageContext":{"limit":5,"skip":145,"totalPages":170,"totalItems":850,"currentPage":30,"frontmatter":{"canonical_url":null,"comments_count":null,"title":"Home","template":"home","more_link_text":"Keep reading / 查看全部","date":null,"excerpt":"Jeff Tian's homepage","has_more_link":true},"url":"/","relativePath":"/","base":"","site":{"siteMetadata":{"title":"Jeff Tian","description":"Full Stack Developer, good at OAuth 2.0","palette":"yellow","header":{"title":"Jeff Tian","tagline":"A wild developer","logo_img":"https://images.ctfassets.net/qixg1o8tujmf/7z1ua3nTOC5B7DwwzAki8I/4e1a05f8db770c285a492eeb1eaa398f/imageedit_3_2509022194.png","background_img":"https://images.ctfassets.net/qixg1o8tujmf/7m0jrKYaDBwEvlc5lo8nt6/6d50a5050d9cdc0d4d2047e35feac292/10648733_696750647079056_2800539603462658695_o.jpg","has_nav":true,"nav_links":[{"label":"Home","url":"/","style":"link","type":"action"},{"label":"About","url":"/about","style":"link","type":"action"},{"label":"关于","url":"https://ggyy.pa-pa.me/about","style":"link","icon_class":"lorem-ipsum","new_window":true,"type":"action"},{"label":"Contact","url":"/contact","style":"link","type":"action"},{"label":"Support Me","url":"/support-me","style":"link","type":"action"},{"label":"叽叽歪歪","url":"https://ggyy.pa-pa.me/","style":"link","icon_class":"lorem-ipsum","new_window":true,"type":"action"}],"has_social":true,"social_links":[{"label":"Twitter","url":"https://twitter.com/zizhujy","style":"icon","icon_class":"fa-twitter","new_window":true,"type":"action"},{"label":"Instagram","url":"https://www.instagram.com/jefftian5","style":"icon","icon_class":"fa-instagram","new_window":true,"type":"action"},{"label":"GitHub","url":"https://github.com/jeff-tian","style":"icon","icon_class":"fa-github","new_window":true,"type":"action"},{"label":"LinkedIn","url":"https://www.linkedin.com/jeff~tian","style":"icon","icon_class":"fa-linkedin","new_window":true,"type":"action"},{"label":"DEV","url":"https://dev.to/jefftian","style":"icon","icon_class":"fa-dev","new_window":true,"type":"action"},{"label":"知乎","url":"https://www.zhihu.com/people/jefftian","style":"icon","icon_class":"fa-zhihu","new_window":true,"type":"action"}],"type":"header"},"footer":{"content":"&copy; All rights reserved.","links":[{"label":"本站源码","url":"https://github.com/Jeff-Tian/space","style":"link","icon_class":"fa-github","new_window":true,"type":"action"},{"label":"紫竹叽歪","url":"https://zizhujy.apphb.com","style":"link","icon_class":"http://zizhujy.apphb.com/Content/Images/logo.png","new_window":true,"type":"action"}],"type":"footer"}},"pathPrefix":"","data":{"data":{"author":{"name":"Jeff Tian","avatar":"https://res.cloudinary.com/practicaldev/image/fetch/s--a5qDZLv3--/c_fill,f_auto,fl_progressive,h_640,q_auto,w_640/https://dev-to-uploads.s3.amazonaws.com/uploads/user/profile_image/318420/3bfd2d99-430c-4049-8dd5-e2adc961e1e0.png"},"social":{"devto":{"username":"jefftian"},"twitter":{"username":"zizhujy"},"github":{"username":"Jeff-Tian"}}}}},"menus":{}}},"staticQueryHashes":[]}