{"componentChunkName":"component---src-templates-home-js","path":"/46","result":{"data":{"allMarkdownRemark":{"edges":[{"node":{"excerpt":"","id":"17a0e440-16b5-5400-a6b2-e068377bc3cc","frontmatter":{"title":"How to remove the password of a VBA project 如何移除VBA工程密码","template":"post","has_more_link":null,"more_link_text":null,"excerpt":"","canonical_url":"https://be-net.azurewebsites.net/post/2011/05/25/How-to-remove-the-password-of-a-VBA-project-如何移除VBA工程密码","date":"2011-05-25 23:22:00","img_path":null,"positive_reactions_count":0,"stackbit_url_path":"posts/How-to-remove-the-password-of-a-VBA-project-如何移除VBA工程密码"}}},{"node":{"excerpt":"","id":"34268975-e7b0-5cd1-a8ff-b317c3e023a2","frontmatter":{"title":"Good hosting provider 一个很好的虚拟主机提供商","template":"post","has_more_link":null,"more_link_text":null,"excerpt":"","canonical_url":"https://be-net.azurewebsites.net/post/2011/05/25/Good-hosting-provider-一个很好的虚拟主机提供商","date":"2011-05-25 09:27:00","img_path":null,"positive_reactions_count":0,"stackbit_url_path":"posts/Good-hosting-provider-一个很好的虚拟主机提供商"}}},{"node":{"excerpt":"","id":"0ebdfb11-5e87-51e6-a62b-a7494fd0e16a","frontmatter":{"title":"Facebook 上的一则给力广告","template":"post","has_more_link":null,"more_link_text":null,"excerpt":"","canonical_url":"https://be-net.azurewebsites.net/post/2011/05/17/Facebook-e4b88ae79a84e4b880e58899e7bb99e58a9be5b9bfe5918a","date":"2011-05-17 08:31:00","img_path":null,"positive_reactions_count":0,"stackbit_url_path":"posts/Facebook-e4b88ae79a84e4b880e58899e7bb99e58a9be5b9bfe5918a"}}},{"node":{"excerpt":"","id":"5cd43661-a394-5586-8500-bdb9bd7c3dfa","frontmatter":{"title":"癌细胞其实很爱你，比你自己还要爱","template":"post","has_more_link":null,"more_link_text":null,"excerpt":"","canonical_url":"https://be-net.azurewebsites.net/post/2011/04/18/e7998ce7bb86e8839ee585b6e5ae9ee5be88e788b1e4bda0efbc8ce6af94e4bda0e887aae5b7b1e8bf98e8a681e788b1","date":"2011-04-18 07:00:00","img_path":null,"positive_reactions_count":0,"stackbit_url_path":"posts/e7998ce7bb86e8839ee585b6e5ae9ee5be88e788b1e4bda0efbc8ce6af94e4bda0e887aae5b7b1e8bf98e8a681e788b1"}}},{"node":{"excerpt":"BEGIN END","id":"c8268824-c238-50be-a9bb-e093303e5d04","frontmatter":{"title":"求算法","template":"post","has_more_link":null,"more_link_text":null,"excerpt":"","canonical_url":"https://be-net.azurewebsites.net/post/2011/03/16/e6b182e7ae97e6b395","date":"2011-03-16 06:58:00","img_path":null,"positive_reactions_count":0,"stackbit_url_path":"posts/e6b182e7ae97e6b395"}}}]}},"pageContext":{"limit":5,"skip":225,"totalPages":140,"totalItems":699,"currentPage":46,"frontmatter":{"canonical_url":null,"comments_count":null,"title":"Home","template":"home","more_link_text":"Keep reading / 查看全部","date":null,"excerpt":"Jeff Tian's homepage","has_more_link":true},"url":"/","relativePath":"/","base":"","site":{"siteMetadata":{"title":"Jeff Tian","description":"Full Stack Developer, good at OAuth 2.0","palette":"yellow","header":{"title":"Jeff Tian","tagline":"A wild developer","logo_img":"https://images.ctfassets.net/qixg1o8tujmf/7z1ua3nTOC5B7DwwzAki8I/4e1a05f8db770c285a492eeb1eaa398f/imageedit_3_2509022194.png","background_img":"https://images.ctfassets.net/qixg1o8tujmf/7m0jrKYaDBwEvlc5lo8nt6/6d50a5050d9cdc0d4d2047e35feac292/10648733_696750647079056_2800539603462658695_o.jpg","has_nav":true,"nav_links":[{"label":"Home","url":"/","style":"link","type":"action"},{"label":"About","url":"/about","style":"link","type":"action"},{"label":"关于","url":"https://ggyy.pa-pa.me/about","style":"link","icon_class":"lorem-ipsum","new_window":true,"type":"action"},{"label":"Contact","url":"/contact","style":"link","type":"action"},{"label":"Support Me","url":"/support-me","style":"link","type":"action"},{"label":"叽叽歪歪","url":"https://ggyy.pa-pa.me/","style":"link","icon_class":"lorem-ipsum","new_window":true,"type":"action"}],"has_social":true,"social_links":[{"label":"Twitter","url":"https://twitter.com/zizhujy","style":"icon","icon_class":"fa-twitter","new_window":true,"type":"action"},{"label":"Instagram","url":"https://www.instagram.com/jefftian5","style":"icon","icon_class":"fa-instagram","new_window":true,"type":"action"},{"label":"GitHub","url":"https://github.com/jeff-tian","style":"icon","icon_class":"fa-github","new_window":true,"type":"action"},{"label":"LinkedIn","url":"https://www.linkedin.com/jeff~tian","style":"icon","icon_class":"fa-linkedin","new_window":true,"type":"action"},{"label":"DEV","url":"https://dev.to/jefftian","style":"icon","icon_class":"fa-dev","new_window":true,"type":"action"},{"label":"知乎","url":"https://www.zhihu.com/people/jefftian","style":"icon","icon_class":"fa-zhihu","new_window":true,"type":"action"}],"type":"header"},"footer":{"content":"&copy; All rights reserved.","links":[{"label":"本站源码","url":"https://github.com/Jeff-Tian/space","style":"link","icon_class":"fa-github","new_window":true,"type":"action"},{"label":"紫竹叽歪","url":"https://zizhujy.apphb.com","style":"link","icon_class":"http://zizhujy.apphb.com/Content/Images/logo.png","new_window":true,"type":"action"}],"type":"footer"}},"pathPrefix":"","data":{"data":{"author":{"name":"Jeff Tian","avatar":"https://res.cloudinary.com/practicaldev/image/fetch/s--a5qDZLv3--/c_fill,f_auto,fl_progressive,h_640,q_auto,w_640/https://dev-to-uploads.s3.amazonaws.com/uploads/user/profile_image/318420/3bfd2d99-430c-4049-8dd5-e2adc961e1e0.png"},"social":{"devto":{"username":"jefftian"},"twitter":{"username":"zizhujy"},"github":{"username":"Jeff-Tian"}}}}},"menus":{}}},"staticQueryHashes":[]}