{"componentChunkName":"component---src-templates-home-js","path":"/82/","result":{"data":{"allMarkdownRemark":{"edges":[{"node":{"excerpt":"","id":"a877b26f-6bf2-5dd4-9320-aa483bc8ac39","frontmatter":{"title":"【转】visual studio 2008 试用版评估期已结束的解决方法","template":"post","has_more_link":null,"more_link_text":null,"excerpt":"","canonical_url":"https://be-net.azurewebsites.net/post/2010/05/25/【转】visual-studio-2008-试用版评估期已结束的解决方法","date":"2010-05-25 02:24:28","img_path":null,"positive_reactions_count":0,"stackbit_url_path":"posts/【转】visual-studio-2008-试用版评估期已结束的解决方法"}}},{"node":{"excerpt":"public final class WebServer {\npublic static void main(String argv[]) throws Exception {\n// Set the port number\nint port = 6789; } final…","id":"9b24ad0e-3e30-52b2-850f-29633f99b694","frontmatter":{"title":"自己动手编写一个Web服务器（二）","template":"post","has_more_link":null,"more_link_text":null,"excerpt":"","canonical_url":"https://be-net.azurewebsites.net/post/2010/05/22/自己动手编写一个Web服务器（二）","date":"2010-05-22 16:17:06","img_path":null,"positive_reactions_count":0,"stackbit_url_path":"posts/自己动手编写一个Web服务器（二）"}}},{"node":{"excerpt":"public class MyWebServer {\npublic static String WebRoot = \"C:\\Inetpub\"; }","id":"788d42dc-989d-5dd6-b17e-e32dc38599bd","frontmatter":{"title":"自己动手编写一个Web服务器","template":"post","has_more_link":null,"more_link_text":null,"excerpt":"","canonical_url":"https://be-net.azurewebsites.net/post/2010/05/22/自己动手编写一个Web服务器","date":"2010-05-22 13:01:00","img_path":null,"positive_reactions_count":0,"stackbit_url_path":"posts/自己动手编写一个Web服务器"}}},{"node":{"excerpt":"","id":"3b12759b-6adb-51d8-b3de-a8aff0a64e1f","frontmatter":{"title":"为DetailsView添加删除警告确认对话框","template":"post","has_more_link":null,"more_link_text":null,"excerpt":"","canonical_url":"https://be-net.azurewebsites.net/post/2010/05/18/为DetailsView添加删除警告确认对话框","date":"2010-05-18 09:45:43","img_path":null,"positive_reactions_count":0,"stackbit_url_path":"posts/为DetailsView添加删除警告确认对话框"}}},{"node":{"excerpt":"-->\n</style> <p><a title=\"我是一个链接按钮\" target=\"_self\" class=\"button\" href=\"#\">我是一个链接按钮</a></p>","id":"1ff71720-df45-5936-8be6-9b061d3008ce","frontmatter":{"title":"一个CSS链接按钮","template":"post","has_more_link":null,"more_link_text":null,"excerpt":"","canonical_url":"https://be-net.azurewebsites.net/post/2010/05/17/一个CSS链接按钮","date":"2010-05-17 10:22:54","img_path":null,"positive_reactions_count":0,"stackbit_url_path":"posts/一个CSS链接按钮"}}}]}},"pageContext":{"limit":5,"skip":405,"totalPages":159,"totalItems":793,"currentPage":82,"frontmatter":{"canonical_url":null,"comments_count":null,"title":"Home","template":"home","more_link_text":"Keep reading / 查看全部","date":null,"excerpt":"Jeff Tian's homepage","has_more_link":true},"url":"/","relativePath":"/","base":"","site":{"siteMetadata":{"title":"Jeff Tian","author":"@zizhujy","description":"A wild full stack developer","palette":"yellow","header":{"title":"Jeff Tian","tagline":"A wild developer","logo_img":"https://images.ctfassets.net/qixg1o8tujmf/7z1ua3nTOC5B7DwwzAki8I/4e1a05f8db770c285a492eeb1eaa398f/imageedit_3_2509022194.png","background_img":"https://images.ctfassets.net/qixg1o8tujmf/7m0jrKYaDBwEvlc5lo8nt6/6d50a5050d9cdc0d4d2047e35feac292/10648733_696750647079056_2800539603462658695_o.jpg","has_nav":true,"nav_links":[{"label":"Home","url":"/","style":"link","type":"action"},{"label":"About","url":"/about","style":"link","type":"action"},{"label":"关于","url":"https://ggyy.pa-pa.me/about","style":"link","icon_class":"lorem-ipsum","new_window":true,"type":"action"},{"label":"Contact","url":"/contact","style":"link","type":"action"},{"label":"Support Me","url":"/support-me","style":"link","type":"action"},{"label":"叽叽歪歪","url":"https://ggyy.pa-pa.me/","style":"link","icon_class":"lorem-ipsum","new_window":true,"type":"action"}],"has_social":true,"social_links":[{"label":"Twitter","url":"https://twitter.com/zizhujy","style":"icon","icon_class":"fa-twitter","new_window":true,"type":"action"},{"label":"Instagram","url":"https://www.instagram.com/jefftian5","style":"icon","icon_class":"fa-instagram","new_window":true,"type":"action"},{"label":"GitHub","url":"https://github.com/jeff-tian","style":"icon","icon_class":"fa-github","new_window":true,"type":"action"},{"label":"LinkedIn","url":"https://www.linkedin.com/jeff~tian","style":"icon","icon_class":"fa-linkedin","new_window":true,"type":"action"},{"label":"DEV","url":"https://dev.to/jefftian","style":"icon","icon_class":"fa-dev","new_window":true,"type":"action"},{"label":"知乎","url":"https://www.zhihu.com/people/jefftian","style":"icon","icon_class":"fa-zhihu","new_window":true,"type":"action"}],"type":"header"},"footer":{"content":"&copy; All rights reserved.","links":[{"label":"Made with Stackbit.","url":"https://www.stackbit.com","style":"link","new_window":true,"type":"action"},{"label":"紫竹叽歪","url":"https://zizhujy.apphb.com","style":"link","icon_class":"http://zizhujy.apphb.com/Content/Images/logo.png","new_window":true,"type":"action"}],"type":"footer"}},"pathPrefix":"","data":{"data":{"author":{"name":"Jeff Tian","avatar":"https://res.cloudinary.com/practicaldev/image/fetch/s--a5qDZLv3--/c_fill,f_auto,fl_progressive,h_640,q_auto,w_640/https://dev-to-uploads.s3.amazonaws.com/uploads/user/profile_image/318420/3bfd2d99-430c-4049-8dd5-e2adc961e1e0.png"},"social":{"devto":{"username":"jefftian"},"twitter":{"username":"zizhujy"},"github":{"username":"Jeff-Tian"}}}}}}},"staticQueryHashes":[],"slicesMap":{}}