{"componentChunkName":"component---src-templates-home-js","path":"/116/","result":{"data":{"allMarkdownRemark":{"edges":[{"node":{"excerpt":"","id":"70f705a6-3ff7-51ec-9dba-7bd296a30f5e","frontmatter":{"title":"做一个中间层的人","template":"post","has_more_link":null,"more_link_text":null,"excerpt":"","canonical_url":"https://be-net.azurewebsites.net/post/2010/04/22/做一个中间层的人","date":"2010-04-22 06:19:50","img_path":null,"positive_reactions_count":0,"stackbit_url_path":"posts/做一个中间层的人"}}},{"node":{"excerpt":"GO\n PRINT CAST(@WorkingIn AS varchar) + ' Triangular is ' + CAST(@WorkingOut AS varchar);\n END","id":"be835d4b-f0d0-5ed7-a1db-793ab00f0bc3","frontmatter":{"title":"SQL Server 2008 编程入门经典 第13章练习","template":"post","has_more_link":null,"more_link_text":null,"excerpt":"","canonical_url":"https://be-net.azurewebsites.net/post/2010/04/22/SQL-Server-2008-编程入门经典-第13章练习","date":"2010-04-22 05:31:01","img_path":null,"positive_reactions_count":0,"stackbit_url_path":"posts/SQL-Server-2008-编程入门经典-第13章练习"}}},{"node":{"excerpt":"","id":"dd265ef8-f3e3-51bb-90c1-0b08efb9ca96","frontmatter":{"title":"SQL 查询指定日期的记录","template":"post","has_more_link":null,"more_link_text":null,"excerpt":"","canonical_url":"https://be-net.azurewebsites.net/post/2010/04/22/SQL-查询指定日期的记录","date":"2010-04-22 04:18:48","img_path":null,"positive_reactions_count":0,"stackbit_url_path":"posts/SQL-查询指定日期的记录"}}},{"node":{"excerpt":"","id":"7fd21cc1-086b-5460-98d4-5ac24dd6fe07","frontmatter":{"title":"哈药集团总经理姜林奎","template":"post","has_more_link":null,"more_link_text":null,"excerpt":"","canonical_url":"https://be-net.azurewebsites.net/post/2010/04/21/哈药集团总经理姜林奎","date":"2010-04-21 14:32:55","img_path":null,"positive_reactions_count":0,"stackbit_url_path":"posts/哈药集团总经理姜林奎"}}},{"node":{"excerpt":"","id":"f22fc2d2-3eef-54db-9e79-2b3c827a52d5","frontmatter":{"title":"命名空间System.Web中不存在类型或命名空间名称 Compilation","template":"post","has_more_link":null,"more_link_text":null,"excerpt":"","canonical_url":"https://be-net.azurewebsites.net/post/2010/04/21/命名空间SystemWeb中不存在类型或命名空间名称-Compilation","date":"2010-04-21 08:31:18","img_path":null,"positive_reactions_count":0,"stackbit_url_path":"posts/命名空间SystemWeb中不存在类型或命名空间名称-Compilation"}}}]}},"pageContext":{"limit":5,"skip":575,"totalPages":187,"totalItems":931,"currentPage":116,"frontmatter":{"canonical_url":null,"comments_count":null,"title":"Home","template":"home","more_link_text":"Keep reading / 查看全部","date":null,"excerpt":"Jeff Tian's homepage","has_more_link":true},"url":"/","relativePath":"/","base":"","site":{"siteMetadata":{"title":"Jeff Tian","author":"@zizhujy","description":"A wild full stack developer","palette":"yellow","header":{"title":"Jeff Tian","tagline":"A wild developer","logo_img":"https://images.ctfassets.net/qixg1o8tujmf/7z1ua3nTOC5B7DwwzAki8I/4e1a05f8db770c285a492eeb1eaa398f/imageedit_3_2509022194.png","background_img":"https://images.ctfassets.net/qixg1o8tujmf/7m0jrKYaDBwEvlc5lo8nt6/6d50a5050d9cdc0d4d2047e35feac292/10648733_696750647079056_2800539603462658695_o.jpg","has_nav":true,"nav_links":[{"label":"Home","url":"/","style":"link","type":"action"},{"label":"About","url":"/about","style":"link","type":"action"},{"label":"关于","url":"https://ggyy.pa-pa.me/about","style":"link","icon_class":"lorem-ipsum","new_window":true,"type":"action"},{"label":"Contact","url":"/contact","style":"link","type":"action"},{"label":"Support Me","url":"/support-me","style":"link","type":"action"},{"label":"叽叽歪歪","url":"https://ggyy.pa-pa.me/","style":"link","icon_class":"lorem-ipsum","new_window":true,"type":"action"}],"has_social":true,"social_links":[{"label":"Twitter","url":"https://twitter.com/zizhujy","style":"icon","icon_class":"fa-twitter","new_window":true,"type":"action"},{"label":"Instagram","url":"https://www.instagram.com/jefftian5","style":"icon","icon_class":"fa-instagram","new_window":true,"type":"action"},{"label":"GitHub","url":"https://github.com/jeff-tian","style":"icon","icon_class":"fa-github","new_window":true,"type":"action"},{"label":"LinkedIn","url":"https://www.linkedin.com/jeff~tian","style":"icon","icon_class":"fa-linkedin","new_window":true,"type":"action"},{"label":"DEV","url":"https://dev.to/jefftian","style":"icon","icon_class":"fa-dev","new_window":true,"type":"action"},{"label":"知乎","url":"https://www.zhihu.com/people/jefftian","style":"icon","icon_class":"fa-zhihu","new_window":true,"type":"action"}],"type":"header"},"footer":{"content":"&copy; All rights reserved.","links":[{"label":"Made with Stackbit.","url":"https://www.stackbit.com","style":"link","new_window":true,"type":"action"},{"label":"紫竹叽歪","url":"https://zizhujy.apphb.com","style":"link","icon_class":"http://zizhujy.apphb.com/Content/Images/logo.png","new_window":true,"type":"action"}],"type":"footer"}},"pathPrefix":"","data":{"data":{"author":{"name":"Jeff Tian","avatar":"https://res.cloudinary.com/practicaldev/image/fetch/s--a5qDZLv3--/c_fill,f_auto,fl_progressive,h_640,q_auto,w_640/https://dev-to-uploads.s3.amazonaws.com/uploads/user/profile_image/318420/3bfd2d99-430c-4049-8dd5-e2adc961e1e0.png"},"social":{"devto":{"username":"jefftian"},"twitter":{"username":"zizhujy"},"github":{"username":"Jeff-Tian"}}}}},"menus":{}}},"staticQueryHashes":[],"slicesMap":{}}