{"componentChunkName":"component---src-templates-home-js","path":"/20/","result":{"data":{"allMarkdownRemark":{"edges":[{"node":{"excerpt":"Background You are making some serious slides show and use LaTex beamer template to generate a perfect PDF, but you are asked to provide a…","id":"f6b6b249-49c8-5649-b722-72a2050a8f21","frontmatter":{"title":"How to convert beamer tex pdf to pptx, perfectly?","template":"post","has_more_link":null,"more_link_text":null,"excerpt":"Background   You are making some serious slides show and use LaTex beamer template to genera...","canonical_url":"https://dev.to/jefftian/how-to-convert-beamer-tex-pdf-to-pptx-perfectly-4o08","date":"2020-11-30T05:14:57.141Z","img_path":null,"positive_reactions_count":0,"stackbit_url_path":"posts/how-to-convert-beamer-tex-pdf-to-pptx-perfectly-4o08"}}},{"node":{"excerpt":"问题 网上商城如果要开通支付功能，一般需要对接第三方支付系统，比如支付宝、微信支付等等，但是会被第三方收费，如果是个人开发者，订单量很小，一般不划算。 但是不对接第三方API…","id":"d0b854b1-8329-583b-9ca5-93d568545670","frontmatter":{"title":"个人收款自动化","template":"post","has_more_link":null,"more_link_text":null,"excerpt":"问题   网上商城如果要开通支付功能，一般需要对接第三方支付系统，比如支付宝、微信支付等等，但是会被第三方收费，如果是个人开发者，订单量很小，一般不划算。  但是不对接第三方API，那...","canonical_url":"https://dev.to/jefftian/-524i","date":"2020-11-11T08:24:32.971Z","img_path":null,"positive_reactions_count":1,"stackbit_url_path":"posts/-524i"}}},{"node":{"excerpt":"Symton When you try to apply a deployment yaml file to kubernetes cluster, you get the error: Analysis The kubernetes api met some issues…","id":"389e931f-6dc1-54bb-aac4-f3e22f060a64","frontmatter":{"title":"How to resolve `kubectrl apply`deployment conflict error","template":"post","has_more_link":null,"more_link_text":null,"excerpt":"Symton   When you try to apply a deployment yaml file to kubernetes cluster, you get the err...","canonical_url":"https://dev.to/jefftian/how-to-resolve-kubectrl-apply-deployment-conflict-error-3cf","date":"2020-10-29T09:48:06.615Z","img_path":null,"positive_reactions_count":6,"stackbit_url_path":"posts/how-to-resolve-kubectrl-apply-deployment-conflict-error-3cf"}}},{"node":{"excerpt":"","id":"dd75cd84-b765-588b-8ea0-32c76b75ba35","frontmatter":{"title":"何以解忧，唯有打油","template":"post","has_more_link":null,"more_link_text":null,"excerpt":"","canonical_url":"https://be-net.azurewebsites.net/post/2014/07/18/poem","date":"2014-07-18 23:29:00","img_path":null,"positive_reactions_count":0,"stackbit_url_path":"posts/poem"}}},{"node":{"excerpt":"","id":"299b209e-9cee-5510-b27e-b4181a00f46b","frontmatter":{"title":"Javascript: Check an element’s value change not made by user","template":"post","has_more_link":null,"more_link_text":null,"excerpt":"","canonical_url":"https://be-net.azurewebsites.net/post/2014/07/18/d41e9ae2-6469-4e63-bea5-2537c5d3a210","date":"2014-07-18 21:01:09.4911104","img_path":null,"positive_reactions_count":0,"stackbit_url_path":"posts/d41e9ae2-6469-4e63-bea5-2537c5d3a210"}}}]}},"pageContext":{"limit":5,"skip":95,"totalPages":159,"totalItems":793,"currentPage":20,"frontmatter":{"canonical_url":null,"comments_count":null,"title":"Home","template":"home","more_link_text":"Keep reading / 查看全部","date":null,"excerpt":"Jeff Tian's homepage","has_more_link":true},"url":"/","relativePath":"/","base":"","site":{"siteMetadata":{"title":"Jeff Tian","author":"@zizhujy","description":"A wild full stack developer","palette":"yellow","header":{"title":"Jeff Tian","tagline":"A wild developer","logo_img":"https://images.ctfassets.net/qixg1o8tujmf/7z1ua3nTOC5B7DwwzAki8I/4e1a05f8db770c285a492eeb1eaa398f/imageedit_3_2509022194.png","background_img":"https://images.ctfassets.net/qixg1o8tujmf/7m0jrKYaDBwEvlc5lo8nt6/6d50a5050d9cdc0d4d2047e35feac292/10648733_696750647079056_2800539603462658695_o.jpg","has_nav":true,"nav_links":[{"label":"Home","url":"/","style":"link","type":"action"},{"label":"About","url":"/about","style":"link","type":"action"},{"label":"关于","url":"https://ggyy.pa-pa.me/about","style":"link","icon_class":"lorem-ipsum","new_window":true,"type":"action"},{"label":"Contact","url":"/contact","style":"link","type":"action"},{"label":"Support Me","url":"/support-me","style":"link","type":"action"},{"label":"叽叽歪歪","url":"https://ggyy.pa-pa.me/","style":"link","icon_class":"lorem-ipsum","new_window":true,"type":"action"}],"has_social":true,"social_links":[{"label":"Twitter","url":"https://twitter.com/zizhujy","style":"icon","icon_class":"fa-twitter","new_window":true,"type":"action"},{"label":"Instagram","url":"https://www.instagram.com/jefftian5","style":"icon","icon_class":"fa-instagram","new_window":true,"type":"action"},{"label":"GitHub","url":"https://github.com/jeff-tian","style":"icon","icon_class":"fa-github","new_window":true,"type":"action"},{"label":"LinkedIn","url":"https://www.linkedin.com/jeff~tian","style":"icon","icon_class":"fa-linkedin","new_window":true,"type":"action"},{"label":"DEV","url":"https://dev.to/jefftian","style":"icon","icon_class":"fa-dev","new_window":true,"type":"action"},{"label":"知乎","url":"https://www.zhihu.com/people/jefftian","style":"icon","icon_class":"fa-zhihu","new_window":true,"type":"action"}],"type":"header"},"footer":{"content":"&copy; All rights reserved.","links":[{"label":"Made with Stackbit.","url":"https://www.stackbit.com","style":"link","new_window":true,"type":"action"},{"label":"紫竹叽歪","url":"https://zizhujy.apphb.com","style":"link","icon_class":"http://zizhujy.apphb.com/Content/Images/logo.png","new_window":true,"type":"action"}],"type":"footer"}},"pathPrefix":"","data":{"data":{"author":{"name":"Jeff Tian","avatar":"https://res.cloudinary.com/practicaldev/image/fetch/s--a5qDZLv3--/c_fill,f_auto,fl_progressive,h_640,q_auto,w_640/https://dev-to-uploads.s3.amazonaws.com/uploads/user/profile_image/318420/3bfd2d99-430c-4049-8dd5-e2adc961e1e0.png"},"social":{"devto":{"username":"jefftian"},"twitter":{"username":"zizhujy"},"github":{"username":"Jeff-Tian"}}}}}}},"staticQueryHashes":[],"slicesMap":{}}