{"componentChunkName":"component---src-templates-home-js","path":"/73/","result":{"data":{"allMarkdownRemark":{"edges":[{"node":{"excerpt":"","id":"7ac1f3ae-7320-534f-ac8d-f5743d977406","frontmatter":{"title":"给GridView添加序号列","template":"post","has_more_link":null,"more_link_text":null,"excerpt":"","canonical_url":"https://be-net.azurewebsites.net/post/2010/11/15/e7bb99GridViewe6b7bbe58aa0e5ba8fe58fb7e58897","date":"2010-11-15 05:46:00","img_path":null,"positive_reactions_count":0,"stackbit_url_path":"posts/e7bb99GridViewe6b7bbe58aa0e5ba8fe58fb7e58897"}}},{"node":{"excerpt":"","id":"a7f7267f-fc6e-53da-b4cd-75d42cd27b64","frontmatter":{"title":"打倒酒桌文化","template":"post","has_more_link":null,"more_link_text":null,"excerpt":"","canonical_url":"https://be-net.azurewebsites.net/post/2010/11/15/e68993e58092e98592e6a18ce69687e58c96","date":"2010-11-15 05:41:00","img_path":null,"positive_reactions_count":0,"stackbit_url_path":"posts/e68993e58092e98592e6a18ce69687e58c96"}}},{"node":{"excerpt":"","id":"b3c6cb03-87a7-5705-b9fa-4b1c736eb5f4","frontmatter":{"title":"收缩数据库","template":"post","has_more_link":null,"more_link_text":null,"excerpt":"快速高效的收缩SQL Server数据库的方法，不用写代码，图形界面完成。","canonical_url":"https://be-net.azurewebsites.net/post/2010/11/13/e694b6e7bca9e695b0e68daee5ba93","date":"2010-11-13 07:29:00","img_path":null,"positive_reactions_count":0,"stackbit_url_path":"posts/e694b6e7bca9e695b0e68daee5ba93"}}},{"node":{"excerpt":"","id":"5ee09cc5-ffd3-5d2b-917f-e345885cca0d","frontmatter":{"title":"Welcome to BlogEngine.NET 2.0","template":"post","has_more_link":null,"more_link_text":null,"excerpt":"The description is used as the meta description as well as shown in the related posts. It is recommended that you write a description, but not mandatory","canonical_url":"https://be-net.azurewebsites.net/post/2010/11/13/Welcome-to-BlogEngineNET-20","date":"2010-11-13 00:00:00","img_path":null,"positive_reactions_count":0,"stackbit_url_path":"posts/Welcome-to-BlogEngineNET-20"}}},{"node":{"excerpt":"","id":"4b7d41ad-91ad-517b-b459-42b1f9902d7b","frontmatter":{"title":"KO - Knock Out","template":"post","has_more_link":null,"more_link_text":null,"excerpt":"","canonical_url":"https://be-net.azurewebsites.net/post/2010/11/12/KO-Knock-Out","date":"2010-11-12 07:26:00","img_path":null,"positive_reactions_count":0,"stackbit_url_path":"posts/KO-Knock-Out"}}}]}},"pageContext":{"limit":5,"skip":360,"totalPages":159,"totalItems":793,"currentPage":73,"frontmatter":{"canonical_url":null,"comments_count":null,"title":"Home","template":"home","more_link_text":"Keep reading / 查看全部","date":null,"excerpt":"Jeff Tian's homepage","has_more_link":true},"url":"/","relativePath":"/","base":"","site":{"siteMetadata":{"title":"Jeff Tian","author":"@zizhujy","description":"A wild full stack developer","palette":"yellow","header":{"title":"Jeff Tian","tagline":"A wild developer","logo_img":"https://images.ctfassets.net/qixg1o8tujmf/7z1ua3nTOC5B7DwwzAki8I/4e1a05f8db770c285a492eeb1eaa398f/imageedit_3_2509022194.png","background_img":"https://images.ctfassets.net/qixg1o8tujmf/7m0jrKYaDBwEvlc5lo8nt6/6d50a5050d9cdc0d4d2047e35feac292/10648733_696750647079056_2800539603462658695_o.jpg","has_nav":true,"nav_links":[{"label":"Home","url":"/","style":"link","type":"action"},{"label":"About","url":"/about","style":"link","type":"action"},{"label":"关于","url":"https://ggyy.pa-pa.me/about","style":"link","icon_class":"lorem-ipsum","new_window":true,"type":"action"},{"label":"Contact","url":"/contact","style":"link","type":"action"},{"label":"Support Me","url":"/support-me","style":"link","type":"action"},{"label":"叽叽歪歪","url":"https://ggyy.pa-pa.me/","style":"link","icon_class":"lorem-ipsum","new_window":true,"type":"action"}],"has_social":true,"social_links":[{"label":"Twitter","url":"https://twitter.com/zizhujy","style":"icon","icon_class":"fa-twitter","new_window":true,"type":"action"},{"label":"Instagram","url":"https://www.instagram.com/jefftian5","style":"icon","icon_class":"fa-instagram","new_window":true,"type":"action"},{"label":"GitHub","url":"https://github.com/jeff-tian","style":"icon","icon_class":"fa-github","new_window":true,"type":"action"},{"label":"LinkedIn","url":"https://www.linkedin.com/jeff~tian","style":"icon","icon_class":"fa-linkedin","new_window":true,"type":"action"},{"label":"DEV","url":"https://dev.to/jefftian","style":"icon","icon_class":"fa-dev","new_window":true,"type":"action"},{"label":"知乎","url":"https://www.zhihu.com/people/jefftian","style":"icon","icon_class":"fa-zhihu","new_window":true,"type":"action"}],"type":"header"},"footer":{"content":"&copy; All rights reserved.","links":[{"label":"Made with Stackbit.","url":"https://www.stackbit.com","style":"link","new_window":true,"type":"action"},{"label":"紫竹叽歪","url":"https://zizhujy.apphb.com","style":"link","icon_class":"http://zizhujy.apphb.com/Content/Images/logo.png","new_window":true,"type":"action"}],"type":"footer"}},"pathPrefix":"","data":{"data":{"author":{"name":"Jeff Tian","avatar":"https://res.cloudinary.com/practicaldev/image/fetch/s--a5qDZLv3--/c_fill,f_auto,fl_progressive,h_640,q_auto,w_640/https://dev-to-uploads.s3.amazonaws.com/uploads/user/profile_image/318420/3bfd2d99-430c-4049-8dd5-e2adc961e1e0.png"},"social":{"devto":{"username":"jefftian"},"twitter":{"username":"zizhujy"},"github":{"username":"Jeff-Tian"}}}}},"menus":{}}},"staticQueryHashes":[],"slicesMap":{}}