{"componentChunkName":"component---src-templates-home-js","path":"/9","result":{"data":{"allMarkdownRemark":{"edges":[{"node":{"excerpt":"标题写得实在太保守了，其实我想说的是，屎山堆得越高，味道闻着越香！  屎山的故事 屎山，已经是个烂大街的程序员梗了。 image.png 我发现大家对老项目总是避之不及，总是喜欢重新从 0 开始（以自己的方式），我就觉得不好玩。难道不是越老的项目越好玩吗？总是从…","id":"4c417670-fe19-55fb-bbc1-b58ec431c036","frontmatter":{"title":"屎山并不可怕","template":"post","has_more_link":null,"more_link_text":null,"excerpt":"","canonical_url":null,"date":"2022-05-31T12:45:18","img_path":null,"positive_reactions_count":null,"stackbit_url_path":"posts/gax4m0"}}},{"node":{"excerpt":"…","id":"d45f2569-9990-50dd-9faf-79e6309d20f4","frontmatter":{"title":"终于解决了家庭无线网络总是断网的问题","template":"post","has_more_link":null,"more_link_text":null,"excerpt":"","canonical_url":null,"date":"2022-05-22T23:21:11","img_path":null,"positive_reactions_count":null,"stackbit_url_path":"posts/oxugdp"}}},{"node":{"excerpt":"天下程序员苦“敏捷”久矣！ 我是一个野生程序员，大学毕业后找了一份销售支持的工作，…","id":"b5a9c7a3-9bdf-5b3b-a629-41a5af50aa2a","frontmatter":{"title":"敏捷反对“敏捷” ——《敏捷整洁之道》读后感","template":"post","has_more_link":null,"more_link_text":null,"excerpt":"","canonical_url":null,"date":"2022-05-22T04:46:54","img_path":null,"positive_reactions_count":null,"stackbit_url_path":"posts/ox2k9g"}}},{"node":{"excerpt":"做为后端工程师，对微服务肯定耳熟能详了，或者可以说，微服务已经烂大街了。 做为前端工程师，也有些类似的概念，那就是微前端。 很多年前，其实前端就已经开始探索面向组件开发了，当时有过一些 Web Component…","id":"6e4451a7-2e9c-538e-8934-b6518ec2153a","frontmatter":{"title":"微前端的一个简单应用","template":"post","has_more_link":null,"more_link_text":null,"excerpt":"","canonical_url":null,"date":"2022-05-17T13:34:42","img_path":null,"positive_reactions_count":null,"stackbit_url_path":"posts/at15gr"}}},{"node":{"excerpt":"Free Arch：不断探索免费的边界。 这几天玩了一下 App 开发，深深地感受到了 Web 技术和 App 技术真是有天壤之别。虽然，借助 React Native，可以填补一些鸿沟，但从开发环境的准备到发布上线，还是特别的不同。尤其在上线方面，App…","id":"0c842dff-7ae1-586f-943e-b2d9013a5c91","frontmatter":{"title":"Free Arch：利用七牛云加速文件下载","template":"post","has_more_link":null,"more_link_text":null,"excerpt":"","canonical_url":null,"date":"2022-05-13T04:25:08","img_path":null,"positive_reactions_count":null,"stackbit_url_path":"posts/egwpnd"}}}]}},"pageContext":{"limit":5,"skip":40,"totalPages":174,"totalItems":868,"currentPage":9,"frontmatter":{"canonical_url":null,"comments_count":null,"title":"Home","template":"home","more_link_text":"Keep reading / 查看全部","date":null,"excerpt":"Jeff Tian's homepage","has_more_link":true},"url":"/","relativePath":"/","base":"","site":{"siteMetadata":{"title":"Jeff Tian","description":"A wild full stack developer","palette":"yellow","header":{"title":"Jeff Tian","tagline":"A wild developer","logo_img":"https://images.ctfassets.net/qixg1o8tujmf/7z1ua3nTOC5B7DwwzAki8I/4e1a05f8db770c285a492eeb1eaa398f/imageedit_3_2509022194.png","background_img":"https://images.ctfassets.net/qixg1o8tujmf/7m0jrKYaDBwEvlc5lo8nt6/6d50a5050d9cdc0d4d2047e35feac292/10648733_696750647079056_2800539603462658695_o.jpg","has_nav":true,"nav_links":[{"label":"Home","url":"/","style":"link","type":"action"},{"label":"About","url":"/about","style":"link","type":"action"},{"label":"关于","url":"https://ggyy.pa-pa.me/about","style":"link","icon_class":"lorem-ipsum","new_window":true,"type":"action"},{"label":"Contact","url":"/contact","style":"link","type":"action"},{"label":"Support Me","url":"/support-me","style":"link","type":"action"},{"label":"叽叽歪歪","url":"https://ggyy.pa-pa.me/","style":"link","icon_class":"lorem-ipsum","new_window":true,"type":"action"}],"has_social":true,"social_links":[{"label":"Twitter","url":"https://twitter.com/zizhujy","style":"icon","icon_class":"fa-twitter","new_window":true,"type":"action"},{"label":"Instagram","url":"https://www.instagram.com/jefftian5","style":"icon","icon_class":"fa-instagram","new_window":true,"type":"action"},{"label":"GitHub","url":"https://github.com/jeff-tian","style":"icon","icon_class":"fa-github","new_window":true,"type":"action"},{"label":"LinkedIn","url":"https://www.linkedin.com/jeff~tian","style":"icon","icon_class":"fa-linkedin","new_window":true,"type":"action"},{"label":"DEV","url":"https://dev.to/jefftian","style":"icon","icon_class":"fa-dev","new_window":true,"type":"action"},{"label":"知乎","url":"https://www.zhihu.com/people/jefftian","style":"icon","icon_class":"fa-zhihu","new_window":true,"type":"action"}],"type":"header"},"footer":{"content":"&copy; All rights reserved.","links":[{"label":"Made with Stackbit.","url":"https://www.stackbit.com","style":"link","new_window":true,"type":"action"},{"label":"紫竹叽歪","url":"https://zizhujy.apphb.com","style":"link","icon_class":"http://zizhujy.apphb.com/Content/Images/logo.png","new_window":true,"type":"action"}],"type":"footer"}},"pathPrefix":"","data":{"data":{"author":{"name":"Jeff Tian","avatar":"https://res.cloudinary.com/practicaldev/image/fetch/s--a5qDZLv3--/c_fill,f_auto,fl_progressive,h_640,q_auto,w_640/https://dev-to-uploads.s3.amazonaws.com/uploads/user/profile_image/318420/3bfd2d99-430c-4049-8dd5-e2adc961e1e0.png"},"social":{"devto":{"username":"jefftian"},"twitter":{"username":"zizhujy"},"github":{"username":"Jeff-Tian"}}}}},"menus":{}}},"staticQueryHashes":[]}