{"componentChunkName":"component---src-templates-home-js","path":"/119/","result":{"data":{"allMarkdownRemark":{"edges":[{"node":{"excerpt":"","id":"05146d7d-a35f-56d2-a54b-2b3562d49712","frontmatter":{"title":"主键的定义","template":"post","has_more_link":null,"more_link_text":null,"excerpt":"","canonical_url":"https://be-net.azurewebsites.net/post/2010/03/09/主键的定义","date":"2010-03-09 09:44:38","img_path":null,"positive_reactions_count":0,"stackbit_url_path":"posts/主键的定义"}}},{"node":{"excerpt":"","id":"b7fe0d94-0c9b-5291-a70d-9897361d870d","frontmatter":{"title":"SQL Server 中的数据类型","template":"post","has_more_link":null,"more_link_text":null,"excerpt":"","canonical_url":"https://be-net.azurewebsites.net/post/2010/03/09/SQL-Server-中的数据类型","date":"2010-03-09 09:03:57","img_path":null,"positive_reactions_count":0,"stackbit_url_path":"posts/SQL-Server-中的数据类型"}}},{"node":{"excerpt":"","id":"8da00f9c-7fc9-58cb-b9d5-bbb41b405589","frontmatter":{"title":"文本垂直居中的CSS解决方案","template":"post","has_more_link":null,"more_link_text":null,"excerpt":"","canonical_url":"https://be-net.azurewebsites.net/post/2010/03/09/文本垂直居中的CSS解决方案","date":"2010-03-09 06:29:34","img_path":null,"positive_reactions_count":0,"stackbit_url_path":"posts/文本垂直居中的CSS解决方案"}}},{"node":{"excerpt":"","id":"9ec7983b-ef29-58db-9a7a-b8b91cb605c1","frontmatter":{"title":"表单对齐方案","template":"post","has_more_link":null,"more_link_text":null,"excerpt":"","canonical_url":"https://be-net.azurewebsites.net/post/2010/03/09/表单对齐方案","date":"2010-03-09 05:47:56","img_path":null,"positive_reactions_count":0,"stackbit_url_path":"posts/表单对齐方案"}}},{"node":{"excerpt":"","id":"803a17a5-a4a3-5dd3-a2be-41217639c504","frontmatter":{"title":".NET中的邮件发送配置","template":"post","has_more_link":null,"more_link_text":null,"excerpt":"","canonical_url":"https://be-net.azurewebsites.net/post/2010/03/09/NET中的邮件发送配置","date":"2010-03-09 03:36:32","img_path":null,"positive_reactions_count":0,"stackbit_url_path":"posts/NET中的邮件发送配置"}}}]}},"pageContext":{"limit":5,"skip":590,"totalPages":159,"totalItems":793,"currentPage":119,"frontmatter":{"canonical_url":null,"comments_count":null,"title":"Home","template":"home","more_link_text":"Keep reading / 查看全部","date":null,"excerpt":"Jeff Tian's homepage","has_more_link":true},"url":"/","relativePath":"/","base":"","site":{"siteMetadata":{"title":"Jeff Tian","author":"@zizhujy","description":"A wild full stack developer","palette":"yellow","header":{"title":"Jeff Tian","tagline":"A wild developer","logo_img":"https://images.ctfassets.net/qixg1o8tujmf/7z1ua3nTOC5B7DwwzAki8I/4e1a05f8db770c285a492eeb1eaa398f/imageedit_3_2509022194.png","background_img":"https://images.ctfassets.net/qixg1o8tujmf/7m0jrKYaDBwEvlc5lo8nt6/6d50a5050d9cdc0d4d2047e35feac292/10648733_696750647079056_2800539603462658695_o.jpg","has_nav":true,"nav_links":[{"label":"Home","url":"/","style":"link","type":"action"},{"label":"About","url":"/about","style":"link","type":"action"},{"label":"关于","url":"https://ggyy.pa-pa.me/about","style":"link","icon_class":"lorem-ipsum","new_window":true,"type":"action"},{"label":"Contact","url":"/contact","style":"link","type":"action"},{"label":"Support Me","url":"/support-me","style":"link","type":"action"},{"label":"叽叽歪歪","url":"https://ggyy.pa-pa.me/","style":"link","icon_class":"lorem-ipsum","new_window":true,"type":"action"}],"has_social":true,"social_links":[{"label":"Twitter","url":"https://twitter.com/zizhujy","style":"icon","icon_class":"fa-twitter","new_window":true,"type":"action"},{"label":"Instagram","url":"https://www.instagram.com/jefftian5","style":"icon","icon_class":"fa-instagram","new_window":true,"type":"action"},{"label":"GitHub","url":"https://github.com/jeff-tian","style":"icon","icon_class":"fa-github","new_window":true,"type":"action"},{"label":"LinkedIn","url":"https://www.linkedin.com/jeff~tian","style":"icon","icon_class":"fa-linkedin","new_window":true,"type":"action"},{"label":"DEV","url":"https://dev.to/jefftian","style":"icon","icon_class":"fa-dev","new_window":true,"type":"action"},{"label":"知乎","url":"https://www.zhihu.com/people/jefftian","style":"icon","icon_class":"fa-zhihu","new_window":true,"type":"action"}],"type":"header"},"footer":{"content":"&copy; All rights reserved.","links":[{"label":"Made with Stackbit.","url":"https://www.stackbit.com","style":"link","new_window":true,"type":"action"},{"label":"紫竹叽歪","url":"https://zizhujy.apphb.com","style":"link","icon_class":"http://zizhujy.apphb.com/Content/Images/logo.png","new_window":true,"type":"action"}],"type":"footer"}},"pathPrefix":"","data":{"data":{"author":{"name":"Jeff Tian","avatar":"https://res.cloudinary.com/practicaldev/image/fetch/s--a5qDZLv3--/c_fill,f_auto,fl_progressive,h_640,q_auto,w_640/https://dev-to-uploads.s3.amazonaws.com/uploads/user/profile_image/318420/3bfd2d99-430c-4049-8dd5-e2adc961e1e0.png"},"social":{"devto":{"username":"jefftian"},"twitter":{"username":"zizhujy"},"github":{"username":"Jeff-Tian"}}}}},"menus":{}}},"staticQueryHashes":[],"slicesMap":{}}