{"componentChunkName":"component---src-templates-home-js","path":"/111/","result":{"data":{"allMarkdownRemark":{"edges":[{"node":{"excerpt":"","id":"1b64a185-db99-54a7-b37d-88355dbcd7e7","frontmatter":{"title":"使用 JavaScript 将网页中的数据下载为Excel文件","template":"post","has_more_link":null,"more_link_text":null,"excerpt":"","canonical_url":"https://be-net.azurewebsites.net/post/2010/05/13/使用-JavaScript-将网页中的数据下载为Excel文件","date":"2010-05-13 07:44:27","img_path":null,"positive_reactions_count":0,"stackbit_url_path":"posts/使用-JavaScript-将网页中的数据下载为Excel文件"}}},{"node":{"excerpt":"","id":"0d4f0324-1337-534d-b315-78e89213c43e","frontmatter":{"title":"将 GridView 中的数据导出为 Excel 文件","template":"post","has_more_link":null,"more_link_text":null,"excerpt":"","canonical_url":"https://be-net.azurewebsites.net/post/2010/05/13/将-GridView-中的数据导出为-Excel-文件","date":"2010-05-13 06:25:17","img_path":null,"positive_reactions_count":0,"stackbit_url_path":"posts/将-GridView-中的数据导出为-Excel-文件"}}},{"node":{"excerpt":"","id":"76d87df4-4b44-5436-9b82-4849e7ad4148","frontmatter":{"title":"过秦楼","template":"post","has_more_link":null,"more_link_text":null,"excerpt":"","canonical_url":"https://be-net.azurewebsites.net/post/2010/05/12/过秦楼","date":"2010-05-12 15:19:42","img_path":null,"positive_reactions_count":0,"stackbit_url_path":"posts/过秦楼"}}},{"node":{"excerpt":"","id":"c51a802b-1245-5555-847b-4aa6f4b49480","frontmatter":{"title":"满庭芳","template":"post","has_more_link":null,"more_link_text":null,"excerpt":"","canonical_url":"https://be-net.azurewebsites.net/post/2010/05/12/满庭芳","date":"2010-05-12 14:55:50","img_path":null,"positive_reactions_count":0,"stackbit_url_path":"posts/满庭芳"}}},{"node":{"excerpt":"","id":"abd463a0-e7fb-5a02-8681-97097164f61b","frontmatter":{"title":"六丑","template":"post","has_more_link":null,"more_link_text":null,"excerpt":"","canonical_url":"https://be-net.azurewebsites.net/post/2010/05/12/六丑","date":"2010-05-12 14:13:25","img_path":null,"positive_reactions_count":0,"stackbit_url_path":"posts/六丑"}}}]}},"pageContext":{"limit":5,"skip":550,"totalPages":187,"totalItems":931,"currentPage":111,"frontmatter":{"canonical_url":null,"comments_count":null,"title":"Home","template":"home","more_link_text":"Keep reading / 查看全部","date":null,"excerpt":"Jeff Tian's homepage","has_more_link":true},"url":"/","relativePath":"/","base":"","site":{"siteMetadata":{"title":"Jeff Tian","author":"@zizhujy","description":"A wild full stack developer","palette":"yellow","header":{"title":"Jeff Tian","tagline":"A wild developer","logo_img":"https://images.ctfassets.net/qixg1o8tujmf/7z1ua3nTOC5B7DwwzAki8I/4e1a05f8db770c285a492eeb1eaa398f/imageedit_3_2509022194.png","background_img":"https://images.ctfassets.net/qixg1o8tujmf/7m0jrKYaDBwEvlc5lo8nt6/6d50a5050d9cdc0d4d2047e35feac292/10648733_696750647079056_2800539603462658695_o.jpg","has_nav":true,"nav_links":[{"label":"Home","url":"/","style":"link","type":"action"},{"label":"About","url":"/about","style":"link","type":"action"},{"label":"关于","url":"https://ggyy.pa-pa.me/about","style":"link","icon_class":"lorem-ipsum","new_window":true,"type":"action"},{"label":"Contact","url":"/contact","style":"link","type":"action"},{"label":"Support Me","url":"/support-me","style":"link","type":"action"},{"label":"叽叽歪歪","url":"https://ggyy.pa-pa.me/","style":"link","icon_class":"lorem-ipsum","new_window":true,"type":"action"}],"has_social":true,"social_links":[{"label":"Twitter","url":"https://twitter.com/zizhujy","style":"icon","icon_class":"fa-twitter","new_window":true,"type":"action"},{"label":"Instagram","url":"https://www.instagram.com/jefftian5","style":"icon","icon_class":"fa-instagram","new_window":true,"type":"action"},{"label":"GitHub","url":"https://github.com/jeff-tian","style":"icon","icon_class":"fa-github","new_window":true,"type":"action"},{"label":"LinkedIn","url":"https://www.linkedin.com/jeff~tian","style":"icon","icon_class":"fa-linkedin","new_window":true,"type":"action"},{"label":"DEV","url":"https://dev.to/jefftian","style":"icon","icon_class":"fa-dev","new_window":true,"type":"action"},{"label":"知乎","url":"https://www.zhihu.com/people/jefftian","style":"icon","icon_class":"fa-zhihu","new_window":true,"type":"action"}],"type":"header"},"footer":{"content":"&copy; All rights reserved.","links":[{"label":"Made with Stackbit.","url":"https://www.stackbit.com","style":"link","new_window":true,"type":"action"},{"label":"紫竹叽歪","url":"https://zizhujy.apphb.com","style":"link","icon_class":"http://zizhujy.apphb.com/Content/Images/logo.png","new_window":true,"type":"action"}],"type":"footer"}},"pathPrefix":"","data":{"data":{"author":{"name":"Jeff Tian","avatar":"https://res.cloudinary.com/practicaldev/image/fetch/s--a5qDZLv3--/c_fill,f_auto,fl_progressive,h_640,q_auto,w_640/https://dev-to-uploads.s3.amazonaws.com/uploads/user/profile_image/318420/3bfd2d99-430c-4049-8dd5-e2adc961e1e0.png"},"social":{"devto":{"username":"jefftian"},"twitter":{"username":"zizhujy"},"github":{"username":"Jeff-Tian"}}}}},"menus":{}}},"staticQueryHashes":[],"slicesMap":{}}