{"componentChunkName":"component---src-templates-home-js","path":"/25","result":{"data":{"allMarkdownRemark":{"edges":[{"node":{"excerpt":"在翻看自己几年前的一些东西时，竟然发现了一首自己翻译的小诗一首，没想到自己曾经也是一个有才之人，同时开始反思为什么现在的我只知道工作？ 沙里见人间，花中天堂显。手心握无限，刹那成永远。 —— 威廉·布莱克《天真的预言》 原文如下： To see a world in a…","id":"3d2558a5-c84f-540f-b84d-c615ac452c17","frontmatter":{"title":"译诗一首","template":"post","has_more_link":null,"more_link_text":null,"excerpt":"","canonical_url":null,"date":"2021-03-02T11:38:27","img_path":null,"positive_reactions_count":null,"stackbit_url_path":"posts/awbz4r"}}},{"node":{"excerpt":"背景 Redis Cluster 没有开放公网访问，不能从开发机直接连接，只能从集群内部连接。开发要操作这个 Redis Cluster，就需要先登陆集群内部某个中转机，在使用命令行访问。 比如，要删除匹配的键，一般这样操作：\nshell\nkubectl exec -it…","id":"a0ced025-5cac-5297-817c-1757af1ed339","frontmatter":{"title":"使用 -c 和 xargs 简化多个命令行操作","template":"post","has_more_link":null,"more_link_text":null,"excerpt":"","canonical_url":null,"date":"2021-03-01T07:16:21","img_path":null,"positive_reactions_count":null,"stackbit_url_path":"posts/nkilct"}}},{"node":{"excerpt":"…","id":"f4ba8764-bb4a-5fce-afb4-0dcdb54f5d13","frontmatter":{"title":"闭包的妙用 —— memoize","template":"post","has_more_link":null,"more_link_text":null,"excerpt":"","canonical_url":null,"date":"2021-02-27T08:33:11","img_path":null,"positive_reactions_count":null,"stackbit_url_path":"posts/gnu74o"}}},{"node":{"excerpt":"I am currently working as a backend engineer, but I have also the frontend experience including web, mini program and native apps. Before my…","id":"87fcba13-05aa-512b-8d33-077e44de7830","frontmatter":{"title":"Who am I","template":"post","has_more_link":null,"more_link_text":null,"excerpt":"","canonical_url":null,"date":"2021-02-25T04:42:22","img_path":null,"positive_reactions_count":null,"stackbit_url_path":"posts/kdbefa"}}},{"node":{"excerpt":"架构模式，也叫架构风格，它是一个通用的、可重用的解决方案，用于在给定上下文中的软件体系结构中经常出现的问题。架构模式与软件设计模式类似，但具有更广泛的范围。一个架构模式常常可以分解成很多个设计模式的联合使用。MVC…","id":"76d385e3-39f1-5932-a60a-43447f29f407","frontmatter":{"title":"架构模式","template":"post","has_more_link":null,"more_link_text":null,"excerpt":"","canonical_url":null,"date":"2021-02-23T12:10:47","img_path":null,"positive_reactions_count":null,"stackbit_url_path":"posts/ttf7ny"}}}]}},"pageContext":{"limit":5,"skip":120,"totalPages":170,"totalItems":850,"currentPage":25,"frontmatter":{"canonical_url":null,"comments_count":null,"title":"Home","template":"home","more_link_text":"Keep reading / 查看全部","date":null,"excerpt":"Jeff Tian's homepage","has_more_link":true},"url":"/","relativePath":"/","base":"","site":{"siteMetadata":{"title":"Jeff Tian","description":"Full Stack Developer, good at OAuth 2.0","palette":"yellow","header":{"title":"Jeff Tian","tagline":"A wild developer","logo_img":"https://images.ctfassets.net/qixg1o8tujmf/7z1ua3nTOC5B7DwwzAki8I/4e1a05f8db770c285a492eeb1eaa398f/imageedit_3_2509022194.png","background_img":"https://images.ctfassets.net/qixg1o8tujmf/7m0jrKYaDBwEvlc5lo8nt6/6d50a5050d9cdc0d4d2047e35feac292/10648733_696750647079056_2800539603462658695_o.jpg","has_nav":true,"nav_links":[{"label":"Home","url":"/","style":"link","type":"action"},{"label":"About","url":"/about","style":"link","type":"action"},{"label":"关于","url":"https://ggyy.pa-pa.me/about","style":"link","icon_class":"lorem-ipsum","new_window":true,"type":"action"},{"label":"Contact","url":"/contact","style":"link","type":"action"},{"label":"Support Me","url":"/support-me","style":"link","type":"action"},{"label":"叽叽歪歪","url":"https://ggyy.pa-pa.me/","style":"link","icon_class":"lorem-ipsum","new_window":true,"type":"action"}],"has_social":true,"social_links":[{"label":"Twitter","url":"https://twitter.com/zizhujy","style":"icon","icon_class":"fa-twitter","new_window":true,"type":"action"},{"label":"Instagram","url":"https://www.instagram.com/jefftian5","style":"icon","icon_class":"fa-instagram","new_window":true,"type":"action"},{"label":"GitHub","url":"https://github.com/jeff-tian","style":"icon","icon_class":"fa-github","new_window":true,"type":"action"},{"label":"LinkedIn","url":"https://www.linkedin.com/jeff~tian","style":"icon","icon_class":"fa-linkedin","new_window":true,"type":"action"},{"label":"DEV","url":"https://dev.to/jefftian","style":"icon","icon_class":"fa-dev","new_window":true,"type":"action"},{"label":"知乎","url":"https://www.zhihu.com/people/jefftian","style":"icon","icon_class":"fa-zhihu","new_window":true,"type":"action"}],"type":"header"},"footer":{"content":"&copy; All rights reserved.","links":[{"label":"本站源码","url":"https://github.com/Jeff-Tian/space","style":"link","icon_class":"fa-github","new_window":true,"type":"action"},{"label":"紫竹叽歪","url":"https://zizhujy.apphb.com","style":"link","icon_class":"http://zizhujy.apphb.com/Content/Images/logo.png","new_window":true,"type":"action"}],"type":"footer"}},"pathPrefix":"","data":{"data":{"author":{"name":"Jeff Tian","avatar":"https://res.cloudinary.com/practicaldev/image/fetch/s--a5qDZLv3--/c_fill,f_auto,fl_progressive,h_640,q_auto,w_640/https://dev-to-uploads.s3.amazonaws.com/uploads/user/profile_image/318420/3bfd2d99-430c-4049-8dd5-e2adc961e1e0.png"},"social":{"devto":{"username":"jefftian"},"twitter":{"username":"zizhujy"},"github":{"username":"Jeff-Tian"}}}}},"menus":{}}},"staticQueryHashes":[]}