{"componentChunkName":"component---src-templates-home-js","path":"/36/","result":{"data":{"allMarkdownRemark":{"edges":[{"node":{"excerpt":"","id":"48f37a82-11df-5fd7-8175-34c4ad4f05f7","frontmatter":{"title":"CSS utility tables","template":"post","has_more_link":null,"more_link_text":null,"excerpt":"","canonical_url":"https://be-net.azurewebsites.net/post/2012/05/19/CSS-utility-tables","date":"2012-05-19 06:00:29.8140807","img_path":null,"positive_reactions_count":0,"stackbit_url_path":"posts/CSS-utility-tables"}}},{"node":{"excerpt":"","id":"db8f03c4-8129-5519-98a6-d6df0b4ff388","frontmatter":{"title":"CSS Cascade Order","template":"post","has_more_link":null,"more_link_text":null,"excerpt":"","canonical_url":"https://be-net.azurewebsites.net/post/2012/05/19/CSS-Cascade-Order","date":"2012-05-19 05:14:44.5496739","img_path":null,"positive_reactions_count":0,"stackbit_url_path":"posts/CSS-Cascade-Order"}}},{"node":{"excerpt":"","id":"9f3dd1d2-90c4-530e-9e8a-dd7d4f283bb7","frontmatter":{"title":"母亲节的来源","template":"post","has_more_link":null,"more_link_text":null,"excerpt":"","canonical_url":"https://be-net.azurewebsites.net/post/2012/05/15/母亲节的来源","date":"2012-05-15 07:38:44.5988307","img_path":null,"positive_reactions_count":0,"stackbit_url_path":"posts/母亲节的来源"}}},{"node":{"excerpt":"","id":"397356a1-73dd-5857-997a-8d7465bc32cd","frontmatter":{"title":"剑（函数图形）","template":"post","has_more_link":null,"more_link_text":null,"excerpt":"","canonical_url":"https://be-net.azurewebsites.net/post/2012/05/13/剑（函数图形）","date":"2012-05-13 01:36:28.5248033","img_path":null,"positive_reactions_count":0,"stackbit_url_path":"posts/剑（函数图形）"}}},{"node":{"excerpt":"","id":"bda097de-510a-5b97-ad0b-a332189a76fe","frontmatter":{"title":"斜放着的花瓶（函数图形）","template":"post","has_more_link":null,"more_link_text":null,"excerpt":"","canonical_url":"https://be-net.azurewebsites.net/post/2012/05/13/斜放着的花瓶（函数图形）","date":"2012-05-13 01:13:40.6582777","img_path":null,"positive_reactions_count":0,"stackbit_url_path":"posts/斜放着的花瓶（函数图形）"}}}]}},"pageContext":{"limit":5,"skip":175,"totalPages":159,"totalItems":793,"currentPage":36,"frontmatter":{"canonical_url":null,"comments_count":null,"title":"Home","template":"home","more_link_text":"Keep reading / 查看全部","date":null,"excerpt":"Jeff Tian's homepage","has_more_link":true},"url":"/","relativePath":"/","base":"","site":{"siteMetadata":{"title":"Jeff Tian","author":"@zizhujy","description":"A wild full stack developer","palette":"yellow","header":{"title":"Jeff Tian","tagline":"A wild developer","logo_img":"https://images.ctfassets.net/qixg1o8tujmf/7z1ua3nTOC5B7DwwzAki8I/4e1a05f8db770c285a492eeb1eaa398f/imageedit_3_2509022194.png","background_img":"https://images.ctfassets.net/qixg1o8tujmf/7m0jrKYaDBwEvlc5lo8nt6/6d50a5050d9cdc0d4d2047e35feac292/10648733_696750647079056_2800539603462658695_o.jpg","has_nav":true,"nav_links":[{"label":"Home","url":"/","style":"link","type":"action"},{"label":"About","url":"/about","style":"link","type":"action"},{"label":"关于","url":"https://ggyy.pa-pa.me/about","style":"link","icon_class":"lorem-ipsum","new_window":true,"type":"action"},{"label":"Contact","url":"/contact","style":"link","type":"action"},{"label":"Support Me","url":"/support-me","style":"link","type":"action"},{"label":"叽叽歪歪","url":"https://ggyy.pa-pa.me/","style":"link","icon_class":"lorem-ipsum","new_window":true,"type":"action"}],"has_social":true,"social_links":[{"label":"Twitter","url":"https://twitter.com/zizhujy","style":"icon","icon_class":"fa-twitter","new_window":true,"type":"action"},{"label":"Instagram","url":"https://www.instagram.com/jefftian5","style":"icon","icon_class":"fa-instagram","new_window":true,"type":"action"},{"label":"GitHub","url":"https://github.com/jeff-tian","style":"icon","icon_class":"fa-github","new_window":true,"type":"action"},{"label":"LinkedIn","url":"https://www.linkedin.com/jeff~tian","style":"icon","icon_class":"fa-linkedin","new_window":true,"type":"action"},{"label":"DEV","url":"https://dev.to/jefftian","style":"icon","icon_class":"fa-dev","new_window":true,"type":"action"},{"label":"知乎","url":"https://www.zhihu.com/people/jefftian","style":"icon","icon_class":"fa-zhihu","new_window":true,"type":"action"}],"type":"header"},"footer":{"content":"&copy; All rights reserved.","links":[{"label":"Made with Stackbit.","url":"https://www.stackbit.com","style":"link","new_window":true,"type":"action"},{"label":"紫竹叽歪","url":"https://zizhujy.apphb.com","style":"link","icon_class":"http://zizhujy.apphb.com/Content/Images/logo.png","new_window":true,"type":"action"}],"type":"footer"}},"pathPrefix":"","data":{"data":{"author":{"name":"Jeff Tian","avatar":"https://res.cloudinary.com/practicaldev/image/fetch/s--a5qDZLv3--/c_fill,f_auto,fl_progressive,h_640,q_auto,w_640/https://dev-to-uploads.s3.amazonaws.com/uploads/user/profile_image/318420/3bfd2d99-430c-4049-8dd5-e2adc961e1e0.png"},"social":{"devto":{"username":"jefftian"},"twitter":{"username":"zizhujy"},"github":{"username":"Jeff-Tian"}}}}}}},"staticQueryHashes":[],"slicesMap":{}}