{"componentChunkName":"component---src-templates-home-js","path":"/85","result":{"data":{"allMarkdownRemark":{"edges":[{"node":{"excerpt":"","id":"72e35d2b-5cf7-5318-ba56-5cebad7b86eb","frontmatter":{"title":"游颐和园有感","template":"post","has_more_link":null,"more_link_text":null,"excerpt":"","canonical_url":"https://be-net.azurewebsites.net/post/2010/11/07/e6b8b8e9a290e5928ce59bade69c89e6849f","date":"2010-11-07 07:05:00","img_path":null,"positive_reactions_count":0,"stackbit_url_path":"posts/e6b8b8e9a290e5928ce59bade69c89e6849f"}}},{"node":{"excerpt":"","id":"32a55f1c-fdf6-5546-9913-653995f8a603","frontmatter":{"title":"中国网民常做的事情","template":"post","has_more_link":null,"more_link_text":null,"excerpt":"","canonical_url":"https://be-net.azurewebsites.net/post/2010/11/04/e4b8ade59bbde7bd91e6b091e5b8b8e5819ae79a84e4ba8be68385","date":"2010-11-04 19:36:00","img_path":null,"positive_reactions_count":0,"stackbit_url_path":"posts/e4b8ade59bbde7bd91e6b091e5b8b8e5819ae79a84e4ba8be68385"}}},{"node":{"excerpt":"","id":"2ba2a68e-3938-5b20-8f89-34bd4aaf0062","frontmatter":{"title":"惜旧","template":"post","has_more_link":null,"more_link_text":null,"excerpt":"","canonical_url":"https://be-net.azurewebsites.net/post/2010/11/03/e6839ce697a7","date":"2010-11-03 07:57:00","img_path":null,"positive_reactions_count":0,"stackbit_url_path":"posts/e6839ce697a7"}}},{"node":{"excerpt":"","id":"dd1ef013-0392-5392-8475-46a5380d5381","frontmatter":{"title":"老老实实的人是最大的输家","template":"post","has_more_link":null,"more_link_text":null,"excerpt":"","canonical_url":"https://be-net.azurewebsites.net/post/2010/10/31/e88081e88081e5ae9ee5ae9ee79a84e4babae698afe69c80e5a4a7e79a84e8be93e5aeb6","date":"2010-10-31 10:05:00","img_path":null,"positive_reactions_count":0,"stackbit_url_path":"posts/e88081e88081e5ae9ee5ae9ee79a84e4babae698afe69c80e5a4a7e79a84e8be93e5aeb6"}}},{"node":{"excerpt":"","id":"0f6858a5-5113-5fb5-9e44-092707d36379","frontmatter":{"title":"【转】ASP.NET 错误CS0433: The type \"_Default\" exists in both ...解决方法","template":"post","has_more_link":null,"more_link_text":null,"excerpt":"","canonical_url":"https://be-net.azurewebsites.net/post/2010/07/23/【转】ASPNET-错误CS0433-The-type-_Default-exists-in-both-解决方法","date":"2010-07-23 09:34:14","img_path":null,"positive_reactions_count":0,"stackbit_url_path":"posts/【转】ASPNET-错误CS0433-The-type-_Default-exists-in-both-解决方法"}}}]}},"pageContext":{"limit":5,"skip":420,"totalPages":169,"totalItems":842,"currentPage":85,"frontmatter":{"canonical_url":null,"comments_count":null,"title":"Home","template":"home","more_link_text":"Keep reading / 查看全部","date":null,"excerpt":"Jeff Tian's homepage","has_more_link":true},"url":"/","relativePath":"/","base":"","site":{"siteMetadata":{"title":"Jeff Tian","description":"A wild full stack developer","palette":"yellow","header":{"title":"Jeff Tian","tagline":"A wild developer","logo_img":"https://images.ctfassets.net/qixg1o8tujmf/7z1ua3nTOC5B7DwwzAki8I/4e1a05f8db770c285a492eeb1eaa398f/imageedit_3_2509022194.png","background_img":"https://images.ctfassets.net/qixg1o8tujmf/7m0jrKYaDBwEvlc5lo8nt6/6d50a5050d9cdc0d4d2047e35feac292/10648733_696750647079056_2800539603462658695_o.jpg","has_nav":true,"nav_links":[{"label":"Home","url":"/","style":"link","type":"action"},{"label":"About","url":"/about","style":"link","type":"action"},{"label":"关于","url":"https://ggyy.pa-pa.me/about","style":"link","icon_class":"lorem-ipsum","new_window":true,"type":"action"},{"label":"Contact","url":"/contact","style":"link","type":"action"},{"label":"Support Me","url":"/support-me","style":"link","type":"action"},{"label":"叽叽歪歪","url":"https://ggyy.pa-pa.me/","style":"link","icon_class":"lorem-ipsum","new_window":true,"type":"action"}],"has_social":true,"social_links":[{"label":"Twitter","url":"https://twitter.com/zizhujy","style":"icon","icon_class":"fa-twitter","new_window":true,"type":"action"},{"label":"Instagram","url":"https://www.instagram.com/jefftian5","style":"icon","icon_class":"fa-instagram","new_window":true,"type":"action"},{"label":"GitHub","url":"https://github.com/jeff-tian","style":"icon","icon_class":"fa-github","new_window":true,"type":"action"},{"label":"LinkedIn","url":"https://www.linkedin.com/jeff~tian","style":"icon","icon_class":"fa-linkedin","new_window":true,"type":"action"},{"label":"DEV","url":"https://dev.to/jefftian","style":"icon","icon_class":"fa-dev","new_window":true,"type":"action"},{"label":"知乎","url":"https://www.zhihu.com/people/jefftian","style":"icon","icon_class":"fa-zhihu","new_window":true,"type":"action"}],"type":"header"},"footer":{"content":"&copy; All rights reserved.","links":[{"label":"本站源码","url":"https://github.com/Jeff-Tian/space","style":"link","icon_class":"fa-github","new_window":true,"type":"action"},{"label":"紫竹叽歪","url":"https://zizhujy.apphb.com","style":"link","icon_class":"http://zizhujy.apphb.com/Content/Images/logo.png","new_window":true,"type":"action"}],"type":"footer"}},"pathPrefix":"","data":{"data":{"author":{"name":"Jeff Tian","avatar":"https://res.cloudinary.com/practicaldev/image/fetch/s--a5qDZLv3--/c_fill,f_auto,fl_progressive,h_640,q_auto,w_640/https://dev-to-uploads.s3.amazonaws.com/uploads/user/profile_image/318420/3bfd2d99-430c-4049-8dd5-e2adc961e1e0.png"},"social":{"devto":{"username":"jefftian"},"twitter":{"username":"zizhujy"},"github":{"username":"Jeff-Tian"}}}}},"menus":{}}},"staticQueryHashes":[]}