{"componentChunkName":"component---src-templates-home-js","path":"/50","result":{"data":{"allMarkdownRemark":{"edges":[{"node":{"excerpt":"本地连接:\r\nNode IpAddress: [0.0.0.0] Scope Id: [] 无线网络连接:\r\nNode IpAddress: [192.168.0.102] Scope Id: []","id":"e7968644-7860-5d63-b59d-4a3c5f104e7b","frontmatter":{"title":"在一个局域网内，已知目标的IP地址，探测其MAC地址的方法","template":"post","has_more_link":null,"more_link_text":null,"excerpt":"","canonical_url":"https://be-net.azurewebsites.net/post/2010/12/29/e59ca8e4b880e4b8aae5b180e59f9fe7bd91e58685efbc8ce5b7b2e79fa5e79baee6a087e79a84IPe59cb0e59d80efbc8ce68ea2e6b58be585b6MACe59cb0e59d80e79a84e696b9e6b395","date":"2010-12-29 02:45:00","img_path":null,"positive_reactions_count":0,"stackbit_url_path":"posts/e59ca8e4b880e4b8aae5b180e59f9fe7bd91e58685efbc8ce5b7b2e79fa5e79baee6a087e79a84IPe59cb0e59d80efbc8ce68ea2e6b58be585b6MACe59cb0e59d80e79a84e696b9e6b395"}}},{"node":{"excerpt":"","id":"ab5b28b6-f548-5da7-acb9-dd4affd5c8ce","frontmatter":{"title":"给列添加唯一性约束","template":"post","has_more_link":null,"more_link_text":null,"excerpt":"","canonical_url":"https://be-net.azurewebsites.net/post/2010/12/28/e7bb99e58897e6b7bbe58aa0e594afe4b880e680a7e7baa6e69d9f","date":"2010-12-28 02:43:00","img_path":null,"positive_reactions_count":0,"stackbit_url_path":"posts/e7bb99e58897e6b7bbe58aa0e594afe4b880e680a7e7baa6e69d9f"}}},{"node":{"excerpt":"","id":"1c47b1d9-578b-51ce-9201-0dec64c98ed5","frontmatter":{"title":"恐惧、贪婪、思考","template":"post","has_more_link":null,"more_link_text":null,"excerpt":"","canonical_url":"https://be-net.azurewebsites.net/post/2010/12/25/e68190e683a7e38081e8b4aae5a9aae38081e6809de88083","date":"2010-12-25 02:41:00","img_path":null,"positive_reactions_count":0,"stackbit_url_path":"posts/e68190e683a7e38081e8b4aae5a9aae38081e6809de88083"}}},{"node":{"excerpt":"","id":"83b23601-cd40-5d8f-90ad-e4c607bb34a6","frontmatter":{"title":"无题","template":"post","has_more_link":null,"more_link_text":null,"excerpt":"","canonical_url":"https://be-net.azurewebsites.net/post/2010/12/23/e697a0e9a298","date":"2010-12-23 02:39:00","img_path":null,"positive_reactions_count":0,"stackbit_url_path":"posts/e697a0e9a298"}}},{"node":{"excerpt":"","id":"7ed3d415-9254-5967-970d-6b0bb3a8ae56","frontmatter":{"title":"获取浏览器客户端的左上角坐标与宽高的JavaScript函数","template":"post","has_more_link":null,"more_link_text":null,"excerpt":"","canonical_url":"https://be-net.azurewebsites.net/post/2010/12/23/e88eb7e58f96e6b58fe8a788e599a8e5aea2e688b7e7abafe79a84e5b7a6e4b88ae8a792e59d90e6a087e4b88ee5aebde9ab98e79a84JavaScripte587bde695b0","date":"2010-12-23 02:38:00","img_path":null,"positive_reactions_count":0,"stackbit_url_path":"posts/e88eb7e58f96e6b58fe8a788e599a8e5aea2e688b7e7abafe79a84e5b7a6e4b88ae8a792e59d90e6a087e4b88ee5aebde9ab98e79a84JavaScripte587bde695b0"}}}]}},"pageContext":{"limit":5,"skip":245,"totalPages":140,"totalItems":699,"currentPage":50,"frontmatter":{"canonical_url":null,"comments_count":null,"title":"Home","template":"home","more_link_text":"Keep reading / 查看全部","date":null,"excerpt":"Jeff Tian's homepage","has_more_link":true},"url":"/","relativePath":"/","base":"","site":{"siteMetadata":{"title":"Jeff Tian","description":"Full Stack Developer, good at OAuth 2.0","palette":"yellow","header":{"title":"Jeff Tian","tagline":"A wild developer","logo_img":"https://images.ctfassets.net/qixg1o8tujmf/7z1ua3nTOC5B7DwwzAki8I/4e1a05f8db770c285a492eeb1eaa398f/imageedit_3_2509022194.png","background_img":"https://images.ctfassets.net/qixg1o8tujmf/7m0jrKYaDBwEvlc5lo8nt6/6d50a5050d9cdc0d4d2047e35feac292/10648733_696750647079056_2800539603462658695_o.jpg","has_nav":true,"nav_links":[{"label":"Home","url":"/","style":"link","type":"action"},{"label":"About","url":"/about","style":"link","type":"action"},{"label":"关于","url":"https://ggyy.pa-pa.me/about","style":"link","icon_class":"lorem-ipsum","new_window":true,"type":"action"},{"label":"Contact","url":"/contact","style":"link","type":"action"},{"label":"Support Me","url":"/support-me","style":"link","type":"action"},{"label":"叽叽歪歪","url":"https://ggyy.pa-pa.me/","style":"link","icon_class":"lorem-ipsum","new_window":true,"type":"action"}],"has_social":true,"social_links":[{"label":"Twitter","url":"https://twitter.com/zizhujy","style":"icon","icon_class":"fa-twitter","new_window":true,"type":"action"},{"label":"Instagram","url":"https://www.instagram.com/jefftian5","style":"icon","icon_class":"fa-instagram","new_window":true,"type":"action"},{"label":"GitHub","url":"https://github.com/jeff-tian","style":"icon","icon_class":"fa-github","new_window":true,"type":"action"},{"label":"LinkedIn","url":"https://www.linkedin.com/jeff~tian","style":"icon","icon_class":"fa-linkedin","new_window":true,"type":"action"},{"label":"DEV","url":"https://dev.to/jefftian","style":"icon","icon_class":"fa-dev","new_window":true,"type":"action"},{"label":"知乎","url":"https://www.zhihu.com/people/jefftian","style":"icon","icon_class":"fa-zhihu","new_window":true,"type":"action"}],"type":"header"},"footer":{"content":"&copy; All rights reserved.","links":[{"label":"本站源码","url":"https://github.com/Jeff-Tian/space","style":"link","icon_class":"fa-github","new_window":true,"type":"action"},{"label":"紫竹叽歪","url":"https://zizhujy.apphb.com","style":"link","icon_class":"http://zizhujy.apphb.com/Content/Images/logo.png","new_window":true,"type":"action"}],"type":"footer"}},"pathPrefix":"","data":{"data":{"author":{"name":"Jeff Tian","avatar":"https://res.cloudinary.com/practicaldev/image/fetch/s--a5qDZLv3--/c_fill,f_auto,fl_progressive,h_640,q_auto,w_640/https://dev-to-uploads.s3.amazonaws.com/uploads/user/profile_image/318420/3bfd2d99-430c-4049-8dd5-e2adc961e1e0.png"},"social":{"devto":{"username":"jefftian"},"twitter":{"username":"zizhujy"},"github":{"username":"Jeff-Tian"}}}}},"menus":{}}},"staticQueryHashes":[]}