{"componentChunkName":"component---src-templates-home-js","path":"/78","result":{"data":{"allMarkdownRemark":{"edges":[{"node":{"excerpt":"%>\n<!--#include file=\"../ClassModule/CFormDataGetter.asp\"-->\n<!--#include file=\"../ClassModule/CImage.asp\"-->\n<!--#include file…","id":"a4f61374-0622-53c8-9043-7bb94714d9bc","frontmatter":{"title":"ASP 无组件上传图片到数据库一例","template":"post","has_more_link":null,"more_link_text":null,"excerpt":"","canonical_url":"https://be-net.azurewebsites.net/post/2010/04/04/ASP-无组件上传图片到数据库一例","date":"2010-04-04 18:37:10","img_path":null,"positive_reactions_count":0,"stackbit_url_path":"posts/ASP-无组件上传图片到数据库一例"}}},{"node":{"excerpt":"","id":"b7d0fb43-0368-5cb8-a97f-651fa61366a1","frontmatter":{"title":"页面表单容器 CFormDataGetter.asp","template":"post","has_more_link":null,"more_link_text":null,"excerpt":"","canonical_url":"https://be-net.azurewebsites.net/post/2010/04/04/页面表单容器-CFormDataGetterasp","date":"2010-04-04 18:33:10","img_path":null,"positive_reactions_count":0,"stackbit_url_path":"posts/页面表单容器-CFormDataGetterasp"}}},{"node":{"excerpt":"","id":"4c4c9580-b2c6-595e-95f1-c267fc7e2a72","frontmatter":{"title":"文件类 CFile.asp","template":"post","has_more_link":null,"more_link_text":null,"excerpt":"","canonical_url":"https://be-net.azurewebsites.net/post/2010/04/04/文件类-CFileasp","date":"2010-04-04 18:19:30","img_path":null,"positive_reactions_count":0,"stackbit_url_path":"posts/文件类-CFileasp"}}},{"node":{"excerpt":"End Class\n%>","id":"b27733cf-9aa0-577b-b8de-b568f96d3771","frontmatter":{"title":"ASP版ArrayList类","template":"post","has_more_link":null,"more_link_text":null,"excerpt":"","canonical_url":"https://be-net.azurewebsites.net/post/2010/04/04/ASP版ArrayList类","date":"2010-04-04 17:58:53","img_path":null,"positive_reactions_count":0,"stackbit_url_path":"posts/ASP版ArrayList类"}}},{"node":{"excerpt":"","id":"cdefc003-98d2-5b41-b10b-dabb4c59791b","frontmatter":{"title":"JSP 中，不要同时用page指令和HTML标签来指定contentType","template":"post","has_more_link":null,"more_link_text":null,"excerpt":"","canonical_url":"https://be-net.azurewebsites.net/post/2010/04/04/JSP-中，不要同时用page指令和HTML标签来指定contentType","date":"2010-04-04 17:37:02","img_path":null,"positive_reactions_count":0,"stackbit_url_path":"posts/JSP-中，不要同时用page指令和HTML标签来指定contentType"}}}]}},"pageContext":{"limit":5,"skip":385,"totalPages":140,"totalItems":699,"currentPage":78,"frontmatter":{"canonical_url":null,"comments_count":null,"title":"Home","template":"home","more_link_text":"Keep reading / 查看全部","date":null,"excerpt":"Jeff Tian's homepage","has_more_link":true},"url":"/","relativePath":"/","base":"","site":{"siteMetadata":{"title":"Jeff Tian","description":"Full Stack Developer, good at OAuth 2.0","palette":"yellow","header":{"title":"Jeff Tian","tagline":"A wild developer","logo_img":"https://images.ctfassets.net/qixg1o8tujmf/7z1ua3nTOC5B7DwwzAki8I/4e1a05f8db770c285a492eeb1eaa398f/imageedit_3_2509022194.png","background_img":"https://images.ctfassets.net/qixg1o8tujmf/7m0jrKYaDBwEvlc5lo8nt6/6d50a5050d9cdc0d4d2047e35feac292/10648733_696750647079056_2800539603462658695_o.jpg","has_nav":true,"nav_links":[{"label":"Home","url":"/","style":"link","type":"action"},{"label":"About","url":"/about","style":"link","type":"action"},{"label":"关于","url":"https://ggyy.pa-pa.me/about","style":"link","icon_class":"lorem-ipsum","new_window":true,"type":"action"},{"label":"Contact","url":"/contact","style":"link","type":"action"},{"label":"Support Me","url":"/support-me","style":"link","type":"action"},{"label":"叽叽歪歪","url":"https://ggyy.pa-pa.me/","style":"link","icon_class":"lorem-ipsum","new_window":true,"type":"action"}],"has_social":true,"social_links":[{"label":"Twitter","url":"https://twitter.com/zizhujy","style":"icon","icon_class":"fa-twitter","new_window":true,"type":"action"},{"label":"Instagram","url":"https://www.instagram.com/jefftian5","style":"icon","icon_class":"fa-instagram","new_window":true,"type":"action"},{"label":"GitHub","url":"https://github.com/jeff-tian","style":"icon","icon_class":"fa-github","new_window":true,"type":"action"},{"label":"LinkedIn","url":"https://www.linkedin.com/jeff~tian","style":"icon","icon_class":"fa-linkedin","new_window":true,"type":"action"},{"label":"DEV","url":"https://dev.to/jefftian","style":"icon","icon_class":"fa-dev","new_window":true,"type":"action"},{"label":"知乎","url":"https://www.zhihu.com/people/jefftian","style":"icon","icon_class":"fa-zhihu","new_window":true,"type":"action"}],"type":"header"},"footer":{"content":"&copy; All rights reserved.","links":[{"label":"本站源码","url":"https://github.com/Jeff-Tian/space","style":"link","icon_class":"fa-github","new_window":true,"type":"action"},{"label":"紫竹叽歪","url":"https://zizhujy.apphb.com","style":"link","icon_class":"http://zizhujy.apphb.com/Content/Images/logo.png","new_window":true,"type":"action"}],"type":"footer"}},"pathPrefix":"","data":{"data":{"author":{"name":"Jeff Tian","avatar":"https://res.cloudinary.com/practicaldev/image/fetch/s--a5qDZLv3--/c_fill,f_auto,fl_progressive,h_640,q_auto,w_640/https://dev-to-uploads.s3.amazonaws.com/uploads/user/profile_image/318420/3bfd2d99-430c-4049-8dd5-e2adc961e1e0.png"},"social":{"devto":{"username":"jefftian"},"twitter":{"username":"zizhujy"},"github":{"username":"Jeff-Tian"}}}}},"menus":{}}},"staticQueryHashes":[]}