{"componentChunkName":"component---src-templates-home-js","path":"/3/","result":{"data":{"allMarkdownRemark":{"edges":[{"node":{"excerpt":"当你面对多条信息做决策时，可以从信息量最大的那条开始。  从排序开始 这一原则，适用于排序逻辑。举个例子，甲乙丙丁赛跑，给你以下…","id":"6822ab5f-fdbf-5b7f-912d-88252a8a4c93","frontmatter":{"title":"算法可视化：使用 id3 构建决策树，以及对熵的一点点解释","template":"post","has_more_link":null,"more_link_text":null,"excerpt":"","canonical_url":null,"date":"2023-05-13T12:16:58","img_path":null,"positive_reactions_count":null,"stackbit_url_path":"posts/ka6wugb3kz04t2gb"}}},{"node":{"excerpt":"之前因为不同的目的，做了几个示例程序。今天，把它们串起来，以实例的方式，展示一下如何用 Keycloak…","id":"d2a15a98-971f-592c-b0bb-3e4df82278cc","frontmatter":{"title":"使用 Keycloak 打造多个系统间的单点登录体验","template":"post","has_more_link":null,"more_link_text":null,"excerpt":"","canonical_url":null,"date":"2023-05-08T11:56:23","img_path":null,"positive_reactions_count":null,"stackbit_url_path":"posts/fot6g9x2yi3c6hgf"}}},{"node":{"excerpt":"…","id":"ae0d1055-e1c1-5d76-ad77-e6d3b609bdf1","frontmatter":{"title":"如何用程序员的思维理解薛定谔的猫？——上帝喜欢写程序的证明","template":"post","has_more_link":null,"more_link_text":null,"excerpt":"","canonical_url":null,"date":"2023-05-03T01:27:40","img_path":null,"positive_reactions_count":null,"stackbit_url_path":"posts/mn5ovrt2olqyolv4"}}},{"node":{"excerpt":"我在 Authing.cn 中建立了一个 Brickverse 用户池： 在这个用户池下创建了两个应用，一个名为 brickverse，一个名为“哈德韦的个人小程序”。 第一个应用的访问链接是： https://brickverse.net…","id":"5001d236-0ebc-542b-be7a-177455cefc29","frontmatter":{"title":"通过 Bean 的方式扩展 Spring 应用，使其同时支持多个授权服务颁发的令牌。","template":"post","has_more_link":null,"more_link_text":null,"excerpt":"","canonical_url":null,"date":"2023-05-01T04:50:13","img_path":null,"positive_reactions_count":null,"stackbit_url_path":"posts/eqh3cw2t5iw4g15i"}}},{"node":{"excerpt":"…","id":"53c6d705-c25b-5e6f-8cbd-3a9e6fc2a4d9","frontmatter":{"title":"【Caddyfile】使用 caddy 做反向代理，超级好用！","template":"post","has_more_link":null,"more_link_text":null,"excerpt":"","canonical_url":null,"date":"2023-04-25T11:37:05","img_path":null,"positive_reactions_count":null,"stackbit_url_path":"posts/rsamx22lxfa036uq"}}}]}},"pageContext":{"limit":5,"skip":10,"totalPages":187,"totalItems":931,"currentPage":3,"frontmatter":{"canonical_url":null,"comments_count":null,"title":"Home","template":"home","more_link_text":"Keep reading / 查看全部","date":null,"excerpt":"Jeff Tian's homepage","has_more_link":true},"url":"/","relativePath":"/","base":"","site":{"siteMetadata":{"title":"Jeff Tian","author":"@zizhujy","description":"A wild full stack developer","palette":"yellow","header":{"title":"Jeff Tian","tagline":"A wild developer","logo_img":"https://images.ctfassets.net/qixg1o8tujmf/7z1ua3nTOC5B7DwwzAki8I/4e1a05f8db770c285a492eeb1eaa398f/imageedit_3_2509022194.png","background_img":"https://images.ctfassets.net/qixg1o8tujmf/7m0jrKYaDBwEvlc5lo8nt6/6d50a5050d9cdc0d4d2047e35feac292/10648733_696750647079056_2800539603462658695_o.jpg","has_nav":true,"nav_links":[{"label":"Home","url":"/","style":"link","type":"action"},{"label":"About","url":"/about","style":"link","type":"action"},{"label":"关于","url":"https://ggyy.pa-pa.me/about","style":"link","icon_class":"lorem-ipsum","new_window":true,"type":"action"},{"label":"Contact","url":"/contact","style":"link","type":"action"},{"label":"Support Me","url":"/support-me","style":"link","type":"action"},{"label":"叽叽歪歪","url":"https://ggyy.pa-pa.me/","style":"link","icon_class":"lorem-ipsum","new_window":true,"type":"action"}],"has_social":true,"social_links":[{"label":"Twitter","url":"https://twitter.com/zizhujy","style":"icon","icon_class":"fa-twitter","new_window":true,"type":"action"},{"label":"Instagram","url":"https://www.instagram.com/jefftian5","style":"icon","icon_class":"fa-instagram","new_window":true,"type":"action"},{"label":"GitHub","url":"https://github.com/jeff-tian","style":"icon","icon_class":"fa-github","new_window":true,"type":"action"},{"label":"LinkedIn","url":"https://www.linkedin.com/jeff~tian","style":"icon","icon_class":"fa-linkedin","new_window":true,"type":"action"},{"label":"DEV","url":"https://dev.to/jefftian","style":"icon","icon_class":"fa-dev","new_window":true,"type":"action"},{"label":"知乎","url":"https://www.zhihu.com/people/jefftian","style":"icon","icon_class":"fa-zhihu","new_window":true,"type":"action"}],"type":"header"},"footer":{"content":"&copy; All rights reserved.","links":[{"label":"Made with Stackbit.","url":"https://www.stackbit.com","style":"link","new_window":true,"type":"action"},{"label":"紫竹叽歪","url":"https://zizhujy.apphb.com","style":"link","icon_class":"http://zizhujy.apphb.com/Content/Images/logo.png","new_window":true,"type":"action"}],"type":"footer"}},"pathPrefix":"","data":{"data":{"author":{"name":"Jeff Tian","avatar":"https://res.cloudinary.com/practicaldev/image/fetch/s--a5qDZLv3--/c_fill,f_auto,fl_progressive,h_640,q_auto,w_640/https://dev-to-uploads.s3.amazonaws.com/uploads/user/profile_image/318420/3bfd2d99-430c-4049-8dd5-e2adc961e1e0.png"},"social":{"devto":{"username":"jefftian"},"twitter":{"username":"zizhujy"},"github":{"username":"Jeff-Tian"}}}}},"menus":{}}},"staticQueryHashes":[],"slicesMap":{}}