{"componentChunkName":"component---src-templates-home-js","path":"/","result":{"data":{"allMarkdownRemark":{"edges":[{"node":{"excerpt":"前通道登出 按照标准https://openid.net/specs/openid-connect-rpinitiated-1_0.html ，登录平台会通过发现端点（Discovery Endpoint）来公布自己的结束会话端点，比如下图展示了基于 Duende…","id":"ec556419-c3c9-5720-b0b6-839db0399c9c","frontmatter":{"title":"退出登录的前通道方式与后通道方式","template":"post","has_more_link":null,"more_link_text":null,"excerpt":"","canonical_url":null,"date":"2024-03-18T11:06:55","img_path":null,"positive_reactions_count":null,"stackbit_url_path":"posts/lgrnwbau9hq4ighx"}}},{"node":{"excerpt":"背景 之前发了一篇《Pulumi 惊艳到我了（还可以无限免费薅 AI 羊毛） - Jeff Tian的文章 - 知乎 》，有人留言希望我分享一下我们对 Pulumi…","id":"b5900b85-a2be-5be8-961b-c40751dc35f5","frontmatter":{"title":"选择 Pulumi 做为 IaC 框架","template":"post","has_more_link":null,"more_link_text":null,"excerpt":"","canonical_url":null,"date":"2024-03-13T12:25:00","img_path":null,"positive_reactions_count":null,"stackbit_url_path":"posts/tbclv3hgf07lfovs"}}},{"node":{"excerpt":"在企业IT的复杂世界中，管理系统和数据的访问至关重要。身份与访问管理（IAM）是一种安全学科，它使正确的个人能够在正确的时间出于正确的原因访问正确的资源。让我们探讨企业环境中IAM的ABCDE框架，其中每个字母代表系统的一个关键组成部分。\n:::info\n使用 ABCDE…","id":"93b7c91b-dcb0-5152-82b6-6247da1a2087","frontmatter":{"title":"企业级身份与访问管理中的 ABCDE","template":"post","has_more_link":null,"more_link_text":null,"excerpt":"","canonical_url":null,"date":"2024-03-11T12:08:25","img_path":null,"positive_reactions_count":null,"stackbit_url_path":"posts/kul8baivndxggby6"}}},{"node":{"excerpt":"我突然意识到，自己的程序员生涯早就已经超过十年了，但却从来没有使用程序来为自己解决过问题。难道写程序只能用于打工吗？最近终于尝试通过写代码为自己解决一些实际问题，虽然只是一个非常非常小的开始，但效果令我极度满意。\n 问题 我有一本书籍的 markdown…","id":"c43cef25-139f-50cf-b2de-cf640b48a8c7","frontmatter":{"title":"四个测试用例解决实际问题","template":"post","has_more_link":null,"more_link_text":null,"excerpt":"","canonical_url":null,"date":"2024-03-10T06:29:29","img_path":null,"positive_reactions_count":null,"stackbit_url_path":"posts/fiisg1molfi17zrc"}}},{"node":{"excerpt":"前几年，我外包进入一家外企，碰到了一件颠覆我三观的事情：一方面，中国的产品经理拼命催活儿，要求尽快上线新功能。另一方面，CICD 流水线由国外的 DevOps…","id":"fe061df8-7d36-52ce-8567-61e1373a88c6","frontmatter":{"title":"沟通障碍：数据 vs 感觉","template":"post","has_more_link":null,"more_link_text":null,"excerpt":"","canonical_url":null,"date":"2024-03-06T08:58:30","img_path":null,"positive_reactions_count":null,"stackbit_url_path":"posts/pbltdmzgkyeoizf5"}}}]}},"pageContext":{"limit":5,"skip":0,"totalPages":159,"totalItems":793,"currentPage":1,"frontmatter":{"canonical_url":null,"comments_count":null,"title":"Home","template":"home","more_link_text":"Keep reading / 查看全部","date":null,"excerpt":"Jeff Tian's homepage","has_more_link":true},"url":"/","relativePath":"/","base":"","site":{"siteMetadata":{"title":"Jeff Tian","author":"@zizhujy","description":"A wild full stack developer","palette":"yellow","header":{"title":"Jeff Tian","tagline":"A wild developer","logo_img":"https://images.ctfassets.net/qixg1o8tujmf/7z1ua3nTOC5B7DwwzAki8I/4e1a05f8db770c285a492eeb1eaa398f/imageedit_3_2509022194.png","background_img":"https://images.ctfassets.net/qixg1o8tujmf/7m0jrKYaDBwEvlc5lo8nt6/6d50a5050d9cdc0d4d2047e35feac292/10648733_696750647079056_2800539603462658695_o.jpg","has_nav":true,"nav_links":[{"label":"Home","url":"/","style":"link","type":"action"},{"label":"About","url":"/about","style":"link","type":"action"},{"label":"关于","url":"https://ggyy.pa-pa.me/about","style":"link","icon_class":"lorem-ipsum","new_window":true,"type":"action"},{"label":"Contact","url":"/contact","style":"link","type":"action"},{"label":"Support Me","url":"/support-me","style":"link","type":"action"},{"label":"叽叽歪歪","url":"https://ggyy.pa-pa.me/","style":"link","icon_class":"lorem-ipsum","new_window":true,"type":"action"}],"has_social":true,"social_links":[{"label":"Twitter","url":"https://twitter.com/zizhujy","style":"icon","icon_class":"fa-twitter","new_window":true,"type":"action"},{"label":"Instagram","url":"https://www.instagram.com/jefftian5","style":"icon","icon_class":"fa-instagram","new_window":true,"type":"action"},{"label":"GitHub","url":"https://github.com/jeff-tian","style":"icon","icon_class":"fa-github","new_window":true,"type":"action"},{"label":"LinkedIn","url":"https://www.linkedin.com/jeff~tian","style":"icon","icon_class":"fa-linkedin","new_window":true,"type":"action"},{"label":"DEV","url":"https://dev.to/jefftian","style":"icon","icon_class":"fa-dev","new_window":true,"type":"action"},{"label":"知乎","url":"https://www.zhihu.com/people/jefftian","style":"icon","icon_class":"fa-zhihu","new_window":true,"type":"action"}],"type":"header"},"footer":{"content":"&copy; All rights reserved.","links":[{"label":"Made with Stackbit.","url":"https://www.stackbit.com","style":"link","new_window":true,"type":"action"},{"label":"紫竹叽歪","url":"https://zizhujy.apphb.com","style":"link","icon_class":"http://zizhujy.apphb.com/Content/Images/logo.png","new_window":true,"type":"action"}],"type":"footer"}},"pathPrefix":"","data":{"data":{"author":{"name":"Jeff Tian","avatar":"https://res.cloudinary.com/practicaldev/image/fetch/s--a5qDZLv3--/c_fill,f_auto,fl_progressive,h_640,q_auto,w_640/https://dev-to-uploads.s3.amazonaws.com/uploads/user/profile_image/318420/3bfd2d99-430c-4049-8dd5-e2adc961e1e0.png"},"social":{"devto":{"username":"jefftian"},"twitter":{"username":"zizhujy"},"github":{"username":"Jeff-Tian"}}}}},"menus":{}}},"staticQueryHashes":[],"slicesMap":{}}