{"componentChunkName":"component---src-templates-home-js","path":"/164/","result":{"data":{"allMarkdownRemark":{"edges":[{"node":{"excerpt":"","id":"2ebfa08d-56ed-56c2-b614-3f77cf23e9cf","frontmatter":{"title":"矩偏度系数","template":"post","has_more_link":null,"more_link_text":null,"excerpt":"","canonical_url":"https://be-net.azurewebsites.net/post/2010/01/30/矩偏度系数","date":"2010-01-30 15:38:41","img_path":null,"positive_reactions_count":0,"stackbit_url_path":"posts/矩偏度系数"}}},{"node":{"excerpt":"","id":"fc1e26c1-113f-5db9-a0fe-443ab5aef16c","frontmatter":{"title":"商务统计学习讲座","template":"post","has_more_link":null,"more_link_text":null,"excerpt":"","canonical_url":"https://be-net.azurewebsites.net/post/2010/01/30/商务统计学习讲座","date":"2010-01-30 15:16:16","img_path":null,"positive_reactions_count":0,"stackbit_url_path":"posts/商务统计学习讲座"}}},{"node":{"excerpt":"Starting Nmap 5.21 ( http://nmap.org ) at 2010-01-30 22:31 中国标准时间\nNmap scan report for 192.168.1.20\nHost is up (0.00s latency).\nAll 100…","id":"6470b9fc-6ca6-5d9f-aed2-cd6efa04ee21","frontmatter":{"title":"使用 nmap 探测目标主机的操作系统","template":"post","has_more_link":null,"more_link_text":null,"excerpt":"","canonical_url":"https://be-net.azurewebsites.net/post/2010/01/30/使用-nmap-探测目标主机的操作系统","date":"2010-01-30 14:27:10","img_path":null,"positive_reactions_count":0,"stackbit_url_path":"posts/使用-nmap-探测目标主机的操作系统"}}},{"node":{"excerpt":"Starting Nmap 5.21 ( http://nmap.org ) at 2010-01-30 21:36 中国标准时间\nSkipping IPProto Scan against 192.168.1.12 because Windows does not…","id":"843dc78a-0a92-5518-b6b3-91eb9c8df95e","frontmatter":{"title":"使用 nmap 工具扫描指定主机支持哪些 IP 协议","template":"post","has_more_link":null,"more_link_text":null,"excerpt":"","canonical_url":"https://be-net.azurewebsites.net/post/2010/01/30/使用-nmap-工具扫描指定主机支持哪些-IP-协议","date":"2010-01-30 13:39:04","img_path":null,"positive_reactions_count":0,"stackbit_url_path":"posts/使用-nmap-工具扫描指定主机支持哪些-IP-协议"}}},{"node":{"excerpt":"Starting Nmap 5.21 ( http://nmap.org ) at 2010-01-30 21:30 中国标准时间\nNmap scan report for 192.168.1.1\nHost is up (0.0020s latency).\nNot shown…","id":"584870d6-b27a-54b0-b34a-ad045262838a","frontmatter":{"title":"使用 nmap 对局域网进行 UDP 扫描一例","template":"post","has_more_link":null,"more_link_text":null,"excerpt":"","canonical_url":"https://be-net.azurewebsites.net/post/2010/01/30/使用-nmap-对局域网进行-UDP-扫描一例","date":"2010-01-30 13:26:37","img_path":null,"positive_reactions_count":0,"stackbit_url_path":"posts/使用-nmap-对局域网进行-UDP-扫描一例"}}}]}},"pageContext":{"limit":5,"skip":815,"totalPages":187,"totalItems":931,"currentPage":164,"frontmatter":{"canonical_url":null,"comments_count":null,"title":"Home","template":"home","more_link_text":"Keep reading / 查看全部","date":null,"excerpt":"Jeff Tian's homepage","has_more_link":true},"url":"/","relativePath":"/","base":"","site":{"siteMetadata":{"title":"Jeff Tian","author":"@zizhujy","description":"A wild full stack developer","palette":"yellow","header":{"title":"Jeff Tian","tagline":"A wild developer","logo_img":"https://images.ctfassets.net/qixg1o8tujmf/7z1ua3nTOC5B7DwwzAki8I/4e1a05f8db770c285a492eeb1eaa398f/imageedit_3_2509022194.png","background_img":"https://images.ctfassets.net/qixg1o8tujmf/7m0jrKYaDBwEvlc5lo8nt6/6d50a5050d9cdc0d4d2047e35feac292/10648733_696750647079056_2800539603462658695_o.jpg","has_nav":true,"nav_links":[{"label":"Home","url":"/","style":"link","type":"action"},{"label":"About","url":"/about","style":"link","type":"action"},{"label":"关于","url":"https://ggyy.pa-pa.me/about","style":"link","icon_class":"lorem-ipsum","new_window":true,"type":"action"},{"label":"Contact","url":"/contact","style":"link","type":"action"},{"label":"Support Me","url":"/support-me","style":"link","type":"action"},{"label":"叽叽歪歪","url":"https://ggyy.pa-pa.me/","style":"link","icon_class":"lorem-ipsum","new_window":true,"type":"action"}],"has_social":true,"social_links":[{"label":"Twitter","url":"https://twitter.com/zizhujy","style":"icon","icon_class":"fa-twitter","new_window":true,"type":"action"},{"label":"Instagram","url":"https://www.instagram.com/jefftian5","style":"icon","icon_class":"fa-instagram","new_window":true,"type":"action"},{"label":"GitHub","url":"https://github.com/jeff-tian","style":"icon","icon_class":"fa-github","new_window":true,"type":"action"},{"label":"LinkedIn","url":"https://www.linkedin.com/jeff~tian","style":"icon","icon_class":"fa-linkedin","new_window":true,"type":"action"},{"label":"DEV","url":"https://dev.to/jefftian","style":"icon","icon_class":"fa-dev","new_window":true,"type":"action"},{"label":"知乎","url":"https://www.zhihu.com/people/jefftian","style":"icon","icon_class":"fa-zhihu","new_window":true,"type":"action"}],"type":"header"},"footer":{"content":"&copy; All rights reserved.","links":[{"label":"Made with Stackbit.","url":"https://www.stackbit.com","style":"link","new_window":true,"type":"action"},{"label":"紫竹叽歪","url":"https://zizhujy.apphb.com","style":"link","icon_class":"http://zizhujy.apphb.com/Content/Images/logo.png","new_window":true,"type":"action"}],"type":"footer"}},"pathPrefix":"","data":{"data":{"author":{"name":"Jeff Tian","avatar":"https://res.cloudinary.com/practicaldev/image/fetch/s--a5qDZLv3--/c_fill,f_auto,fl_progressive,h_640,q_auto,w_640/https://dev-to-uploads.s3.amazonaws.com/uploads/user/profile_image/318420/3bfd2d99-430c-4049-8dd5-e2adc961e1e0.png"},"social":{"devto":{"username":"jefftian"},"twitter":{"username":"zizhujy"},"github":{"username":"Jeff-Tian"}}}}},"menus":{}}},"staticQueryHashes":[],"slicesMap":{}}