{"componentChunkName":"component---src-templates-home-js","path":"/48","result":{"data":{"allMarkdownRemark":{"edges":[{"node":{"excerpt":"","id":"cb29ef6b-0c69-583a-b2d4-0b5d04c46579","frontmatter":{"title":"宋代游西湖，要门票么？","template":"post","has_more_link":null,"more_link_text":null,"excerpt":"","canonical_url":"https://be-net.azurewebsites.net/post/2011/01/11/e5ae8be4bba3e6b8b8e8a5bfe6b996efbc8ce8a681e997a8e7a5a8e4b988efbc9f","date":"2011-01-11 05:47:00","img_path":null,"positive_reactions_count":0,"stackbit_url_path":"posts/e5ae8be4bba3e6b8b8e8a5bfe6b996efbc8ce8a681e997a8e7a5a8e4b988efbc9f"}}},{"node":{"excerpt":"}","id":"80d7b273-a569-5ed3-a40b-512291e9e497","frontmatter":{"title":"ASP.NET 获取服务器上页面的客户端HTML源码","template":"post","has_more_link":null,"more_link_text":null,"excerpt":"","canonical_url":"https://be-net.azurewebsites.net/post/2011/01/10/ASPNET-e88eb7e58f96e69c8de58aa1e599a8e4b88ae9a1b5e99da2e79a84e5aea2e688b7e7abafHTMLe6ba90e7a081","date":"2011-01-10 05:45:00","img_path":null,"positive_reactions_count":0,"stackbit_url_path":"posts/ASPNET-e88eb7e58f96e69c8de58aa1e599a8e4b88ae9a1b5e99da2e79a84e5aea2e688b7e7abafHTMLe6ba90e7a081"}}},{"node":{"excerpt":"","id":"21d42cdb-23af-5a25-a65d-649c7da8abb3","frontmatter":{"title":"SQL Server 2008 定期自动备份数据库","template":"post","has_more_link":null,"more_link_text":null,"excerpt":"","canonical_url":"https://be-net.azurewebsites.net/post/2011/01/09/SQL-Server-2008-e5ae9ae69c9fe887aae58aa8e5a487e4bbbde695b0e68daee5ba93","date":"2011-01-09 21:41:00","img_path":null,"positive_reactions_count":0,"stackbit_url_path":"posts/SQL-Server-2008-e5ae9ae69c9fe887aae58aa8e5a487e4bbbde695b0e68daee5ba93"}}},{"node":{"excerpt":"","id":"c60db954-44a6-58eb-af4c-44a3e469f95f","frontmatter":{"title":"地铁是这样开的","template":"post","has_more_link":null,"more_link_text":null,"excerpt":"","canonical_url":"https://be-net.azurewebsites.net/post/2011/01/08/e59cb0e99381e698afe8bf99e6a0b7e5bc80e79a84","date":"2011-01-08 05:25:00","img_path":null,"positive_reactions_count":0,"stackbit_url_path":"posts/e59cb0e99381e698afe8bf99e6a0b7e5bc80e79a84"}}},{"node":{"excerpt":"","id":"b8d0484d-578c-5918-9de0-716e1bee9021","frontmatter":{"title":"从苏州到东京，步行！","template":"post","has_more_link":null,"more_link_text":null,"excerpt":"","canonical_url":"https://be-net.azurewebsites.net/post/2011/01/08/e4bb8ee88b8fe5b79ee588b0e4b89ce4baacefbc8ce6ada5e8a18cefbc81","date":"2011-01-08 04:06:00","img_path":null,"positive_reactions_count":0,"stackbit_url_path":"posts/e4bb8ee88b8fe5b79ee588b0e4b89ce4baacefbc8ce6ada5e8a18cefbc81"}}}]}},"pageContext":{"limit":5,"skip":235,"totalPages":140,"totalItems":699,"currentPage":48,"frontmatter":{"canonical_url":null,"comments_count":null,"title":"Home","template":"home","more_link_text":"Keep reading / 查看全部","date":null,"excerpt":"Jeff Tian's homepage","has_more_link":true},"url":"/","relativePath":"/","base":"","site":{"siteMetadata":{"title":"Jeff Tian","description":"Full Stack Developer, good at OAuth 2.0","palette":"yellow","header":{"title":"Jeff Tian","tagline":"A wild developer","logo_img":"https://images.ctfassets.net/qixg1o8tujmf/7z1ua3nTOC5B7DwwzAki8I/4e1a05f8db770c285a492eeb1eaa398f/imageedit_3_2509022194.png","background_img":"https://images.ctfassets.net/qixg1o8tujmf/7m0jrKYaDBwEvlc5lo8nt6/6d50a5050d9cdc0d4d2047e35feac292/10648733_696750647079056_2800539603462658695_o.jpg","has_nav":true,"nav_links":[{"label":"Home","url":"/","style":"link","type":"action"},{"label":"About","url":"/about","style":"link","type":"action"},{"label":"关于","url":"https://ggyy.pa-pa.me/about","style":"link","icon_class":"lorem-ipsum","new_window":true,"type":"action"},{"label":"Contact","url":"/contact","style":"link","type":"action"},{"label":"Support Me","url":"/support-me","style":"link","type":"action"},{"label":"叽叽歪歪","url":"https://ggyy.pa-pa.me/","style":"link","icon_class":"lorem-ipsum","new_window":true,"type":"action"}],"has_social":true,"social_links":[{"label":"Twitter","url":"https://twitter.com/zizhujy","style":"icon","icon_class":"fa-twitter","new_window":true,"type":"action"},{"label":"Instagram","url":"https://www.instagram.com/jefftian5","style":"icon","icon_class":"fa-instagram","new_window":true,"type":"action"},{"label":"GitHub","url":"https://github.com/jeff-tian","style":"icon","icon_class":"fa-github","new_window":true,"type":"action"},{"label":"LinkedIn","url":"https://www.linkedin.com/jeff~tian","style":"icon","icon_class":"fa-linkedin","new_window":true,"type":"action"},{"label":"DEV","url":"https://dev.to/jefftian","style":"icon","icon_class":"fa-dev","new_window":true,"type":"action"},{"label":"知乎","url":"https://www.zhihu.com/people/jefftian","style":"icon","icon_class":"fa-zhihu","new_window":true,"type":"action"}],"type":"header"},"footer":{"content":"&copy; All rights reserved.","links":[{"label":"本站源码","url":"https://github.com/Jeff-Tian/space","style":"link","icon_class":"fa-github","new_window":true,"type":"action"},{"label":"紫竹叽歪","url":"https://zizhujy.apphb.com","style":"link","icon_class":"http://zizhujy.apphb.com/Content/Images/logo.png","new_window":true,"type":"action"}],"type":"footer"}},"pathPrefix":"","data":{"data":{"author":{"name":"Jeff Tian","avatar":"https://res.cloudinary.com/practicaldev/image/fetch/s--a5qDZLv3--/c_fill,f_auto,fl_progressive,h_640,q_auto,w_640/https://dev-to-uploads.s3.amazonaws.com/uploads/user/profile_image/318420/3bfd2d99-430c-4049-8dd5-e2adc961e1e0.png"},"social":{"devto":{"username":"jefftian"},"twitter":{"username":"zizhujy"},"github":{"username":"Jeff-Tian"}}}}},"menus":{}}},"staticQueryHashes":[]}