{"componentChunkName":"component---src-templates-home-js","path":"/171/","result":{"data":{"allMarkdownRemark":{"edges":[{"node":{"excerpt":"","id":"71adca80-0320-5874-b245-7725b8174fbf","frontmatter":{"title":"Photoshop CS 3 序列号","template":"post","has_more_link":null,"more_link_text":null,"excerpt":"","canonical_url":"https://be-net.azurewebsites.net/post/2010/01/14/Photoshop-CS-3-序列号","date":"2010-01-14 04:46:40","img_path":null,"positive_reactions_count":0,"stackbit_url_path":"posts/Photoshop-CS-3-序列号"}}},{"node":{"excerpt":"","id":"cc90d1d6-5fea-545b-93b9-c8369772a7ff","frontmatter":{"title":"伊朗政府网站被中国黑客黑了","template":"post","has_more_link":null,"more_link_text":null,"excerpt":"","canonical_url":"https://be-net.azurewebsites.net/post/2010/01/13/伊朗政府网站被中国黑客黑了","date":"2010-01-13 14:40:20","img_path":null,"positive_reactions_count":0,"stackbit_url_path":"posts/伊朗政府网站被中国黑客黑了"}}},{"node":{"excerpt":"","id":"c95f567d-3195-50be-8924-1280c5e93583","frontmatter":{"title":"随想","template":"post","has_more_link":null,"more_link_text":null,"excerpt":"","canonical_url":"https://be-net.azurewebsites.net/post/2010/01/10/随想","date":"2010-01-10 16:37:02","img_path":null,"positive_reactions_count":0,"stackbit_url_path":"posts/随想"}}},{"node":{"excerpt":"","id":"16d52e7c-f842-5148-8b6a-5aeb7bb15e8d","frontmatter":{"title":"环境变量的设置","template":"post","has_more_link":null,"more_link_text":null,"excerpt":"","canonical_url":"https://be-net.azurewebsites.net/post/2010/01/07/环境变量的设置","date":"2010-01-07 16:28:39","img_path":null,"positive_reactions_count":0,"stackbit_url_path":"posts/环境变量的设置"}}},{"node":{"excerpt":"","id":"42d1708e-c2b3-51a8-addc-f573a6b94314","frontmatter":{"title":"在Eclipse动态Web工程中配置JFreeChart","template":"post","has_more_link":null,"more_link_text":null,"excerpt":"","canonical_url":"https://be-net.azurewebsites.net/post/2010/01/07/在Eclipse动态Web工程中配置JFreeChart","date":"2010-01-07 12:41:10","img_path":null,"positive_reactions_count":0,"stackbit_url_path":"posts/在Eclipse动态Web工程中配置JFreeChart"}}}]}},"pageContext":{"limit":5,"skip":850,"totalPages":187,"totalItems":931,"currentPage":171,"frontmatter":{"canonical_url":null,"comments_count":null,"title":"Home","template":"home","more_link_text":"Keep reading / 查看全部","date":null,"excerpt":"Jeff Tian's homepage","has_more_link":true},"url":"/","relativePath":"/","base":"","site":{"siteMetadata":{"title":"Jeff Tian","author":"@zizhujy","description":"A wild full stack developer","palette":"yellow","header":{"title":"Jeff Tian","tagline":"A wild developer","logo_img":"https://images.ctfassets.net/qixg1o8tujmf/7z1ua3nTOC5B7DwwzAki8I/4e1a05f8db770c285a492eeb1eaa398f/imageedit_3_2509022194.png","background_img":"https://images.ctfassets.net/qixg1o8tujmf/7m0jrKYaDBwEvlc5lo8nt6/6d50a5050d9cdc0d4d2047e35feac292/10648733_696750647079056_2800539603462658695_o.jpg","has_nav":true,"nav_links":[{"label":"Home","url":"/","style":"link","type":"action"},{"label":"About","url":"/about","style":"link","type":"action"},{"label":"关于","url":"https://ggyy.pa-pa.me/about","style":"link","icon_class":"lorem-ipsum","new_window":true,"type":"action"},{"label":"Contact","url":"/contact","style":"link","type":"action"},{"label":"Support Me","url":"/support-me","style":"link","type":"action"},{"label":"叽叽歪歪","url":"https://ggyy.pa-pa.me/","style":"link","icon_class":"lorem-ipsum","new_window":true,"type":"action"}],"has_social":true,"social_links":[{"label":"Twitter","url":"https://twitter.com/zizhujy","style":"icon","icon_class":"fa-twitter","new_window":true,"type":"action"},{"label":"Instagram","url":"https://www.instagram.com/jefftian5","style":"icon","icon_class":"fa-instagram","new_window":true,"type":"action"},{"label":"GitHub","url":"https://github.com/jeff-tian","style":"icon","icon_class":"fa-github","new_window":true,"type":"action"},{"label":"LinkedIn","url":"https://www.linkedin.com/jeff~tian","style":"icon","icon_class":"fa-linkedin","new_window":true,"type":"action"},{"label":"DEV","url":"https://dev.to/jefftian","style":"icon","icon_class":"fa-dev","new_window":true,"type":"action"},{"label":"知乎","url":"https://www.zhihu.com/people/jefftian","style":"icon","icon_class":"fa-zhihu","new_window":true,"type":"action"}],"type":"header"},"footer":{"content":"&copy; All rights reserved.","links":[{"label":"Made with Stackbit.","url":"https://www.stackbit.com","style":"link","new_window":true,"type":"action"},{"label":"紫竹叽歪","url":"https://zizhujy.apphb.com","style":"link","icon_class":"http://zizhujy.apphb.com/Content/Images/logo.png","new_window":true,"type":"action"}],"type":"footer"}},"pathPrefix":"","data":{"data":{"author":{"name":"Jeff Tian","avatar":"https://res.cloudinary.com/practicaldev/image/fetch/s--a5qDZLv3--/c_fill,f_auto,fl_progressive,h_640,q_auto,w_640/https://dev-to-uploads.s3.amazonaws.com/uploads/user/profile_image/318420/3bfd2d99-430c-4049-8dd5-e2adc961e1e0.png"},"social":{"devto":{"username":"jefftian"},"twitter":{"username":"zizhujy"},"github":{"username":"Jeff-Tian"}}}}},"menus":{}}},"staticQueryHashes":[],"slicesMap":{}}