{"componentChunkName":"component---src-templates-home-js","path":"/56/","result":{"data":{"allMarkdownRemark":{"edges":[{"node":{"excerpt":"","id":"2cd7f624-851b-5071-a912-aa22e8680440","frontmatter":{"title":"Solved: Attempt to write a read-only database","template":"post","has_more_link":null,"more_link_text":null,"excerpt":"","canonical_url":"https://be-net.azurewebsites.net/post/2013/06/27/Solved-Attempt-to-write-a-read-only-database","date":"2013-06-27 18:09:01.7914286","img_path":null,"positive_reactions_count":0,"stackbit_url_path":"posts/Solved-Attempt-to-write-a-read-only-database"}}},{"node":{"excerpt":"","id":"e663f05f-34af-5f13-a35b-fd9fca27b327","frontmatter":{"title":"Solved: Can’t open project in Visual Studio","template":"post","has_more_link":null,"more_link_text":null,"excerpt":"","canonical_url":"https://be-net.azurewebsites.net/post/2013/06/27/Solved-Cant-open-project-in-Visual-Studio","date":"2013-06-27 02:09:42.1626947","img_path":null,"positive_reactions_count":0,"stackbit_url_path":"posts/Solved-Cant-open-project-in-Visual-Studio"}}},{"node":{"excerpt":"","id":"ec0b2ec0-f1f3-55f0-9a22-0a3c5a596c18","frontmatter":{"title":"使用静态类的构造函数，保证某些操作在整个程序运行过程中只运行一次","template":"post","has_more_link":null,"more_link_text":null,"excerpt":"","canonical_url":"https://be-net.azurewebsites.net/post/2013/06/26/使用静态类的构造函数，保证某些操作在整个程序运行过程中只运行一次","date":"2013-06-26 21:26:59.4572812","img_path":null,"positive_reactions_count":0,"stackbit_url_path":"posts/使用静态类的构造函数，保证某些操作在整个程序运行过程中只运行一次"}}},{"node":{"excerpt":"","id":"fb53eea1-31d6-5117-ac04-997a29de2e2e","frontmatter":{"title":"函数涂鸦板升级啦！Online Function Grapher Updated!","template":"post","has_more_link":null,"more_link_text":null,"excerpt":"","canonical_url":"https://be-net.azurewebsites.net/post/2013/06/12/函数涂鸦板升级啦！","date":"2013-06-12 02:37:05.8729406","img_path":null,"positive_reactions_count":0,"stackbit_url_path":"posts/函数涂鸦板升级啦！"}}},{"node":{"excerpt":"","id":"fa751d61-a7a0-5e87-a322-0236ab82687f","frontmatter":{"title":"一下思绪飞回从前","template":"post","has_more_link":null,"more_link_text":null,"excerpt":"","canonical_url":"https://be-net.azurewebsites.net/post/2013/04/19/一下思绪飞回从前","date":"2013-04-19 18:57:21.8745349","img_path":null,"positive_reactions_count":0,"stackbit_url_path":"posts/一下思绪飞回从前"}}}]}},"pageContext":{"limit":5,"skip":275,"totalPages":187,"totalItems":931,"currentPage":56,"frontmatter":{"canonical_url":null,"comments_count":null,"title":"Home","template":"home","more_link_text":"Keep reading / 查看全部","date":null,"excerpt":"Jeff Tian's homepage","has_more_link":true},"url":"/","relativePath":"/","base":"","site":{"siteMetadata":{"title":"Jeff Tian","author":"@zizhujy","description":"A wild full stack developer","palette":"yellow","header":{"title":"Jeff Tian","tagline":"A wild developer","logo_img":"https://images.ctfassets.net/qixg1o8tujmf/7z1ua3nTOC5B7DwwzAki8I/4e1a05f8db770c285a492eeb1eaa398f/imageedit_3_2509022194.png","background_img":"https://images.ctfassets.net/qixg1o8tujmf/7m0jrKYaDBwEvlc5lo8nt6/6d50a5050d9cdc0d4d2047e35feac292/10648733_696750647079056_2800539603462658695_o.jpg","has_nav":true,"nav_links":[{"label":"Home","url":"/","style":"link","type":"action"},{"label":"About","url":"/about","style":"link","type":"action"},{"label":"关于","url":"https://ggyy.pa-pa.me/about","style":"link","icon_class":"lorem-ipsum","new_window":true,"type":"action"},{"label":"Contact","url":"/contact","style":"link","type":"action"},{"label":"Support Me","url":"/support-me","style":"link","type":"action"},{"label":"叽叽歪歪","url":"https://ggyy.pa-pa.me/","style":"link","icon_class":"lorem-ipsum","new_window":true,"type":"action"}],"has_social":true,"social_links":[{"label":"Twitter","url":"https://twitter.com/zizhujy","style":"icon","icon_class":"fa-twitter","new_window":true,"type":"action"},{"label":"Instagram","url":"https://www.instagram.com/jefftian5","style":"icon","icon_class":"fa-instagram","new_window":true,"type":"action"},{"label":"GitHub","url":"https://github.com/jeff-tian","style":"icon","icon_class":"fa-github","new_window":true,"type":"action"},{"label":"LinkedIn","url":"https://www.linkedin.com/jeff~tian","style":"icon","icon_class":"fa-linkedin","new_window":true,"type":"action"},{"label":"DEV","url":"https://dev.to/jefftian","style":"icon","icon_class":"fa-dev","new_window":true,"type":"action"},{"label":"知乎","url":"https://www.zhihu.com/people/jefftian","style":"icon","icon_class":"fa-zhihu","new_window":true,"type":"action"}],"type":"header"},"footer":{"content":"&copy; All rights reserved.","links":[{"label":"Made with Stackbit.","url":"https://www.stackbit.com","style":"link","new_window":true,"type":"action"},{"label":"紫竹叽歪","url":"https://zizhujy.apphb.com","style":"link","icon_class":"http://zizhujy.apphb.com/Content/Images/logo.png","new_window":true,"type":"action"}],"type":"footer"}},"pathPrefix":"","data":{"data":{"author":{"name":"Jeff Tian","avatar":"https://res.cloudinary.com/practicaldev/image/fetch/s--a5qDZLv3--/c_fill,f_auto,fl_progressive,h_640,q_auto,w_640/https://dev-to-uploads.s3.amazonaws.com/uploads/user/profile_image/318420/3bfd2d99-430c-4049-8dd5-e2adc961e1e0.png"},"social":{"devto":{"username":"jefftian"},"twitter":{"username":"zizhujy"},"github":{"username":"Jeff-Tian"}}}}},"menus":{}}},"staticQueryHashes":[],"slicesMap":{}}