{"componentChunkName":"component---src-templates-home-js","path":"/5/","result":{"data":{"allMarkdownRemark":{"edges":[{"node":{"excerpt":"Apple 说：我们只从 OIDC 标准里取了一些我们喜欢的，然后扔掉了其他的 参考《三步开发社交账号登录（以钉钉登录举例） - Jeff Tian的文章 - 知乎 》，我在自己的 App 里增加了多个社交账号登录，很是兴奋，得意地将更新提交到了 App Store…","id":"4393d45e-b5d9-5efe-88fb-204ecfae89f1","frontmatter":{"title":"Apple 是个 bitch 之对接 AppleID 登录的折腾","template":"post","has_more_link":null,"more_link_text":null,"excerpt":"","canonical_url":null,"date":"2023-11-13T11:07:08","img_path":null,"positive_reactions_count":null,"stackbit_url_path":"posts/azvwlngtmnywfw6f"}}},{"node":{"excerpt":"最近这些年，我分别在不同的系统中对接过不同的社交身份源，它们一般都是遵循 OIDC 标准，或者是不太标准的 OIDC 标准，但是看着又有点像。今天写一个总结吧！ 开发一个社交账号登录功能，只需要三步。  不要自行实现！ 三步虽好，…","id":"92c60cb7-4f8a-5c23-80fb-2e12ad5698b6","frontmatter":{"title":"三步开发社交账号登录（以钉钉登录举例）","template":"post","has_more_link":null,"more_link_text":null,"excerpt":"","canonical_url":null,"date":"2023-11-12T08:09:14","img_path":null,"positive_reactions_count":null,"stackbit_url_path":"posts/brrgda9w8f9fr2kf"}}},{"node":{"excerpt":"推荐使用！https://app.maxai.me?invite=5Ck2kf4w 提示词原始链接：https://chat.openai.com/share/e3daf138-9ff1-4026-a667-6b6fc04d14bf以上是我在碰到问题之后，问 MaxAI.me…","id":"7b5da85e-cc7c-50e3-bfbf-ba83bb5b2d17","frontmatter":{"title":"使用 maxai.me，无意间看到了它的提示词套路","template":"post","has_more_link":null,"more_link_text":null,"excerpt":"","canonical_url":null,"date":"2023-10-30T04:25:54","img_path":null,"positive_reactions_count":null,"stackbit_url_path":"posts/zhlbgbin5nerulbb"}}},{"node":{"excerpt":"个人的一点倾向性观点：\n 什么是最好的所见即所得编辑器？ CKEditor，连 GitHub 都用了，你敢说它不是最好？连 GitHub 都用了所以我倾向于使用它。\n 什么是最好的前端开发框架？ UmiJS，不接受反驳。\n 那么在 UmiJS 中接入 CKEditor…","id":"aa7c4534-8786-5937-89f9-8b17f0a89d41","frontmatter":{"title":"对 UmiJS 和 ckeditor 的折腾","template":"post","has_more_link":null,"more_link_text":null,"excerpt":"","canonical_url":null,"date":"2023-10-28T03:48:22","img_path":null,"positive_reactions_count":null,"stackbit_url_path":"posts/qmg3i0ph2wnsut0p"}}},{"node":{"excerpt":"一直想搞懂究竟什么是图灵完备，但又不想真的完全搞懂——太花时间精力_(:з…","id":"71fd8a66-78a6-5bcf-9d09-f892a154e3c8","frontmatter":{"title":"图灵完备的极简解释","template":"post","has_more_link":null,"more_link_text":null,"excerpt":"","canonical_url":null,"date":"2023-10-21T10:17:34","img_path":null,"positive_reactions_count":null,"stackbit_url_path":"posts/zh3gv2m2gr0zk328"}}}]}},"pageContext":{"limit":5,"skip":20,"totalPages":159,"totalItems":793,"currentPage":5,"frontmatter":{"canonical_url":null,"comments_count":null,"title":"Home","template":"home","more_link_text":"Keep reading / 查看全部","date":null,"excerpt":"Jeff Tian's homepage","has_more_link":true},"url":"/","relativePath":"/","base":"","site":{"siteMetadata":{"title":"Jeff Tian","author":"@zizhujy","description":"A wild full stack developer","palette":"yellow","header":{"title":"Jeff Tian","tagline":"A wild developer","logo_img":"https://images.ctfassets.net/qixg1o8tujmf/7z1ua3nTOC5B7DwwzAki8I/4e1a05f8db770c285a492eeb1eaa398f/imageedit_3_2509022194.png","background_img":"https://images.ctfassets.net/qixg1o8tujmf/7m0jrKYaDBwEvlc5lo8nt6/6d50a5050d9cdc0d4d2047e35feac292/10648733_696750647079056_2800539603462658695_o.jpg","has_nav":true,"nav_links":[{"label":"Home","url":"/","style":"link","type":"action"},{"label":"About","url":"/about","style":"link","type":"action"},{"label":"关于","url":"https://ggyy.pa-pa.me/about","style":"link","icon_class":"lorem-ipsum","new_window":true,"type":"action"},{"label":"Contact","url":"/contact","style":"link","type":"action"},{"label":"Support Me","url":"/support-me","style":"link","type":"action"},{"label":"叽叽歪歪","url":"https://ggyy.pa-pa.me/","style":"link","icon_class":"lorem-ipsum","new_window":true,"type":"action"}],"has_social":true,"social_links":[{"label":"Twitter","url":"https://twitter.com/zizhujy","style":"icon","icon_class":"fa-twitter","new_window":true,"type":"action"},{"label":"Instagram","url":"https://www.instagram.com/jefftian5","style":"icon","icon_class":"fa-instagram","new_window":true,"type":"action"},{"label":"GitHub","url":"https://github.com/jeff-tian","style":"icon","icon_class":"fa-github","new_window":true,"type":"action"},{"label":"LinkedIn","url":"https://www.linkedin.com/jeff~tian","style":"icon","icon_class":"fa-linkedin","new_window":true,"type":"action"},{"label":"DEV","url":"https://dev.to/jefftian","style":"icon","icon_class":"fa-dev","new_window":true,"type":"action"},{"label":"知乎","url":"https://www.zhihu.com/people/jefftian","style":"icon","icon_class":"fa-zhihu","new_window":true,"type":"action"}],"type":"header"},"footer":{"content":"&copy; All rights reserved.","links":[{"label":"Made with Stackbit.","url":"https://www.stackbit.com","style":"link","new_window":true,"type":"action"},{"label":"紫竹叽歪","url":"https://zizhujy.apphb.com","style":"link","icon_class":"http://zizhujy.apphb.com/Content/Images/logo.png","new_window":true,"type":"action"}],"type":"footer"}},"pathPrefix":"","data":{"data":{"author":{"name":"Jeff Tian","avatar":"https://res.cloudinary.com/practicaldev/image/fetch/s--a5qDZLv3--/c_fill,f_auto,fl_progressive,h_640,q_auto,w_640/https://dev-to-uploads.s3.amazonaws.com/uploads/user/profile_image/318420/3bfd2d99-430c-4049-8dd5-e2adc961e1e0.png"},"social":{"devto":{"username":"jefftian"},"twitter":{"username":"zizhujy"},"github":{"username":"Jeff-Tian"}}}}},"menus":{}}},"staticQueryHashes":[],"slicesMap":{}}