{"componentChunkName":"component---src-templates-home-js","path":"/66","result":{"data":{"allMarkdownRemark":{"edges":[{"node":{"excerpt":"","id":"1c839441-a3e5-5cd5-82f5-780e8b537f58","frontmatter":{"title":"纪念一下这个开机速度","template":"post","has_more_link":null,"more_link_text":null,"excerpt":"","canonical_url":"https://be-net.azurewebsites.net/post/2011/09/23/纪念一下这个开机速度","date":"2011-09-23 08:10:18.2344223","img_path":null,"positive_reactions_count":0,"stackbit_url_path":"posts/纪念一下这个开机速度"}}},{"node":{"excerpt":"","id":"766d87ce-5986-519f-ba6e-f8f7fc4ac8b1","frontmatter":{"title":"[摘] 我们看到的是自己想看到的世界","template":"post","has_more_link":null,"more_link_text":null,"excerpt":"","canonical_url":"https://be-net.azurewebsites.net/post/2011/09/22/摘-我们看到的是自己想看到的世界","date":"2011-09-22 07:50:53.2854799","img_path":null,"positive_reactions_count":0,"stackbit_url_path":"posts/摘-我们看到的是自己想看到的世界"}}},{"node":{"excerpt":"","id":"3621cde6-2191-5a96-9209-bd46bdfeeb28","frontmatter":{"title":"平静的波澜","template":"post","has_more_link":null,"more_link_text":null,"excerpt":"","canonical_url":"https://be-net.azurewebsites.net/post/2011/09/20/平静的波澜","date":"2011-09-20 07:02:11.012848","img_path":null,"positive_reactions_count":0,"stackbit_url_path":"posts/平静的波澜"}}},{"node":{"excerpt":"","id":"4325f85d-b3c7-5275-8f8f-f7d2b64fc461","frontmatter":{"title":"恶化的环境，不变的喜好","template":"post","has_more_link":null,"more_link_text":null,"excerpt":"","canonical_url":"https://be-net.azurewebsites.net/post/2011/09/16/恶化的环境，不变的喜好","date":"2011-09-16 20:07:15.0166985","img_path":null,"positive_reactions_count":0,"stackbit_url_path":"posts/恶化的环境，不变的喜好"}}},{"node":{"excerpt":"","id":"96bee9e5-468d-5a33-85ff-b046d5fa87e7","frontmatter":{"title":"尽力！尽力？尽力……","template":"post","has_more_link":null,"more_link_text":null,"excerpt":"","canonical_url":"https://be-net.azurewebsites.net/post/2011/09/16/尽力！尽力？尽力……","date":"2011-09-16 06:38:15.6368363","img_path":null,"positive_reactions_count":0,"stackbit_url_path":"posts/尽力！尽力？尽力……"}}}]}},"pageContext":{"limit":5,"skip":325,"totalPages":170,"totalItems":850,"currentPage":66,"frontmatter":{"canonical_url":null,"comments_count":null,"title":"Home","template":"home","more_link_text":"Keep reading / 查看全部","date":null,"excerpt":"Jeff Tian's homepage","has_more_link":true},"url":"/","relativePath":"/","base":"","site":{"siteMetadata":{"title":"Jeff Tian","description":"Full Stack Developer, good at OAuth 2.0","palette":"yellow","header":{"title":"Jeff Tian","tagline":"A wild developer","logo_img":"https://images.ctfassets.net/qixg1o8tujmf/7z1ua3nTOC5B7DwwzAki8I/4e1a05f8db770c285a492eeb1eaa398f/imageedit_3_2509022194.png","background_img":"https://images.ctfassets.net/qixg1o8tujmf/7m0jrKYaDBwEvlc5lo8nt6/6d50a5050d9cdc0d4d2047e35feac292/10648733_696750647079056_2800539603462658695_o.jpg","has_nav":true,"nav_links":[{"label":"Home","url":"/","style":"link","type":"action"},{"label":"About","url":"/about","style":"link","type":"action"},{"label":"关于","url":"https://ggyy.pa-pa.me/about","style":"link","icon_class":"lorem-ipsum","new_window":true,"type":"action"},{"label":"Contact","url":"/contact","style":"link","type":"action"},{"label":"Support Me","url":"/support-me","style":"link","type":"action"},{"label":"叽叽歪歪","url":"https://ggyy.pa-pa.me/","style":"link","icon_class":"lorem-ipsum","new_window":true,"type":"action"}],"has_social":true,"social_links":[{"label":"Twitter","url":"https://twitter.com/zizhujy","style":"icon","icon_class":"fa-twitter","new_window":true,"type":"action"},{"label":"Instagram","url":"https://www.instagram.com/jefftian5","style":"icon","icon_class":"fa-instagram","new_window":true,"type":"action"},{"label":"GitHub","url":"https://github.com/jeff-tian","style":"icon","icon_class":"fa-github","new_window":true,"type":"action"},{"label":"LinkedIn","url":"https://www.linkedin.com/jeff~tian","style":"icon","icon_class":"fa-linkedin","new_window":true,"type":"action"},{"label":"DEV","url":"https://dev.to/jefftian","style":"icon","icon_class":"fa-dev","new_window":true,"type":"action"},{"label":"知乎","url":"https://www.zhihu.com/people/jefftian","style":"icon","icon_class":"fa-zhihu","new_window":true,"type":"action"}],"type":"header"},"footer":{"content":"&copy; All rights reserved.","links":[{"label":"本站源码","url":"https://github.com/Jeff-Tian/space","style":"link","icon_class":"fa-github","new_window":true,"type":"action"},{"label":"紫竹叽歪","url":"https://zizhujy.apphb.com","style":"link","icon_class":"http://zizhujy.apphb.com/Content/Images/logo.png","new_window":true,"type":"action"}],"type":"footer"}},"pathPrefix":"","data":{"data":{"author":{"name":"Jeff Tian","avatar":"https://res.cloudinary.com/practicaldev/image/fetch/s--a5qDZLv3--/c_fill,f_auto,fl_progressive,h_640,q_auto,w_640/https://dev-to-uploads.s3.amazonaws.com/uploads/user/profile_image/318420/3bfd2d99-430c-4049-8dd5-e2adc961e1e0.png"},"social":{"devto":{"username":"jefftian"},"twitter":{"username":"zizhujy"},"github":{"username":"Jeff-Tian"}}}}},"menus":{}}},"staticQueryHashes":[]}