{"componentChunkName":"component---src-templates-home-js","path":"/176/","result":{"data":{"allMarkdownRemark":{"edges":[{"node":{"excerpt":"","id":"e3109d1d-2f9e-5537-8844-43a6132f1881","frontmatter":{"title":"Loading Totoro Ⅱ","template":"post","has_more_link":null,"more_link_text":null,"excerpt":"","canonical_url":"https://be-net.azurewebsites.net/post/2009/12/20/Loading-Totoro-Ⅱ","date":"2009-12-20 16:19:34","img_path":null,"positive_reactions_count":0,"stackbit_url_path":"posts/Loading-Totoro-Ⅱ"}}},{"node":{"excerpt":"wantToDoSth(); addEventHandler(window, 'load', function() {\n// 就是在这里设置好通知变量，作为其他函数可以使用的“钩子”\nwindow.isReady = true;\n}); // 以下函数用来给window…","id":"c21ce3a6-7395-52a4-9cbe-e1ae721c0f89","frontmatter":{"title":"如何使用JavaScript来判断当前文档有没有加载完成","template":"post","has_more_link":null,"more_link_text":null,"excerpt":"","canonical_url":"https://be-net.azurewebsites.net/post/2009/12/17/如何使用JavaScript来判断当前文档有没有加载完成","date":"2009-12-17 12:08:19","img_path":null,"positive_reactions_count":0,"stackbit_url_path":"posts/如何使用JavaScript来判断当前文档有没有加载完成"}}},{"node":{"excerpt":"alert('hello, world!');","id":"130b5b2a-22c5-596a-8d66-63bdfdee9eea","frontmatter":{"title":"如何在发布JavaScript代码时，在代码下方添加一个“点击这里运行”的快捷链接？","template":"post","has_more_link":null,"more_link_text":null,"excerpt":"","canonical_url":"https://be-net.azurewebsites.net/post/2009/12/15/如何在发布JavaScript代码时，在代码下方添加一个“点击这里运行”的快捷链接？","date":"2009-12-15 06:15:44","img_path":null,"positive_reactions_count":0,"stackbit_url_path":"posts/如何在发布JavaScript代码时，在代码下方添加一个“点击这里运行”的快捷链接？"}}},{"node":{"excerpt":"","id":"7b80aab6-0c14-5bb6-9f51-4fc55e60e7dc","frontmatter":{"title":"《金融时间序列分析》的配套网站","template":"post","has_more_link":null,"more_link_text":null,"excerpt":"","canonical_url":"https://be-net.azurewebsites.net/post/2009/12/14/《金融时间序列分析》的配套网站","date":"2009-12-14 07:45:10","img_path":null,"positive_reactions_count":0,"stackbit_url_path":"posts/《金融时间序列分析》的配套网站"}}},{"node":{"excerpt":"mfMessage.prototype.init = function() {\nif (this.init) { return; }\n// 只有在HTML文档加载完成后，本信息显示器才可以正常工作\nif(!window.isReady) {return;}\nvar…","id":"e7cf2c39-9c06-5bb1-9a72-2249e25b863d","frontmatter":{"title":"无干扰模式的信息提示","template":"post","has_more_link":null,"more_link_text":null,"excerpt":"","canonical_url":"https://be-net.azurewebsites.net/post/2009/12/13/无干扰模式的信息提示","date":"2009-12-13 08:48:27","img_path":null,"positive_reactions_count":0,"stackbit_url_path":"posts/无干扰模式的信息提示"}}}]}},"pageContext":{"limit":5,"skip":875,"totalPages":187,"totalItems":931,"currentPage":176,"frontmatter":{"canonical_url":null,"comments_count":null,"title":"Home","template":"home","more_link_text":"Keep reading / 查看全部","date":null,"excerpt":"Jeff Tian's homepage","has_more_link":true},"url":"/","relativePath":"/","base":"","site":{"siteMetadata":{"title":"Jeff Tian","author":"@zizhujy","description":"A wild full stack developer","palette":"yellow","header":{"title":"Jeff Tian","tagline":"A wild developer","logo_img":"https://images.ctfassets.net/qixg1o8tujmf/7z1ua3nTOC5B7DwwzAki8I/4e1a05f8db770c285a492eeb1eaa398f/imageedit_3_2509022194.png","background_img":"https://images.ctfassets.net/qixg1o8tujmf/7m0jrKYaDBwEvlc5lo8nt6/6d50a5050d9cdc0d4d2047e35feac292/10648733_696750647079056_2800539603462658695_o.jpg","has_nav":true,"nav_links":[{"label":"Home","url":"/","style":"link","type":"action"},{"label":"About","url":"/about","style":"link","type":"action"},{"label":"关于","url":"https://ggyy.pa-pa.me/about","style":"link","icon_class":"lorem-ipsum","new_window":true,"type":"action"},{"label":"Contact","url":"/contact","style":"link","type":"action"},{"label":"Support Me","url":"/support-me","style":"link","type":"action"},{"label":"叽叽歪歪","url":"https://ggyy.pa-pa.me/","style":"link","icon_class":"lorem-ipsum","new_window":true,"type":"action"}],"has_social":true,"social_links":[{"label":"Twitter","url":"https://twitter.com/zizhujy","style":"icon","icon_class":"fa-twitter","new_window":true,"type":"action"},{"label":"Instagram","url":"https://www.instagram.com/jefftian5","style":"icon","icon_class":"fa-instagram","new_window":true,"type":"action"},{"label":"GitHub","url":"https://github.com/jeff-tian","style":"icon","icon_class":"fa-github","new_window":true,"type":"action"},{"label":"LinkedIn","url":"https://www.linkedin.com/jeff~tian","style":"icon","icon_class":"fa-linkedin","new_window":true,"type":"action"},{"label":"DEV","url":"https://dev.to/jefftian","style":"icon","icon_class":"fa-dev","new_window":true,"type":"action"},{"label":"知乎","url":"https://www.zhihu.com/people/jefftian","style":"icon","icon_class":"fa-zhihu","new_window":true,"type":"action"}],"type":"header"},"footer":{"content":"&copy; All rights reserved.","links":[{"label":"Made with Stackbit.","url":"https://www.stackbit.com","style":"link","new_window":true,"type":"action"},{"label":"紫竹叽歪","url":"https://zizhujy.apphb.com","style":"link","icon_class":"http://zizhujy.apphb.com/Content/Images/logo.png","new_window":true,"type":"action"}],"type":"footer"}},"pathPrefix":"","data":{"data":{"author":{"name":"Jeff Tian","avatar":"https://res.cloudinary.com/practicaldev/image/fetch/s--a5qDZLv3--/c_fill,f_auto,fl_progressive,h_640,q_auto,w_640/https://dev-to-uploads.s3.amazonaws.com/uploads/user/profile_image/318420/3bfd2d99-430c-4049-8dd5-e2adc961e1e0.png"},"social":{"devto":{"username":"jefftian"},"twitter":{"username":"zizhujy"},"github":{"username":"Jeff-Tian"}}}}},"menus":{}}},"staticQueryHashes":[],"slicesMap":{}}