{"componentChunkName":"component---src-templates-home-js","path":"/28","result":{"data":{"allMarkdownRemark":{"edges":[{"node":{"excerpt":"《5 天学会画画》 我本来不喜欢那种速成教材，号称 30 天学会英语，7 天学会编程等等。但是却被一本书吸引到了：《5 天学会画画》。几年前一口气看完，今天又看了一遍作者录的视频，也是一口气看完。 当然，由于是一口气看完，所以只花了几个小时，远没有花到…","id":"ec12be7a-57b2-5765-b3fa-f72a37948bde","frontmatter":{"title":"阴形思维的妙用","template":"post","has_more_link":null,"more_link_text":null,"excerpt":"","canonical_url":null,"date":"2021-02-14T07:31:26","img_path":null,"positive_reactions_count":null,"stackbit_url_path":"posts/xd2s4g"}}},{"node":{"excerpt":"某乎上有个热门问题：3…","id":"7b3bc215-2265-55a8-812b-15a0556fb705","frontmatter":{"title":"我，不想做外卖员","template":"post","has_more_link":null,"more_link_text":null,"excerpt":"","canonical_url":null,"date":"2021-02-13T14:00:05","img_path":null,"positive_reactions_count":null,"stackbit_url_path":"posts/myltwz"}}},{"node":{"excerpt":"…","id":"17d3d7bb-b5f3-55f8-a141-a2240df11370","frontmatter":{"title":"低头写代码，抬头看方向","template":"post","has_more_link":null,"more_link_text":null,"excerpt":"","canonical_url":null,"date":"2021-02-12T15:19:47","img_path":null,"positive_reactions_count":null,"stackbit_url_path":"posts/hydnt7"}}},{"node":{"excerpt":"IoC According to wikipedia, the Inversion of Control, also as known as IoC, is a design principal in Object Oriented Programming, which is…","id":"5fae3bdc-fda9-582e-ba5d-51f9575a19d0","frontmatter":{"title":"The Implementation of Inversion of Control based on TypeScript","template":"post","has_more_link":null,"more_link_text":null,"excerpt":"IoC   According to wikipedia, the Inversion of Control, also as known as IoC, is a design pr...","canonical_url":"https://dev.to/jefftian/inversion-of-control-implementation-based-on-typescript-3fl6","date":"2020-11-30T11:02:34.480Z","img_path":null,"positive_reactions_count":8,"stackbit_url_path":"posts/inversion-of-control-implementation-based-on-typescript-3fl6"}}},{"node":{"excerpt":"Background You are making some serious slides show and use LaTex beamer template to generate a perfect PDF, but you are asked to provide a…","id":"d1e21026-ee9a-5b64-8f78-c08d2355a29d","frontmatter":{"title":"How to convert beamer tex pdf to pptx, perfectly?","template":"post","has_more_link":null,"more_link_text":null,"excerpt":"Background   You are making some serious slides show and use LaTex beamer template to genera...","canonical_url":"https://dev.to/jefftian/how-to-convert-beamer-tex-pdf-to-pptx-perfectly-4o08","date":"2020-11-30T05:14:57.141Z","img_path":null,"positive_reactions_count":0,"stackbit_url_path":"posts/how-to-convert-beamer-tex-pdf-to-pptx-perfectly-4o08"}}}]}},"pageContext":{"limit":5,"skip":135,"totalPages":170,"totalItems":850,"currentPage":28,"frontmatter":{"canonical_url":null,"comments_count":null,"title":"Home","template":"home","more_link_text":"Keep reading / 查看全部","date":null,"excerpt":"Jeff Tian's homepage","has_more_link":true},"url":"/","relativePath":"/","base":"","site":{"siteMetadata":{"title":"Jeff Tian","description":"Full Stack Developer, good at OAuth 2.0","palette":"yellow","header":{"title":"Jeff Tian","tagline":"A wild developer","logo_img":"https://images.ctfassets.net/qixg1o8tujmf/7z1ua3nTOC5B7DwwzAki8I/4e1a05f8db770c285a492eeb1eaa398f/imageedit_3_2509022194.png","background_img":"https://images.ctfassets.net/qixg1o8tujmf/7m0jrKYaDBwEvlc5lo8nt6/6d50a5050d9cdc0d4d2047e35feac292/10648733_696750647079056_2800539603462658695_o.jpg","has_nav":true,"nav_links":[{"label":"Home","url":"/","style":"link","type":"action"},{"label":"About","url":"/about","style":"link","type":"action"},{"label":"关于","url":"https://ggyy.pa-pa.me/about","style":"link","icon_class":"lorem-ipsum","new_window":true,"type":"action"},{"label":"Contact","url":"/contact","style":"link","type":"action"},{"label":"Support Me","url":"/support-me","style":"link","type":"action"},{"label":"叽叽歪歪","url":"https://ggyy.pa-pa.me/","style":"link","icon_class":"lorem-ipsum","new_window":true,"type":"action"}],"has_social":true,"social_links":[{"label":"Twitter","url":"https://twitter.com/zizhujy","style":"icon","icon_class":"fa-twitter","new_window":true,"type":"action"},{"label":"Instagram","url":"https://www.instagram.com/jefftian5","style":"icon","icon_class":"fa-instagram","new_window":true,"type":"action"},{"label":"GitHub","url":"https://github.com/jeff-tian","style":"icon","icon_class":"fa-github","new_window":true,"type":"action"},{"label":"LinkedIn","url":"https://www.linkedin.com/jeff~tian","style":"icon","icon_class":"fa-linkedin","new_window":true,"type":"action"},{"label":"DEV","url":"https://dev.to/jefftian","style":"icon","icon_class":"fa-dev","new_window":true,"type":"action"},{"label":"知乎","url":"https://www.zhihu.com/people/jefftian","style":"icon","icon_class":"fa-zhihu","new_window":true,"type":"action"}],"type":"header"},"footer":{"content":"&copy; All rights reserved.","links":[{"label":"本站源码","url":"https://github.com/Jeff-Tian/space","style":"link","icon_class":"fa-github","new_window":true,"type":"action"},{"label":"紫竹叽歪","url":"https://zizhujy.apphb.com","style":"link","icon_class":"http://zizhujy.apphb.com/Content/Images/logo.png","new_window":true,"type":"action"}],"type":"footer"}},"pathPrefix":"","data":{"data":{"author":{"name":"Jeff Tian","avatar":"https://res.cloudinary.com/practicaldev/image/fetch/s--a5qDZLv3--/c_fill,f_auto,fl_progressive,h_640,q_auto,w_640/https://dev-to-uploads.s3.amazonaws.com/uploads/user/profile_image/318420/3bfd2d99-430c-4049-8dd5-e2adc961e1e0.png"},"social":{"devto":{"username":"jefftian"},"twitter":{"username":"zizhujy"},"github":{"username":"Jeff-Tian"}}}}},"menus":{}}},"staticQueryHashes":[]}