{"componentChunkName":"component---src-templates-home-js","path":"/153/","result":{"data":{"allMarkdownRemark":{"edges":[{"node":{"excerpt":"","id":"6b05c33a-2eec-5154-bd71-e584e89c0067","frontmatter":{"title":"月诗","template":"post","has_more_link":null,"more_link_text":null,"excerpt":"","canonical_url":"https://be-net.azurewebsites.net/post/2010/02/23/月诗","date":"2010-02-23 15:30:30","img_path":null,"positive_reactions_count":0,"stackbit_url_path":"posts/月诗"}}},{"node":{"excerpt":"","id":"06fae7d2-5bcf-541b-80f9-f9e44194bb5b","frontmatter":{"title":"把她放在遥远","template":"post","has_more_link":null,"more_link_text":null,"excerpt":"","canonical_url":"https://be-net.azurewebsites.net/post/2010/02/23/把她放在遥远","date":"2010-02-23 01:09:09","img_path":null,"positive_reactions_count":0,"stackbit_url_path":"posts/把她放在遥远"}}},{"node":{"excerpt":"","id":"e382cd46-1157-5944-a2bb-15f7b575a9b6","frontmatter":{"title":"常识麻木症","template":"post","has_more_link":null,"more_link_text":null,"excerpt":"","canonical_url":"https://be-net.azurewebsites.net/post/2010/02/22/常识麻木症","date":"2010-02-22 01:07:15","img_path":null,"positive_reactions_count":0,"stackbit_url_path":"posts/常识麻木症"}}},{"node":{"excerpt":"","id":"6553f6a4-1b52-5461-aace-357e05ba90b3","frontmatter":{"title":"精英型和防范型管理","template":"post","has_more_link":null,"more_link_text":null,"excerpt":"","canonical_url":"https://be-net.azurewebsites.net/post/2010/02/21/精英型和防范型管理","date":"2010-02-21 07:47:20","img_path":null,"positive_reactions_count":0,"stackbit_url_path":"posts/精英型和防范型管理"}}},{"node":{"excerpt":"","id":"b457abbd-7e2f-5d61-9155-dd010ff29497","frontmatter":{"title":"唐骏在微软出的几个面试题","template":"post","has_more_link":null,"more_link_text":null,"excerpt":"","canonical_url":"https://be-net.azurewebsites.net/post/2010/02/21/唐骏在微软出的几个面试题","date":"2010-02-21 03:06:14","img_path":null,"positive_reactions_count":0,"stackbit_url_path":"posts/唐骏在微软出的几个面试题"}}}]}},"pageContext":{"limit":5,"skip":760,"totalPages":187,"totalItems":931,"currentPage":153,"frontmatter":{"canonical_url":null,"comments_count":null,"title":"Home","template":"home","more_link_text":"Keep reading / 查看全部","date":null,"excerpt":"Jeff Tian's homepage","has_more_link":true},"url":"/","relativePath":"/","base":"","site":{"siteMetadata":{"title":"Jeff Tian","author":"@zizhujy","description":"A wild full stack developer","palette":"yellow","header":{"title":"Jeff Tian","tagline":"A wild developer","logo_img":"https://images.ctfassets.net/qixg1o8tujmf/7z1ua3nTOC5B7DwwzAki8I/4e1a05f8db770c285a492eeb1eaa398f/imageedit_3_2509022194.png","background_img":"https://images.ctfassets.net/qixg1o8tujmf/7m0jrKYaDBwEvlc5lo8nt6/6d50a5050d9cdc0d4d2047e35feac292/10648733_696750647079056_2800539603462658695_o.jpg","has_nav":true,"nav_links":[{"label":"Home","url":"/","style":"link","type":"action"},{"label":"About","url":"/about","style":"link","type":"action"},{"label":"关于","url":"https://ggyy.pa-pa.me/about","style":"link","icon_class":"lorem-ipsum","new_window":true,"type":"action"},{"label":"Contact","url":"/contact","style":"link","type":"action"},{"label":"Support Me","url":"/support-me","style":"link","type":"action"},{"label":"叽叽歪歪","url":"https://ggyy.pa-pa.me/","style":"link","icon_class":"lorem-ipsum","new_window":true,"type":"action"}],"has_social":true,"social_links":[{"label":"Twitter","url":"https://twitter.com/zizhujy","style":"icon","icon_class":"fa-twitter","new_window":true,"type":"action"},{"label":"Instagram","url":"https://www.instagram.com/jefftian5","style":"icon","icon_class":"fa-instagram","new_window":true,"type":"action"},{"label":"GitHub","url":"https://github.com/jeff-tian","style":"icon","icon_class":"fa-github","new_window":true,"type":"action"},{"label":"LinkedIn","url":"https://www.linkedin.com/jeff~tian","style":"icon","icon_class":"fa-linkedin","new_window":true,"type":"action"},{"label":"DEV","url":"https://dev.to/jefftian","style":"icon","icon_class":"fa-dev","new_window":true,"type":"action"},{"label":"知乎","url":"https://www.zhihu.com/people/jefftian","style":"icon","icon_class":"fa-zhihu","new_window":true,"type":"action"}],"type":"header"},"footer":{"content":"&copy; All rights reserved.","links":[{"label":"Made with Stackbit.","url":"https://www.stackbit.com","style":"link","new_window":true,"type":"action"},{"label":"紫竹叽歪","url":"https://zizhujy.apphb.com","style":"link","icon_class":"http://zizhujy.apphb.com/Content/Images/logo.png","new_window":true,"type":"action"}],"type":"footer"}},"pathPrefix":"","data":{"data":{"author":{"name":"Jeff Tian","avatar":"https://res.cloudinary.com/practicaldev/image/fetch/s--a5qDZLv3--/c_fill,f_auto,fl_progressive,h_640,q_auto,w_640/https://dev-to-uploads.s3.amazonaws.com/uploads/user/profile_image/318420/3bfd2d99-430c-4049-8dd5-e2adc961e1e0.png"},"social":{"devto":{"username":"jefftian"},"twitter":{"username":"zizhujy"},"github":{"username":"Jeff-Tian"}}}}},"menus":{}}},"staticQueryHashes":[],"slicesMap":{}}