{"componentChunkName":"component---src-templates-home-js","path":"/105/","result":{"data":{"allMarkdownRemark":{"edges":[{"node":{"excerpt":"","id":"e1a8c7ec-990b-501c-a5e2-78a66121691c","frontmatter":{"title":"竖条纹间隔样式的电子表格","template":"post","has_more_link":null,"more_link_text":null,"excerpt":"","canonical_url":"https://be-net.azurewebsites.net/post/2010/03/25/竖条纹间隔样式的电子表格","date":"2010-03-25 03:07:31","img_path":null,"positive_reactions_count":0,"stackbit_url_path":"posts/竖条纹间隔样式的电子表格"}}},{"node":{"excerpt":"","id":"68dc2996-fde8-57da-bb66-8ae980e48ed4","frontmatter":{"title":"inetin51.exe","template":"post","has_more_link":null,"more_link_text":null,"excerpt":"","canonical_url":"https://be-net.azurewebsites.net/post/2010/03/25/inetin51exe","date":"2010-03-25 02:43:15","img_path":null,"positive_reactions_count":0,"stackbit_url_path":"posts/inetin51exe"}}},{"node":{"excerpt":"","id":"e034fbb4-a20f-5c7e-acc2-f1c9cf2ee215","frontmatter":{"title":"安装IIS时需要的部分DLL文件","template":"post","has_more_link":null,"more_link_text":null,"excerpt":"","canonical_url":"https://be-net.azurewebsites.net/post/2010/03/25/安装IIS时需要的部分DLL文件","date":"2010-03-25 02:29:47","img_path":null,"positive_reactions_count":0,"stackbit_url_path":"posts/安装IIS时需要的部分DLL文件"}}},{"node":{"excerpt":"","id":"1591fba0-32db-5380-a48f-dc74e598a5d1","frontmatter":{"title":"ASP.NET 3.5 中的Page指令","template":"post","has_more_link":null,"more_link_text":null,"excerpt":"","canonical_url":"https://be-net.azurewebsites.net/post/2010/03/24/ASPNET-35-中的Page指令","date":"2010-03-24 11:29:13","img_path":null,"positive_reactions_count":0,"stackbit_url_path":"posts/ASPNET-35-中的Page指令"}}},{"node":{"excerpt":"DROP TABLE Customers, Employees\n DROP DATABASE Accounting","id":"c2654595-f2e4-5a36-9aa9-4c00ae909d11","frontmatter":{"title":"SQL 中 DROP 语句的语法结构","template":"post","has_more_link":null,"more_link_text":null,"excerpt":"","canonical_url":"https://be-net.azurewebsites.net/post/2010/03/24/SQL-中-DROP-语句的语法结构","date":"2010-03-24 09:23:04","img_path":null,"positive_reactions_count":0,"stackbit_url_path":"posts/SQL-中-DROP-语句的语法结构"}}}]}},"pageContext":{"limit":5,"skip":520,"totalPages":159,"totalItems":793,"currentPage":105,"frontmatter":{"canonical_url":null,"comments_count":null,"title":"Home","template":"home","more_link_text":"Keep reading / 查看全部","date":null,"excerpt":"Jeff Tian's homepage","has_more_link":true},"url":"/","relativePath":"/","base":"","site":{"siteMetadata":{"title":"Jeff Tian","author":"@zizhujy","description":"A wild full stack developer","palette":"yellow","header":{"title":"Jeff Tian","tagline":"A wild developer","logo_img":"https://images.ctfassets.net/qixg1o8tujmf/7z1ua3nTOC5B7DwwzAki8I/4e1a05f8db770c285a492eeb1eaa398f/imageedit_3_2509022194.png","background_img":"https://images.ctfassets.net/qixg1o8tujmf/7m0jrKYaDBwEvlc5lo8nt6/6d50a5050d9cdc0d4d2047e35feac292/10648733_696750647079056_2800539603462658695_o.jpg","has_nav":true,"nav_links":[{"label":"Home","url":"/","style":"link","type":"action"},{"label":"About","url":"/about","style":"link","type":"action"},{"label":"关于","url":"https://ggyy.pa-pa.me/about","style":"link","icon_class":"lorem-ipsum","new_window":true,"type":"action"},{"label":"Contact","url":"/contact","style":"link","type":"action"},{"label":"Support Me","url":"/support-me","style":"link","type":"action"},{"label":"叽叽歪歪","url":"https://ggyy.pa-pa.me/","style":"link","icon_class":"lorem-ipsum","new_window":true,"type":"action"}],"has_social":true,"social_links":[{"label":"Twitter","url":"https://twitter.com/zizhujy","style":"icon","icon_class":"fa-twitter","new_window":true,"type":"action"},{"label":"Instagram","url":"https://www.instagram.com/jefftian5","style":"icon","icon_class":"fa-instagram","new_window":true,"type":"action"},{"label":"GitHub","url":"https://github.com/jeff-tian","style":"icon","icon_class":"fa-github","new_window":true,"type":"action"},{"label":"LinkedIn","url":"https://www.linkedin.com/jeff~tian","style":"icon","icon_class":"fa-linkedin","new_window":true,"type":"action"},{"label":"DEV","url":"https://dev.to/jefftian","style":"icon","icon_class":"fa-dev","new_window":true,"type":"action"},{"label":"知乎","url":"https://www.zhihu.com/people/jefftian","style":"icon","icon_class":"fa-zhihu","new_window":true,"type":"action"}],"type":"header"},"footer":{"content":"&copy; All rights reserved.","links":[{"label":"Made with Stackbit.","url":"https://www.stackbit.com","style":"link","new_window":true,"type":"action"},{"label":"紫竹叽歪","url":"https://zizhujy.apphb.com","style":"link","icon_class":"http://zizhujy.apphb.com/Content/Images/logo.png","new_window":true,"type":"action"}],"type":"footer"}},"pathPrefix":"","data":{"data":{"author":{"name":"Jeff Tian","avatar":"https://res.cloudinary.com/practicaldev/image/fetch/s--a5qDZLv3--/c_fill,f_auto,fl_progressive,h_640,q_auto,w_640/https://dev-to-uploads.s3.amazonaws.com/uploads/user/profile_image/318420/3bfd2d99-430c-4049-8dd5-e2adc961e1e0.png"},"social":{"devto":{"username":"jefftian"},"twitter":{"username":"zizhujy"},"github":{"username":"Jeff-Tian"}}}}},"menus":{}}},"staticQueryHashes":[],"slicesMap":{}}