{"componentChunkName":"component---src-templates-home-js","path":"/115","result":{"data":{"allMarkdownRemark":{"edges":[{"node":{"excerpt":"","id":"a2120bb2-fd7a-5d58-8948-5ff18be4fed3","frontmatter":{"title":"VB 自带报表设计打印编程一例","template":"post","has_more_link":null,"more_link_text":null,"excerpt":"","canonical_url":"https://be-net.azurewebsites.net/post/2010/03/23/VB-自带报表设计打印编程一例","date":"2010-03-23 06:45:59","img_path":null,"positive_reactions_count":0,"stackbit_url_path":"posts/VB-自带报表设计打印编程一例"}}},{"node":{"excerpt":"","id":"01ad0a30-780a-5710-94a8-c9cd9155b381","frontmatter":{"title":"Sink or swim","template":"post","has_more_link":null,"more_link_text":null,"excerpt":"","canonical_url":"https://be-net.azurewebsites.net/post/2010/03/23/Sink-or-swim","date":"2010-03-23 04:22:01","img_path":null,"positive_reactions_count":0,"stackbit_url_path":"posts/Sink-or-swim"}}},{"node":{"excerpt":"","id":"308c9f27-0392-54db-831b-ca124a9e952c","frontmatter":{"title":"在线函数图形生成器","template":"post","has_more_link":null,"more_link_text":null,"excerpt":"","canonical_url":"https://be-net.azurewebsites.net/post/2010/03/23/在线函数图形生成器","date":"2010-03-23 02:17:47","img_path":null,"positive_reactions_count":0,"stackbit_url_path":"posts/在线函数图形生成器"}}},{"node":{"excerpt":"","id":"443d9825-b3b4-54cc-a23f-7a61c294a5b8","frontmatter":{"title":"摘录一段","template":"post","has_more_link":null,"more_link_text":null,"excerpt":"","canonical_url":"https://be-net.azurewebsites.net/post/2010/03/22/摘录一段","date":"2010-03-22 09:11:05","img_path":null,"positive_reactions_count":0,"stackbit_url_path":"posts/摘录一段"}}},{"node":{"excerpt":"","id":"e40305f9-893a-5bd1-9c4c-67926b9a2284","frontmatter":{"title":"原来，世界七大奇迹中没有长城！","template":"post","has_more_link":null,"more_link_text":null,"excerpt":"","canonical_url":"https://be-net.azurewebsites.net/post/2010/03/21/原来，世界七大奇迹中没有长城！","date":"2010-03-21 16:06:43","img_path":null,"positive_reactions_count":0,"stackbit_url_path":"posts/原来，世界七大奇迹中没有长城！"}}}]}},"pageContext":{"limit":5,"skip":570,"totalPages":165,"totalItems":824,"currentPage":115,"frontmatter":{"canonical_url":null,"comments_count":null,"title":"Home","template":"home","more_link_text":"Keep reading / 查看全部","date":null,"excerpt":"Jeff Tian's homepage","has_more_link":true},"url":"/","relativePath":"/","base":"","site":{"siteMetadata":{"title":"Jeff Tian","description":"A wild full stack developer","palette":"yellow","header":{"title":"Jeff Tian","tagline":"A wild developer","logo_img":"https://images.ctfassets.net/qixg1o8tujmf/7z1ua3nTOC5B7DwwzAki8I/4e1a05f8db770c285a492eeb1eaa398f/imageedit_3_2509022194.png","background_img":"https://images.ctfassets.net/qixg1o8tujmf/7m0jrKYaDBwEvlc5lo8nt6/6d50a5050d9cdc0d4d2047e35feac292/10648733_696750647079056_2800539603462658695_o.jpg","has_nav":true,"nav_links":[{"label":"Home","url":"/","style":"link","type":"action"},{"label":"About","url":"/about","style":"link","type":"action"},{"label":"关于","url":"https://ggyy.pa-pa.me/about","style":"link","icon_class":"lorem-ipsum","new_window":true,"type":"action"},{"label":"Contact","url":"/contact","style":"link","type":"action"},{"label":"Support Me","url":"/support-me","style":"link","type":"action"},{"label":"叽叽歪歪","url":"https://ggyy.pa-pa.me/","style":"link","icon_class":"lorem-ipsum","new_window":true,"type":"action"}],"has_social":true,"social_links":[{"label":"Twitter","url":"https://twitter.com/zizhujy","style":"icon","icon_class":"fa-twitter","new_window":true,"type":"action"},{"label":"Instagram","url":"https://www.instagram.com/jefftian5","style":"icon","icon_class":"fa-instagram","new_window":true,"type":"action"},{"label":"GitHub","url":"https://github.com/jeff-tian","style":"icon","icon_class":"fa-github","new_window":true,"type":"action"},{"label":"LinkedIn","url":"https://www.linkedin.com/jeff~tian","style":"icon","icon_class":"fa-linkedin","new_window":true,"type":"action"},{"label":"DEV","url":"https://dev.to/jefftian","style":"icon","icon_class":"fa-dev","new_window":true,"type":"action"},{"label":"知乎","url":"https://www.zhihu.com/people/jefftian","style":"icon","icon_class":"fa-zhihu","new_window":true,"type":"action"}],"type":"header"},"footer":{"content":"&copy; All rights reserved.","links":[{"label":"本站源码","url":"https://github.com/Jeff-Tian/space","style":"link","icon_class":"fa-github","new_window":true,"type":"action"},{"label":"紫竹叽歪","url":"https://zizhujy.apphb.com","style":"link","icon_class":"http://zizhujy.apphb.com/Content/Images/logo.png","new_window":true,"type":"action"}],"type":"footer"}},"pathPrefix":"","data":{"data":{"author":{"name":"Jeff Tian","avatar":"https://res.cloudinary.com/practicaldev/image/fetch/s--a5qDZLv3--/c_fill,f_auto,fl_progressive,h_640,q_auto,w_640/https://dev-to-uploads.s3.amazonaws.com/uploads/user/profile_image/318420/3bfd2d99-430c-4049-8dd5-e2adc961e1e0.png"},"social":{"devto":{"username":"jefftian"},"twitter":{"username":"zizhujy"},"github":{"username":"Jeff-Tian"}}}}},"menus":{}}},"staticQueryHashes":[]}