{"componentChunkName":"component---src-templates-home-js","path":"/169","result":{"data":{"allMarkdownRemark":{"edges":[{"node":{"excerpt":"","id":"09f7a06f-4f97-5207-b0af-979fda179664","frontmatter":{"title":"可视化的路由跟踪","template":"post","has_more_link":null,"more_link_text":null,"excerpt":"","canonical_url":"https://be-net.azurewebsites.net/post/2009/11/15/可视化的路由跟踪","date":"2009-11-15 04:10:21","img_path":null,"positive_reactions_count":0,"stackbit_url_path":"posts/可视化的路由跟踪"}}},{"node":{"excerpt":"","id":"2a7919ee-92bf-5be5-a641-f3c27d704f9b","frontmatter":{"title":"咦？搞笑视频哪里去了？","template":"post","has_more_link":null,"more_link_text":null,"excerpt":"","canonical_url":"https://be-net.azurewebsites.net/post/2009/11/13/咦？搞笑视频哪里去了？","date":"2009-11-13 13:50:35","img_path":null,"positive_reactions_count":0,"stackbit_url_path":"posts/咦？搞笑视频哪里去了？"}}},{"node":{"excerpt":"/* 验证是否是有效的 Email 地址格式 /\nvar reEmail = /^(?:\\w+.?)\\w+@(?:\\w+.?)*\\w+$/;\nvar sEmail = 'admin@myfootprints.cn';\nvar sValid = reEmail.test…","id":"c5d2c9d4-ca7b-509b-b5a3-517afd98c616","frontmatter":{"title":"JavaScript 练兵场","template":"post","has_more_link":null,"more_link_text":null,"excerpt":"","canonical_url":"https://be-net.azurewebsites.net/post/2009/11/13/JavaScript-练兵场","date":"2009-11-13 12:20:08","img_path":null,"positive_reactions_count":0,"stackbit_url_path":"posts/JavaScript-练兵场"}}},{"node":{"excerpt":"","id":"be93b72e-ca51-58ba-9048-abf3233e1d6a","frontmatter":{"title":"Google 电子表格作图","template":"post","has_more_link":null,"more_link_text":null,"excerpt":"","canonical_url":"https://be-net.azurewebsites.net/post/2009/11/13/Google-电子表格作图","date":"2009-11-13 06:30:02","img_path":null,"positive_reactions_count":0,"stackbit_url_path":"posts/Google-电子表格作图"}}},{"node":{"excerpt":"","id":"dd7e7ad5-aa9d-5101-bdde-38e7f6b80d99","frontmatter":{"title":"旅途","template":"post","has_more_link":null,"more_link_text":null,"excerpt":"","canonical_url":"https://be-net.azurewebsites.net/post/2009/11/12/旅途","date":"2009-11-12 02:54:56","img_path":null,"positive_reactions_count":0,"stackbit_url_path":"posts/旅途"}}}]}},"pageContext":{"limit":5,"skip":840,"totalPages":170,"totalItems":850,"currentPage":169,"frontmatter":{"canonical_url":null,"comments_count":null,"title":"Home","template":"home","more_link_text":"Keep reading / 查看全部","date":null,"excerpt":"Jeff Tian's homepage","has_more_link":true},"url":"/","relativePath":"/","base":"","site":{"siteMetadata":{"title":"Jeff Tian","description":"Full Stack Developer, good at OAuth 2.0","palette":"yellow","header":{"title":"Jeff Tian","tagline":"A wild developer","logo_img":"https://images.ctfassets.net/qixg1o8tujmf/7z1ua3nTOC5B7DwwzAki8I/4e1a05f8db770c285a492eeb1eaa398f/imageedit_3_2509022194.png","background_img":"https://images.ctfassets.net/qixg1o8tujmf/7m0jrKYaDBwEvlc5lo8nt6/6d50a5050d9cdc0d4d2047e35feac292/10648733_696750647079056_2800539603462658695_o.jpg","has_nav":true,"nav_links":[{"label":"Home","url":"/","style":"link","type":"action"},{"label":"About","url":"/about","style":"link","type":"action"},{"label":"关于","url":"https://ggyy.pa-pa.me/about","style":"link","icon_class":"lorem-ipsum","new_window":true,"type":"action"},{"label":"Contact","url":"/contact","style":"link","type":"action"},{"label":"Support Me","url":"/support-me","style":"link","type":"action"},{"label":"叽叽歪歪","url":"https://ggyy.pa-pa.me/","style":"link","icon_class":"lorem-ipsum","new_window":true,"type":"action"}],"has_social":true,"social_links":[{"label":"Twitter","url":"https://twitter.com/zizhujy","style":"icon","icon_class":"fa-twitter","new_window":true,"type":"action"},{"label":"Instagram","url":"https://www.instagram.com/jefftian5","style":"icon","icon_class":"fa-instagram","new_window":true,"type":"action"},{"label":"GitHub","url":"https://github.com/jeff-tian","style":"icon","icon_class":"fa-github","new_window":true,"type":"action"},{"label":"LinkedIn","url":"https://www.linkedin.com/jeff~tian","style":"icon","icon_class":"fa-linkedin","new_window":true,"type":"action"},{"label":"DEV","url":"https://dev.to/jefftian","style":"icon","icon_class":"fa-dev","new_window":true,"type":"action"},{"label":"知乎","url":"https://www.zhihu.com/people/jefftian","style":"icon","icon_class":"fa-zhihu","new_window":true,"type":"action"}],"type":"header"},"footer":{"content":"&copy; All rights reserved.","links":[{"label":"本站源码","url":"https://github.com/Jeff-Tian/space","style":"link","icon_class":"fa-github","new_window":true,"type":"action"},{"label":"紫竹叽歪","url":"https://zizhujy.apphb.com","style":"link","icon_class":"http://zizhujy.apphb.com/Content/Images/logo.png","new_window":true,"type":"action"}],"type":"footer"}},"pathPrefix":"","data":{"data":{"author":{"name":"Jeff Tian","avatar":"https://res.cloudinary.com/practicaldev/image/fetch/s--a5qDZLv3--/c_fill,f_auto,fl_progressive,h_640,q_auto,w_640/https://dev-to-uploads.s3.amazonaws.com/uploads/user/profile_image/318420/3bfd2d99-430c-4049-8dd5-e2adc961e1e0.png"},"social":{"devto":{"username":"jefftian"},"twitter":{"username":"zizhujy"},"github":{"username":"Jeff-Tian"}}}}},"menus":{}}},"staticQueryHashes":[]}