{"componentChunkName":"component---src-templates-home-js","path":"/92","result":{"data":{"allMarkdownRemark":{"edges":[{"node":{"excerpt":"","id":"a8c8512c-417b-5365-8468-1e856ac39349","frontmatter":{"title":"我不要爱情","template":"post","has_more_link":null,"more_link_text":null,"excerpt":"","canonical_url":"https://be-net.azurewebsites.net/post/2010/03/19/我不要爱情","date":"2010-03-19 04:24:50","img_path":null,"positive_reactions_count":0,"stackbit_url_path":"posts/我不要爱情"}}},{"node":{"excerpt":"","id":"2027818f-ea61-59c9-babf-f85499545d4d","frontmatter":{"title":"水调歌头","template":"post","has_more_link":null,"more_link_text":null,"excerpt":"","canonical_url":"https://be-net.azurewebsites.net/post/2010/03/19/水调歌头","date":"2010-03-19 01:01:43","img_path":null,"positive_reactions_count":0,"stackbit_url_path":"posts/水调歌头"}}},{"node":{"excerpt":"","id":"3dfdbac0-faa4-5c36-b3b9-bfeb8dd0acf0","frontmatter":{"title":"经典造句","template":"post","has_more_link":null,"more_link_text":null,"excerpt":"","canonical_url":"https://be-net.azurewebsites.net/post/2010/03/18/经典造句","date":"2010-03-18 08:05:32","img_path":null,"positive_reactions_count":0,"stackbit_url_path":"posts/经典造句"}}},{"node":{"excerpt":"","id":"bd776e37-af8c-5dda-8914-687bb33bef45","frontmatter":{"title":"【转】由于启动用户实例的进程时出错，导致无法生成 SQL Server 的用户实例。该连接将关闭","template":"post","has_more_link":null,"more_link_text":null,"excerpt":"","canonical_url":"https://be-net.azurewebsites.net/post/2010/03/18/【转】由于启动用户实例的进程时出错，导致无法生成-SQL-Server-的用户实例。该连接将关闭","date":"2010-03-18 04:19:14","img_path":null,"positive_reactions_count":0,"stackbit_url_path":"posts/【转】由于启动用户实例的进程时出错，导致无法生成-SQL-Server-的用户实例。该连接将关闭"}}},{"node":{"excerpt":"","id":"06abb23b-8a08-56b4-abfc-7d610f2e4df7","frontmatter":{"title":"如何定时关机","template":"post","has_more_link":null,"more_link_text":null,"excerpt":"","canonical_url":"https://be-net.azurewebsites.net/post/2010/03/18/如何定时关机","date":"2010-03-18 02:34:17","img_path":null,"positive_reactions_count":0,"stackbit_url_path":"posts/如何定时关机"}}}]}},"pageContext":{"limit":5,"skip":455,"totalPages":140,"totalItems":699,"currentPage":92,"frontmatter":{"canonical_url":null,"comments_count":null,"title":"Home","template":"home","more_link_text":"Keep reading / 查看全部","date":null,"excerpt":"Jeff Tian's homepage","has_more_link":true},"url":"/","relativePath":"/","base":"","site":{"siteMetadata":{"title":"Jeff Tian","description":"Full Stack Developer, good at OAuth 2.0","palette":"yellow","header":{"title":"Jeff Tian","tagline":"A wild developer","logo_img":"https://images.ctfassets.net/qixg1o8tujmf/7z1ua3nTOC5B7DwwzAki8I/4e1a05f8db770c285a492eeb1eaa398f/imageedit_3_2509022194.png","background_img":"https://images.ctfassets.net/qixg1o8tujmf/7m0jrKYaDBwEvlc5lo8nt6/6d50a5050d9cdc0d4d2047e35feac292/10648733_696750647079056_2800539603462658695_o.jpg","has_nav":true,"nav_links":[{"label":"Home","url":"/","style":"link","type":"action"},{"label":"About","url":"/about","style":"link","type":"action"},{"label":"关于","url":"https://ggyy.pa-pa.me/about","style":"link","icon_class":"lorem-ipsum","new_window":true,"type":"action"},{"label":"Contact","url":"/contact","style":"link","type":"action"},{"label":"Support Me","url":"/support-me","style":"link","type":"action"},{"label":"叽叽歪歪","url":"https://ggyy.pa-pa.me/","style":"link","icon_class":"lorem-ipsum","new_window":true,"type":"action"}],"has_social":true,"social_links":[{"label":"Twitter","url":"https://twitter.com/zizhujy","style":"icon","icon_class":"fa-twitter","new_window":true,"type":"action"},{"label":"Instagram","url":"https://www.instagram.com/jefftian5","style":"icon","icon_class":"fa-instagram","new_window":true,"type":"action"},{"label":"GitHub","url":"https://github.com/jeff-tian","style":"icon","icon_class":"fa-github","new_window":true,"type":"action"},{"label":"LinkedIn","url":"https://www.linkedin.com/jeff~tian","style":"icon","icon_class":"fa-linkedin","new_window":true,"type":"action"},{"label":"DEV","url":"https://dev.to/jefftian","style":"icon","icon_class":"fa-dev","new_window":true,"type":"action"},{"label":"知乎","url":"https://www.zhihu.com/people/jefftian","style":"icon","icon_class":"fa-zhihu","new_window":true,"type":"action"}],"type":"header"},"footer":{"content":"&copy; All rights reserved.","links":[{"label":"本站源码","url":"https://github.com/Jeff-Tian/space","style":"link","icon_class":"fa-github","new_window":true,"type":"action"},{"label":"紫竹叽歪","url":"https://zizhujy.apphb.com","style":"link","icon_class":"http://zizhujy.apphb.com/Content/Images/logo.png","new_window":true,"type":"action"}],"type":"footer"}},"pathPrefix":"","data":{"data":{"author":{"name":"Jeff Tian","avatar":"https://res.cloudinary.com/practicaldev/image/fetch/s--a5qDZLv3--/c_fill,f_auto,fl_progressive,h_640,q_auto,w_640/https://dev-to-uploads.s3.amazonaws.com/uploads/user/profile_image/318420/3bfd2d99-430c-4049-8dd5-e2adc961e1e0.png"},"social":{"devto":{"username":"jefftian"},"twitter":{"username":"zizhujy"},"github":{"username":"Jeff-Tian"}}}}},"menus":{}}},"staticQueryHashes":[]}