{"componentChunkName":"component---src-templates-home-js","path":"/136/","result":{"data":{"allMarkdownRemark":{"edges":[{"node":{"excerpt":"","id":"b2449d90-e72d-5df6-80b3-48e918d8be76","frontmatter":{"title":"SQL 中 SELECT 语句的语法","template":"post","has_more_link":null,"more_link_text":null,"excerpt":"","canonical_url":"https://be-net.azurewebsites.net/post/2010/03/23/SQL-中-SELECT-语句的语法","date":"2010-03-23 10:56:02","img_path":null,"positive_reactions_count":0,"stackbit_url_path":"posts/SQL-中-SELECT-语句的语法"}}},{"node":{"excerpt":"","id":"75c7ace0-7be6-57b4-92c1-78ff7ab28950","frontmatter":{"title":"谁来开发一个即时沟通的代理软件？","template":"post","has_more_link":null,"more_link_text":null,"excerpt":"","canonical_url":"https://be-net.azurewebsites.net/post/2010/03/23/谁来开发一个即时沟通的代理软件？","date":"2010-03-23 08:08:30","img_path":null,"positive_reactions_count":0,"stackbit_url_path":"posts/谁来开发一个即时沟通的代理软件？"}}},{"node":{"excerpt":"","id":"c3cb955e-38be-5ab8-8c78-6891511bf62d","frontmatter":{"title":"VB 自带报表设计打印编程一例","template":"post","has_more_link":null,"more_link_text":null,"excerpt":"","canonical_url":"https://be-net.azurewebsites.net/post/2010/03/23/VB-自带报表设计打印编程一例","date":"2010-03-23 06:45:59","img_path":null,"positive_reactions_count":0,"stackbit_url_path":"posts/VB-自带报表设计打印编程一例"}}},{"node":{"excerpt":"","id":"ff0942c8-537a-5d6f-b531-4d19ce1c2b9a","frontmatter":{"title":"Sink or swim","template":"post","has_more_link":null,"more_link_text":null,"excerpt":"","canonical_url":"https://be-net.azurewebsites.net/post/2010/03/23/Sink-or-swim","date":"2010-03-23 04:22:01","img_path":null,"positive_reactions_count":0,"stackbit_url_path":"posts/Sink-or-swim"}}},{"node":{"excerpt":"","id":"7f4c4102-b27f-5941-b42d-745e1cf7932b","frontmatter":{"title":"在线函数图形生成器","template":"post","has_more_link":null,"more_link_text":null,"excerpt":"","canonical_url":"https://be-net.azurewebsites.net/post/2010/03/23/在线函数图形生成器","date":"2010-03-23 02:17:47","img_path":null,"positive_reactions_count":0,"stackbit_url_path":"posts/在线函数图形生成器"}}}]}},"pageContext":{"limit":5,"skip":675,"totalPages":187,"totalItems":931,"currentPage":136,"frontmatter":{"canonical_url":null,"comments_count":null,"title":"Home","template":"home","more_link_text":"Keep reading / 查看全部","date":null,"excerpt":"Jeff Tian's homepage","has_more_link":true},"url":"/","relativePath":"/","base":"","site":{"siteMetadata":{"title":"Jeff Tian","author":"@zizhujy","description":"A wild full stack developer","palette":"yellow","header":{"title":"Jeff Tian","tagline":"A wild developer","logo_img":"https://images.ctfassets.net/qixg1o8tujmf/7z1ua3nTOC5B7DwwzAki8I/4e1a05f8db770c285a492eeb1eaa398f/imageedit_3_2509022194.png","background_img":"https://images.ctfassets.net/qixg1o8tujmf/7m0jrKYaDBwEvlc5lo8nt6/6d50a5050d9cdc0d4d2047e35feac292/10648733_696750647079056_2800539603462658695_o.jpg","has_nav":true,"nav_links":[{"label":"Home","url":"/","style":"link","type":"action"},{"label":"About","url":"/about","style":"link","type":"action"},{"label":"关于","url":"https://ggyy.pa-pa.me/about","style":"link","icon_class":"lorem-ipsum","new_window":true,"type":"action"},{"label":"Contact","url":"/contact","style":"link","type":"action"},{"label":"Support Me","url":"/support-me","style":"link","type":"action"},{"label":"叽叽歪歪","url":"https://ggyy.pa-pa.me/","style":"link","icon_class":"lorem-ipsum","new_window":true,"type":"action"}],"has_social":true,"social_links":[{"label":"Twitter","url":"https://twitter.com/zizhujy","style":"icon","icon_class":"fa-twitter","new_window":true,"type":"action"},{"label":"Instagram","url":"https://www.instagram.com/jefftian5","style":"icon","icon_class":"fa-instagram","new_window":true,"type":"action"},{"label":"GitHub","url":"https://github.com/jeff-tian","style":"icon","icon_class":"fa-github","new_window":true,"type":"action"},{"label":"LinkedIn","url":"https://www.linkedin.com/jeff~tian","style":"icon","icon_class":"fa-linkedin","new_window":true,"type":"action"},{"label":"DEV","url":"https://dev.to/jefftian","style":"icon","icon_class":"fa-dev","new_window":true,"type":"action"},{"label":"知乎","url":"https://www.zhihu.com/people/jefftian","style":"icon","icon_class":"fa-zhihu","new_window":true,"type":"action"}],"type":"header"},"footer":{"content":"&copy; All rights reserved.","links":[{"label":"Made with Stackbit.","url":"https://www.stackbit.com","style":"link","new_window":true,"type":"action"},{"label":"紫竹叽歪","url":"https://zizhujy.apphb.com","style":"link","icon_class":"http://zizhujy.apphb.com/Content/Images/logo.png","new_window":true,"type":"action"}],"type":"footer"}},"pathPrefix":"","data":{"data":{"author":{"name":"Jeff Tian","avatar":"https://res.cloudinary.com/practicaldev/image/fetch/s--a5qDZLv3--/c_fill,f_auto,fl_progressive,h_640,q_auto,w_640/https://dev-to-uploads.s3.amazonaws.com/uploads/user/profile_image/318420/3bfd2d99-430c-4049-8dd5-e2adc961e1e0.png"},"social":{"devto":{"username":"jefftian"},"twitter":{"username":"zizhujy"},"github":{"username":"Jeff-Tian"}}}}},"menus":{}}},"staticQueryHashes":[],"slicesMap":{}}