{"componentChunkName":"component---src-templates-home-js","path":"/117/","result":{"data":{"allMarkdownRemark":{"edges":[{"node":{"excerpt":"","id":"c17629e3-1b83-50af-8537-499479fad212","frontmatter":{"title":"An experience about  my intercultural communication","template":"post","has_more_link":null,"more_link_text":null,"excerpt":"","canonical_url":"https://be-net.azurewebsites.net/post/2010/03/12/An-experience-about-my-intercultural-communication","date":"2010-03-12 00:19:20","img_path":null,"positive_reactions_count":0,"stackbit_url_path":"posts/An-experience-about-my-intercultural-communication"}}},{"node":{"excerpt":"","id":"e71841cc-f3cb-5283-bf76-36d4e133190c","frontmatter":{"title":"ASP.NET 错误：\"ASP....\" does not contain a definition for ...","template":"post","has_more_link":null,"more_link_text":null,"excerpt":"","canonical_url":"https://be-net.azurewebsites.net/post/2010/03/11/ASPNET-错误：ASP-does-not-contain-a-definition-for-","date":"2010-03-11 08:39:49","img_path":null,"positive_reactions_count":0,"stackbit_url_path":"posts/ASPNET-错误：ASP-does-not-contain-a-definition-for-"}}},{"node":{"excerpt":"header = \"<div><ul>\"\nitemRepeater = \"<li><a href=\"\"><#= SiteURL #>\"\" target=\"\"_blank\"\" title=\"\"<#= SiteIntro #>\"\"><#= SiteName #></a></li…","id":"d9d58255-8367-5556-9cfa-deb44bfbbbcd","frontmatter":{"title":"用ASP写一个支持自定义模板的数据记录输出函数","template":"post","has_more_link":null,"more_link_text":null,"excerpt":"","canonical_url":"https://be-net.azurewebsites.net/post/2010/03/11/用ASP写一个支持自定义模板的数据记录输出函数","date":"2010-03-11 06:53:12","img_path":null,"positive_reactions_count":0,"stackbit_url_path":"posts/用ASP写一个支持自定义模板的数据记录输出函数"}}},{"node":{"excerpt":"","id":"270757f2-25cd-5ca1-9b99-cddedde0e84b","frontmatter":{"title":"可以灵活扩展的 DIV＋CSS 框模型","template":"post","has_more_link":null,"more_link_text":null,"excerpt":"","canonical_url":"https://be-net.azurewebsites.net/post/2010/03/11/可以灵活扩展的-DIV＋CSS-框模型","date":"2010-03-11 02:34:52","img_path":null,"positive_reactions_count":0,"stackbit_url_path":"posts/可以灵活扩展的-DIV＋CSS-框模型"}}},{"node":{"excerpt":"","id":"f072f08f-9caf-564d-ab3a-b318bd7125e6","frontmatter":{"title":"【分享】Time Series Analysis","template":"post","has_more_link":null,"more_link_text":null,"excerpt":"","canonical_url":"https://be-net.azurewebsites.net/post/2010/03/11/【分享】Time-Series-Analysis","date":"2010-03-11 02:19:07","img_path":null,"positive_reactions_count":0,"stackbit_url_path":"posts/【分享】Time-Series-Analysis"}}}]}},"pageContext":{"limit":5,"skip":580,"totalPages":159,"totalItems":793,"currentPage":117,"frontmatter":{"canonical_url":null,"comments_count":null,"title":"Home","template":"home","more_link_text":"Keep reading / 查看全部","date":null,"excerpt":"Jeff Tian's homepage","has_more_link":true},"url":"/","relativePath":"/","base":"","site":{"siteMetadata":{"title":"Jeff Tian","author":"@zizhujy","description":"A wild full stack developer","palette":"yellow","header":{"title":"Jeff Tian","tagline":"A wild developer","logo_img":"https://images.ctfassets.net/qixg1o8tujmf/7z1ua3nTOC5B7DwwzAki8I/4e1a05f8db770c285a492eeb1eaa398f/imageedit_3_2509022194.png","background_img":"https://images.ctfassets.net/qixg1o8tujmf/7m0jrKYaDBwEvlc5lo8nt6/6d50a5050d9cdc0d4d2047e35feac292/10648733_696750647079056_2800539603462658695_o.jpg","has_nav":true,"nav_links":[{"label":"Home","url":"/","style":"link","type":"action"},{"label":"About","url":"/about","style":"link","type":"action"},{"label":"关于","url":"https://ggyy.pa-pa.me/about","style":"link","icon_class":"lorem-ipsum","new_window":true,"type":"action"},{"label":"Contact","url":"/contact","style":"link","type":"action"},{"label":"Support Me","url":"/support-me","style":"link","type":"action"},{"label":"叽叽歪歪","url":"https://ggyy.pa-pa.me/","style":"link","icon_class":"lorem-ipsum","new_window":true,"type":"action"}],"has_social":true,"social_links":[{"label":"Twitter","url":"https://twitter.com/zizhujy","style":"icon","icon_class":"fa-twitter","new_window":true,"type":"action"},{"label":"Instagram","url":"https://www.instagram.com/jefftian5","style":"icon","icon_class":"fa-instagram","new_window":true,"type":"action"},{"label":"GitHub","url":"https://github.com/jeff-tian","style":"icon","icon_class":"fa-github","new_window":true,"type":"action"},{"label":"LinkedIn","url":"https://www.linkedin.com/jeff~tian","style":"icon","icon_class":"fa-linkedin","new_window":true,"type":"action"},{"label":"DEV","url":"https://dev.to/jefftian","style":"icon","icon_class":"fa-dev","new_window":true,"type":"action"},{"label":"知乎","url":"https://www.zhihu.com/people/jefftian","style":"icon","icon_class":"fa-zhihu","new_window":true,"type":"action"}],"type":"header"},"footer":{"content":"&copy; All rights reserved.","links":[{"label":"Made with Stackbit.","url":"https://www.stackbit.com","style":"link","new_window":true,"type":"action"},{"label":"紫竹叽歪","url":"https://zizhujy.apphb.com","style":"link","icon_class":"http://zizhujy.apphb.com/Content/Images/logo.png","new_window":true,"type":"action"}],"type":"footer"}},"pathPrefix":"","data":{"data":{"author":{"name":"Jeff Tian","avatar":"https://res.cloudinary.com/practicaldev/image/fetch/s--a5qDZLv3--/c_fill,f_auto,fl_progressive,h_640,q_auto,w_640/https://dev-to-uploads.s3.amazonaws.com/uploads/user/profile_image/318420/3bfd2d99-430c-4049-8dd5-e2adc961e1e0.png"},"social":{"devto":{"username":"jefftian"},"twitter":{"username":"zizhujy"},"github":{"username":"Jeff-Tian"}}}}},"menus":{}}},"staticQueryHashes":[],"slicesMap":{}}