{"componentChunkName":"component---src-templates-home-js","path":"/40/","result":{"data":{"allMarkdownRemark":{"edges":[{"node":{"excerpt":"","id":"f2d289d1-ad6f-53eb-80c2-e5e9f1ced6d1","frontmatter":{"title":"图形统计计算器上线百度应用","template":"post","has_more_link":null,"more_link_text":null,"excerpt":"","canonical_url":"https://be-net.azurewebsites.net/post/2012/03/26/图形统计计算器上线百度应用","date":"2012-03-26 21:25:16.4036456","img_path":null,"positive_reactions_count":0,"stackbit_url_path":"posts/图形统计计算器上线百度应用"}}},{"node":{"excerpt":"","id":"ab440f23-bbfa-5f26-9bdb-29bc3428383d","frontmatter":{"title":"避孕套函数","template":"post","has_more_link":null,"more_link_text":null,"excerpt":"","canonical_url":"https://be-net.azurewebsites.net/post/2012/03/25/避孕套函数","date":"2012-03-25 03:21:05.5291988","img_path":null,"positive_reactions_count":0,"stackbit_url_path":"posts/避孕套函数"}}},{"node":{"excerpt":"","id":"d2c15258-0e1a-5911-9e42-46c3571f8b23","frontmatter":{"title":"UnauthorizedAccessException was unhandled","template":"post","has_more_link":null,"more_link_text":null,"excerpt":"","canonical_url":"https://be-net.azurewebsites.net/post/2012/03/22/UnauthorizedAccessException-was-unhandled","date":"2012-03-22 19:31:44.9545751","img_path":null,"positive_reactions_count":0,"stackbit_url_path":"posts/UnauthorizedAccessException-was-unhandled"}}},{"node":{"excerpt":"</head>\n<body>\n<div>\n<h1>JavaScript Memory Leak Testing - Too much recursion</h1>\n<p><input type=\"button\" value=\"Click me to show my info…","id":"c0db2035-029a-5149-9fa5-3e61a96fb9af","frontmatter":{"title":"JavaScript Memory Leak Testing","template":"post","has_more_link":null,"more_link_text":null,"excerpt":"","canonical_url":"https://be-net.azurewebsites.net/post/2012/03/22/JavaScript-Memory-Leak-Testing","date":"2012-03-22 02:30:00","img_path":null,"positive_reactions_count":0,"stackbit_url_path":"posts/JavaScript-Memory-Leak-Testing"}}},{"node":{"excerpt":"","id":"beb86f43-a325-5174-8ca5-90762e63156f","frontmatter":{"title":"根函数族图形的特点","template":"post","has_more_link":null,"more_link_text":null,"excerpt":"","canonical_url":"https://be-net.azurewebsites.net/post/2012/03/20/根函数族图形的特点","date":"2012-03-20 21:03:31.2864152","img_path":null,"positive_reactions_count":0,"stackbit_url_path":"posts/根函数族图形的特点"}}}]}},"pageContext":{"limit":5,"skip":195,"totalPages":159,"totalItems":793,"currentPage":40,"frontmatter":{"canonical_url":null,"comments_count":null,"title":"Home","template":"home","more_link_text":"Keep reading / 查看全部","date":null,"excerpt":"Jeff Tian's homepage","has_more_link":true},"url":"/","relativePath":"/","base":"","site":{"siteMetadata":{"title":"Jeff Tian","author":"@zizhujy","description":"A wild full stack developer","palette":"yellow","header":{"title":"Jeff Tian","tagline":"A wild developer","logo_img":"https://images.ctfassets.net/qixg1o8tujmf/7z1ua3nTOC5B7DwwzAki8I/4e1a05f8db770c285a492eeb1eaa398f/imageedit_3_2509022194.png","background_img":"https://images.ctfassets.net/qixg1o8tujmf/7m0jrKYaDBwEvlc5lo8nt6/6d50a5050d9cdc0d4d2047e35feac292/10648733_696750647079056_2800539603462658695_o.jpg","has_nav":true,"nav_links":[{"label":"Home","url":"/","style":"link","type":"action"},{"label":"About","url":"/about","style":"link","type":"action"},{"label":"关于","url":"https://ggyy.pa-pa.me/about","style":"link","icon_class":"lorem-ipsum","new_window":true,"type":"action"},{"label":"Contact","url":"/contact","style":"link","type":"action"},{"label":"Support Me","url":"/support-me","style":"link","type":"action"},{"label":"叽叽歪歪","url":"https://ggyy.pa-pa.me/","style":"link","icon_class":"lorem-ipsum","new_window":true,"type":"action"}],"has_social":true,"social_links":[{"label":"Twitter","url":"https://twitter.com/zizhujy","style":"icon","icon_class":"fa-twitter","new_window":true,"type":"action"},{"label":"Instagram","url":"https://www.instagram.com/jefftian5","style":"icon","icon_class":"fa-instagram","new_window":true,"type":"action"},{"label":"GitHub","url":"https://github.com/jeff-tian","style":"icon","icon_class":"fa-github","new_window":true,"type":"action"},{"label":"LinkedIn","url":"https://www.linkedin.com/jeff~tian","style":"icon","icon_class":"fa-linkedin","new_window":true,"type":"action"},{"label":"DEV","url":"https://dev.to/jefftian","style":"icon","icon_class":"fa-dev","new_window":true,"type":"action"},{"label":"知乎","url":"https://www.zhihu.com/people/jefftian","style":"icon","icon_class":"fa-zhihu","new_window":true,"type":"action"}],"type":"header"},"footer":{"content":"&copy; All rights reserved.","links":[{"label":"Made with Stackbit.","url":"https://www.stackbit.com","style":"link","new_window":true,"type":"action"},{"label":"紫竹叽歪","url":"https://zizhujy.apphb.com","style":"link","icon_class":"http://zizhujy.apphb.com/Content/Images/logo.png","new_window":true,"type":"action"}],"type":"footer"}},"pathPrefix":"","data":{"data":{"author":{"name":"Jeff Tian","avatar":"https://res.cloudinary.com/practicaldev/image/fetch/s--a5qDZLv3--/c_fill,f_auto,fl_progressive,h_640,q_auto,w_640/https://dev-to-uploads.s3.amazonaws.com/uploads/user/profile_image/318420/3bfd2d99-430c-4049-8dd5-e2adc961e1e0.png"},"social":{"devto":{"username":"jefftian"},"twitter":{"username":"zizhujy"},"github":{"username":"Jeff-Tian"}}}}}}},"staticQueryHashes":[],"slicesMap":{}}