{"componentChunkName":"component---src-templates-home-js","path":"/64/","result":{"data":{"allMarkdownRemark":{"edges":[{"node":{"excerpt":"","id":"f6cee288-c336-55b1-a729-181eb33c4c7a","frontmatter":{"title":"有木有哇有木有","template":"post","has_more_link":null,"more_link_text":null,"excerpt":"","canonical_url":"https://be-net.azurewebsites.net/post/2011/06/10/有木有哇有木有","date":"2011-06-10 15:34:00","img_path":null,"positive_reactions_count":0,"stackbit_url_path":"posts/有木有哇有木有"}}},{"node":{"excerpt":"","id":"7de750f5-fab9-599a-95a7-5116fb5882c1","frontmatter":{"title":"李开复还真有意思","template":"post","has_more_link":null,"more_link_text":null,"excerpt":"","canonical_url":"https://be-net.azurewebsites.net/post/2011/06/10/李开复还真有意思","date":"2011-06-10 07:00:45","img_path":null,"positive_reactions_count":0,"stackbit_url_path":"posts/李开复还真有意思"}}},{"node":{"excerpt":"","id":"0917e8a4-c6a6-59f4-ab0c-753444805fba","frontmatter":{"title":"这个模式要改改了","template":"post","has_more_link":null,"more_link_text":null,"excerpt":"","canonical_url":"https://be-net.azurewebsites.net/post/2011/06/10/这个模式要改改了","date":"2011-06-10 03:30:42","img_path":null,"positive_reactions_count":0,"stackbit_url_path":"posts/这个模式要改改了"}}},{"node":{"excerpt":"","id":"910dc368-558c-5041-8284-9217d37c651a","frontmatter":{"title":"利润率的悲哀","template":"post","has_more_link":null,"more_link_text":null,"excerpt":"","canonical_url":"https://be-net.azurewebsites.net/post/2011/06/02/利润率的悲哀","date":"2011-06-02 20:53:00","img_path":null,"positive_reactions_count":0,"stackbit_url_path":"posts/利润率的悲哀"}}},{"node":{"excerpt":"","id":"cd9b75bb-b3c1-5549-b29c-0eacf0d4b67e","frontmatter":{"title":"How to remove the password of a VBA project 如何移除VBA工程密码","template":"post","has_more_link":null,"more_link_text":null,"excerpt":"","canonical_url":"https://be-net.azurewebsites.net/post/2011/05/25/How-to-remove-the-password-of-a-VBA-project-如何移除VBA工程密码","date":"2011-05-25 23:22:00","img_path":null,"positive_reactions_count":0,"stackbit_url_path":"posts/How-to-remove-the-password-of-a-VBA-project-如何移除VBA工程密码"}}}]}},"pageContext":{"limit":5,"skip":315,"totalPages":159,"totalItems":793,"currentPage":64,"frontmatter":{"canonical_url":null,"comments_count":null,"title":"Home","template":"home","more_link_text":"Keep reading / 查看全部","date":null,"excerpt":"Jeff Tian's homepage","has_more_link":true},"url":"/","relativePath":"/","base":"","site":{"siteMetadata":{"title":"Jeff Tian","author":"@zizhujy","description":"A wild full stack developer","palette":"yellow","header":{"title":"Jeff Tian","tagline":"A wild developer","logo_img":"https://images.ctfassets.net/qixg1o8tujmf/7z1ua3nTOC5B7DwwzAki8I/4e1a05f8db770c285a492eeb1eaa398f/imageedit_3_2509022194.png","background_img":"https://images.ctfassets.net/qixg1o8tujmf/7m0jrKYaDBwEvlc5lo8nt6/6d50a5050d9cdc0d4d2047e35feac292/10648733_696750647079056_2800539603462658695_o.jpg","has_nav":true,"nav_links":[{"label":"Home","url":"/","style":"link","type":"action"},{"label":"About","url":"/about","style":"link","type":"action"},{"label":"关于","url":"https://ggyy.pa-pa.me/about","style":"link","icon_class":"lorem-ipsum","new_window":true,"type":"action"},{"label":"Contact","url":"/contact","style":"link","type":"action"},{"label":"Support Me","url":"/support-me","style":"link","type":"action"},{"label":"叽叽歪歪","url":"https://ggyy.pa-pa.me/","style":"link","icon_class":"lorem-ipsum","new_window":true,"type":"action"}],"has_social":true,"social_links":[{"label":"Twitter","url":"https://twitter.com/zizhujy","style":"icon","icon_class":"fa-twitter","new_window":true,"type":"action"},{"label":"Instagram","url":"https://www.instagram.com/jefftian5","style":"icon","icon_class":"fa-instagram","new_window":true,"type":"action"},{"label":"GitHub","url":"https://github.com/jeff-tian","style":"icon","icon_class":"fa-github","new_window":true,"type":"action"},{"label":"LinkedIn","url":"https://www.linkedin.com/jeff~tian","style":"icon","icon_class":"fa-linkedin","new_window":true,"type":"action"},{"label":"DEV","url":"https://dev.to/jefftian","style":"icon","icon_class":"fa-dev","new_window":true,"type":"action"},{"label":"知乎","url":"https://www.zhihu.com/people/jefftian","style":"icon","icon_class":"fa-zhihu","new_window":true,"type":"action"}],"type":"header"},"footer":{"content":"&copy; All rights reserved.","links":[{"label":"Made with Stackbit.","url":"https://www.stackbit.com","style":"link","new_window":true,"type":"action"},{"label":"紫竹叽歪","url":"https://zizhujy.apphb.com","style":"link","icon_class":"http://zizhujy.apphb.com/Content/Images/logo.png","new_window":true,"type":"action"}],"type":"footer"}},"pathPrefix":"","data":{"data":{"author":{"name":"Jeff Tian","avatar":"https://res.cloudinary.com/practicaldev/image/fetch/s--a5qDZLv3--/c_fill,f_auto,fl_progressive,h_640,q_auto,w_640/https://dev-to-uploads.s3.amazonaws.com/uploads/user/profile_image/318420/3bfd2d99-430c-4049-8dd5-e2adc961e1e0.png"},"social":{"devto":{"username":"jefftian"},"twitter":{"username":"zizhujy"},"github":{"username":"Jeff-Tian"}}}}}}},"staticQueryHashes":[],"slicesMap":{}}