{"componentChunkName":"component---src-templates-home-js","path":"/58/","result":{"data":{"allMarkdownRemark":{"edges":[{"node":{"excerpt":"a.splice(0, a.length);\r\nalert(a.toString());","id":"cf6f4fc3-6cb7-56f3-8eb0-dc535e9c08cf","frontmatter":{"title":"清除JavaScript 数组的所有元素","template":"post","has_more_link":null,"more_link_text":null,"excerpt":"","canonical_url":"https://be-net.azurewebsites.net/post/2011/08/23/清除JavaScript-数组的所有元素","date":"2011-08-23 06:55:29.8807301","img_path":null,"positive_reactions_count":0,"stackbit_url_path":"posts/清除JavaScript-数组的所有元素"}}},{"node":{"excerpt":"","id":"6f05a456-670d-54a0-95d9-946de5667800","frontmatter":{"title":"社会与文化教育对心智模式的影响","template":"post","has_more_link":null,"more_link_text":null,"excerpt":"","canonical_url":"https://be-net.azurewebsites.net/post/2011/08/22/社会与文化教育对心智模式的影响","date":"2011-08-22 06:14:20.6593357","img_path":null,"positive_reactions_count":0,"stackbit_url_path":"posts/社会与文化教育对心智模式的影响"}}},{"node":{"excerpt":"","id":"3c2b99f8-220f-5ec3-9c7a-3072fdc481e6","frontmatter":{"title":"拍案惊奇","template":"post","has_more_link":null,"more_link_text":null,"excerpt":"","canonical_url":"https://be-net.azurewebsites.net/post/2011/08/20/拍案惊奇","date":"2011-08-20 09:18:00","img_path":null,"positive_reactions_count":0,"stackbit_url_path":"posts/拍案惊奇"}}},{"node":{"excerpt":"","id":"74f0eb27-0914-5754-b35c-f9bf2b9c772a","frontmatter":{"title":"她","template":"post","has_more_link":null,"more_link_text":null,"excerpt":"","canonical_url":"https://be-net.azurewebsites.net/post/2011/08/20/她","date":"2011-08-20 08:04:50.2432548","img_path":null,"positive_reactions_count":0,"stackbit_url_path":"posts/她"}}},{"node":{"excerpt":"","id":"51c0f0e0-f812-5bf6-8244-c35f75e69145","frontmatter":{"title":"Windows 系统定时关机","template":"post","has_more_link":null,"more_link_text":null,"excerpt":"在网上看到有很多小软件，有一些居然能够很流行。比如网上有很多定时关机的小软件。其实Windows系统自带了此功能啊。","canonical_url":"https://be-net.azurewebsites.net/post/2011/08/13/Windows-系统定时关机","date":"2011-08-13 19:47:00","img_path":null,"positive_reactions_count":0,"stackbit_url_path":"posts/Windows-系统定时关机"}}}]}},"pageContext":{"limit":5,"skip":285,"totalPages":159,"totalItems":793,"currentPage":58,"frontmatter":{"canonical_url":null,"comments_count":null,"title":"Home","template":"home","more_link_text":"Keep reading / 查看全部","date":null,"excerpt":"Jeff Tian's homepage","has_more_link":true},"url":"/","relativePath":"/","base":"","site":{"siteMetadata":{"title":"Jeff Tian","author":"@zizhujy","description":"A wild full stack developer","palette":"yellow","header":{"title":"Jeff Tian","tagline":"A wild developer","logo_img":"https://images.ctfassets.net/qixg1o8tujmf/7z1ua3nTOC5B7DwwzAki8I/4e1a05f8db770c285a492eeb1eaa398f/imageedit_3_2509022194.png","background_img":"https://images.ctfassets.net/qixg1o8tujmf/7m0jrKYaDBwEvlc5lo8nt6/6d50a5050d9cdc0d4d2047e35feac292/10648733_696750647079056_2800539603462658695_o.jpg","has_nav":true,"nav_links":[{"label":"Home","url":"/","style":"link","type":"action"},{"label":"About","url":"/about","style":"link","type":"action"},{"label":"关于","url":"https://ggyy.pa-pa.me/about","style":"link","icon_class":"lorem-ipsum","new_window":true,"type":"action"},{"label":"Contact","url":"/contact","style":"link","type":"action"},{"label":"Support Me","url":"/support-me","style":"link","type":"action"},{"label":"叽叽歪歪","url":"https://ggyy.pa-pa.me/","style":"link","icon_class":"lorem-ipsum","new_window":true,"type":"action"}],"has_social":true,"social_links":[{"label":"Twitter","url":"https://twitter.com/zizhujy","style":"icon","icon_class":"fa-twitter","new_window":true,"type":"action"},{"label":"Instagram","url":"https://www.instagram.com/jefftian5","style":"icon","icon_class":"fa-instagram","new_window":true,"type":"action"},{"label":"GitHub","url":"https://github.com/jeff-tian","style":"icon","icon_class":"fa-github","new_window":true,"type":"action"},{"label":"LinkedIn","url":"https://www.linkedin.com/jeff~tian","style":"icon","icon_class":"fa-linkedin","new_window":true,"type":"action"},{"label":"DEV","url":"https://dev.to/jefftian","style":"icon","icon_class":"fa-dev","new_window":true,"type":"action"},{"label":"知乎","url":"https://www.zhihu.com/people/jefftian","style":"icon","icon_class":"fa-zhihu","new_window":true,"type":"action"}],"type":"header"},"footer":{"content":"&copy; All rights reserved.","links":[{"label":"Made with Stackbit.","url":"https://www.stackbit.com","style":"link","new_window":true,"type":"action"},{"label":"紫竹叽歪","url":"https://zizhujy.apphb.com","style":"link","icon_class":"http://zizhujy.apphb.com/Content/Images/logo.png","new_window":true,"type":"action"}],"type":"footer"}},"pathPrefix":"","data":{"data":{"author":{"name":"Jeff Tian","avatar":"https://res.cloudinary.com/practicaldev/image/fetch/s--a5qDZLv3--/c_fill,f_auto,fl_progressive,h_640,q_auto,w_640/https://dev-to-uploads.s3.amazonaws.com/uploads/user/profile_image/318420/3bfd2d99-430c-4049-8dd5-e2adc961e1e0.png"},"social":{"devto":{"username":"jefftian"},"twitter":{"username":"zizhujy"},"github":{"username":"Jeff-Tian"}}}}},"menus":{}}},"staticQueryHashes":[],"slicesMap":{}}