{"componentChunkName":"component---src-templates-home-js","path":"/15/","result":{"data":{"allMarkdownRemark":{"edges":[{"node":{"excerpt":"Yesterday I had a strange but interesting dream. In the dream, I became another man which I am opposite in the real life. In the dream I…","id":"e1f6f2e9-451a-50fd-b7b2-eb3cc0d69211","frontmatter":{"title":"A Dream: What is Brickverse?","template":"post","has_more_link":null,"more_link_text":null,"excerpt":"","canonical_url":null,"date":"2023-02-11T23:00:23","img_path":null,"positive_reactions_count":null,"stackbit_url_path":"posts/ski7c42oox4zzfst"}}},{"node":{"excerpt":"技术碎片 前天记录了《鹤老师：真正的知识是体系 - Jeff Tian…","id":"e3e5970e-6efc-5076-94e3-15242244d17b","frontmatter":{"title":"【技术碎片】【已解决】接入 IdentityServer 时报 Client 不允许使用 openid scope","template":"post","has_more_link":null,"more_link_text":null,"excerpt":"","canonical_url":null,"date":"2023-02-07T11:07:23","img_path":null,"positive_reactions_count":null,"stackbit_url_path":"posts/pg63piqm3ce5v5qv"}}},{"node":{"excerpt":"…","id":"63158b80-5796-5bc7-91cd-43c79a67e0a6","frontmatter":{"title":"鹤老师：真正的知识是体系","template":"post","has_more_link":null,"more_link_text":null,"excerpt":"","canonical_url":null,"date":"2023-02-05T03:07:31","img_path":null,"positive_reactions_count":null,"stackbit_url_path":"posts/mci35btn0bkakvng"}}},{"node":{"excerpt":"昨天上线了“得偿所愿”微信表情，提供了领取表情的链接。今天发现，有新的方式可以直接使用了，即在输入表情时，通过搜索“得偿所愿”，在列表中可以选取了：  了解前因后果的同学们，知道这个表情其实是使用支付宝的 AI…","id":"e42bdf68-047a-59e3-84d5-f31c0a500cab","frontmatter":{"title":"素颜哈小兔“兔Too可爱”微信表情上线","template":"post","has_more_link":null,"more_link_text":null,"excerpt":"","canonical_url":null,"date":"2023-02-02T11:32:29","img_path":null,"positive_reactions_count":null,"stackbit_url_path":"posts/vhmkugrcpanqq0i9"}}},{"node":{"excerpt":"之前分享了使用支付宝的 AI 年画功能，制作了一款“哈小兔”红包封面。不仅上线到了支付宝里：  还上线到了微信红包封面（哈小兔红包封面 - Jeff Tian…","id":"dd59db13-fed6-5185-ac7d-6f79a06eef78","frontmatter":{"title":"哈小兔【得偿所愿】微信表情上线啦","template":"post","has_more_link":null,"more_link_text":null,"excerpt":"","canonical_url":null,"date":"2023-02-01T10:45:21","img_path":null,"positive_reactions_count":null,"stackbit_url_path":"posts/qz4vad9e5zda5btx"}}}]}},"pageContext":{"limit":5,"skip":70,"totalPages":159,"totalItems":793,"currentPage":15,"frontmatter":{"canonical_url":null,"comments_count":null,"title":"Home","template":"home","more_link_text":"Keep reading / 查看全部","date":null,"excerpt":"Jeff Tian's homepage","has_more_link":true},"url":"/","relativePath":"/","base":"","site":{"siteMetadata":{"title":"Jeff Tian","author":"@zizhujy","description":"A wild full stack developer","palette":"yellow","header":{"title":"Jeff Tian","tagline":"A wild developer","logo_img":"https://images.ctfassets.net/qixg1o8tujmf/7z1ua3nTOC5B7DwwzAki8I/4e1a05f8db770c285a492eeb1eaa398f/imageedit_3_2509022194.png","background_img":"https://images.ctfassets.net/qixg1o8tujmf/7m0jrKYaDBwEvlc5lo8nt6/6d50a5050d9cdc0d4d2047e35feac292/10648733_696750647079056_2800539603462658695_o.jpg","has_nav":true,"nav_links":[{"label":"Home","url":"/","style":"link","type":"action"},{"label":"About","url":"/about","style":"link","type":"action"},{"label":"关于","url":"https://ggyy.pa-pa.me/about","style":"link","icon_class":"lorem-ipsum","new_window":true,"type":"action"},{"label":"Contact","url":"/contact","style":"link","type":"action"},{"label":"Support Me","url":"/support-me","style":"link","type":"action"},{"label":"叽叽歪歪","url":"https://ggyy.pa-pa.me/","style":"link","icon_class":"lorem-ipsum","new_window":true,"type":"action"}],"has_social":true,"social_links":[{"label":"Twitter","url":"https://twitter.com/zizhujy","style":"icon","icon_class":"fa-twitter","new_window":true,"type":"action"},{"label":"Instagram","url":"https://www.instagram.com/jefftian5","style":"icon","icon_class":"fa-instagram","new_window":true,"type":"action"},{"label":"GitHub","url":"https://github.com/jeff-tian","style":"icon","icon_class":"fa-github","new_window":true,"type":"action"},{"label":"LinkedIn","url":"https://www.linkedin.com/jeff~tian","style":"icon","icon_class":"fa-linkedin","new_window":true,"type":"action"},{"label":"DEV","url":"https://dev.to/jefftian","style":"icon","icon_class":"fa-dev","new_window":true,"type":"action"},{"label":"知乎","url":"https://www.zhihu.com/people/jefftian","style":"icon","icon_class":"fa-zhihu","new_window":true,"type":"action"}],"type":"header"},"footer":{"content":"&copy; All rights reserved.","links":[{"label":"Made with Stackbit.","url":"https://www.stackbit.com","style":"link","new_window":true,"type":"action"},{"label":"紫竹叽歪","url":"https://zizhujy.apphb.com","style":"link","icon_class":"http://zizhujy.apphb.com/Content/Images/logo.png","new_window":true,"type":"action"}],"type":"footer"}},"pathPrefix":"","data":{"data":{"author":{"name":"Jeff Tian","avatar":"https://res.cloudinary.com/practicaldev/image/fetch/s--a5qDZLv3--/c_fill,f_auto,fl_progressive,h_640,q_auto,w_640/https://dev-to-uploads.s3.amazonaws.com/uploads/user/profile_image/318420/3bfd2d99-430c-4049-8dd5-e2adc961e1e0.png"},"social":{"devto":{"username":"jefftian"},"twitter":{"username":"zizhujy"},"github":{"username":"Jeff-Tian"}}}}},"menus":{}}},"staticQueryHashes":[],"slicesMap":{}}