{"componentChunkName":"component---src-templates-home-js","path":"/143/","result":{"data":{"allMarkdownRemark":{"edges":[{"node":{"excerpt":"%>\n<%\n'\n' 将指定的二进制串转换成特定编码的文本\n'\nPublic Function Cbns2TextStream(ByRef bns, ByRef sCharset)\nDim stm %>","id":"ee0c0c65-645b-5eab-bbcf-a60d217cafa3","frontmatter":{"title":"涂鸦网页代理文件的改进版 version 1.0","template":"post","has_more_link":null,"more_link_text":null,"excerpt":"","canonical_url":"https://be-net.azurewebsites.net/post/2010/03/12/涂鸦网页代理文件的改进版-version-10","date":"2010-03-12 06:48:00","img_path":null,"positive_reactions_count":0,"stackbit_url_path":"posts/涂鸦网页代理文件的改进版-version-10"}}},{"node":{"excerpt":"","id":"99a737f4-c5de-5e99-9312-cd4d19a1bc0d","frontmatter":{"title":"求一般的ARMA模型的自协方差函数","template":"post","has_more_link":null,"more_link_text":null,"excerpt":"","canonical_url":"https://be-net.azurewebsites.net/post/2010/03/12/求一般的ARMA模型的自协方差函数","date":"2010-03-12 06:14:51","img_path":null,"positive_reactions_count":0,"stackbit_url_path":"posts/求一般的ARMA模型的自协方差函数"}}},{"node":{"excerpt":"","id":"59d4f218-32ab-5f6b-899f-d226b89823ef","frontmatter":{"title":"一碗油盐饭","template":"post","has_more_link":null,"more_link_text":null,"excerpt":"","canonical_url":"https://be-net.azurewebsites.net/post/2010/03/12/一碗油盐饭","date":"2010-03-12 06:09:02","img_path":null,"positive_reactions_count":0,"stackbit_url_path":"posts/一碗油盐饭"}}},{"node":{"excerpt":"","id":"349421e2-a4b7-5e99-b967-9d2a20d9337e","frontmatter":{"title":"社会不再同情弱者，只会尊重强者","template":"post","has_more_link":null,"more_link_text":null,"excerpt":"","canonical_url":"https://be-net.azurewebsites.net/post/2010/03/12/社会不再同情弱者，只会尊重强者","date":"2010-03-12 06:06:19","img_path":null,"positive_reactions_count":0,"stackbit_url_path":"posts/社会不再同情弱者，只会尊重强者"}}},{"node":{"excerpt":"","id":"9b75e032-cc87-5179-a445-82260e2a5dd0","frontmatter":{"title":"打包还是带走？","template":"post","has_more_link":null,"more_link_text":null,"excerpt":"","canonical_url":"https://be-net.azurewebsites.net/post/2010/03/12/打包还是带走？","date":"2010-03-12 06:04:32","img_path":null,"positive_reactions_count":0,"stackbit_url_path":"posts/打包还是带走？"}}}]}},"pageContext":{"limit":5,"skip":710,"totalPages":187,"totalItems":931,"currentPage":143,"frontmatter":{"canonical_url":null,"comments_count":null,"title":"Home","template":"home","more_link_text":"Keep reading / 查看全部","date":null,"excerpt":"Jeff Tian's homepage","has_more_link":true},"url":"/","relativePath":"/","base":"","site":{"siteMetadata":{"title":"Jeff Tian","author":"@zizhujy","description":"A wild full stack developer","palette":"yellow","header":{"title":"Jeff Tian","tagline":"A wild developer","logo_img":"https://images.ctfassets.net/qixg1o8tujmf/7z1ua3nTOC5B7DwwzAki8I/4e1a05f8db770c285a492eeb1eaa398f/imageedit_3_2509022194.png","background_img":"https://images.ctfassets.net/qixg1o8tujmf/7m0jrKYaDBwEvlc5lo8nt6/6d50a5050d9cdc0d4d2047e35feac292/10648733_696750647079056_2800539603462658695_o.jpg","has_nav":true,"nav_links":[{"label":"Home","url":"/","style":"link","type":"action"},{"label":"About","url":"/about","style":"link","type":"action"},{"label":"关于","url":"https://ggyy.pa-pa.me/about","style":"link","icon_class":"lorem-ipsum","new_window":true,"type":"action"},{"label":"Contact","url":"/contact","style":"link","type":"action"},{"label":"Support Me","url":"/support-me","style":"link","type":"action"},{"label":"叽叽歪歪","url":"https://ggyy.pa-pa.me/","style":"link","icon_class":"lorem-ipsum","new_window":true,"type":"action"}],"has_social":true,"social_links":[{"label":"Twitter","url":"https://twitter.com/zizhujy","style":"icon","icon_class":"fa-twitter","new_window":true,"type":"action"},{"label":"Instagram","url":"https://www.instagram.com/jefftian5","style":"icon","icon_class":"fa-instagram","new_window":true,"type":"action"},{"label":"GitHub","url":"https://github.com/jeff-tian","style":"icon","icon_class":"fa-github","new_window":true,"type":"action"},{"label":"LinkedIn","url":"https://www.linkedin.com/jeff~tian","style":"icon","icon_class":"fa-linkedin","new_window":true,"type":"action"},{"label":"DEV","url":"https://dev.to/jefftian","style":"icon","icon_class":"fa-dev","new_window":true,"type":"action"},{"label":"知乎","url":"https://www.zhihu.com/people/jefftian","style":"icon","icon_class":"fa-zhihu","new_window":true,"type":"action"}],"type":"header"},"footer":{"content":"&copy; All rights reserved.","links":[{"label":"Made with Stackbit.","url":"https://www.stackbit.com","style":"link","new_window":true,"type":"action"},{"label":"紫竹叽歪","url":"https://zizhujy.apphb.com","style":"link","icon_class":"http://zizhujy.apphb.com/Content/Images/logo.png","new_window":true,"type":"action"}],"type":"footer"}},"pathPrefix":"","data":{"data":{"author":{"name":"Jeff Tian","avatar":"https://res.cloudinary.com/practicaldev/image/fetch/s--a5qDZLv3--/c_fill,f_auto,fl_progressive,h_640,q_auto,w_640/https://dev-to-uploads.s3.amazonaws.com/uploads/user/profile_image/318420/3bfd2d99-430c-4049-8dd5-e2adc961e1e0.png"},"social":{"devto":{"username":"jefftian"},"twitter":{"username":"zizhujy"},"github":{"username":"Jeff-Tian"}}}}},"menus":{}}},"staticQueryHashes":[],"slicesMap":{}}