{"componentChunkName":"component---src-templates-home-js","path":"/131/","result":{"data":{"allMarkdownRemark":{"edges":[{"node":{"excerpt":"","id":"bff3159d-c0cc-587c-85b9-4decbc0154f6","frontmatter":{"title":"在XP下，安装MS SQL Server 2008","template":"post","has_more_link":null,"more_link_text":null,"excerpt":"","canonical_url":"https://be-net.azurewebsites.net/post/2010/03/27/在XP下，安装MS-SQL-Server-2008","date":"2010-03-27 05:26:08","img_path":null,"positive_reactions_count":0,"stackbit_url_path":"posts/在XP下，安装MS-SQL-Server-2008"}}},{"node":{"excerpt":"","id":"e0da8624-bb87-53ec-bcc3-3d332239a4dc","frontmatter":{"title":"如此打听","template":"post","has_more_link":null,"more_link_text":null,"excerpt":"","canonical_url":"https://be-net.azurewebsites.net/post/2010/03/27/如此打听","date":"2010-03-27 02:29:48","img_path":null,"positive_reactions_count":0,"stackbit_url_path":"posts/如此打听"}}},{"node":{"excerpt":"public class Applet1 extends JApplet {\npublic void init() {\ngetContentPane().add(new JLabel(\"欢迎来到涂鸦网：http://www.myfootprints.cn…","id":"ef4ddd99-938e-53ea-b31b-041592bac544","frontmatter":{"title":"如何在网页中嵌入Java Applet","template":"post","has_more_link":null,"more_link_text":null,"excerpt":"","canonical_url":"https://be-net.azurewebsites.net/post/2010/03/26/如何在网页中嵌入Java-Applet","date":"2010-03-26 04:46:04","img_path":null,"positive_reactions_count":0,"stackbit_url_path":"posts/如何在网页中嵌入Java-Applet"}}},{"node":{"excerpt":"","id":"173f8b7e-ea0c-54b8-94dd-bcef23224677","frontmatter":{"title":"ASP.NET 的用户管理系统示例","template":"post","has_more_link":null,"more_link_text":null,"excerpt":"","canonical_url":"https://be-net.azurewebsites.net/post/2010/03/26/ASPNET-的用户管理系统示例","date":"2010-03-26 03:27:31","img_path":null,"positive_reactions_count":0,"stackbit_url_path":"posts/ASPNET-的用户管理系统示例"}}},{"node":{"excerpt":"","id":"32ea7e0d-fb83-573e-89db-4bf4939e76a4","frontmatter":{"title":"Culture difference in making business contacts","template":"post","has_more_link":null,"more_link_text":null,"excerpt":"","canonical_url":"https://be-net.azurewebsites.net/post/2010/03/26/Culture-difference-in-making-business-contacts","date":"2010-03-26 01:19:17","img_path":null,"positive_reactions_count":0,"stackbit_url_path":"posts/Culture-difference-in-making-business-contacts"}}}]}},"pageContext":{"limit":5,"skip":650,"totalPages":187,"totalItems":931,"currentPage":131,"frontmatter":{"canonical_url":null,"comments_count":null,"title":"Home","template":"home","more_link_text":"Keep reading / 查看全部","date":null,"excerpt":"Jeff Tian's homepage","has_more_link":true},"url":"/","relativePath":"/","base":"","site":{"siteMetadata":{"title":"Jeff Tian","author":"@zizhujy","description":"A wild full stack developer","palette":"yellow","header":{"title":"Jeff Tian","tagline":"A wild developer","logo_img":"https://images.ctfassets.net/qixg1o8tujmf/7z1ua3nTOC5B7DwwzAki8I/4e1a05f8db770c285a492eeb1eaa398f/imageedit_3_2509022194.png","background_img":"https://images.ctfassets.net/qixg1o8tujmf/7m0jrKYaDBwEvlc5lo8nt6/6d50a5050d9cdc0d4d2047e35feac292/10648733_696750647079056_2800539603462658695_o.jpg","has_nav":true,"nav_links":[{"label":"Home","url":"/","style":"link","type":"action"},{"label":"About","url":"/about","style":"link","type":"action"},{"label":"关于","url":"https://ggyy.pa-pa.me/about","style":"link","icon_class":"lorem-ipsum","new_window":true,"type":"action"},{"label":"Contact","url":"/contact","style":"link","type":"action"},{"label":"Support Me","url":"/support-me","style":"link","type":"action"},{"label":"叽叽歪歪","url":"https://ggyy.pa-pa.me/","style":"link","icon_class":"lorem-ipsum","new_window":true,"type":"action"}],"has_social":true,"social_links":[{"label":"Twitter","url":"https://twitter.com/zizhujy","style":"icon","icon_class":"fa-twitter","new_window":true,"type":"action"},{"label":"Instagram","url":"https://www.instagram.com/jefftian5","style":"icon","icon_class":"fa-instagram","new_window":true,"type":"action"},{"label":"GitHub","url":"https://github.com/jeff-tian","style":"icon","icon_class":"fa-github","new_window":true,"type":"action"},{"label":"LinkedIn","url":"https://www.linkedin.com/jeff~tian","style":"icon","icon_class":"fa-linkedin","new_window":true,"type":"action"},{"label":"DEV","url":"https://dev.to/jefftian","style":"icon","icon_class":"fa-dev","new_window":true,"type":"action"},{"label":"知乎","url":"https://www.zhihu.com/people/jefftian","style":"icon","icon_class":"fa-zhihu","new_window":true,"type":"action"}],"type":"header"},"footer":{"content":"&copy; All rights reserved.","links":[{"label":"Made with Stackbit.","url":"https://www.stackbit.com","style":"link","new_window":true,"type":"action"},{"label":"紫竹叽歪","url":"https://zizhujy.apphb.com","style":"link","icon_class":"http://zizhujy.apphb.com/Content/Images/logo.png","new_window":true,"type":"action"}],"type":"footer"}},"pathPrefix":"","data":{"data":{"author":{"name":"Jeff Tian","avatar":"https://res.cloudinary.com/practicaldev/image/fetch/s--a5qDZLv3--/c_fill,f_auto,fl_progressive,h_640,q_auto,w_640/https://dev-to-uploads.s3.amazonaws.com/uploads/user/profile_image/318420/3bfd2d99-430c-4049-8dd5-e2adc961e1e0.png"},"social":{"devto":{"username":"jefftian"},"twitter":{"username":"zizhujy"},"github":{"username":"Jeff-Tian"}}}}},"menus":{}}},"staticQueryHashes":[],"slicesMap":{}}