{"componentChunkName":"component---src-templates-home-js","path":"/77","result":{"data":{"allMarkdownRemark":{"edges":[{"node":{"excerpt":"","id":"e563fd66-ebcf-57a5-963d-36c08dadbf7c","frontmatter":{"title":"混合数据类型：CAST 和 CONVERT","template":"post","has_more_link":null,"more_link_text":null,"excerpt":"","canonical_url":"https://be-net.azurewebsites.net/post/2010/04/06/混合数据类型：CAST-和-CONVERT","date":"2010-04-06 11:29:01","img_path":null,"positive_reactions_count":0,"stackbit_url_path":"posts/混合数据类型：CAST-和-CONVERT"}}},{"node":{"excerpt":"IF NOT Exists\n(SELECT 'True'\nFROM sys.databases\nWHERE name = 'AdventureWorksCreate')\nBEGIN\nCREATE DATABASE AdventureWorksCreate;\nEND\nELSE…","id":"0af4cb61-e5f3-573c-97b3-fb32afb6bda8","frontmatter":{"title":"EXISTS 用法两例","template":"post","has_more_link":null,"more_link_text":null,"excerpt":"","canonical_url":"https://be-net.azurewebsites.net/post/2010/04/06/EXISTS-用法两例","date":"2010-04-06 11:17:19","img_path":null,"positive_reactions_count":0,"stackbit_url_path":"posts/EXISTS-用法两例"}}},{"node":{"excerpt":"-- Get a list of customers and the date of their first order\nSELECT soh.CustomerID, MIN(soh.OrderDate) AS OrderDate\nINTO #MinOrderDates\nFROM…","id":"e09d6162-97d5-521b-8c1b-3137d5b125c1","frontmatter":{"title":"SQL Server中使用临时表的一例","template":"post","has_more_link":null,"more_link_text":null,"excerpt":"","canonical_url":"https://be-net.azurewebsites.net/post/2010/04/06/SQL-Server中使用临时表的一例","date":"2010-04-06 08:52:55","img_path":null,"positive_reactions_count":0,"stackbit_url_path":"posts/SQL-Server中使用临时表的一例"}}},{"node":{"excerpt":"table, table td {\nborder: dashed 1px grey;\nborder-collapse: collapse;\n}","id":"e2ce4322-126d-5994-9c1b-b0f153a98cd9","frontmatter":{"title":"Java 的变量类型","template":"post","has_more_link":null,"more_link_text":null,"excerpt":"","canonical_url":"https://be-net.azurewebsites.net/post/2010/04/04/Java-的变量类型","date":"2010-04-04 20:45:23","img_path":null,"positive_reactions_count":0,"stackbit_url_path":"posts/Java-的变量类型"}}},{"node":{"excerpt":"'# Using CFormDataGetter.asp\n'# *Using CFile.asp\" Class CImage\n' 完整的路径名＋文件名＋后缀名\nPrivate sFullName\nPrivate sDescription\nPrivate sMIME\nPrivate…","id":"bba46927-95f5-5fff-a110-42be198b81fc","frontmatter":{"title":"图像类文件 CImage.asp","template":"post","has_more_link":null,"more_link_text":null,"excerpt":"","canonical_url":"https://be-net.azurewebsites.net/post/2010/04/04/图像类文件-CImageasp","date":"2010-04-04 18:42:11","img_path":null,"positive_reactions_count":0,"stackbit_url_path":"posts/图像类文件-CImageasp"}}}]}},"pageContext":{"limit":5,"skip":380,"totalPages":140,"totalItems":699,"currentPage":77,"frontmatter":{"canonical_url":null,"comments_count":null,"title":"Home","template":"home","more_link_text":"Keep reading / 查看全部","date":null,"excerpt":"Jeff Tian's homepage","has_more_link":true},"url":"/","relativePath":"/","base":"","site":{"siteMetadata":{"title":"Jeff Tian","description":"Full Stack Developer, good at OAuth 2.0","palette":"yellow","header":{"title":"Jeff Tian","tagline":"A wild developer","logo_img":"https://images.ctfassets.net/qixg1o8tujmf/7z1ua3nTOC5B7DwwzAki8I/4e1a05f8db770c285a492eeb1eaa398f/imageedit_3_2509022194.png","background_img":"https://images.ctfassets.net/qixg1o8tujmf/7m0jrKYaDBwEvlc5lo8nt6/6d50a5050d9cdc0d4d2047e35feac292/10648733_696750647079056_2800539603462658695_o.jpg","has_nav":true,"nav_links":[{"label":"Home","url":"/","style":"link","type":"action"},{"label":"About","url":"/about","style":"link","type":"action"},{"label":"关于","url":"https://ggyy.pa-pa.me/about","style":"link","icon_class":"lorem-ipsum","new_window":true,"type":"action"},{"label":"Contact","url":"/contact","style":"link","type":"action"},{"label":"Support Me","url":"/support-me","style":"link","type":"action"},{"label":"叽叽歪歪","url":"https://ggyy.pa-pa.me/","style":"link","icon_class":"lorem-ipsum","new_window":true,"type":"action"}],"has_social":true,"social_links":[{"label":"Twitter","url":"https://twitter.com/zizhujy","style":"icon","icon_class":"fa-twitter","new_window":true,"type":"action"},{"label":"Instagram","url":"https://www.instagram.com/jefftian5","style":"icon","icon_class":"fa-instagram","new_window":true,"type":"action"},{"label":"GitHub","url":"https://github.com/jeff-tian","style":"icon","icon_class":"fa-github","new_window":true,"type":"action"},{"label":"LinkedIn","url":"https://www.linkedin.com/jeff~tian","style":"icon","icon_class":"fa-linkedin","new_window":true,"type":"action"},{"label":"DEV","url":"https://dev.to/jefftian","style":"icon","icon_class":"fa-dev","new_window":true,"type":"action"},{"label":"知乎","url":"https://www.zhihu.com/people/jefftian","style":"icon","icon_class":"fa-zhihu","new_window":true,"type":"action"}],"type":"header"},"footer":{"content":"&copy; All rights reserved.","links":[{"label":"本站源码","url":"https://github.com/Jeff-Tian/space","style":"link","icon_class":"fa-github","new_window":true,"type":"action"},{"label":"紫竹叽歪","url":"https://zizhujy.apphb.com","style":"link","icon_class":"http://zizhujy.apphb.com/Content/Images/logo.png","new_window":true,"type":"action"}],"type":"footer"}},"pathPrefix":"","data":{"data":{"author":{"name":"Jeff Tian","avatar":"https://res.cloudinary.com/practicaldev/image/fetch/s--a5qDZLv3--/c_fill,f_auto,fl_progressive,h_640,q_auto,w_640/https://dev-to-uploads.s3.amazonaws.com/uploads/user/profile_image/318420/3bfd2d99-430c-4049-8dd5-e2adc961e1e0.png"},"social":{"devto":{"username":"jefftian"},"twitter":{"username":"zizhujy"},"github":{"username":"Jeff-Tian"}}}}},"menus":{}}},"staticQueryHashes":[]}