{"componentChunkName":"component---src-templates-home-js","path":"/142/","result":{"data":{"allMarkdownRemark":{"edges":[{"node":{"excerpt":"","id":"2a9738b1-557a-5c4c-a117-e349fae59c3a","frontmatter":{"title":"对 SQL 语句中的单引号的过滤","template":"post","has_more_link":null,"more_link_text":null,"excerpt":"","canonical_url":"https://be-net.azurewebsites.net/post/2010/03/15/对-SQL-语句中的单引号的过滤","date":"2010-03-15 09:47:59","img_path":null,"positive_reactions_count":0,"stackbit_url_path":"posts/对-SQL-语句中的单引号的过滤"}}},{"node":{"excerpt":"","id":"86d49ad8-711a-578f-8414-810ad7eb583b","frontmatter":{"title":"形象的比喻","template":"post","has_more_link":null,"more_link_text":null,"excerpt":"","canonical_url":"https://be-net.azurewebsites.net/post/2010/03/15/形象的比喻","date":"2010-03-15 08:10:14","img_path":null,"positive_reactions_count":0,"stackbit_url_path":"posts/形象的比喻"}}},{"node":{"excerpt":"","id":"e87fe9dc-4b6a-5c9c-9376-873185880258","frontmatter":{"title":"南无阿弥陀佛是什么意思？","template":"post","has_more_link":null,"more_link_text":null,"excerpt":"","canonical_url":"https://be-net.azurewebsites.net/post/2010/03/14/南无阿弥陀佛是什么意思？","date":"2010-03-14 13:53:08","img_path":null,"positive_reactions_count":0,"stackbit_url_path":"posts/南无阿弥陀佛是什么意思？"}}},{"node":{"excerpt":"","id":"f487f1a3-0f0b-5a6e-86e8-b5ae680c3d06","frontmatter":{"title":"我对于公平的理解：公平是宏观的","template":"post","has_more_link":null,"more_link_text":null,"excerpt":"","canonical_url":"https://be-net.azurewebsites.net/post/2010/03/12/我对于公平的理解：公平是宏观的","date":"2010-03-12 14:45:30","img_path":null,"positive_reactions_count":0,"stackbit_url_path":"posts/我对于公平的理解：公平是宏观的"}}},{"node":{"excerpt":"","id":"5ed109c5-5dfb-5c0c-82cf-dead181cd7b8","frontmatter":{"title":"震惊！Oracle 收购了 Sun！","template":"post","has_more_link":null,"more_link_text":null,"excerpt":"","canonical_url":"https://be-net.azurewebsites.net/post/2010/03/12/震惊！Oracle-收购了-Sun！","date":"2010-03-12 08:18:49","img_path":null,"positive_reactions_count":0,"stackbit_url_path":"posts/震惊！Oracle-收购了-Sun！"}}}]}},"pageContext":{"limit":5,"skip":705,"totalPages":187,"totalItems":931,"currentPage":142,"frontmatter":{"canonical_url":null,"comments_count":null,"title":"Home","template":"home","more_link_text":"Keep reading / 查看全部","date":null,"excerpt":"Jeff Tian's homepage","has_more_link":true},"url":"/","relativePath":"/","base":"","site":{"siteMetadata":{"title":"Jeff Tian","author":"@zizhujy","description":"A wild full stack developer","palette":"yellow","header":{"title":"Jeff Tian","tagline":"A wild developer","logo_img":"https://images.ctfassets.net/qixg1o8tujmf/7z1ua3nTOC5B7DwwzAki8I/4e1a05f8db770c285a492eeb1eaa398f/imageedit_3_2509022194.png","background_img":"https://images.ctfassets.net/qixg1o8tujmf/7m0jrKYaDBwEvlc5lo8nt6/6d50a5050d9cdc0d4d2047e35feac292/10648733_696750647079056_2800539603462658695_o.jpg","has_nav":true,"nav_links":[{"label":"Home","url":"/","style":"link","type":"action"},{"label":"About","url":"/about","style":"link","type":"action"},{"label":"关于","url":"https://ggyy.pa-pa.me/about","style":"link","icon_class":"lorem-ipsum","new_window":true,"type":"action"},{"label":"Contact","url":"/contact","style":"link","type":"action"},{"label":"Support Me","url":"/support-me","style":"link","type":"action"},{"label":"叽叽歪歪","url":"https://ggyy.pa-pa.me/","style":"link","icon_class":"lorem-ipsum","new_window":true,"type":"action"}],"has_social":true,"social_links":[{"label":"Twitter","url":"https://twitter.com/zizhujy","style":"icon","icon_class":"fa-twitter","new_window":true,"type":"action"},{"label":"Instagram","url":"https://www.instagram.com/jefftian5","style":"icon","icon_class":"fa-instagram","new_window":true,"type":"action"},{"label":"GitHub","url":"https://github.com/jeff-tian","style":"icon","icon_class":"fa-github","new_window":true,"type":"action"},{"label":"LinkedIn","url":"https://www.linkedin.com/jeff~tian","style":"icon","icon_class":"fa-linkedin","new_window":true,"type":"action"},{"label":"DEV","url":"https://dev.to/jefftian","style":"icon","icon_class":"fa-dev","new_window":true,"type":"action"},{"label":"知乎","url":"https://www.zhihu.com/people/jefftian","style":"icon","icon_class":"fa-zhihu","new_window":true,"type":"action"}],"type":"header"},"footer":{"content":"&copy; All rights reserved.","links":[{"label":"Made with Stackbit.","url":"https://www.stackbit.com","style":"link","new_window":true,"type":"action"},{"label":"紫竹叽歪","url":"https://zizhujy.apphb.com","style":"link","icon_class":"http://zizhujy.apphb.com/Content/Images/logo.png","new_window":true,"type":"action"}],"type":"footer"}},"pathPrefix":"","data":{"data":{"author":{"name":"Jeff Tian","avatar":"https://res.cloudinary.com/practicaldev/image/fetch/s--a5qDZLv3--/c_fill,f_auto,fl_progressive,h_640,q_auto,w_640/https://dev-to-uploads.s3.amazonaws.com/uploads/user/profile_image/318420/3bfd2d99-430c-4049-8dd5-e2adc961e1e0.png"},"social":{"devto":{"username":"jefftian"},"twitter":{"username":"zizhujy"},"github":{"username":"Jeff-Tian"}}}}},"menus":{}}},"staticQueryHashes":[],"slicesMap":{}}