{"componentChunkName":"component---src-templates-home-js","path":"/160","result":{"data":{"allMarkdownRemark":{"edges":[{"node":{"excerpt":"","id":"ec5ca8ac-5040-5a0f-a924-8ce0d6f0484a","frontmatter":{"title":"微软推出平板电脑","template":"post","has_more_link":null,"more_link_text":null,"excerpt":"","canonical_url":"https://be-net.azurewebsites.net/post/2009/11/23/微软推出平板电脑","date":"2009-11-23 11:51:13","img_path":null,"positive_reactions_count":0,"stackbit_url_path":"posts/微软推出平板电脑"}}},{"node":{"excerpt":"","id":"fd431bd3-01cf-5074-90ef-3989e098a962","frontmatter":{"title":"你不知道的数字","template":"post","has_more_link":null,"more_link_text":null,"excerpt":"","canonical_url":"https://be-net.azurewebsites.net/post/2009/11/22/你不知道的数字","date":"2009-11-22 07:49:46","img_path":null,"positive_reactions_count":0,"stackbit_url_path":"posts/你不知道的数字"}}},{"node":{"excerpt":"","id":"c90d61a7-811d-56a2-ae1d-ac2da08a2a20","frontmatter":{"title":"一代猛女","template":"post","has_more_link":null,"more_link_text":null,"excerpt":"","canonical_url":"https://be-net.azurewebsites.net/post/2009/11/21/一代猛女","date":"2009-11-21 15:17:02","img_path":null,"positive_reactions_count":0,"stackbit_url_path":"posts/一代猛女"}}},{"node":{"excerpt":"","id":"f642a4e9-1412-5b33-af25-b89d12951177","frontmatter":{"title":"中国免费空间网http://www.06la.com","template":"post","has_more_link":null,"more_link_text":null,"excerpt":"","canonical_url":"https://be-net.azurewebsites.net/post/2009/11/21/中国免费空间网httpwww06lacom","date":"2009-11-21 07:24:13","img_path":null,"positive_reactions_count":0,"stackbit_url_path":"posts/中国免费空间网httpwww06lacom"}}},{"node":{"excerpt":"","id":"f7876fab-3f4f-5b9a-a47e-cfa4ed1aaee5","frontmatter":{"title":"如何制作ICO文件","template":"post","has_more_link":null,"more_link_text":null,"excerpt":"","canonical_url":"https://be-net.azurewebsites.net/post/2009/11/21/如何制作ICO文件","date":"2009-11-21 07:06:16","img_path":null,"positive_reactions_count":0,"stackbit_url_path":"posts/如何制作ICO文件"}}}]}},"pageContext":{"limit":5,"skip":795,"totalPages":165,"totalItems":822,"currentPage":160,"frontmatter":{"canonical_url":null,"comments_count":null,"title":"Home","template":"home","more_link_text":"Keep reading / 查看全部","date":null,"excerpt":"Jeff Tian's homepage","has_more_link":true},"url":"/","relativePath":"/","base":"","site":{"siteMetadata":{"title":"Jeff Tian","description":"A wild full stack developer","palette":"yellow","header":{"title":"Jeff Tian","tagline":"A wild developer","logo_img":"https://images.ctfassets.net/qixg1o8tujmf/7z1ua3nTOC5B7DwwzAki8I/4e1a05f8db770c285a492eeb1eaa398f/imageedit_3_2509022194.png","background_img":"https://images.ctfassets.net/qixg1o8tujmf/7m0jrKYaDBwEvlc5lo8nt6/6d50a5050d9cdc0d4d2047e35feac292/10648733_696750647079056_2800539603462658695_o.jpg","has_nav":true,"nav_links":[{"label":"Home","url":"/","style":"link","type":"action"},{"label":"About","url":"/about","style":"link","type":"action"},{"label":"关于","url":"https://ggyy.pa-pa.me/about","style":"link","icon_class":"lorem-ipsum","new_window":true,"type":"action"},{"label":"Contact","url":"/contact","style":"link","type":"action"},{"label":"Support Me","url":"/support-me","style":"link","type":"action"},{"label":"叽叽歪歪","url":"https://ggyy.pa-pa.me/","style":"link","icon_class":"lorem-ipsum","new_window":true,"type":"action"}],"has_social":true,"social_links":[{"label":"Twitter","url":"https://twitter.com/zizhujy","style":"icon","icon_class":"fa-twitter","new_window":true,"type":"action"},{"label":"Instagram","url":"https://www.instagram.com/jefftian5","style":"icon","icon_class":"fa-instagram","new_window":true,"type":"action"},{"label":"GitHub","url":"https://github.com/jeff-tian","style":"icon","icon_class":"fa-github","new_window":true,"type":"action"},{"label":"LinkedIn","url":"https://www.linkedin.com/jeff~tian","style":"icon","icon_class":"fa-linkedin","new_window":true,"type":"action"},{"label":"DEV","url":"https://dev.to/jefftian","style":"icon","icon_class":"fa-dev","new_window":true,"type":"action"},{"label":"知乎","url":"https://www.zhihu.com/people/jefftian","style":"icon","icon_class":"fa-zhihu","new_window":true,"type":"action"}],"type":"header"},"footer":{"content":"&copy; All rights reserved.","links":[{"label":"Made with Stackbit.","url":"https://www.stackbit.com","style":"link","new_window":true,"type":"action"},{"label":"紫竹叽歪","url":"https://zizhujy.apphb.com","style":"link","icon_class":"http://zizhujy.apphb.com/Content/Images/logo.png","new_window":true,"type":"action"}],"type":"footer"}},"pathPrefix":"","data":{"data":{"author":{"name":"Jeff Tian","avatar":"https://res.cloudinary.com/practicaldev/image/fetch/s--a5qDZLv3--/c_fill,f_auto,fl_progressive,h_640,q_auto,w_640/https://dev-to-uploads.s3.amazonaws.com/uploads/user/profile_image/318420/3bfd2d99-430c-4049-8dd5-e2adc961e1e0.png"},"social":{"devto":{"username":"jefftian"},"twitter":{"username":"zizhujy"},"github":{"username":"Jeff-Tian"}}}}},"menus":{}}},"staticQueryHashes":[]}