{"componentChunkName":"component---src-templates-home-js","path":"/19","result":{"data":{"allMarkdownRemark":{"edges":[{"node":{"excerpt":"接地气的 DDD 看到技术雷达发表的《使用函数式语言建立领域模型》文章，非常开心，因为它使用了 TypeScript 来做落地说明，这是一个非常接地气的 DDD。 image.png有不接地气的 DDD 吗？参考《领域驱动设计》这本书和相关（主观的）评价： image…","id":"c6884850-9be4-58ac-94c5-3e5bcfefd7ed","frontmatter":{"title":"使用 tplant 快速概览代码的领域模型","template":"post","has_more_link":null,"more_link_text":null,"excerpt":"","canonical_url":null,"date":"2021-07-14T12:31:30","img_path":null,"positive_reactions_count":null,"stackbit_url_path":"posts/wg2o9o"}}},{"node":{"excerpt":"对于使用微信登录的系统，在用户授权后，将其微信头像直接同步到服务器，可以省去用户上传的操作。本文最终给出一个 NodeJs 中间层的实现，并展示实现的过程和在实施过程中几个需要注意的地方。 image.png  BFF…","id":"ea1ed33c-eb83-517c-99a3-3cf5f8da6f4c","frontmatter":{"title":"同步用户微信头像的 NodeJs 实现","template":"post","has_more_link":null,"more_link_text":null,"excerpt":"","canonical_url":null,"date":"2021-06-29T09:53:58","img_path":null,"positive_reactions_count":null,"stackbit_url_path":"posts/ie87li"}}},{"node":{"excerpt":"意译自：https://developer.ibm.com/depmodels/microservices/articles/eda-and-microservices-architecture-best-practices…","id":"966b5df8-7743-577f-a2e7-d699b3fbfbde","frontmatter":{"title":"基于微服务的事件驱动系统的架构考量","template":"post","has_more_link":null,"more_link_text":null,"excerpt":"","canonical_url":null,"date":"2021-06-23T04:20:08","img_path":null,"positive_reactions_count":null,"stackbit_url_path":"posts/bmtrcf"}}},{"node":{"excerpt":"接上一篇《邪恶的字段注入》，再谈谈构造器注入。 上一篇《邪恶的字段注入》主要是针对随处可见的字段注入现状提出了批评，并强烈推荐使用构造器注入。在历数各种字段注入的缺点，也就是相对来说使用构造器注入的优点后，只发现了 java…","id":"fc14f770-b236-59ab-94d7-cea5d0d3ad74","frontmatter":{"title":"构造器注入与循环依赖","template":"post","has_more_link":null,"more_link_text":null,"excerpt":"","canonical_url":null,"date":"2021-06-18T02:19:02","img_path":null,"positive_reactions_count":null,"stackbit_url_path":"posts/duvwb2"}}},{"node":{"excerpt":"继《给 Java gradle 工程添加 git hooks》之后，再次延续《后端工程圣殿形象的崩塌以及重建》一文，用 JavaScript 工程师的视角，来改造理论上本该高大上但是现实中却大面积倒塌的 java 后端工程。 今天面试了一个号称有着 8 年 java…","id":"2bca39a8-626c-56e9-a503-dee69278be80","frontmatter":{"title":"邪恶的字段注入","template":"post","has_more_link":null,"more_link_text":null,"excerpt":"","canonical_url":null,"date":"2021-06-16T12:42:55","img_path":null,"positive_reactions_count":null,"stackbit_url_path":"posts/gg7lmd"}}}]}},"pageContext":{"limit":5,"skip":90,"totalPages":170,"totalItems":850,"currentPage":19,"frontmatter":{"canonical_url":null,"comments_count":null,"title":"Home","template":"home","more_link_text":"Keep reading / 查看全部","date":null,"excerpt":"Jeff Tian's homepage","has_more_link":true},"url":"/","relativePath":"/","base":"","site":{"siteMetadata":{"title":"Jeff Tian","description":"Full Stack Developer, good at OAuth 2.0","palette":"yellow","header":{"title":"Jeff Tian","tagline":"A wild developer","logo_img":"https://images.ctfassets.net/qixg1o8tujmf/7z1ua3nTOC5B7DwwzAki8I/4e1a05f8db770c285a492eeb1eaa398f/imageedit_3_2509022194.png","background_img":"https://images.ctfassets.net/qixg1o8tujmf/7m0jrKYaDBwEvlc5lo8nt6/6d50a5050d9cdc0d4d2047e35feac292/10648733_696750647079056_2800539603462658695_o.jpg","has_nav":true,"nav_links":[{"label":"Home","url":"/","style":"link","type":"action"},{"label":"About","url":"/about","style":"link","type":"action"},{"label":"关于","url":"https://ggyy.pa-pa.me/about","style":"link","icon_class":"lorem-ipsum","new_window":true,"type":"action"},{"label":"Contact","url":"/contact","style":"link","type":"action"},{"label":"Support Me","url":"/support-me","style":"link","type":"action"},{"label":"叽叽歪歪","url":"https://ggyy.pa-pa.me/","style":"link","icon_class":"lorem-ipsum","new_window":true,"type":"action"}],"has_social":true,"social_links":[{"label":"Twitter","url":"https://twitter.com/zizhujy","style":"icon","icon_class":"fa-twitter","new_window":true,"type":"action"},{"label":"Instagram","url":"https://www.instagram.com/jefftian5","style":"icon","icon_class":"fa-instagram","new_window":true,"type":"action"},{"label":"GitHub","url":"https://github.com/jeff-tian","style":"icon","icon_class":"fa-github","new_window":true,"type":"action"},{"label":"LinkedIn","url":"https://www.linkedin.com/jeff~tian","style":"icon","icon_class":"fa-linkedin","new_window":true,"type":"action"},{"label":"DEV","url":"https://dev.to/jefftian","style":"icon","icon_class":"fa-dev","new_window":true,"type":"action"},{"label":"知乎","url":"https://www.zhihu.com/people/jefftian","style":"icon","icon_class":"fa-zhihu","new_window":true,"type":"action"}],"type":"header"},"footer":{"content":"&copy; All rights reserved.","links":[{"label":"本站源码","url":"https://github.com/Jeff-Tian/space","style":"link","icon_class":"fa-github","new_window":true,"type":"action"},{"label":"紫竹叽歪","url":"https://zizhujy.apphb.com","style":"link","icon_class":"http://zizhujy.apphb.com/Content/Images/logo.png","new_window":true,"type":"action"}],"type":"footer"}},"pathPrefix":"","data":{"data":{"author":{"name":"Jeff Tian","avatar":"https://res.cloudinary.com/practicaldev/image/fetch/s--a5qDZLv3--/c_fill,f_auto,fl_progressive,h_640,q_auto,w_640/https://dev-to-uploads.s3.amazonaws.com/uploads/user/profile_image/318420/3bfd2d99-430c-4049-8dd5-e2adc961e1e0.png"},"social":{"devto":{"username":"jefftian"},"twitter":{"username":"zizhujy"},"github":{"username":"Jeff-Tian"}}}}},"menus":{}}},"staticQueryHashes":[]}