{"componentChunkName":"component---src-templates-home-js","path":"/106/","result":{"data":{"allMarkdownRemark":{"edges":[{"node":{"excerpt":"import java.net.;\nimport java.io.;\nimport java.util.*; public class ProxyCache {\n/** Port for the proxy /\nprivate static int port;\n/* Socket…","id":"2eaa8e79-1b28-56d6-bac4-edd02a8ffeda","frontmatter":{"title":"自己写个Web代理服务器","template":"post","has_more_link":null,"more_link_text":null,"excerpt":"","canonical_url":"https://be-net.azurewebsites.net/post/2010/06/24/自己写个Web代理服务器","date":"2010-06-24 03:53:19","img_path":null,"positive_reactions_count":0,"stackbit_url_path":"posts/自己写个Web代理服务器"}}},{"node":{"excerpt":"","id":"60e9d0b2-5bfb-567f-9c92-a506f0018d52","frontmatter":{"title":"蜗居","template":"post","has_more_link":null,"more_link_text":null,"excerpt":"","canonical_url":"https://be-net.azurewebsites.net/post/2010/06/22/蜗居","date":"2010-06-22 16:29:44","img_path":null,"positive_reactions_count":0,"stackbit_url_path":"posts/蜗居"}}},{"node":{"excerpt":"","id":"3ba05f75-2b26-5af4-a0fa-5cb0886c4a0f","frontmatter":{"title":"20年之后的我","template":"post","has_more_link":null,"more_link_text":null,"excerpt":"","canonical_url":"https://be-net.azurewebsites.net/post/2010/06/22/20年之后的我","date":"2010-06-22 16:26:56","img_path":null,"positive_reactions_count":0,"stackbit_url_path":"posts/20年之后的我"}}},{"node":{"excerpt":"","id":"db5432c7-9897-5ec6-bc7d-3e8cd0981a6f","frontmatter":{"title":"桩考过了","template":"post","has_more_link":null,"more_link_text":null,"excerpt":"","canonical_url":"https://be-net.azurewebsites.net/post/2010/06/22/桩考过了","date":"2010-06-22 16:21:42","img_path":null,"positive_reactions_count":0,"stackbit_url_path":"posts/桩考过了"}}},{"node":{"excerpt":"","id":"896295e2-e4d6-5666-9179-7e533585e8a1","frontmatter":{"title":"Stay Foolish, Stay Hungry.","template":"post","has_more_link":null,"more_link_text":null,"excerpt":"","canonical_url":"https://be-net.azurewebsites.net/post/2010/06/22/Stay-Foolish-Stay-Hungry","date":"2010-06-22 15:22:04","img_path":null,"positive_reactions_count":0,"stackbit_url_path":"posts/Stay-Foolish-Stay-Hungry"}}}]}},"pageContext":{"limit":5,"skip":525,"totalPages":187,"totalItems":931,"currentPage":106,"frontmatter":{"canonical_url":null,"comments_count":null,"title":"Home","template":"home","more_link_text":"Keep reading / 查看全部","date":null,"excerpt":"Jeff Tian's homepage","has_more_link":true},"url":"/","relativePath":"/","base":"","site":{"siteMetadata":{"title":"Jeff Tian","author":"@zizhujy","description":"A wild full stack developer","palette":"yellow","header":{"title":"Jeff Tian","tagline":"A wild developer","logo_img":"https://images.ctfassets.net/qixg1o8tujmf/7z1ua3nTOC5B7DwwzAki8I/4e1a05f8db770c285a492eeb1eaa398f/imageedit_3_2509022194.png","background_img":"https://images.ctfassets.net/qixg1o8tujmf/7m0jrKYaDBwEvlc5lo8nt6/6d50a5050d9cdc0d4d2047e35feac292/10648733_696750647079056_2800539603462658695_o.jpg","has_nav":true,"nav_links":[{"label":"Home","url":"/","style":"link","type":"action"},{"label":"About","url":"/about","style":"link","type":"action"},{"label":"关于","url":"https://ggyy.pa-pa.me/about","style":"link","icon_class":"lorem-ipsum","new_window":true,"type":"action"},{"label":"Contact","url":"/contact","style":"link","type":"action"},{"label":"Support Me","url":"/support-me","style":"link","type":"action"},{"label":"叽叽歪歪","url":"https://ggyy.pa-pa.me/","style":"link","icon_class":"lorem-ipsum","new_window":true,"type":"action"}],"has_social":true,"social_links":[{"label":"Twitter","url":"https://twitter.com/zizhujy","style":"icon","icon_class":"fa-twitter","new_window":true,"type":"action"},{"label":"Instagram","url":"https://www.instagram.com/jefftian5","style":"icon","icon_class":"fa-instagram","new_window":true,"type":"action"},{"label":"GitHub","url":"https://github.com/jeff-tian","style":"icon","icon_class":"fa-github","new_window":true,"type":"action"},{"label":"LinkedIn","url":"https://www.linkedin.com/jeff~tian","style":"icon","icon_class":"fa-linkedin","new_window":true,"type":"action"},{"label":"DEV","url":"https://dev.to/jefftian","style":"icon","icon_class":"fa-dev","new_window":true,"type":"action"},{"label":"知乎","url":"https://www.zhihu.com/people/jefftian","style":"icon","icon_class":"fa-zhihu","new_window":true,"type":"action"}],"type":"header"},"footer":{"content":"&copy; All rights reserved.","links":[{"label":"Made with Stackbit.","url":"https://www.stackbit.com","style":"link","new_window":true,"type":"action"},{"label":"紫竹叽歪","url":"https://zizhujy.apphb.com","style":"link","icon_class":"http://zizhujy.apphb.com/Content/Images/logo.png","new_window":true,"type":"action"}],"type":"footer"}},"pathPrefix":"","data":{"data":{"author":{"name":"Jeff Tian","avatar":"https://res.cloudinary.com/practicaldev/image/fetch/s--a5qDZLv3--/c_fill,f_auto,fl_progressive,h_640,q_auto,w_640/https://dev-to-uploads.s3.amazonaws.com/uploads/user/profile_image/318420/3bfd2d99-430c-4049-8dd5-e2adc961e1e0.png"},"social":{"devto":{"username":"jefftian"},"twitter":{"username":"zizhujy"},"github":{"username":"Jeff-Tian"}}}}},"menus":{}}},"staticQueryHashes":[],"slicesMap":{}}