{"componentChunkName":"component---src-templates-home-js","path":"/60/","result":{"data":{"allMarkdownRemark":{"edges":[{"node":{"excerpt":"}\r\n#endregion","id":"c0536408-7952-5c11-989b-7075da16135e","frontmatter":{"title":"An extension for C# built-in Random class","template":"post","has_more_link":null,"more_link_text":null,"excerpt":"","canonical_url":"https://be-net.azurewebsites.net/post/2012/07/29/An-extension-for-C-built-in-Random-class","date":"2012-07-29 20:24:21.3533667","img_path":null,"positive_reactions_count":0,"stackbit_url_path":"posts/An-extension-for-C-built-in-Random-class"}}},{"node":{"excerpt":"","id":"0cbf4577-9434-5672-b1a0-f73f8ea08abd","frontmatter":{"title":"Solve “You need permission to perform this action” problem","template":"post","has_more_link":null,"more_link_text":null,"excerpt":"","canonical_url":"https://be-net.azurewebsites.net/post/2012/07/23/Solve-You-need-permission-to-perform-this-action-problem","date":"2012-07-23 02:54:22.6174453","img_path":null,"positive_reactions_count":0,"stackbit_url_path":"posts/Solve-You-need-permission-to-perform-this-action-problem"}}},{"node":{"excerpt":"","id":"33929ecf-0d04-58f3-a229-2b7437bbf158","frontmatter":{"title":"紫竹·微软","template":"post","has_more_link":null,"more_link_text":null,"excerpt":"","canonical_url":"https://be-net.azurewebsites.net/post/2012/07/21/紫竹183;微软","date":"2012-07-21 07:11:00","img_path":null,"positive_reactions_count":0,"stackbit_url_path":"posts/紫竹183;微软"}}},{"node":{"excerpt":"function invoker(functionName) {\r\nfunctionName();\r\n} invoker(sayHello);","id":"c4eca31e-963b-5a37-9faf-fbedaac4fe00","frontmatter":{"title":"在JavaScript中如何传递带参数的函数","template":"post","has_more_link":null,"more_link_text":null,"excerpt":"","canonical_url":"https://be-net.azurewebsites.net/post/2012/06/30/在JavaScript中如何传递带参数的函数","date":"2012-06-30 02:34:58.8536582","img_path":null,"positive_reactions_count":0,"stackbit_url_path":"posts/在JavaScript中如何传递带参数的函数"}}},{"node":{"excerpt":"","id":"9157f87e-757c-502e-87f7-7ef70854f5e4","frontmatter":{"title":"连锁反应 Chain Reactive","template":"post","has_more_link":null,"more_link_text":null,"excerpt":"","canonical_url":"https://be-net.azurewebsites.net/post/2012/06/21/连锁反应-Chain-Reactive","date":"2012-06-21 20:40:05.7245967","img_path":null,"positive_reactions_count":0,"stackbit_url_path":"posts/连锁反应-Chain-Reactive"}}}]}},"pageContext":{"limit":5,"skip":295,"totalPages":187,"totalItems":931,"currentPage":60,"frontmatter":{"canonical_url":null,"comments_count":null,"title":"Home","template":"home","more_link_text":"Keep reading / 查看全部","date":null,"excerpt":"Jeff Tian's homepage","has_more_link":true},"url":"/","relativePath":"/","base":"","site":{"siteMetadata":{"title":"Jeff Tian","author":"@zizhujy","description":"A wild full stack developer","palette":"yellow","header":{"title":"Jeff Tian","tagline":"A wild developer","logo_img":"https://images.ctfassets.net/qixg1o8tujmf/7z1ua3nTOC5B7DwwzAki8I/4e1a05f8db770c285a492eeb1eaa398f/imageedit_3_2509022194.png","background_img":"https://images.ctfassets.net/qixg1o8tujmf/7m0jrKYaDBwEvlc5lo8nt6/6d50a5050d9cdc0d4d2047e35feac292/10648733_696750647079056_2800539603462658695_o.jpg","has_nav":true,"nav_links":[{"label":"Home","url":"/","style":"link","type":"action"},{"label":"About","url":"/about","style":"link","type":"action"},{"label":"关于","url":"https://ggyy.pa-pa.me/about","style":"link","icon_class":"lorem-ipsum","new_window":true,"type":"action"},{"label":"Contact","url":"/contact","style":"link","type":"action"},{"label":"Support Me","url":"/support-me","style":"link","type":"action"},{"label":"叽叽歪歪","url":"https://ggyy.pa-pa.me/","style":"link","icon_class":"lorem-ipsum","new_window":true,"type":"action"}],"has_social":true,"social_links":[{"label":"Twitter","url":"https://twitter.com/zizhujy","style":"icon","icon_class":"fa-twitter","new_window":true,"type":"action"},{"label":"Instagram","url":"https://www.instagram.com/jefftian5","style":"icon","icon_class":"fa-instagram","new_window":true,"type":"action"},{"label":"GitHub","url":"https://github.com/jeff-tian","style":"icon","icon_class":"fa-github","new_window":true,"type":"action"},{"label":"LinkedIn","url":"https://www.linkedin.com/jeff~tian","style":"icon","icon_class":"fa-linkedin","new_window":true,"type":"action"},{"label":"DEV","url":"https://dev.to/jefftian","style":"icon","icon_class":"fa-dev","new_window":true,"type":"action"},{"label":"知乎","url":"https://www.zhihu.com/people/jefftian","style":"icon","icon_class":"fa-zhihu","new_window":true,"type":"action"}],"type":"header"},"footer":{"content":"&copy; All rights reserved.","links":[{"label":"Made with Stackbit.","url":"https://www.stackbit.com","style":"link","new_window":true,"type":"action"},{"label":"紫竹叽歪","url":"https://zizhujy.apphb.com","style":"link","icon_class":"http://zizhujy.apphb.com/Content/Images/logo.png","new_window":true,"type":"action"}],"type":"footer"}},"pathPrefix":"","data":{"data":{"author":{"name":"Jeff Tian","avatar":"https://res.cloudinary.com/practicaldev/image/fetch/s--a5qDZLv3--/c_fill,f_auto,fl_progressive,h_640,q_auto,w_640/https://dev-to-uploads.s3.amazonaws.com/uploads/user/profile_image/318420/3bfd2d99-430c-4049-8dd5-e2adc961e1e0.png"},"social":{"devto":{"username":"jefftian"},"twitter":{"username":"zizhujy"},"github":{"username":"Jeff-Tian"}}}}},"menus":{}}},"staticQueryHashes":[],"slicesMap":{}}