{"componentChunkName":"component---src-templates-home-js","path":"/57/","result":{"data":{"allMarkdownRemark":{"edges":[{"node":{"excerpt":"","id":"4d344599-c919-5a79-bb25-855db2209ba0","frontmatter":{"title":"三十岁恐惧症","template":"post","has_more_link":null,"more_link_text":null,"excerpt":"","canonical_url":"https://be-net.azurewebsites.net/post/2011/09/03/三十岁恐惧症","date":"2011-09-03 08:20:59.2143063","img_path":null,"positive_reactions_count":0,"stackbit_url_path":"posts/三十岁恐惧症"}}},{"node":{"excerpt":"","id":"17b0f522-187f-58db-a39d-415a1169ea73","frontmatter":{"title":"笔记：《北京法源寺》中李十力对康有为的一段话","template":"post","has_more_link":null,"more_link_text":null,"excerpt":"","canonical_url":"https://be-net.azurewebsites.net/post/2011/09/03/笔记：《北京法源寺》中李十力对康有为的一段话","date":"2011-09-03 06:23:19.5045863","img_path":null,"positive_reactions_count":0,"stackbit_url_path":"posts/笔记：《北京法源寺》中李十力对康有为的一段话"}}},{"node":{"excerpt":"","id":"6c873bd3-0d82-58e2-96fb-ac62fe59b8b1","frontmatter":{"title":"笔记：Windows 7 64 位系统下未能加载文件或程序集“System.Data.SQLite”的解决办法","template":"post","has_more_link":null,"more_link_text":null,"excerpt":"","canonical_url":"https://be-net.azurewebsites.net/post/2011/09/01/笔记：Windows-7-64-位系统下未能加载文件或程序集“SystemDataSQLite”的解决办法","date":"2011-09-01 06:10:00","img_path":null,"positive_reactions_count":0,"stackbit_url_path":"posts/笔记：Windows-7-64-位系统下未能加载文件或程序集“SystemDataSQLite”的解决办法"}}},{"node":{"excerpt":"","id":"3fcfb489-ff6c-562a-88e3-65de36479edf","frontmatter":{"title":"垂死挣扎","template":"post","has_more_link":null,"more_link_text":null,"excerpt":"","canonical_url":"https://be-net.azurewebsites.net/post/2011/09/01/垂死挣扎","date":"2011-09-01 02:10:46.5840683","img_path":null,"positive_reactions_count":0,"stackbit_url_path":"posts/垂死挣扎"}}},{"node":{"excerpt":"","id":"6963ef78-f40e-52fc-b188-c8c2d8ef3eac","frontmatter":{"title":"VLookup 函数的妙用","template":"post","has_more_link":null,"more_link_text":null,"excerpt":"","canonical_url":"https://be-net.azurewebsites.net/post/2011/08/30/VLookup-Example","date":"2011-08-30 09:16:00","img_path":null,"positive_reactions_count":0,"stackbit_url_path":"posts/VLookup-Example"}}}]}},"pageContext":{"limit":5,"skip":280,"totalPages":159,"totalItems":793,"currentPage":57,"frontmatter":{"canonical_url":null,"comments_count":null,"title":"Home","template":"home","more_link_text":"Keep reading / 查看全部","date":null,"excerpt":"Jeff Tian's homepage","has_more_link":true},"url":"/","relativePath":"/","base":"","site":{"siteMetadata":{"title":"Jeff Tian","author":"@zizhujy","description":"A wild full stack developer","palette":"yellow","header":{"title":"Jeff Tian","tagline":"A wild developer","logo_img":"https://images.ctfassets.net/qixg1o8tujmf/7z1ua3nTOC5B7DwwzAki8I/4e1a05f8db770c285a492eeb1eaa398f/imageedit_3_2509022194.png","background_img":"https://images.ctfassets.net/qixg1o8tujmf/7m0jrKYaDBwEvlc5lo8nt6/6d50a5050d9cdc0d4d2047e35feac292/10648733_696750647079056_2800539603462658695_o.jpg","has_nav":true,"nav_links":[{"label":"Home","url":"/","style":"link","type":"action"},{"label":"About","url":"/about","style":"link","type":"action"},{"label":"关于","url":"https://ggyy.pa-pa.me/about","style":"link","icon_class":"lorem-ipsum","new_window":true,"type":"action"},{"label":"Contact","url":"/contact","style":"link","type":"action"},{"label":"Support Me","url":"/support-me","style":"link","type":"action"},{"label":"叽叽歪歪","url":"https://ggyy.pa-pa.me/","style":"link","icon_class":"lorem-ipsum","new_window":true,"type":"action"}],"has_social":true,"social_links":[{"label":"Twitter","url":"https://twitter.com/zizhujy","style":"icon","icon_class":"fa-twitter","new_window":true,"type":"action"},{"label":"Instagram","url":"https://www.instagram.com/jefftian5","style":"icon","icon_class":"fa-instagram","new_window":true,"type":"action"},{"label":"GitHub","url":"https://github.com/jeff-tian","style":"icon","icon_class":"fa-github","new_window":true,"type":"action"},{"label":"LinkedIn","url":"https://www.linkedin.com/jeff~tian","style":"icon","icon_class":"fa-linkedin","new_window":true,"type":"action"},{"label":"DEV","url":"https://dev.to/jefftian","style":"icon","icon_class":"fa-dev","new_window":true,"type":"action"},{"label":"知乎","url":"https://www.zhihu.com/people/jefftian","style":"icon","icon_class":"fa-zhihu","new_window":true,"type":"action"}],"type":"header"},"footer":{"content":"&copy; All rights reserved.","links":[{"label":"Made with Stackbit.","url":"https://www.stackbit.com","style":"link","new_window":true,"type":"action"},{"label":"紫竹叽歪","url":"https://zizhujy.apphb.com","style":"link","icon_class":"http://zizhujy.apphb.com/Content/Images/logo.png","new_window":true,"type":"action"}],"type":"footer"}},"pathPrefix":"","data":{"data":{"author":{"name":"Jeff Tian","avatar":"https://res.cloudinary.com/practicaldev/image/fetch/s--a5qDZLv3--/c_fill,f_auto,fl_progressive,h_640,q_auto,w_640/https://dev-to-uploads.s3.amazonaws.com/uploads/user/profile_image/318420/3bfd2d99-430c-4049-8dd5-e2adc961e1e0.png"},"social":{"devto":{"username":"jefftian"},"twitter":{"username":"zizhujy"},"github":{"username":"Jeff-Tian"}}}}},"menus":{}}},"staticQueryHashes":[],"slicesMap":{}}