{"componentChunkName":"component---src-templates-home-js","path":"/166/","result":{"data":{"allMarkdownRemark":{"edges":[{"node":{"excerpt":"","id":"0c5070d3-46d5-5599-a116-dafb75d39ea2","frontmatter":{"title":"超好玩的打字游戏！","template":"post","has_more_link":null,"more_link_text":null,"excerpt":"","canonical_url":"https://be-net.azurewebsites.net/post/2010/01/28/超好玩的打字游戏！","date":"2010-01-28 10:15:07","img_path":null,"positive_reactions_count":0,"stackbit_url_path":"posts/超好玩的打字游戏！"}}},{"node":{"excerpt":"","id":"36088a74-c9fd-52a5-ac5b-e30df0962653","frontmatter":{"title":"MA(2)模型的自相关系数","template":"post","has_more_link":null,"more_link_text":null,"excerpt":"","canonical_url":"https://be-net.azurewebsites.net/post/2010/01/28/MA(2)模型的自相关系数","date":"2010-01-28 03:37:47","img_path":null,"positive_reactions_count":0,"stackbit_url_path":"posts/MA(2)模型的自相关系数"}}},{"node":{"excerpt":"","id":"25961e56-7bbe-54a9-aba8-c884a7019c40","frontmatter":{"title":"如何输入带圈的数字，如①②③④⑤⑥⑦⑧⑨⑩","template":"post","has_more_link":null,"more_link_text":null,"excerpt":"","canonical_url":"https://be-net.azurewebsites.net/post/2010/01/27/如何输入带圈的数字，如①②③④⑤⑥⑦⑧⑨⑩","date":"2010-01-27 05:35:24","img_path":null,"positive_reactions_count":0,"stackbit_url_path":"posts/如何输入带圈的数字，如①②③④⑤⑥⑦⑧⑨⑩"}}},{"node":{"excerpt":"","id":"8f99bbb8-2317-5c4e-b831-83cf80131014","frontmatter":{"title":"DNS 资源记录、DNS 服务器的层次以及 DNS 报文结构","template":"post","has_more_link":null,"more_link_text":null,"excerpt":"","canonical_url":"https://be-net.azurewebsites.net/post/2010/01/27/DNS-资源记录、DNS-服务器的层次以及-DNS-报文结构","date":"2010-01-27 03:36:48","img_path":null,"positive_reactions_count":0,"stackbit_url_path":"posts/DNS-资源记录、DNS-服务器的层次以及-DNS-报文结构"}}},{"node":{"excerpt":"","id":"9076fcb0-b1d4-5d51-9faa-ea1dbdbbfbf4","frontmatter":{"title":"如何查看本机当前建立了哪些网络连接","template":"post","has_more_link":null,"more_link_text":null,"excerpt":"","canonical_url":"https://be-net.azurewebsites.net/post/2010/01/27/如何查看本机当前建立了哪些网络连接","date":"2010-01-27 03:26:16","img_path":null,"positive_reactions_count":0,"stackbit_url_path":"posts/如何查看本机当前建立了哪些网络连接"}}}]}},"pageContext":{"limit":5,"skip":825,"totalPages":187,"totalItems":931,"currentPage":166,"frontmatter":{"canonical_url":null,"comments_count":null,"title":"Home","template":"home","more_link_text":"Keep reading / 查看全部","date":null,"excerpt":"Jeff Tian's homepage","has_more_link":true},"url":"/","relativePath":"/","base":"","site":{"siteMetadata":{"title":"Jeff Tian","author":"@zizhujy","description":"A wild full stack developer","palette":"yellow","header":{"title":"Jeff Tian","tagline":"A wild developer","logo_img":"https://images.ctfassets.net/qixg1o8tujmf/7z1ua3nTOC5B7DwwzAki8I/4e1a05f8db770c285a492eeb1eaa398f/imageedit_3_2509022194.png","background_img":"https://images.ctfassets.net/qixg1o8tujmf/7m0jrKYaDBwEvlc5lo8nt6/6d50a5050d9cdc0d4d2047e35feac292/10648733_696750647079056_2800539603462658695_o.jpg","has_nav":true,"nav_links":[{"label":"Home","url":"/","style":"link","type":"action"},{"label":"About","url":"/about","style":"link","type":"action"},{"label":"关于","url":"https://ggyy.pa-pa.me/about","style":"link","icon_class":"lorem-ipsum","new_window":true,"type":"action"},{"label":"Contact","url":"/contact","style":"link","type":"action"},{"label":"Support Me","url":"/support-me","style":"link","type":"action"},{"label":"叽叽歪歪","url":"https://ggyy.pa-pa.me/","style":"link","icon_class":"lorem-ipsum","new_window":true,"type":"action"}],"has_social":true,"social_links":[{"label":"Twitter","url":"https://twitter.com/zizhujy","style":"icon","icon_class":"fa-twitter","new_window":true,"type":"action"},{"label":"Instagram","url":"https://www.instagram.com/jefftian5","style":"icon","icon_class":"fa-instagram","new_window":true,"type":"action"},{"label":"GitHub","url":"https://github.com/jeff-tian","style":"icon","icon_class":"fa-github","new_window":true,"type":"action"},{"label":"LinkedIn","url":"https://www.linkedin.com/jeff~tian","style":"icon","icon_class":"fa-linkedin","new_window":true,"type":"action"},{"label":"DEV","url":"https://dev.to/jefftian","style":"icon","icon_class":"fa-dev","new_window":true,"type":"action"},{"label":"知乎","url":"https://www.zhihu.com/people/jefftian","style":"icon","icon_class":"fa-zhihu","new_window":true,"type":"action"}],"type":"header"},"footer":{"content":"&copy; All rights reserved.","links":[{"label":"Made with Stackbit.","url":"https://www.stackbit.com","style":"link","new_window":true,"type":"action"},{"label":"紫竹叽歪","url":"https://zizhujy.apphb.com","style":"link","icon_class":"http://zizhujy.apphb.com/Content/Images/logo.png","new_window":true,"type":"action"}],"type":"footer"}},"pathPrefix":"","data":{"data":{"author":{"name":"Jeff Tian","avatar":"https://res.cloudinary.com/practicaldev/image/fetch/s--a5qDZLv3--/c_fill,f_auto,fl_progressive,h_640,q_auto,w_640/https://dev-to-uploads.s3.amazonaws.com/uploads/user/profile_image/318420/3bfd2d99-430c-4049-8dd5-e2adc961e1e0.png"},"social":{"devto":{"username":"jefftian"},"twitter":{"username":"zizhujy"},"github":{"username":"Jeff-Tian"}}}}},"menus":{}}},"staticQueryHashes":[],"slicesMap":{}}