{"componentChunkName":"component---src-templates-home-js","path":"/156/","result":{"data":{"allMarkdownRemark":{"edges":[{"node":{"excerpt":"","id":"df8ea8cf-59e0-527d-80ce-3981e8884471","frontmatter":{"title":"博客 Ping 地址大全","template":"post","has_more_link":null,"more_link_text":null,"excerpt":"","canonical_url":"https://be-net.azurewebsites.net/post/2009/11/18/博客-Ping-地址大全","date":"2009-11-18 14:29:07","img_path":null,"positive_reactions_count":0,"stackbit_url_path":"posts/博客-Ping-地址大全"}}},{"node":{"excerpt":"","id":"6a0fbe3e-b62f-5ee2-8004-f457db113456","frontmatter":{"title":"怎样在QQ空间里添加友情链接模块？","template":"post","has_more_link":null,"more_link_text":null,"excerpt":"","canonical_url":"https://be-net.azurewebsites.net/post/2009/11/18/怎样在QQ空间里添加友情链接模块？","date":"2009-11-18 13:34:30","img_path":null,"positive_reactions_count":0,"stackbit_url_path":"posts/怎样在QQ空间里添加友情链接模块？"}}},{"node":{"excerpt":"","id":"00a2e633-5e47-55be-920c-44e40b29e58a","frontmatter":{"title":"如何查看HTTP响应报文","template":"post","has_more_link":null,"more_link_text":null,"excerpt":"","canonical_url":"https://be-net.azurewebsites.net/post/2009/11/18/如何查看HTTP响应报文","date":"2009-11-18 11:45:11","img_path":null,"positive_reactions_count":0,"stackbit_url_path":"posts/如何查看HTTP响应报文"}}},{"node":{"excerpt":"","id":"a5d7d802-2bd6-542c-b26e-c80e8d010433","frontmatter":{"title":"图片版RSS新闻源","template":"post","has_more_link":null,"more_link_text":null,"excerpt":"","canonical_url":"https://be-net.azurewebsites.net/post/2009/11/17/图片版RSS新闻源","date":"2009-11-17 16:55:03","img_path":null,"positive_reactions_count":0,"stackbit_url_path":"posts/图片版RSS新闻源"}}},{"node":{"excerpt":"'#* Using ../inc/adovbs.inc *#\nClass CError\nPublic Number\nPublic Description\nPublic Source End Class Class CDatabase\n' 数据库连接对象\nPublic oConn…","id":"1883207d-ff5d-5c61-97aa-a5e885d299c0","frontmatter":{"title":"ASP 操作数据库的一个数据库类文件 CDatabase.asp","template":"post","has_more_link":null,"more_link_text":null,"excerpt":"","canonical_url":"https://be-net.azurewebsites.net/post/2009/11/16/ASP-操作数据库的一个数据库类文件-CDatabaseasp","date":"2009-11-16 15:59:46","img_path":null,"positive_reactions_count":0,"stackbit_url_path":"posts/ASP-操作数据库的一个数据库类文件-CDatabaseasp"}}}]}},"pageContext":{"limit":5,"skip":775,"totalPages":159,"totalItems":793,"currentPage":156,"frontmatter":{"canonical_url":null,"comments_count":null,"title":"Home","template":"home","more_link_text":"Keep reading / 查看全部","date":null,"excerpt":"Jeff Tian's homepage","has_more_link":true},"url":"/","relativePath":"/","base":"","site":{"siteMetadata":{"title":"Jeff Tian","author":"@zizhujy","description":"A wild full stack developer","palette":"yellow","header":{"title":"Jeff Tian","tagline":"A wild developer","logo_img":"https://images.ctfassets.net/qixg1o8tujmf/7z1ua3nTOC5B7DwwzAki8I/4e1a05f8db770c285a492eeb1eaa398f/imageedit_3_2509022194.png","background_img":"https://images.ctfassets.net/qixg1o8tujmf/7m0jrKYaDBwEvlc5lo8nt6/6d50a5050d9cdc0d4d2047e35feac292/10648733_696750647079056_2800539603462658695_o.jpg","has_nav":true,"nav_links":[{"label":"Home","url":"/","style":"link","type":"action"},{"label":"About","url":"/about","style":"link","type":"action"},{"label":"关于","url":"https://ggyy.pa-pa.me/about","style":"link","icon_class":"lorem-ipsum","new_window":true,"type":"action"},{"label":"Contact","url":"/contact","style":"link","type":"action"},{"label":"Support Me","url":"/support-me","style":"link","type":"action"},{"label":"叽叽歪歪","url":"https://ggyy.pa-pa.me/","style":"link","icon_class":"lorem-ipsum","new_window":true,"type":"action"}],"has_social":true,"social_links":[{"label":"Twitter","url":"https://twitter.com/zizhujy","style":"icon","icon_class":"fa-twitter","new_window":true,"type":"action"},{"label":"Instagram","url":"https://www.instagram.com/jefftian5","style":"icon","icon_class":"fa-instagram","new_window":true,"type":"action"},{"label":"GitHub","url":"https://github.com/jeff-tian","style":"icon","icon_class":"fa-github","new_window":true,"type":"action"},{"label":"LinkedIn","url":"https://www.linkedin.com/jeff~tian","style":"icon","icon_class":"fa-linkedin","new_window":true,"type":"action"},{"label":"DEV","url":"https://dev.to/jefftian","style":"icon","icon_class":"fa-dev","new_window":true,"type":"action"},{"label":"知乎","url":"https://www.zhihu.com/people/jefftian","style":"icon","icon_class":"fa-zhihu","new_window":true,"type":"action"}],"type":"header"},"footer":{"content":"&copy; All rights reserved.","links":[{"label":"Made with Stackbit.","url":"https://www.stackbit.com","style":"link","new_window":true,"type":"action"},{"label":"紫竹叽歪","url":"https://zizhujy.apphb.com","style":"link","icon_class":"http://zizhujy.apphb.com/Content/Images/logo.png","new_window":true,"type":"action"}],"type":"footer"}},"pathPrefix":"","data":{"data":{"author":{"name":"Jeff Tian","avatar":"https://res.cloudinary.com/practicaldev/image/fetch/s--a5qDZLv3--/c_fill,f_auto,fl_progressive,h_640,q_auto,w_640/https://dev-to-uploads.s3.amazonaws.com/uploads/user/profile_image/318420/3bfd2d99-430c-4049-8dd5-e2adc961e1e0.png"},"social":{"devto":{"username":"jefftian"},"twitter":{"username":"zizhujy"},"github":{"username":"Jeff-Tian"}}}}}}},"staticQueryHashes":[],"slicesMap":{}}