{"componentChunkName":"component---src-templates-home-js","path":"/134","result":{"data":{"allMarkdownRemark":{"edges":[{"node":{"excerpt":"","id":"55bc6270-7264-5419-905d-23398cce0866","frontmatter":{"title":"《ASP.NET 3.5 入门》第 2 章 练习","template":"post","has_more_link":null,"more_link_text":null,"excerpt":"","canonical_url":"https://be-net.azurewebsites.net/post/2010/02/26/《ASPNET-35-入门》第-2-章-练习","date":"2010-02-26 06:44:26","img_path":null,"positive_reactions_count":0,"stackbit_url_path":"posts/《ASPNET-35-入门》第-2-章-练习"}}},{"node":{"excerpt":"","id":"b6b14846-0464-5857-a819-c8016c4fbc7c","frontmatter":{"title":"《ASP.NET 3.5 入门》第 1 章 练习","template":"post","has_more_link":null,"more_link_text":null,"excerpt":"","canonical_url":"https://be-net.azurewebsites.net/post/2010/02/26/《ASPNET-35-入门》第-1-章-练习","date":"2010-02-26 03:28:06","img_path":null,"positive_reactions_count":0,"stackbit_url_path":"posts/《ASPNET-35-入门》第-1-章-练习"}}},{"node":{"excerpt":"","id":"06e0e82b-338c-590e-bc4e-a52f34303f84","frontmatter":{"title":"李敖对信用卡的看法，一针见血","template":"post","has_more_link":null,"more_link_text":null,"excerpt":"","canonical_url":"https://be-net.azurewebsites.net/post/2010/02/25/李敖对信用卡的看法，一针见血","date":"2010-02-25 06:42:56","img_path":null,"positive_reactions_count":0,"stackbit_url_path":"posts/李敖对信用卡的看法，一针见血"}}},{"node":{"excerpt":"","id":"abf99f73-b23c-5415-897e-ea0ba98428eb","frontmatter":{"title":"落选的不好","template":"post","has_more_link":null,"more_link_text":null,"excerpt":"","canonical_url":"https://be-net.azurewebsites.net/post/2010/02/25/落选的不好","date":"2010-02-25 06:03:27","img_path":null,"positive_reactions_count":0,"stackbit_url_path":"posts/落选的不好"}}},{"node":{"excerpt":"","id":"3011623c-12b9-5189-8682-2fe00fd90b35","frontmatter":{"title":"李敖的祸福观——强者哲学","template":"post","has_more_link":null,"more_link_text":null,"excerpt":"","canonical_url":"https://be-net.azurewebsites.net/post/2010/02/24/李敖的祸福观——强者哲学","date":"2010-02-24 14:42:46","img_path":null,"positive_reactions_count":0,"stackbit_url_path":"posts/李敖的祸福观——强者哲学"}}}]}},"pageContext":{"limit":5,"skip":665,"totalPages":169,"totalItems":842,"currentPage":134,"frontmatter":{"canonical_url":null,"comments_count":null,"title":"Home","template":"home","more_link_text":"Keep reading / 查看全部","date":null,"excerpt":"Jeff Tian's homepage","has_more_link":true},"url":"/","relativePath":"/","base":"","site":{"siteMetadata":{"title":"Jeff Tian","description":"A wild full stack developer","palette":"yellow","header":{"title":"Jeff Tian","tagline":"A wild developer","logo_img":"https://images.ctfassets.net/qixg1o8tujmf/7z1ua3nTOC5B7DwwzAki8I/4e1a05f8db770c285a492eeb1eaa398f/imageedit_3_2509022194.png","background_img":"https://images.ctfassets.net/qixg1o8tujmf/7m0jrKYaDBwEvlc5lo8nt6/6d50a5050d9cdc0d4d2047e35feac292/10648733_696750647079056_2800539603462658695_o.jpg","has_nav":true,"nav_links":[{"label":"Home","url":"/","style":"link","type":"action"},{"label":"About","url":"/about","style":"link","type":"action"},{"label":"关于","url":"https://ggyy.pa-pa.me/about","style":"link","icon_class":"lorem-ipsum","new_window":true,"type":"action"},{"label":"Contact","url":"/contact","style":"link","type":"action"},{"label":"Support Me","url":"/support-me","style":"link","type":"action"},{"label":"叽叽歪歪","url":"https://ggyy.pa-pa.me/","style":"link","icon_class":"lorem-ipsum","new_window":true,"type":"action"}],"has_social":true,"social_links":[{"label":"Twitter","url":"https://twitter.com/zizhujy","style":"icon","icon_class":"fa-twitter","new_window":true,"type":"action"},{"label":"Instagram","url":"https://www.instagram.com/jefftian5","style":"icon","icon_class":"fa-instagram","new_window":true,"type":"action"},{"label":"GitHub","url":"https://github.com/jeff-tian","style":"icon","icon_class":"fa-github","new_window":true,"type":"action"},{"label":"LinkedIn","url":"https://www.linkedin.com/jeff~tian","style":"icon","icon_class":"fa-linkedin","new_window":true,"type":"action"},{"label":"DEV","url":"https://dev.to/jefftian","style":"icon","icon_class":"fa-dev","new_window":true,"type":"action"},{"label":"知乎","url":"https://www.zhihu.com/people/jefftian","style":"icon","icon_class":"fa-zhihu","new_window":true,"type":"action"}],"type":"header"},"footer":{"content":"&copy; All rights reserved.","links":[{"label":"本站源码","url":"https://github.com/Jeff-Tian/space","style":"link","icon_class":"fa-github","new_window":true,"type":"action"},{"label":"紫竹叽歪","url":"https://zizhujy.apphb.com","style":"link","icon_class":"http://zizhujy.apphb.com/Content/Images/logo.png","new_window":true,"type":"action"}],"type":"footer"}},"pathPrefix":"","data":{"data":{"author":{"name":"Jeff Tian","avatar":"https://res.cloudinary.com/practicaldev/image/fetch/s--a5qDZLv3--/c_fill,f_auto,fl_progressive,h_640,q_auto,w_640/https://dev-to-uploads.s3.amazonaws.com/uploads/user/profile_image/318420/3bfd2d99-430c-4049-8dd5-e2adc961e1e0.png"},"social":{"devto":{"username":"jefftian"},"twitter":{"username":"zizhujy"},"github":{"username":"Jeff-Tian"}}}}},"menus":{}}},"staticQueryHashes":[]}