{"componentChunkName":"component---src-templates-home-js","path":"/91/","result":{"data":{"allMarkdownRemark":{"edges":[{"node":{"excerpt":"","id":"ea512f1e-5ed9-5174-aafd-38362bfe163c","frontmatter":{"title":"二十自述诗序","template":"post","has_more_link":null,"more_link_text":null,"excerpt":"","canonical_url":"https://be-net.azurewebsites.net/post/2010/04/15/二十自述诗序","date":"2010-04-15 08:51:19","img_path":null,"positive_reactions_count":0,"stackbit_url_path":"posts/二十自述诗序"}}},{"node":{"excerpt":"blogContent = distillSubString(parentString, \"<div id=\"\"post-body\"\">\", \"</div><!--博文结束注释-->\")","id":"73fb1213-fcf2-53c4-8666-2d76c5b59f40","frontmatter":{"title":"提取子字符串","template":"post","has_more_link":null,"more_link_text":null,"excerpt":"","canonical_url":"https://be-net.azurewebsites.net/post/2010/04/15/提取子字符串","date":"2010-04-15 04:35:47","img_path":null,"positive_reactions_count":0,"stackbit_url_path":"posts/提取子字符串"}}},{"node":{"excerpt":"","id":"91388dd2-849d-5d7c-b193-6f63f280b2c1","frontmatter":{"title":"在Excel中计算日期对应的星期","template":"post","has_more_link":null,"more_link_text":null,"excerpt":"","canonical_url":"https://be-net.azurewebsites.net/post/2010/04/13/在Excel中计算日期对应的星期","date":"2010-04-13 08:53:46","img_path":null,"positive_reactions_count":0,"stackbit_url_path":"posts/在Excel中计算日期对应的星期"}}},{"node":{"excerpt":"CREATE VIEW HumanResources.Managers\nAS\nSELECT he.*\nFROM\nHumanResources.Employee he\nWHERE\nhe.EmployeeID IN (\nSELECT DISTINCT ManagerID\nFROM…","id":"8856e52a-6ad4-5c4b-9f5b-2859cc46fa5d","frontmatter":{"title":"SQL Server 2008 编程入门经典 第10章练习","template":"post","has_more_link":null,"more_link_text":null,"excerpt":"","canonical_url":"https://be-net.azurewebsites.net/post/2010/04/13/SQL-Server-2008-编程入门经典-第10章练习","date":"2010-04-13 07:01:50","img_path":null,"positive_reactions_count":0,"stackbit_url_path":"posts/SQL-Server-2008-编程入门经典-第10章练习"}}},{"node":{"excerpt":"CREATE VIEW PortlandAreaAddresses_vw\nAS\nSELECT AddressID,\nAddressLine1,\nCity,\nStateProvinceID,\nPostalCode,\nModifiedDate\nFROM\nPerson.Address…","id":"61f40d6d-f54c-509d-bac7-bf4eb77881ea","frontmatter":{"title":"SQL 的一些语法规则","template":"post","has_more_link":null,"more_link_text":null,"excerpt":"","canonical_url":"https://be-net.azurewebsites.net/post/2010/04/13/SQL-的一些语法规则","date":"2010-04-13 06:29:47","img_path":null,"positive_reactions_count":0,"stackbit_url_path":"posts/SQL-的一些语法规则"}}}]}},"pageContext":{"limit":5,"skip":450,"totalPages":159,"totalItems":793,"currentPage":91,"frontmatter":{"canonical_url":null,"comments_count":null,"title":"Home","template":"home","more_link_text":"Keep reading / 查看全部","date":null,"excerpt":"Jeff Tian's homepage","has_more_link":true},"url":"/","relativePath":"/","base":"","site":{"siteMetadata":{"title":"Jeff Tian","author":"@zizhujy","description":"A wild full stack developer","palette":"yellow","header":{"title":"Jeff Tian","tagline":"A wild developer","logo_img":"https://images.ctfassets.net/qixg1o8tujmf/7z1ua3nTOC5B7DwwzAki8I/4e1a05f8db770c285a492eeb1eaa398f/imageedit_3_2509022194.png","background_img":"https://images.ctfassets.net/qixg1o8tujmf/7m0jrKYaDBwEvlc5lo8nt6/6d50a5050d9cdc0d4d2047e35feac292/10648733_696750647079056_2800539603462658695_o.jpg","has_nav":true,"nav_links":[{"label":"Home","url":"/","style":"link","type":"action"},{"label":"About","url":"/about","style":"link","type":"action"},{"label":"关于","url":"https://ggyy.pa-pa.me/about","style":"link","icon_class":"lorem-ipsum","new_window":true,"type":"action"},{"label":"Contact","url":"/contact","style":"link","type":"action"},{"label":"Support Me","url":"/support-me","style":"link","type":"action"},{"label":"叽叽歪歪","url":"https://ggyy.pa-pa.me/","style":"link","icon_class":"lorem-ipsum","new_window":true,"type":"action"}],"has_social":true,"social_links":[{"label":"Twitter","url":"https://twitter.com/zizhujy","style":"icon","icon_class":"fa-twitter","new_window":true,"type":"action"},{"label":"Instagram","url":"https://www.instagram.com/jefftian5","style":"icon","icon_class":"fa-instagram","new_window":true,"type":"action"},{"label":"GitHub","url":"https://github.com/jeff-tian","style":"icon","icon_class":"fa-github","new_window":true,"type":"action"},{"label":"LinkedIn","url":"https://www.linkedin.com/jeff~tian","style":"icon","icon_class":"fa-linkedin","new_window":true,"type":"action"},{"label":"DEV","url":"https://dev.to/jefftian","style":"icon","icon_class":"fa-dev","new_window":true,"type":"action"},{"label":"知乎","url":"https://www.zhihu.com/people/jefftian","style":"icon","icon_class":"fa-zhihu","new_window":true,"type":"action"}],"type":"header"},"footer":{"content":"&copy; All rights reserved.","links":[{"label":"Made with Stackbit.","url":"https://www.stackbit.com","style":"link","new_window":true,"type":"action"},{"label":"紫竹叽歪","url":"https://zizhujy.apphb.com","style":"link","icon_class":"http://zizhujy.apphb.com/Content/Images/logo.png","new_window":true,"type":"action"}],"type":"footer"}},"pathPrefix":"","data":{"data":{"author":{"name":"Jeff Tian","avatar":"https://res.cloudinary.com/practicaldev/image/fetch/s--a5qDZLv3--/c_fill,f_auto,fl_progressive,h_640,q_auto,w_640/https://dev-to-uploads.s3.amazonaws.com/uploads/user/profile_image/318420/3bfd2d99-430c-4049-8dd5-e2adc961e1e0.png"},"social":{"devto":{"username":"jefftian"},"twitter":{"username":"zizhujy"},"github":{"username":"Jeff-Tian"}}}}},"menus":{}}},"staticQueryHashes":[],"slicesMap":{}}