{"componentChunkName":"component---src-templates-home-js","path":"/81/","result":{"data":{"allMarkdownRemark":{"edges":[{"node":{"excerpt":"/// <summary>\n/// StringTokenizer. A String Tokenizer that accepts Strings as source and delimiter. Only 1 delimiter is supported (either…","id":"0352b849-1128-5a7d-9da5-dc5b344f9c27","frontmatter":{"title":"C# 中的 StringTokenizer 类","template":"post","has_more_link":null,"more_link_text":null,"excerpt":"","canonical_url":"https://be-net.azurewebsites.net/post/2010/06/01/C-中的-StringTokenizer-类","date":"2010-06-01 11:30:34","img_path":null,"positive_reactions_count":0,"stackbit_url_path":"posts/C-中的-StringTokenizer-类"}}},{"node":{"excerpt":"","id":"17758a4b-4b9d-5fcb-9dd2-5816f97c115f","frontmatter":{"title":"You have specified that your delete command compares all values on SqlDataSource \"SqlDataSource_Holiday\", but the dictionary passed in for values is empty.  Pass in a valid dictionary for delete or change your mode to OverwriteChanges.","template":"post","has_more_link":null,"more_link_text":null,"excerpt":"","canonical_url":"https://be-net.azurewebsites.net/post/2010/05/31/You-have-specified-that-your-delete-command-compares-all-values-on-SqlDataSource-SqlDataSource_Holiday-but-the-dictionary-passed-in-for-values-is-empty-Pass-in-a-valid-dictionary-for-delete-or-change-your-mode-to-OverwriteChanges","date":"2010-05-31 02:59:14","img_path":null,"positive_reactions_count":0,"stackbit_url_path":"posts/You-have-specified-that-your-delete-command-compares-all-values-on-SqlDataSource-SqlDataSource_Holiday-but-the-dictionary-passed-in-for-values-is-empty-Pass-in-a-valid-dictionary-for-delete-or-change-your-mode-to-OverwriteChanges"}}},{"node":{"excerpt":"/** A simple mail client with a GUI for sending mail. @author 涂鸦 */\npublic class MailClient extends Frame {\nprivate Button btSend = new…","id":"258f89c0-b7b3-5e46-bc0e-bfd0c5c53147","frontmatter":{"title":"使用Java编写一个邮件发信客户端","template":"post","has_more_link":null,"more_link_text":null,"excerpt":"","canonical_url":"https://be-net.azurewebsites.net/post/2010/05/26/使用Java编写一个邮件发信客户端","date":"2010-05-26 01:57:49","img_path":null,"positive_reactions_count":0,"stackbit_url_path":"posts/使用Java编写一个邮件发信客户端"}}},{"node":{"excerpt":"","id":"51917eb0-d6b7-5b74-a782-75aa3b88cc22","frontmatter":{"title":"苏武慢","template":"post","has_more_link":null,"more_link_text":null,"excerpt":"","canonical_url":"https://be-net.azurewebsites.net/post/2010/05/25/苏武慢","date":"2010-05-25 14:01:43","img_path":null,"positive_reactions_count":0,"stackbit_url_path":"posts/苏武慢"}}},{"node":{"excerpt":"","id":"86450a60-807b-54dc-9d6c-8d3f3100b81d","frontmatter":{"title":"临江仙","template":"post","has_more_link":null,"more_link_text":null,"excerpt":"","canonical_url":"https://be-net.azurewebsites.net/post/2010/05/25/临江仙","date":"2010-05-25 13:50:38","img_path":null,"positive_reactions_count":0,"stackbit_url_path":"posts/临江仙"}}}]}},"pageContext":{"limit":5,"skip":400,"totalPages":159,"totalItems":793,"currentPage":81,"frontmatter":{"canonical_url":null,"comments_count":null,"title":"Home","template":"home","more_link_text":"Keep reading / 查看全部","date":null,"excerpt":"Jeff Tian's homepage","has_more_link":true},"url":"/","relativePath":"/","base":"","site":{"siteMetadata":{"title":"Jeff Tian","author":"@zizhujy","description":"A wild full stack developer","palette":"yellow","header":{"title":"Jeff Tian","tagline":"A wild developer","logo_img":"https://images.ctfassets.net/qixg1o8tujmf/7z1ua3nTOC5B7DwwzAki8I/4e1a05f8db770c285a492eeb1eaa398f/imageedit_3_2509022194.png","background_img":"https://images.ctfassets.net/qixg1o8tujmf/7m0jrKYaDBwEvlc5lo8nt6/6d50a5050d9cdc0d4d2047e35feac292/10648733_696750647079056_2800539603462658695_o.jpg","has_nav":true,"nav_links":[{"label":"Home","url":"/","style":"link","type":"action"},{"label":"About","url":"/about","style":"link","type":"action"},{"label":"关于","url":"https://ggyy.pa-pa.me/about","style":"link","icon_class":"lorem-ipsum","new_window":true,"type":"action"},{"label":"Contact","url":"/contact","style":"link","type":"action"},{"label":"Support Me","url":"/support-me","style":"link","type":"action"},{"label":"叽叽歪歪","url":"https://ggyy.pa-pa.me/","style":"link","icon_class":"lorem-ipsum","new_window":true,"type":"action"}],"has_social":true,"social_links":[{"label":"Twitter","url":"https://twitter.com/zizhujy","style":"icon","icon_class":"fa-twitter","new_window":true,"type":"action"},{"label":"Instagram","url":"https://www.instagram.com/jefftian5","style":"icon","icon_class":"fa-instagram","new_window":true,"type":"action"},{"label":"GitHub","url":"https://github.com/jeff-tian","style":"icon","icon_class":"fa-github","new_window":true,"type":"action"},{"label":"LinkedIn","url":"https://www.linkedin.com/jeff~tian","style":"icon","icon_class":"fa-linkedin","new_window":true,"type":"action"},{"label":"DEV","url":"https://dev.to/jefftian","style":"icon","icon_class":"fa-dev","new_window":true,"type":"action"},{"label":"知乎","url":"https://www.zhihu.com/people/jefftian","style":"icon","icon_class":"fa-zhihu","new_window":true,"type":"action"}],"type":"header"},"footer":{"content":"&copy; All rights reserved.","links":[{"label":"Made with Stackbit.","url":"https://www.stackbit.com","style":"link","new_window":true,"type":"action"},{"label":"紫竹叽歪","url":"https://zizhujy.apphb.com","style":"link","icon_class":"http://zizhujy.apphb.com/Content/Images/logo.png","new_window":true,"type":"action"}],"type":"footer"}},"pathPrefix":"","data":{"data":{"author":{"name":"Jeff Tian","avatar":"https://res.cloudinary.com/practicaldev/image/fetch/s--a5qDZLv3--/c_fill,f_auto,fl_progressive,h_640,q_auto,w_640/https://dev-to-uploads.s3.amazonaws.com/uploads/user/profile_image/318420/3bfd2d99-430c-4049-8dd5-e2adc961e1e0.png"},"social":{"devto":{"username":"jefftian"},"twitter":{"username":"zizhujy"},"github":{"username":"Jeff-Tian"}}}}},"menus":{}}},"staticQueryHashes":[],"slicesMap":{}}