{"componentChunkName":"component---src-templates-home-js","path":"/47/","result":{"data":{"allMarkdownRemark":{"edges":[{"node":{"excerpt":"","id":"f0ef6307-343a-59aa-aeb6-30470b654bbd","frontmatter":{"title":"I found a bug of http://www.wolframalpha.com today","template":"post","has_more_link":null,"more_link_text":null,"excerpt":"","canonical_url":"https://be-net.azurewebsites.net/post/2012/01/31/I-found-a-bug-of-httpwwwwolframalphacom-today","date":"2012-01-31 06:52:31.3397758","img_path":null,"positive_reactions_count":0,"stackbit_url_path":"posts/I-found-a-bug-of-httpwwwwolframalphacom-today"}}},{"node":{"excerpt":"namespace MsBin1Plugin\r\n{\r\npublic class MsBin1Editor : WebTestRequestPlugin\r\n{\r\npublic override void PreRequest(object sender…","id":"c6b203b2-415f-5d88-9c5c-214e0931ce64","frontmatter":{"title":"A base request plugin for soap+msbin1 encoded service","template":"post","has_more_link":null,"more_link_text":null,"excerpt":"","canonical_url":"https://be-net.azurewebsites.net/post/2012/01/29/A-base-request-plugin-for-soap-msbin1-encoded-service","date":"2012-01-29 03:56:00","img_path":null,"positive_reactions_count":0,"stackbit_url_path":"posts/A-base-request-plugin-for-soap-msbin1-encoded-service"}}},{"node":{"excerpt":"","id":"886e7cdc-06e6-5e60-9d10-7ac7976ff2a6","frontmatter":{"title":"识别幂函数输入的正则表达式（二）","template":"post","has_more_link":null,"more_link_text":null,"excerpt":"","canonical_url":"https://be-net.azurewebsites.net/post/2012/01/28/识别幂函数输入的正则表达式（二）","date":"2012-01-28 04:45:56.3968906","img_path":null,"positive_reactions_count":0,"stackbit_url_path":"posts/识别幂函数输入的正则表达式（二）"}}},{"node":{"excerpt":"","id":"d56ec226-36d1-5fc2-8ca6-cb6ed51d5724","frontmatter":{"title":"识别幂函数输入的正则表达式","template":"post","has_more_link":null,"more_link_text":null,"excerpt":"","canonical_url":"https://be-net.azurewebsites.net/post/2012/01/28/识别幂函数输入的正则表达式","date":"2012-01-28 01:41:38.0705782","img_path":null,"positive_reactions_count":0,"stackbit_url_path":"posts/识别幂函数输入的正则表达式"}}},{"node":{"excerpt":"","id":"857a6bf9-7085-5d6d-8d7e-e8bc28c853ea","frontmatter":{"title":"实用的出纳Excel表格","template":"post","has_more_link":null,"more_link_text":null,"excerpt":"","canonical_url":"https://be-net.azurewebsites.net/post/2012/01/15/实用的出纳Excel表格","date":"2012-01-15 06:52:00","img_path":null,"positive_reactions_count":0,"stackbit_url_path":"posts/实用的出纳Excel表格"}}}]}},"pageContext":{"limit":5,"skip":230,"totalPages":159,"totalItems":793,"currentPage":47,"frontmatter":{"canonical_url":null,"comments_count":null,"title":"Home","template":"home","more_link_text":"Keep reading / 查看全部","date":null,"excerpt":"Jeff Tian's homepage","has_more_link":true},"url":"/","relativePath":"/","base":"","site":{"siteMetadata":{"title":"Jeff Tian","author":"@zizhujy","description":"A wild full stack developer","palette":"yellow","header":{"title":"Jeff Tian","tagline":"A wild developer","logo_img":"https://images.ctfassets.net/qixg1o8tujmf/7z1ua3nTOC5B7DwwzAki8I/4e1a05f8db770c285a492eeb1eaa398f/imageedit_3_2509022194.png","background_img":"https://images.ctfassets.net/qixg1o8tujmf/7m0jrKYaDBwEvlc5lo8nt6/6d50a5050d9cdc0d4d2047e35feac292/10648733_696750647079056_2800539603462658695_o.jpg","has_nav":true,"nav_links":[{"label":"Home","url":"/","style":"link","type":"action"},{"label":"About","url":"/about","style":"link","type":"action"},{"label":"关于","url":"https://ggyy.pa-pa.me/about","style":"link","icon_class":"lorem-ipsum","new_window":true,"type":"action"},{"label":"Contact","url":"/contact","style":"link","type":"action"},{"label":"Support Me","url":"/support-me","style":"link","type":"action"},{"label":"叽叽歪歪","url":"https://ggyy.pa-pa.me/","style":"link","icon_class":"lorem-ipsum","new_window":true,"type":"action"}],"has_social":true,"social_links":[{"label":"Twitter","url":"https://twitter.com/zizhujy","style":"icon","icon_class":"fa-twitter","new_window":true,"type":"action"},{"label":"Instagram","url":"https://www.instagram.com/jefftian5","style":"icon","icon_class":"fa-instagram","new_window":true,"type":"action"},{"label":"GitHub","url":"https://github.com/jeff-tian","style":"icon","icon_class":"fa-github","new_window":true,"type":"action"},{"label":"LinkedIn","url":"https://www.linkedin.com/jeff~tian","style":"icon","icon_class":"fa-linkedin","new_window":true,"type":"action"},{"label":"DEV","url":"https://dev.to/jefftian","style":"icon","icon_class":"fa-dev","new_window":true,"type":"action"},{"label":"知乎","url":"https://www.zhihu.com/people/jefftian","style":"icon","icon_class":"fa-zhihu","new_window":true,"type":"action"}],"type":"header"},"footer":{"content":"&copy; All rights reserved.","links":[{"label":"Made with Stackbit.","url":"https://www.stackbit.com","style":"link","new_window":true,"type":"action"},{"label":"紫竹叽歪","url":"https://zizhujy.apphb.com","style":"link","icon_class":"http://zizhujy.apphb.com/Content/Images/logo.png","new_window":true,"type":"action"}],"type":"footer"}},"pathPrefix":"","data":{"data":{"author":{"name":"Jeff Tian","avatar":"https://res.cloudinary.com/practicaldev/image/fetch/s--a5qDZLv3--/c_fill,f_auto,fl_progressive,h_640,q_auto,w_640/https://dev-to-uploads.s3.amazonaws.com/uploads/user/profile_image/318420/3bfd2d99-430c-4049-8dd5-e2adc961e1e0.png"},"social":{"devto":{"username":"jefftian"},"twitter":{"username":"zizhujy"},"github":{"username":"Jeff-Tian"}}}}},"menus":{}}},"staticQueryHashes":[],"slicesMap":{}}