{"componentChunkName":"component---src-templates-home-js","path":"/123","result":{"data":{"allMarkdownRemark":{"edges":[{"node":{"excerpt":"table tr {\nborder: solid 1px black;\n} table tr td {\nborder-top: solid 1px black;\nborder-bottom: solid 1px black;\n}\n -->","id":"72257796-8ed2-5905-8203-82f28efe1f5c","frontmatter":{"title":"IE 7 不支持 tr 元素的 border 属性","template":"post","has_more_link":null,"more_link_text":null,"excerpt":"","canonical_url":"https://be-net.azurewebsites.net/post/2010/01/19/IE-7-不支持-tr-元素的-border-属性","date":"2010-01-19 09:50:14","img_path":null,"positive_reactions_count":0,"stackbit_url_path":"posts/IE-7-不支持-tr-元素的-border-属性"}}},{"node":{"excerpt":"","id":"12b5ec49-de2f-5256-a53b-850af7aa2b9b","frontmatter":{"title":"怎样用 Photoshop 画三角形与直角三角形","template":"post","has_more_link":null,"more_link_text":null,"excerpt":"","canonical_url":"https://be-net.azurewebsites.net/post/2010/01/19/怎样用-Photoshop-画三角形与直角三角形","date":"2010-01-19 08:48:45","img_path":null,"positive_reactions_count":0,"stackbit_url_path":"posts/怎样用-Photoshop-画三角形与直角三角形"}}},{"node":{"excerpt":"","id":"7ecdb9dd-fb2d-595a-9b89-f25afc3ce541","frontmatter":{"title":"CSS width 属性的最大值","template":"post","has_more_link":null,"more_link_text":null,"excerpt":"","canonical_url":"https://be-net.azurewebsites.net/post/2010/01/18/CSS-width-属性的最大值","date":"2010-01-18 15:32:19","img_path":null,"positive_reactions_count":0,"stackbit_url_path":"posts/CSS-width-属性的最大值"}}},{"node":{"excerpt":"","id":"b8e5ed3f-c647-5f22-8bc4-55e6bec4abcf","frontmatter":{"title":"原来还可以这样防止客户端缓存文件","template":"post","has_more_link":null,"more_link_text":null,"excerpt":"","canonical_url":"https://be-net.azurewebsites.net/post/2010/01/18/原来还可以这样防止客户端缓存文件","date":"2010-01-18 14:59:09","img_path":null,"positive_reactions_count":0,"stackbit_url_path":"posts/原来还可以这样防止客户端缓存文件"}}},{"node":{"excerpt":"","id":"905d70a7-f3a8-50f8-a8a5-6ba14202e3db","frontmatter":{"title":"喝酸奶五大好处","template":"post","has_more_link":null,"more_link_text":null,"excerpt":"","canonical_url":"https://be-net.azurewebsites.net/post/2010/01/18/喝酸奶五大好处","date":"2010-01-18 05:26:50","img_path":null,"positive_reactions_count":0,"stackbit_url_path":"posts/喝酸奶五大好处"}}}]}},"pageContext":{"limit":5,"skip":610,"totalPages":140,"totalItems":699,"currentPage":123,"frontmatter":{"canonical_url":null,"comments_count":null,"title":"Home","template":"home","more_link_text":"Keep reading / 查看全部","date":null,"excerpt":"Jeff Tian's homepage","has_more_link":true},"url":"/","relativePath":"/","base":"","site":{"siteMetadata":{"title":"Jeff Tian","description":"Full Stack Developer, good at OAuth 2.0","palette":"yellow","header":{"title":"Jeff Tian","tagline":"A wild developer","logo_img":"https://images.ctfassets.net/qixg1o8tujmf/7z1ua3nTOC5B7DwwzAki8I/4e1a05f8db770c285a492eeb1eaa398f/imageedit_3_2509022194.png","background_img":"https://images.ctfassets.net/qixg1o8tujmf/7m0jrKYaDBwEvlc5lo8nt6/6d50a5050d9cdc0d4d2047e35feac292/10648733_696750647079056_2800539603462658695_o.jpg","has_nav":true,"nav_links":[{"label":"Home","url":"/","style":"link","type":"action"},{"label":"About","url":"/about","style":"link","type":"action"},{"label":"关于","url":"https://ggyy.pa-pa.me/about","style":"link","icon_class":"lorem-ipsum","new_window":true,"type":"action"},{"label":"Contact","url":"/contact","style":"link","type":"action"},{"label":"Support Me","url":"/support-me","style":"link","type":"action"},{"label":"叽叽歪歪","url":"https://ggyy.pa-pa.me/","style":"link","icon_class":"lorem-ipsum","new_window":true,"type":"action"}],"has_social":true,"social_links":[{"label":"Twitter","url":"https://twitter.com/zizhujy","style":"icon","icon_class":"fa-twitter","new_window":true,"type":"action"},{"label":"Instagram","url":"https://www.instagram.com/jefftian5","style":"icon","icon_class":"fa-instagram","new_window":true,"type":"action"},{"label":"GitHub","url":"https://github.com/jeff-tian","style":"icon","icon_class":"fa-github","new_window":true,"type":"action"},{"label":"LinkedIn","url":"https://www.linkedin.com/jeff~tian","style":"icon","icon_class":"fa-linkedin","new_window":true,"type":"action"},{"label":"DEV","url":"https://dev.to/jefftian","style":"icon","icon_class":"fa-dev","new_window":true,"type":"action"},{"label":"知乎","url":"https://www.zhihu.com/people/jefftian","style":"icon","icon_class":"fa-zhihu","new_window":true,"type":"action"}],"type":"header"},"footer":{"content":"&copy; All rights reserved.","links":[{"label":"本站源码","url":"https://github.com/Jeff-Tian/space","style":"link","icon_class":"fa-github","new_window":true,"type":"action"},{"label":"紫竹叽歪","url":"https://zizhujy.apphb.com","style":"link","icon_class":"http://zizhujy.apphb.com/Content/Images/logo.png","new_window":true,"type":"action"}],"type":"footer"}},"pathPrefix":"","data":{"data":{"author":{"name":"Jeff Tian","avatar":"https://res.cloudinary.com/practicaldev/image/fetch/s--a5qDZLv3--/c_fill,f_auto,fl_progressive,h_640,q_auto,w_640/https://dev-to-uploads.s3.amazonaws.com/uploads/user/profile_image/318420/3bfd2d99-430c-4049-8dd5-e2adc961e1e0.png"},"social":{"devto":{"username":"jefftian"},"twitter":{"username":"zizhujy"},"github":{"username":"Jeff-Tian"}}}}},"menus":{}}},"staticQueryHashes":[]}