{"componentChunkName":"component---src-templates-home-js","path":"/88/","result":{"data":{"allMarkdownRemark":{"edges":[{"node":{"excerpt":"","id":"4fd31348-901f-5153-9bc2-9b4d8a980aa4","frontmatter":{"title":"GDI+ 中发生一般性错误（在 OutputStream 中保存 PNG 格式图像时遇到的问题）","template":"post","has_more_link":null,"more_link_text":null,"excerpt":"本文说明了当尝试在OutputStream中保存PNG格式图像时，会遇到错误；并解释了出现这个错误的原因，以及提供了解决该错误的方法。","canonical_url":"https://be-net.azurewebsites.net/post/2011/07/25/general-error-occured-in-gdiplus-problem-with-saving-png-image-to-outputstream","date":"2011-07-25 07:42:00","img_path":null,"positive_reactions_count":0,"stackbit_url_path":"posts/general-error-occured-in-gdiplus-problem-with-saving-png-image-to-outputstream"}}},{"node":{"excerpt":"","id":"f9dc8e04-6212-5a36-9e1c-0be3ac71212e","frontmatter":{"title":"无语","template":"post","has_more_link":null,"more_link_text":null,"excerpt":"","canonical_url":"https://be-net.azurewebsites.net/post/2011/07/12/dont-know-what-to-say","date":"2011-07-12 17:18:00","img_path":null,"positive_reactions_count":0,"stackbit_url_path":"posts/dont-know-what-to-say"}}},{"node":{"excerpt":"","id":"3b097cc4-a46c-5dde-ba53-db93abfe24a1","frontmatter":{"title":"昨日英语课","template":"post","has_more_link":null,"more_link_text":null,"excerpt":"","canonical_url":"https://be-net.azurewebsites.net/post/2011/07/12/english-course-yesterday","date":"2011-07-12 17:11:00","img_path":null,"positive_reactions_count":0,"stackbit_url_path":"posts/english-course-yesterday"}}},{"node":{"excerpt":"namespace zizhujy.Controllers\r\n{\r\npublic class TestController : Controller\r\n{\r\npublic void AddWatermark()\r\n{\r\nImage originImage = Image…","id":"6efdf7c8-4a9a-5a3d-9364-8ea978fcb2c2","frontmatter":{"title":"给图片添加水印的C#类库","template":"post","has_more_link":null,"more_link_text":null,"excerpt":"本文提供了一个给图片添加水印的C#类库，首先介绍了它的使用方法，其次介绍了该类库的结构，最后公开了它的源代码以及整个项目文件。","canonical_url":"https://be-net.azurewebsites.net/post/2011/07/12/the-csharp-class-library-for-adding-watermark-image","date":"2011-07-12 16:57:00","img_path":null,"positive_reactions_count":0,"stackbit_url_path":"posts/the-csharp-class-library-for-adding-watermark-image"}}},{"node":{"excerpt":"namespace AddWatermark\n{\nclass Program\n{\nstatic void Main(string[] args)\n{\nstring workingDirectory = @\"C:\";\nstring copyright = \"www.zizhujy…","id":"32ac3770-fdd3-52a3-a394-808d8f295fb7","frontmatter":{"title":"使用.NET的GDI+技术给图片加水印","template":"post","has_more_link":null,"more_link_text":null,"excerpt":"本文描述了使用.NET中的C#与GDI+来在图片上添加一个水印层的过程。","canonical_url":"https://be-net.azurewebsites.net/post/2011/07/12/add-watermark-to-image-using-csharp-and-gdiplus","date":"2011-07-12 16:44:00","img_path":null,"positive_reactions_count":0,"stackbit_url_path":"posts/add-watermark-to-image-using-csharp-and-gdiplus"}}}]}},"pageContext":{"limit":5,"skip":435,"totalPages":187,"totalItems":931,"currentPage":88,"frontmatter":{"canonical_url":null,"comments_count":null,"title":"Home","template":"home","more_link_text":"Keep reading / 查看全部","date":null,"excerpt":"Jeff Tian's homepage","has_more_link":true},"url":"/","relativePath":"/","base":"","site":{"siteMetadata":{"title":"Jeff Tian","author":"@zizhujy","description":"A wild full stack developer","palette":"yellow","header":{"title":"Jeff Tian","tagline":"A wild developer","logo_img":"https://images.ctfassets.net/qixg1o8tujmf/7z1ua3nTOC5B7DwwzAki8I/4e1a05f8db770c285a492eeb1eaa398f/imageedit_3_2509022194.png","background_img":"https://images.ctfassets.net/qixg1o8tujmf/7m0jrKYaDBwEvlc5lo8nt6/6d50a5050d9cdc0d4d2047e35feac292/10648733_696750647079056_2800539603462658695_o.jpg","has_nav":true,"nav_links":[{"label":"Home","url":"/","style":"link","type":"action"},{"label":"About","url":"/about","style":"link","type":"action"},{"label":"关于","url":"https://ggyy.pa-pa.me/about","style":"link","icon_class":"lorem-ipsum","new_window":true,"type":"action"},{"label":"Contact","url":"/contact","style":"link","type":"action"},{"label":"Support Me","url":"/support-me","style":"link","type":"action"},{"label":"叽叽歪歪","url":"https://ggyy.pa-pa.me/","style":"link","icon_class":"lorem-ipsum","new_window":true,"type":"action"}],"has_social":true,"social_links":[{"label":"Twitter","url":"https://twitter.com/zizhujy","style":"icon","icon_class":"fa-twitter","new_window":true,"type":"action"},{"label":"Instagram","url":"https://www.instagram.com/jefftian5","style":"icon","icon_class":"fa-instagram","new_window":true,"type":"action"},{"label":"GitHub","url":"https://github.com/jeff-tian","style":"icon","icon_class":"fa-github","new_window":true,"type":"action"},{"label":"LinkedIn","url":"https://www.linkedin.com/jeff~tian","style":"icon","icon_class":"fa-linkedin","new_window":true,"type":"action"},{"label":"DEV","url":"https://dev.to/jefftian","style":"icon","icon_class":"fa-dev","new_window":true,"type":"action"},{"label":"知乎","url":"https://www.zhihu.com/people/jefftian","style":"icon","icon_class":"fa-zhihu","new_window":true,"type":"action"}],"type":"header"},"footer":{"content":"&copy; All rights reserved.","links":[{"label":"Made with Stackbit.","url":"https://www.stackbit.com","style":"link","new_window":true,"type":"action"},{"label":"紫竹叽歪","url":"https://zizhujy.apphb.com","style":"link","icon_class":"http://zizhujy.apphb.com/Content/Images/logo.png","new_window":true,"type":"action"}],"type":"footer"}},"pathPrefix":"","data":{"data":{"author":{"name":"Jeff Tian","avatar":"https://res.cloudinary.com/practicaldev/image/fetch/s--a5qDZLv3--/c_fill,f_auto,fl_progressive,h_640,q_auto,w_640/https://dev-to-uploads.s3.amazonaws.com/uploads/user/profile_image/318420/3bfd2d99-430c-4049-8dd5-e2adc961e1e0.png"},"social":{"devto":{"username":"jefftian"},"twitter":{"username":"zizhujy"},"github":{"username":"Jeff-Tian"}}}}},"menus":{}}},"staticQueryHashes":[],"slicesMap":{}}