{"componentChunkName":"component---src-templates-home-js","path":"/128/","result":{"data":{"allMarkdownRemark":{"edges":[{"node":{"excerpt":"","id":"71bb153a-88d9-517c-bf4f-fde54b46e445","frontmatter":{"title":"百姓，取之不尽、用之不竭","template":"post","has_more_link":null,"more_link_text":null,"excerpt":"","canonical_url":"https://be-net.azurewebsites.net/post/2010/04/01/百姓，取之不尽、用之不竭","date":"2010-04-01 22:58:16","img_path":null,"positive_reactions_count":0,"stackbit_url_path":"posts/百姓，取之不尽、用之不竭"}}},{"node":{"excerpt":"","id":"3fc682ee-39e1-5801-aa83-6e84fa36ed97","frontmatter":{"title":"如何突破屏蔽词的限制","template":"post","has_more_link":null,"more_link_text":null,"excerpt":"","canonical_url":"https://be-net.azurewebsites.net/post/2010/04/01/如何突破屏蔽词的限制","date":"2010-04-01 22:17:39","img_path":null,"positive_reactions_count":0,"stackbit_url_path":"posts/如何突破屏蔽词的限制"}}},{"node":{"excerpt":"","id":"2f904d7a-4354-5c6b-855f-29429572fc95","frontmatter":{"title":"Stay hungry stay foolish","template":"post","has_more_link":null,"more_link_text":null,"excerpt":"","canonical_url":"https://be-net.azurewebsites.net/post/2010/04/01/Stay-hungry-stay-foolish","date":"2010-04-01 22:15:17","img_path":null,"positive_reactions_count":0,"stackbit_url_path":"posts/Stay-hungry-stay-foolish"}}},{"node":{"excerpt":"","id":"71f28ea3-3036-5e49-8599-6882f067470a","frontmatter":{"title":"在Excel中把数字按位分配到相应的单元格","template":"post","has_more_link":null,"more_link_text":null,"excerpt":"","canonical_url":"https://be-net.azurewebsites.net/post/2010/03/31/在Excel中把数字按位分配到相应的单元格","date":"2010-03-31 11:33:56","img_path":null,"positive_reactions_count":0,"stackbit_url_path":"posts/在Excel中把数字按位分配到相应的单元格"}}},{"node":{"excerpt":"","id":"66a2e0f9-7216-5f04-9c99-2dd4ea8e3dee","frontmatter":{"title":"颠倒的生活","template":"post","has_more_link":null,"more_link_text":null,"excerpt":"","canonical_url":"https://be-net.azurewebsites.net/post/2010/03/31/颠倒的生活","date":"2010-03-31 11:05:47","img_path":null,"positive_reactions_count":0,"stackbit_url_path":"posts/颠倒的生活"}}}]}},"pageContext":{"limit":5,"skip":635,"totalPages":187,"totalItems":931,"currentPage":128,"frontmatter":{"canonical_url":null,"comments_count":null,"title":"Home","template":"home","more_link_text":"Keep reading / 查看全部","date":null,"excerpt":"Jeff Tian's homepage","has_more_link":true},"url":"/","relativePath":"/","base":"","site":{"siteMetadata":{"title":"Jeff Tian","author":"@zizhujy","description":"A wild full stack developer","palette":"yellow","header":{"title":"Jeff Tian","tagline":"A wild developer","logo_img":"https://images.ctfassets.net/qixg1o8tujmf/7z1ua3nTOC5B7DwwzAki8I/4e1a05f8db770c285a492eeb1eaa398f/imageedit_3_2509022194.png","background_img":"https://images.ctfassets.net/qixg1o8tujmf/7m0jrKYaDBwEvlc5lo8nt6/6d50a5050d9cdc0d4d2047e35feac292/10648733_696750647079056_2800539603462658695_o.jpg","has_nav":true,"nav_links":[{"label":"Home","url":"/","style":"link","type":"action"},{"label":"About","url":"/about","style":"link","type":"action"},{"label":"关于","url":"https://ggyy.pa-pa.me/about","style":"link","icon_class":"lorem-ipsum","new_window":true,"type":"action"},{"label":"Contact","url":"/contact","style":"link","type":"action"},{"label":"Support Me","url":"/support-me","style":"link","type":"action"},{"label":"叽叽歪歪","url":"https://ggyy.pa-pa.me/","style":"link","icon_class":"lorem-ipsum","new_window":true,"type":"action"}],"has_social":true,"social_links":[{"label":"Twitter","url":"https://twitter.com/zizhujy","style":"icon","icon_class":"fa-twitter","new_window":true,"type":"action"},{"label":"Instagram","url":"https://www.instagram.com/jefftian5","style":"icon","icon_class":"fa-instagram","new_window":true,"type":"action"},{"label":"GitHub","url":"https://github.com/jeff-tian","style":"icon","icon_class":"fa-github","new_window":true,"type":"action"},{"label":"LinkedIn","url":"https://www.linkedin.com/jeff~tian","style":"icon","icon_class":"fa-linkedin","new_window":true,"type":"action"},{"label":"DEV","url":"https://dev.to/jefftian","style":"icon","icon_class":"fa-dev","new_window":true,"type":"action"},{"label":"知乎","url":"https://www.zhihu.com/people/jefftian","style":"icon","icon_class":"fa-zhihu","new_window":true,"type":"action"}],"type":"header"},"footer":{"content":"&copy; All rights reserved.","links":[{"label":"Made with Stackbit.","url":"https://www.stackbit.com","style":"link","new_window":true,"type":"action"},{"label":"紫竹叽歪","url":"https://zizhujy.apphb.com","style":"link","icon_class":"http://zizhujy.apphb.com/Content/Images/logo.png","new_window":true,"type":"action"}],"type":"footer"}},"pathPrefix":"","data":{"data":{"author":{"name":"Jeff Tian","avatar":"https://res.cloudinary.com/practicaldev/image/fetch/s--a5qDZLv3--/c_fill,f_auto,fl_progressive,h_640,q_auto,w_640/https://dev-to-uploads.s3.amazonaws.com/uploads/user/profile_image/318420/3bfd2d99-430c-4049-8dd5-e2adc961e1e0.png"},"social":{"devto":{"username":"jefftian"},"twitter":{"username":"zizhujy"},"github":{"username":"Jeff-Tian"}}}}},"menus":{}}},"staticQueryHashes":[],"slicesMap":{}}