{"componentChunkName":"component---src-templates-home-js","path":"/89/","result":{"data":{"allMarkdownRemark":{"edges":[{"node":{"excerpt":"","id":"a63d495a-b2ce-5c6d-8312-d3d3b96c5538","frontmatter":{"title":"梦·地狱·人间·天堂·梦","template":"post","has_more_link":null,"more_link_text":null,"excerpt":"","canonical_url":"https://be-net.azurewebsites.net/post/2011/07/10/dream-hell-mortalworld-heaven-dream","date":"2011-07-10 12:07:00","img_path":null,"positive_reactions_count":0,"stackbit_url_path":"posts/dream-hell-mortalworld-heaven-dream"}}},{"node":{"excerpt":"","id":"7e54d072-e887-5957-9e83-e808b58b3833","frontmatter":{"title":"纳税的党员有多少？","template":"post","has_more_link":null,"more_link_text":null,"excerpt":"","canonical_url":"https://be-net.azurewebsites.net/post/2011/07/02/纳税的党员有多少？","date":"2011-07-02 06:39:50","img_path":null,"positive_reactions_count":0,"stackbit_url_path":"posts/纳税的党员有多少？"}}},{"node":{"excerpt":"","id":"282232e0-2748-5fb5-9a1e-8c79f8f0bda0","frontmatter":{"title":"拿最少的钱，负最大的责任","template":"post","has_more_link":null,"more_link_text":null,"excerpt":"","canonical_url":"https://be-net.azurewebsites.net/post/2011/06/22/拿最少的钱，负最大的责任","date":"2011-06-22 19:18:13","img_path":null,"positive_reactions_count":0,"stackbit_url_path":"posts/拿最少的钱，负最大的责任"}}},{"node":{"excerpt":"","id":"77200386-9e5f-52fc-9d5f-0bd2c1ec124d","frontmatter":{"title":"道德是狗屎","template":"post","has_more_link":null,"more_link_text":null,"excerpt":"","canonical_url":"https://be-net.azurewebsites.net/post/2011/06/22/道德是狗屎","date":"2011-06-22 08:05:56","img_path":null,"positive_reactions_count":0,"stackbit_url_path":"posts/道德是狗屎"}}},{"node":{"excerpt":"","id":"a738ff62-258e-53ec-b4f3-9991d4d223cd","frontmatter":{"title":"《庄子 盗跖》今译","template":"post","has_more_link":null,"more_link_text":null,"excerpt":"","canonical_url":"https://be-net.azurewebsites.net/post/2011/06/21/《庄子-盗跖》今译","date":"2011-06-21 05:24:05","img_path":null,"positive_reactions_count":0,"stackbit_url_path":"posts/《庄子-盗跖》今译"}}}]}},"pageContext":{"limit":5,"skip":440,"totalPages":187,"totalItems":931,"currentPage":89,"frontmatter":{"canonical_url":null,"comments_count":null,"title":"Home","template":"home","more_link_text":"Keep reading / 查看全部","date":null,"excerpt":"Jeff Tian's homepage","has_more_link":true},"url":"/","relativePath":"/","base":"","site":{"siteMetadata":{"title":"Jeff Tian","author":"@zizhujy","description":"A wild full stack developer","palette":"yellow","header":{"title":"Jeff Tian","tagline":"A wild developer","logo_img":"https://images.ctfassets.net/qixg1o8tujmf/7z1ua3nTOC5B7DwwzAki8I/4e1a05f8db770c285a492eeb1eaa398f/imageedit_3_2509022194.png","background_img":"https://images.ctfassets.net/qixg1o8tujmf/7m0jrKYaDBwEvlc5lo8nt6/6d50a5050d9cdc0d4d2047e35feac292/10648733_696750647079056_2800539603462658695_o.jpg","has_nav":true,"nav_links":[{"label":"Home","url":"/","style":"link","type":"action"},{"label":"About","url":"/about","style":"link","type":"action"},{"label":"关于","url":"https://ggyy.pa-pa.me/about","style":"link","icon_class":"lorem-ipsum","new_window":true,"type":"action"},{"label":"Contact","url":"/contact","style":"link","type":"action"},{"label":"Support Me","url":"/support-me","style":"link","type":"action"},{"label":"叽叽歪歪","url":"https://ggyy.pa-pa.me/","style":"link","icon_class":"lorem-ipsum","new_window":true,"type":"action"}],"has_social":true,"social_links":[{"label":"Twitter","url":"https://twitter.com/zizhujy","style":"icon","icon_class":"fa-twitter","new_window":true,"type":"action"},{"label":"Instagram","url":"https://www.instagram.com/jefftian5","style":"icon","icon_class":"fa-instagram","new_window":true,"type":"action"},{"label":"GitHub","url":"https://github.com/jeff-tian","style":"icon","icon_class":"fa-github","new_window":true,"type":"action"},{"label":"LinkedIn","url":"https://www.linkedin.com/jeff~tian","style":"icon","icon_class":"fa-linkedin","new_window":true,"type":"action"},{"label":"DEV","url":"https://dev.to/jefftian","style":"icon","icon_class":"fa-dev","new_window":true,"type":"action"},{"label":"知乎","url":"https://www.zhihu.com/people/jefftian","style":"icon","icon_class":"fa-zhihu","new_window":true,"type":"action"}],"type":"header"},"footer":{"content":"&copy; All rights reserved.","links":[{"label":"Made with Stackbit.","url":"https://www.stackbit.com","style":"link","new_window":true,"type":"action"},{"label":"紫竹叽歪","url":"https://zizhujy.apphb.com","style":"link","icon_class":"http://zizhujy.apphb.com/Content/Images/logo.png","new_window":true,"type":"action"}],"type":"footer"}},"pathPrefix":"","data":{"data":{"author":{"name":"Jeff Tian","avatar":"https://res.cloudinary.com/practicaldev/image/fetch/s--a5qDZLv3--/c_fill,f_auto,fl_progressive,h_640,q_auto,w_640/https://dev-to-uploads.s3.amazonaws.com/uploads/user/profile_image/318420/3bfd2d99-430c-4049-8dd5-e2adc961e1e0.png"},"social":{"devto":{"username":"jefftian"},"twitter":{"username":"zizhujy"},"github":{"username":"Jeff-Tian"}}}}},"menus":{}}},"staticQueryHashes":[],"slicesMap":{}}