{"componentChunkName":"component---src-templates-home-js","path":"/95","result":{"data":{"allMarkdownRemark":{"edges":[{"node":{"excerpt":"","id":"b0df9620-70aa-5591-a2cf-900aa792ed02","frontmatter":{"title":"如何在Zblog中加入Google内容广告","template":"post","has_more_link":null,"more_link_text":null,"excerpt":"","canonical_url":"https://be-net.azurewebsites.net/post/2010/03/16/如何在Zblog中加入Google内容广告","date":"2010-03-16 02:42:00","img_path":null,"positive_reactions_count":0,"stackbit_url_path":"posts/如何在Zblog中加入Google内容广告"}}},{"node":{"excerpt":"","id":"386e4c24-4c6a-5dcd-8bb8-fe4ed3200669","frontmatter":{"title":"一个人的成就，与年龄无关。","template":"post","has_more_link":null,"more_link_text":null,"excerpt":"","canonical_url":"https://be-net.azurewebsites.net/post/2010/03/15/一个人的成就，与年龄无关。","date":"2010-03-15 15:36:28","img_path":null,"positive_reactions_count":0,"stackbit_url_path":"posts/一个人的成就，与年龄无关。"}}},{"node":{"excerpt":"","id":"c206e704-0fe8-58ff-9c21-9967f618b812","frontmatter":{"title":"阅历","template":"post","has_more_link":null,"more_link_text":null,"excerpt":"","canonical_url":"https://be-net.azurewebsites.net/post/2010/03/15/阅历","date":"2010-03-15 14:12:46","img_path":null,"positive_reactions_count":0,"stackbit_url_path":"posts/阅历"}}},{"node":{"excerpt":"","id":"bc1c45c6-2e49-56b6-be97-60e91cfcda8e","frontmatter":{"title":"对 SQL 语句中的单引号的过滤","template":"post","has_more_link":null,"more_link_text":null,"excerpt":"","canonical_url":"https://be-net.azurewebsites.net/post/2010/03/15/对-SQL-语句中的单引号的过滤","date":"2010-03-15 09:47:59","img_path":null,"positive_reactions_count":0,"stackbit_url_path":"posts/对-SQL-语句中的单引号的过滤"}}},{"node":{"excerpt":"","id":"86968b7c-93c9-55f3-853a-9b9fc027ce6d","frontmatter":{"title":"形象的比喻","template":"post","has_more_link":null,"more_link_text":null,"excerpt":"","canonical_url":"https://be-net.azurewebsites.net/post/2010/03/15/形象的比喻","date":"2010-03-15 08:10:14","img_path":null,"positive_reactions_count":0,"stackbit_url_path":"posts/形象的比喻"}}}]}},"pageContext":{"limit":5,"skip":470,"totalPages":140,"totalItems":699,"currentPage":95,"frontmatter":{"canonical_url":null,"comments_count":null,"title":"Home","template":"home","more_link_text":"Keep reading / 查看全部","date":null,"excerpt":"Jeff Tian's homepage","has_more_link":true},"url":"/","relativePath":"/","base":"","site":{"siteMetadata":{"title":"Jeff Tian","description":"Full Stack Developer, good at OAuth 2.0","palette":"yellow","header":{"title":"Jeff Tian","tagline":"A wild developer","logo_img":"https://images.ctfassets.net/qixg1o8tujmf/7z1ua3nTOC5B7DwwzAki8I/4e1a05f8db770c285a492eeb1eaa398f/imageedit_3_2509022194.png","background_img":"https://images.ctfassets.net/qixg1o8tujmf/7m0jrKYaDBwEvlc5lo8nt6/6d50a5050d9cdc0d4d2047e35feac292/10648733_696750647079056_2800539603462658695_o.jpg","has_nav":true,"nav_links":[{"label":"Home","url":"/","style":"link","type":"action"},{"label":"About","url":"/about","style":"link","type":"action"},{"label":"关于","url":"https://ggyy.pa-pa.me/about","style":"link","icon_class":"lorem-ipsum","new_window":true,"type":"action"},{"label":"Contact","url":"/contact","style":"link","type":"action"},{"label":"Support Me","url":"/support-me","style":"link","type":"action"},{"label":"叽叽歪歪","url":"https://ggyy.pa-pa.me/","style":"link","icon_class":"lorem-ipsum","new_window":true,"type":"action"}],"has_social":true,"social_links":[{"label":"Twitter","url":"https://twitter.com/zizhujy","style":"icon","icon_class":"fa-twitter","new_window":true,"type":"action"},{"label":"Instagram","url":"https://www.instagram.com/jefftian5","style":"icon","icon_class":"fa-instagram","new_window":true,"type":"action"},{"label":"GitHub","url":"https://github.com/jeff-tian","style":"icon","icon_class":"fa-github","new_window":true,"type":"action"},{"label":"LinkedIn","url":"https://www.linkedin.com/jeff~tian","style":"icon","icon_class":"fa-linkedin","new_window":true,"type":"action"},{"label":"DEV","url":"https://dev.to/jefftian","style":"icon","icon_class":"fa-dev","new_window":true,"type":"action"},{"label":"知乎","url":"https://www.zhihu.com/people/jefftian","style":"icon","icon_class":"fa-zhihu","new_window":true,"type":"action"}],"type":"header"},"footer":{"content":"&copy; All rights reserved.","links":[{"label":"本站源码","url":"https://github.com/Jeff-Tian/space","style":"link","icon_class":"fa-github","new_window":true,"type":"action"},{"label":"紫竹叽歪","url":"https://zizhujy.apphb.com","style":"link","icon_class":"http://zizhujy.apphb.com/Content/Images/logo.png","new_window":true,"type":"action"}],"type":"footer"}},"pathPrefix":"","data":{"data":{"author":{"name":"Jeff Tian","avatar":"https://res.cloudinary.com/practicaldev/image/fetch/s--a5qDZLv3--/c_fill,f_auto,fl_progressive,h_640,q_auto,w_640/https://dev-to-uploads.s3.amazonaws.com/uploads/user/profile_image/318420/3bfd2d99-430c-4049-8dd5-e2adc961e1e0.png"},"social":{"devto":{"username":"jefftian"},"twitter":{"username":"zizhujy"},"github":{"username":"Jeff-Tian"}}}}},"menus":{}}},"staticQueryHashes":[]}