{"componentChunkName":"component---src-templates-home-js","path":"/16/","result":{"data":{"allMarkdownRemark":{"edges":[{"node":{"excerpt":"昨天在 https://zhuanlan.zhihu.com/p/56948320…","id":"9de89dc0-7e08-5ee0-bb60-188d0891154e","frontmatter":{"title":"Free Arch: 给个人订单系统增加一张支付实体表","template":"post","has_more_link":null,"more_link_text":null,"excerpt":"","canonical_url":null,"date":"2022-09-30T11:29:58","img_path":null,"positive_reactions_count":null,"stackbit_url_path":"posts/ptb4t7"}}},{"node":{"excerpt":"…","id":"c8046281-287e-5787-bc1a-50519ceb0774","frontmatter":{"title":"Free Arch：个人收款发货自动化之随机优惠方案（Hard Money）","template":"post","has_more_link":null,"more_link_text":null,"excerpt":"","canonical_url":null,"date":"2022-09-29T12:19:45","img_path":null,"positive_reactions_count":null,"stackbit_url_path":"posts/tx4g30"}}},{"node":{"excerpt":"Heroku 的羊毛要结束了 今天在更新一个应用时，收到了一个不好的消息： Heroku 要从 2022 年 11 月 28 日开始停止免费的 Dyno、Postgres 以及 Redis…","id":"fecc5936-99df-5055-9c7e-1e5859377405","frontmatter":{"title":"Free Arch: Bye-bye to Heroku","template":"post","has_more_link":null,"more_link_text":null,"excerpt":"","canonical_url":null,"date":"2022-09-22T05:59:37","img_path":null,"positive_reactions_count":null,"stackbit_url_path":"posts/anfpro"}}},{"node":{"excerpt":"…","id":"1c90ecb4-f056-5d85-a4cb-4bdc315f9dc8","frontmatter":{"title":"教池建强做产品之：强烈建议极客时间增加付费咨询和赞赏功能","template":"post","has_more_link":null,"more_link_text":null,"excerpt":"","canonical_url":null,"date":"2022-09-19T11:48:24","img_path":null,"positive_reactions_count":null,"stackbit_url_path":"posts/qq6ktl"}}},{"node":{"excerpt":"…","id":"d5399b61-8e43-5d88-ab11-6ffecae2cbaa","frontmatter":{"title":"好的比喻胜过千言万语","template":"post","has_more_link":null,"more_link_text":null,"excerpt":"","canonical_url":null,"date":"2022-09-17T03:04:12","img_path":null,"positive_reactions_count":null,"stackbit_url_path":"posts/grggdg"}}}]}},"pageContext":{"limit":5,"skip":75,"totalPages":187,"totalItems":931,"currentPage":16,"frontmatter":{"canonical_url":null,"comments_count":null,"title":"Home","template":"home","more_link_text":"Keep reading / 查看全部","date":null,"excerpt":"Jeff Tian's homepage","has_more_link":true},"url":"/","relativePath":"/","base":"","site":{"siteMetadata":{"title":"Jeff Tian","author":"@zizhujy","description":"A wild full stack developer","palette":"yellow","header":{"title":"Jeff Tian","tagline":"A wild developer","logo_img":"https://images.ctfassets.net/qixg1o8tujmf/7z1ua3nTOC5B7DwwzAki8I/4e1a05f8db770c285a492eeb1eaa398f/imageedit_3_2509022194.png","background_img":"https://images.ctfassets.net/qixg1o8tujmf/7m0jrKYaDBwEvlc5lo8nt6/6d50a5050d9cdc0d4d2047e35feac292/10648733_696750647079056_2800539603462658695_o.jpg","has_nav":true,"nav_links":[{"label":"Home","url":"/","style":"link","type":"action"},{"label":"About","url":"/about","style":"link","type":"action"},{"label":"关于","url":"https://ggyy.pa-pa.me/about","style":"link","icon_class":"lorem-ipsum","new_window":true,"type":"action"},{"label":"Contact","url":"/contact","style":"link","type":"action"},{"label":"Support Me","url":"/support-me","style":"link","type":"action"},{"label":"叽叽歪歪","url":"https://ggyy.pa-pa.me/","style":"link","icon_class":"lorem-ipsum","new_window":true,"type":"action"}],"has_social":true,"social_links":[{"label":"Twitter","url":"https://twitter.com/zizhujy","style":"icon","icon_class":"fa-twitter","new_window":true,"type":"action"},{"label":"Instagram","url":"https://www.instagram.com/jefftian5","style":"icon","icon_class":"fa-instagram","new_window":true,"type":"action"},{"label":"GitHub","url":"https://github.com/jeff-tian","style":"icon","icon_class":"fa-github","new_window":true,"type":"action"},{"label":"LinkedIn","url":"https://www.linkedin.com/jeff~tian","style":"icon","icon_class":"fa-linkedin","new_window":true,"type":"action"},{"label":"DEV","url":"https://dev.to/jefftian","style":"icon","icon_class":"fa-dev","new_window":true,"type":"action"},{"label":"知乎","url":"https://www.zhihu.com/people/jefftian","style":"icon","icon_class":"fa-zhihu","new_window":true,"type":"action"}],"type":"header"},"footer":{"content":"&copy; All rights reserved.","links":[{"label":"Made with Stackbit.","url":"https://www.stackbit.com","style":"link","new_window":true,"type":"action"},{"label":"紫竹叽歪","url":"https://zizhujy.apphb.com","style":"link","icon_class":"http://zizhujy.apphb.com/Content/Images/logo.png","new_window":true,"type":"action"}],"type":"footer"}},"pathPrefix":"","data":{"data":{"author":{"name":"Jeff Tian","avatar":"https://res.cloudinary.com/practicaldev/image/fetch/s--a5qDZLv3--/c_fill,f_auto,fl_progressive,h_640,q_auto,w_640/https://dev-to-uploads.s3.amazonaws.com/uploads/user/profile_image/318420/3bfd2d99-430c-4049-8dd5-e2adc961e1e0.png"},"social":{"devto":{"username":"jefftian"},"twitter":{"username":"zizhujy"},"github":{"username":"Jeff-Tian"}}}}},"menus":{}}},"staticQueryHashes":[],"slicesMap":{}}