{"componentChunkName":"component---src-templates-home-js","path":"/129","result":{"data":{"allMarkdownRemark":{"edges":[{"node":{"excerpt":"","id":"e06d38b9-48b5-5719-8055-6d8a6458cb82","frontmatter":{"title":"ASP中读取文本文件","template":"post","has_more_link":null,"more_link_text":null,"excerpt":"","canonical_url":"https://be-net.azurewebsites.net/post/2009/12/25/ASP中读取文本文件","date":"2009-12-25 16:46:26","img_path":null,"positive_reactions_count":0,"stackbit_url_path":"posts/ASP中读取文本文件"}}},{"node":{"excerpt":"End Function","id":"fc45001f-2a3d-55de-80b0-052a0e1aeb25","frontmatter":{"title":"在ASP中组装QueryString的函数","template":"post","has_more_link":null,"more_link_text":null,"excerpt":"","canonical_url":"https://be-net.azurewebsites.net/post/2009/12/25/在ASP中组装QueryString的函数","date":"2009-12-25 16:20:24","img_path":null,"positive_reactions_count":0,"stackbit_url_path":"posts/在ASP中组装QueryString的函数"}}},{"node":{"excerpt":"table.tbDoodles caption\n{\nfont-size: 1.2em;\nfont-weight: bold;\nmargin: 1em 0;\n} table.tbDoodles col\n{\nborder-right: solid 1px #ccc;\n} table…","id":"d4435cc6-f458-5c5d-a52d-ab6abc4a6049","frontmatter":{"title":"使用JavaScript高亮显示指定的列表元素","template":"post","has_more_link":null,"more_link_text":null,"excerpt":"","canonical_url":"https://be-net.azurewebsites.net/post/2009/12/20/使用JavaScript高亮显示指定的列表元素","date":"2009-12-20 16:23:00","img_path":null,"positive_reactions_count":0,"stackbit_url_path":"posts/使用JavaScript高亮显示指定的列表元素"}}},{"node":{"excerpt":"","id":"a2b7d6f5-278c-5665-b6af-779eeea2c42b","frontmatter":{"title":"Loading Totoro Ⅱ","template":"post","has_more_link":null,"more_link_text":null,"excerpt":"","canonical_url":"https://be-net.azurewebsites.net/post/2009/12/20/Loading-Totoro-Ⅱ","date":"2009-12-20 16:19:34","img_path":null,"positive_reactions_count":0,"stackbit_url_path":"posts/Loading-Totoro-Ⅱ"}}},{"node":{"excerpt":"wantToDoSth(); addEventHandler(window, 'load', function() {\n// 就是在这里设置好通知变量，作为其他函数可以使用的“钩子”\nwindow.isReady = true;\n}); // 以下函数用来给window…","id":"bfe7b6cf-5013-52cf-b8bc-029195f7182e","frontmatter":{"title":"如何使用JavaScript来判断当前文档有没有加载完成","template":"post","has_more_link":null,"more_link_text":null,"excerpt":"","canonical_url":"https://be-net.azurewebsites.net/post/2009/12/17/如何使用JavaScript来判断当前文档有没有加载完成","date":"2009-12-17 12:08:19","img_path":null,"positive_reactions_count":0,"stackbit_url_path":"posts/如何使用JavaScript来判断当前文档有没有加载完成"}}}]}},"pageContext":{"limit":5,"skip":640,"totalPages":140,"totalItems":699,"currentPage":129,"frontmatter":{"canonical_url":null,"comments_count":null,"title":"Home","template":"home","more_link_text":"Keep reading / 查看全部","date":null,"excerpt":"Jeff Tian's homepage","has_more_link":true},"url":"/","relativePath":"/","base":"","site":{"siteMetadata":{"title":"Jeff Tian","description":"Full Stack Developer, good at OAuth 2.0","palette":"yellow","header":{"title":"Jeff Tian","tagline":"A wild developer","logo_img":"https://images.ctfassets.net/qixg1o8tujmf/7z1ua3nTOC5B7DwwzAki8I/4e1a05f8db770c285a492eeb1eaa398f/imageedit_3_2509022194.png","background_img":"https://images.ctfassets.net/qixg1o8tujmf/7m0jrKYaDBwEvlc5lo8nt6/6d50a5050d9cdc0d4d2047e35feac292/10648733_696750647079056_2800539603462658695_o.jpg","has_nav":true,"nav_links":[{"label":"Home","url":"/","style":"link","type":"action"},{"label":"About","url":"/about","style":"link","type":"action"},{"label":"关于","url":"https://ggyy.pa-pa.me/about","style":"link","icon_class":"lorem-ipsum","new_window":true,"type":"action"},{"label":"Contact","url":"/contact","style":"link","type":"action"},{"label":"Support Me","url":"/support-me","style":"link","type":"action"},{"label":"叽叽歪歪","url":"https://ggyy.pa-pa.me/","style":"link","icon_class":"lorem-ipsum","new_window":true,"type":"action"}],"has_social":true,"social_links":[{"label":"Twitter","url":"https://twitter.com/zizhujy","style":"icon","icon_class":"fa-twitter","new_window":true,"type":"action"},{"label":"Instagram","url":"https://www.instagram.com/jefftian5","style":"icon","icon_class":"fa-instagram","new_window":true,"type":"action"},{"label":"GitHub","url":"https://github.com/jeff-tian","style":"icon","icon_class":"fa-github","new_window":true,"type":"action"},{"label":"LinkedIn","url":"https://www.linkedin.com/jeff~tian","style":"icon","icon_class":"fa-linkedin","new_window":true,"type":"action"},{"label":"DEV","url":"https://dev.to/jefftian","style":"icon","icon_class":"fa-dev","new_window":true,"type":"action"},{"label":"知乎","url":"https://www.zhihu.com/people/jefftian","style":"icon","icon_class":"fa-zhihu","new_window":true,"type":"action"}],"type":"header"},"footer":{"content":"&copy; All rights reserved.","links":[{"label":"本站源码","url":"https://github.com/Jeff-Tian/space","style":"link","icon_class":"fa-github","new_window":true,"type":"action"},{"label":"紫竹叽歪","url":"https://zizhujy.apphb.com","style":"link","icon_class":"http://zizhujy.apphb.com/Content/Images/logo.png","new_window":true,"type":"action"}],"type":"footer"}},"pathPrefix":"","data":{"data":{"author":{"name":"Jeff Tian","avatar":"https://res.cloudinary.com/practicaldev/image/fetch/s--a5qDZLv3--/c_fill,f_auto,fl_progressive,h_640,q_auto,w_640/https://dev-to-uploads.s3.amazonaws.com/uploads/user/profile_image/318420/3bfd2d99-430c-4049-8dd5-e2adc961e1e0.png"},"social":{"devto":{"username":"jefftian"},"twitter":{"username":"zizhujy"},"github":{"username":"Jeff-Tian"}}}}},"menus":{}}},"staticQueryHashes":[]}