{"componentChunkName":"component---src-templates-home-js","path":"/70/","result":{"data":{"allMarkdownRemark":{"edges":[{"node":{"excerpt":"","id":"feb5b9ca-8212-54b8-88a3-068897653810","frontmatter":{"title":"命题作文一篇","template":"post","has_more_link":null,"more_link_text":null,"excerpt":"","canonical_url":"https://be-net.azurewebsites.net/post/2012/02/26/命题作文一篇","date":"2012-02-26 05:03:00","img_path":null,"positive_reactions_count":0,"stackbit_url_path":"posts/命题作文一篇"}}},{"node":{"excerpt":"","id":"9bd1bb81-f894-5d39-b7d9-63c24d0e1500","frontmatter":{"title":"一款函数语法分析程序","template":"post","has_more_link":null,"more_link_text":null,"excerpt":"","canonical_url":"https://be-net.azurewebsites.net/post/2012/02/26/一款函数语法分析程序","date":"2012-02-26 01:00:05.0626536","img_path":null,"positive_reactions_count":0,"stackbit_url_path":"posts/一款函数语法分析程序"}}},{"node":{"excerpt":"","id":"e98d54a1-c290-5ed5-b893-0e46d3e4e8cd","frontmatter":{"title":"给JavaScript的String对象添加startsWith(), endsWith()等方法","template":"post","has_more_link":null,"more_link_text":null,"excerpt":"","canonical_url":"https://be-net.azurewebsites.net/post/2012/02/25/给JavaScript的String对象添加startsWith()-endsWith()等方法","date":"2012-02-25 20:50:45.7794348","img_path":null,"positive_reactions_count":0,"stackbit_url_path":"posts/给JavaScript的String对象添加startsWith()-endsWith()等方法"}}},{"node":{"excerpt":"","id":"41b6f528-67ad-5ca5-969e-5bacdc6eb0c9","frontmatter":{"title":"对JavaScript的Math.pow()函数的一个修正","template":"post","has_more_link":null,"more_link_text":null,"excerpt":"","canonical_url":"https://be-net.azurewebsites.net/post/2012/02/21/对JavaScript的Mathpow()函数的一个修正","date":"2012-02-21 07:06:17.9360811","img_path":null,"positive_reactions_count":0,"stackbit_url_path":"posts/对JavaScript的Mathpow()函数的一个修正"}}},{"node":{"excerpt":"","id":"b3d3e5ee-048b-58b7-8a4f-61625267674b","frontmatter":{"title":"请问这是什么搜索算法","template":"post","has_more_link":null,"more_link_text":null,"excerpt":"","canonical_url":"https://be-net.azurewebsites.net/post/2012/02/21/请问这是什么搜索算法","date":"2012-02-21 04:56:05.0291322","img_path":null,"positive_reactions_count":0,"stackbit_url_path":"posts/请问这是什么搜索算法"}}}]}},"pageContext":{"limit":5,"skip":345,"totalPages":187,"totalItems":931,"currentPage":70,"frontmatter":{"canonical_url":null,"comments_count":null,"title":"Home","template":"home","more_link_text":"Keep reading / 查看全部","date":null,"excerpt":"Jeff Tian's homepage","has_more_link":true},"url":"/","relativePath":"/","base":"","site":{"siteMetadata":{"title":"Jeff Tian","author":"@zizhujy","description":"A wild full stack developer","palette":"yellow","header":{"title":"Jeff Tian","tagline":"A wild developer","logo_img":"https://images.ctfassets.net/qixg1o8tujmf/7z1ua3nTOC5B7DwwzAki8I/4e1a05f8db770c285a492eeb1eaa398f/imageedit_3_2509022194.png","background_img":"https://images.ctfassets.net/qixg1o8tujmf/7m0jrKYaDBwEvlc5lo8nt6/6d50a5050d9cdc0d4d2047e35feac292/10648733_696750647079056_2800539603462658695_o.jpg","has_nav":true,"nav_links":[{"label":"Home","url":"/","style":"link","type":"action"},{"label":"About","url":"/about","style":"link","type":"action"},{"label":"关于","url":"https://ggyy.pa-pa.me/about","style":"link","icon_class":"lorem-ipsum","new_window":true,"type":"action"},{"label":"Contact","url":"/contact","style":"link","type":"action"},{"label":"Support Me","url":"/support-me","style":"link","type":"action"},{"label":"叽叽歪歪","url":"https://ggyy.pa-pa.me/","style":"link","icon_class":"lorem-ipsum","new_window":true,"type":"action"}],"has_social":true,"social_links":[{"label":"Twitter","url":"https://twitter.com/zizhujy","style":"icon","icon_class":"fa-twitter","new_window":true,"type":"action"},{"label":"Instagram","url":"https://www.instagram.com/jefftian5","style":"icon","icon_class":"fa-instagram","new_window":true,"type":"action"},{"label":"GitHub","url":"https://github.com/jeff-tian","style":"icon","icon_class":"fa-github","new_window":true,"type":"action"},{"label":"LinkedIn","url":"https://www.linkedin.com/jeff~tian","style":"icon","icon_class":"fa-linkedin","new_window":true,"type":"action"},{"label":"DEV","url":"https://dev.to/jefftian","style":"icon","icon_class":"fa-dev","new_window":true,"type":"action"},{"label":"知乎","url":"https://www.zhihu.com/people/jefftian","style":"icon","icon_class":"fa-zhihu","new_window":true,"type":"action"}],"type":"header"},"footer":{"content":"&copy; All rights reserved.","links":[{"label":"Made with Stackbit.","url":"https://www.stackbit.com","style":"link","new_window":true,"type":"action"},{"label":"紫竹叽歪","url":"https://zizhujy.apphb.com","style":"link","icon_class":"http://zizhujy.apphb.com/Content/Images/logo.png","new_window":true,"type":"action"}],"type":"footer"}},"pathPrefix":"","data":{"data":{"author":{"name":"Jeff Tian","avatar":"https://res.cloudinary.com/practicaldev/image/fetch/s--a5qDZLv3--/c_fill,f_auto,fl_progressive,h_640,q_auto,w_640/https://dev-to-uploads.s3.amazonaws.com/uploads/user/profile_image/318420/3bfd2d99-430c-4049-8dd5-e2adc961e1e0.png"},"social":{"devto":{"username":"jefftian"},"twitter":{"username":"zizhujy"},"github":{"username":"Jeff-Tian"}}}}},"menus":{}}},"staticQueryHashes":[],"slicesMap":{}}