{"componentChunkName":"component---src-templates-home-js","path":"/23","result":{"data":{"allMarkdownRemark":{"edges":[{"node":{"excerpt":"这是一篇价值 7 元的文章，有人已经付费，免费分享给你！\nimage.png 周末有人在知乎上通过付费咨询频道问我，如何在一个 Keycloak 中集成另一个 Keycloak…","id":"d1024f83-b287-520d-94fd-91126dfc945a","frontmatter":{"title":"使用 OIDC 在一个 Keycloak 中集成另一个 Keycloak 用户认证","template":"post","has_more_link":null,"more_link_text":null,"excerpt":"","canonical_url":null,"date":"2021-03-29T12:56:37","img_path":null,"positive_reactions_count":null,"stackbit_url_path":"posts/olenk1"}}},{"node":{"excerpt":"我是从 2009 年开始写博客的，当时出于对技术的无知和对 .NET 的痴迷，采用了 BlogEngine.NET 作为博客站，并且部署到了国外的托管虚拟主机。后来穷得越来越支付不起虚拟主机的月租费，最终在 2014 年将其迁移到了 Azure 的免费托管平台：https…","id":"993a70e0-ef68-5d27-93f2-f5f09d054375","frontmatter":{"title":"10 年前老博客以 JAM Stack 方式满血复活！","template":"post","has_more_link":null,"more_link_text":null,"excerpt":"","canonical_url":null,"date":"2021-03-25T07:59:46","img_path":null,"positive_reactions_count":null,"stackbit_url_path":"posts/hqz5vc"}}},{"node":{"excerpt":"答案：评审的问题数量  一页纸需求参考五步法 image.png  教你几招发现需求的问题 是否描述完整了场景。场景的描述是否以用户为视角；如果改为以对象为视角，会不会有新发现。2. 条件完整性。是否采用了判定矩阵（基于笛卡尔积）列举了所有的可能性。（通常都会在这里栽跟头）…","id":"67a72857-e2e0-5272-bd24-b4d0a390e56e","frontmatter":{"title":"如何评价需求提得好不好？","template":"post","has_more_link":null,"more_link_text":null,"excerpt":"","canonical_url":null,"date":"2021-03-23T08:18:47","img_path":null,"positive_reactions_count":null,"stackbit_url_path":"posts/vrrwbf"}}},{"node":{"excerpt":"Keycloak 是一个优秀的开源身份与访问管理系统，旨在为现代的应用程序和服务提供包含身份管理和访问管理功能。不少企业包含红帽公司，都将其作为其站点的单点登录工具，通过使用 Keycloak，只需要少量编码甚至不用编码，就能很容易地使应用程序和服务更安全。 今天以 eggjs…","id":"0d056170-a2e3-5267-ad3f-b57a55f247b0","frontmatter":{"title":"在 eggjs 中集成 Keycloak 用户认证","template":"post","has_more_link":null,"more_link_text":null,"excerpt":"","canonical_url":null,"date":"2021-03-22T10:28:41","img_path":null,"positive_reactions_count":null,"stackbit_url_path":"posts/evgbbz"}}},{"node":{"excerpt":"微服务架构 微服务架构是一种架构风格，这种架构下的应用是由一系列的细粒度、互相连接的服务组成的，其发展如火如荼，甚至已经成为构建弹性可扩展应用的新标准。The Software House发布的202…","id":"4b3a6c7e-09d7-5be6-8988-b714e3e2775b","frontmatter":{"title":"微服务架构、框架与平台","template":"post","has_more_link":null,"more_link_text":null,"excerpt":"","canonical_url":null,"date":"2021-03-18T12:38:37","img_path":null,"positive_reactions_count":null,"stackbit_url_path":"posts/erao9g"}}}]}},"pageContext":{"limit":5,"skip":110,"totalPages":170,"totalItems":850,"currentPage":23,"frontmatter":{"canonical_url":null,"comments_count":null,"title":"Home","template":"home","more_link_text":"Keep reading / 查看全部","date":null,"excerpt":"Jeff Tian's homepage","has_more_link":true},"url":"/","relativePath":"/","base":"","site":{"siteMetadata":{"title":"Jeff Tian","description":"Full Stack Developer, good at OAuth 2.0","palette":"yellow","header":{"title":"Jeff Tian","tagline":"A wild developer","logo_img":"https://images.ctfassets.net/qixg1o8tujmf/7z1ua3nTOC5B7DwwzAki8I/4e1a05f8db770c285a492eeb1eaa398f/imageedit_3_2509022194.png","background_img":"https://images.ctfassets.net/qixg1o8tujmf/7m0jrKYaDBwEvlc5lo8nt6/6d50a5050d9cdc0d4d2047e35feac292/10648733_696750647079056_2800539603462658695_o.jpg","has_nav":true,"nav_links":[{"label":"Home","url":"/","style":"link","type":"action"},{"label":"About","url":"/about","style":"link","type":"action"},{"label":"关于","url":"https://ggyy.pa-pa.me/about","style":"link","icon_class":"lorem-ipsum","new_window":true,"type":"action"},{"label":"Contact","url":"/contact","style":"link","type":"action"},{"label":"Support Me","url":"/support-me","style":"link","type":"action"},{"label":"叽叽歪歪","url":"https://ggyy.pa-pa.me/","style":"link","icon_class":"lorem-ipsum","new_window":true,"type":"action"}],"has_social":true,"social_links":[{"label":"Twitter","url":"https://twitter.com/zizhujy","style":"icon","icon_class":"fa-twitter","new_window":true,"type":"action"},{"label":"Instagram","url":"https://www.instagram.com/jefftian5","style":"icon","icon_class":"fa-instagram","new_window":true,"type":"action"},{"label":"GitHub","url":"https://github.com/jeff-tian","style":"icon","icon_class":"fa-github","new_window":true,"type":"action"},{"label":"LinkedIn","url":"https://www.linkedin.com/jeff~tian","style":"icon","icon_class":"fa-linkedin","new_window":true,"type":"action"},{"label":"DEV","url":"https://dev.to/jefftian","style":"icon","icon_class":"fa-dev","new_window":true,"type":"action"},{"label":"知乎","url":"https://www.zhihu.com/people/jefftian","style":"icon","icon_class":"fa-zhihu","new_window":true,"type":"action"}],"type":"header"},"footer":{"content":"&copy; All rights reserved.","links":[{"label":"本站源码","url":"https://github.com/Jeff-Tian/space","style":"link","icon_class":"fa-github","new_window":true,"type":"action"},{"label":"紫竹叽歪","url":"https://zizhujy.apphb.com","style":"link","icon_class":"http://zizhujy.apphb.com/Content/Images/logo.png","new_window":true,"type":"action"}],"type":"footer"}},"pathPrefix":"","data":{"data":{"author":{"name":"Jeff Tian","avatar":"https://res.cloudinary.com/practicaldev/image/fetch/s--a5qDZLv3--/c_fill,f_auto,fl_progressive,h_640,q_auto,w_640/https://dev-to-uploads.s3.amazonaws.com/uploads/user/profile_image/318420/3bfd2d99-430c-4049-8dd5-e2adc961e1e0.png"},"social":{"devto":{"username":"jefftian"},"twitter":{"username":"zizhujy"},"github":{"username":"Jeff-Tian"}}}}},"menus":{}}},"staticQueryHashes":[]}