{"componentChunkName":"component---src-templates-home-js","path":"/113/","result":{"data":{"allMarkdownRemark":{"edges":[{"node":{"excerpt":"","id":"7f318c16-a242-54e0-b5b7-c656857aed7a","frontmatter":{"title":"在ASP中将以字节为单位的数字转化成合适的单位","template":"post","has_more_link":null,"more_link_text":null,"excerpt":"","canonical_url":"https://be-net.azurewebsites.net/post/2010/03/16/在ASP中将以字节为单位的数字转化成合适的单位","date":"2010-03-16 08:01:09","img_path":null,"positive_reactions_count":0,"stackbit_url_path":"posts/在ASP中将以字节为单位的数字转化成合适的单位"}}},{"node":{"excerpt":"' 确定基准URL\nPublic Function GetBaseUrl()\nDim sServerName, sAPPL_MD_Path\nsServerName = Trim(LCase(Request.ServerVariables(\"SERVER_NAME…","id":"cb08b536-560e-5b9b-b097-3361804903ed","frontmatter":{"title":"在ASP中确定是本站点提交的信息","template":"post","has_more_link":null,"more_link_text":null,"excerpt":"","canonical_url":"https://be-net.azurewebsites.net/post/2010/03/16/在ASP中确定是本站点提交的信息","date":"2010-03-16 07:53:47","img_path":null,"positive_reactions_count":0,"stackbit_url_path":"posts/在ASP中确定是本站点提交的信息"}}},{"node":{"excerpt":"","id":"cbe62276-bc60-50f9-b731-a38f1fcf2b09","frontmatter":{"title":"使用ASP取得当前网站的顶级网址与当前网站的根目录虚拟路径","template":"post","has_more_link":null,"more_link_text":null,"excerpt":"","canonical_url":"https://be-net.azurewebsites.net/post/2010/03/16/使用ASP取得当前网站的顶级网址与当前网站的根目录虚拟路径","date":"2010-03-16 07:31:05","img_path":null,"positive_reactions_count":0,"stackbit_url_path":"posts/使用ASP取得当前网站的顶级网址与当前网站的根目录虚拟路径"}}},{"node":{"excerpt":"","id":"7ffb4b4a-9c1c-56da-927f-1f0af2fea6dc","frontmatter":{"title":"宝力豪开始走低端路线","template":"post","has_more_link":null,"more_link_text":null,"excerpt":"","canonical_url":"https://be-net.azurewebsites.net/post/2010/03/16/宝力豪开始走低端路线","date":"2010-03-16 05:56:21","img_path":null,"positive_reactions_count":0,"stackbit_url_path":"posts/宝力豪开始走低端路线"}}},{"node":{"excerpt":"","id":"51a85d07-a191-5727-a3bf-ca8486b7a37a","frontmatter":{"title":"如何在Zblog中加入Google内容广告","template":"post","has_more_link":null,"more_link_text":null,"excerpt":"","canonical_url":"https://be-net.azurewebsites.net/post/2010/03/16/如何在Zblog中加入Google内容广告","date":"2010-03-16 02:42:00","img_path":null,"positive_reactions_count":0,"stackbit_url_path":"posts/如何在Zblog中加入Google内容广告"}}}]}},"pageContext":{"limit":5,"skip":560,"totalPages":159,"totalItems":793,"currentPage":113,"frontmatter":{"canonical_url":null,"comments_count":null,"title":"Home","template":"home","more_link_text":"Keep reading / 查看全部","date":null,"excerpt":"Jeff Tian's homepage","has_more_link":true},"url":"/","relativePath":"/","base":"","site":{"siteMetadata":{"title":"Jeff Tian","author":"@zizhujy","description":"A wild full stack developer","palette":"yellow","header":{"title":"Jeff Tian","tagline":"A wild developer","logo_img":"https://images.ctfassets.net/qixg1o8tujmf/7z1ua3nTOC5B7DwwzAki8I/4e1a05f8db770c285a492eeb1eaa398f/imageedit_3_2509022194.png","background_img":"https://images.ctfassets.net/qixg1o8tujmf/7m0jrKYaDBwEvlc5lo8nt6/6d50a5050d9cdc0d4d2047e35feac292/10648733_696750647079056_2800539603462658695_o.jpg","has_nav":true,"nav_links":[{"label":"Home","url":"/","style":"link","type":"action"},{"label":"About","url":"/about","style":"link","type":"action"},{"label":"关于","url":"https://ggyy.pa-pa.me/about","style":"link","icon_class":"lorem-ipsum","new_window":true,"type":"action"},{"label":"Contact","url":"/contact","style":"link","type":"action"},{"label":"Support Me","url":"/support-me","style":"link","type":"action"},{"label":"叽叽歪歪","url":"https://ggyy.pa-pa.me/","style":"link","icon_class":"lorem-ipsum","new_window":true,"type":"action"}],"has_social":true,"social_links":[{"label":"Twitter","url":"https://twitter.com/zizhujy","style":"icon","icon_class":"fa-twitter","new_window":true,"type":"action"},{"label":"Instagram","url":"https://www.instagram.com/jefftian5","style":"icon","icon_class":"fa-instagram","new_window":true,"type":"action"},{"label":"GitHub","url":"https://github.com/jeff-tian","style":"icon","icon_class":"fa-github","new_window":true,"type":"action"},{"label":"LinkedIn","url":"https://www.linkedin.com/jeff~tian","style":"icon","icon_class":"fa-linkedin","new_window":true,"type":"action"},{"label":"DEV","url":"https://dev.to/jefftian","style":"icon","icon_class":"fa-dev","new_window":true,"type":"action"},{"label":"知乎","url":"https://www.zhihu.com/people/jefftian","style":"icon","icon_class":"fa-zhihu","new_window":true,"type":"action"}],"type":"header"},"footer":{"content":"&copy; All rights reserved.","links":[{"label":"Made with Stackbit.","url":"https://www.stackbit.com","style":"link","new_window":true,"type":"action"},{"label":"紫竹叽歪","url":"https://zizhujy.apphb.com","style":"link","icon_class":"http://zizhujy.apphb.com/Content/Images/logo.png","new_window":true,"type":"action"}],"type":"footer"}},"pathPrefix":"","data":{"data":{"author":{"name":"Jeff Tian","avatar":"https://res.cloudinary.com/practicaldev/image/fetch/s--a5qDZLv3--/c_fill,f_auto,fl_progressive,h_640,q_auto,w_640/https://dev-to-uploads.s3.amazonaws.com/uploads/user/profile_image/318420/3bfd2d99-430c-4049-8dd5-e2adc961e1e0.png"},"social":{"devto":{"username":"jefftian"},"twitter":{"username":"zizhujy"},"github":{"username":"Jeff-Tian"}}}}},"menus":{}}},"staticQueryHashes":[],"slicesMap":{}}