{"componentChunkName":"component---src-templates-home-js","path":"/17/","result":{"data":{"allMarkdownRemark":{"edges":[{"node":{"excerpt":"问题 最早我部署了一个 IdentityServer 到 Azure （《身份验证哪家强？IdentityServer 初体验 - Jeff Tian的文章 - 知乎)(https://zhuanlan.zhihu.com/p/48210332…","id":"5f1f1e0a-e3d0-555c-b284-73e1a0631e4a","frontmatter":{"title":"【已解决】CryptographicException: The key  was not found in the key ring 以及 Unable to unprotect the message.State 错误","template":"post","has_more_link":null,"more_link_text":null,"excerpt":"","canonical_url":null,"date":"2023-01-11T04:08:30","img_path":null,"positive_reactions_count":null,"stackbit_url_path":"posts/pgi3sie52rrgrzh9"}}},{"node":{"excerpt":"…","id":"6b91a1de-7d62-5e93-8a43-3eaf7b6d3819","frontmatter":{"title":"Free Arch：如何给个人版微信小程序增加视频","template":"post","has_more_link":null,"more_link_text":null,"excerpt":"","canonical_url":null,"date":"2023-01-10T13:23:06","img_path":null,"positive_reactions_count":null,"stackbit_url_path":"posts/yb5hgy9mucedlw1w"}}},{"node":{"excerpt":"前情提要 在《OAuth 2.0：对接 Keycloak 设备码授权流程 - Jeff Tian的文章 - 知乎  》里，科普了一下 OAuth 2.0 的常见授权许可类型，并详细说明了其中的设备码授权许可。 今天，再来以 Keycloak…","id":"05def259-94d6-5b25-8cd6-1ad7b37be2f8","frontmatter":{"title":"Keycloak 使用授权码换取令牌过程详解","template":"post","has_more_link":null,"more_link_text":null,"excerpt":"","canonical_url":null,"date":"2023-01-06T06:03:15","img_path":null,"positive_reactions_count":null,"stackbit_url_path":"posts/bl3n1zik8o48zbly"}}},{"node":{"excerpt":"很早以前，利用 AWS API Gateway，部署了一个“万能BFF”：《一顿操作猛如虎，部署一个万能 BFF - Jeff Tian的文章 - 知乎 》。除了可以复用很多已有代码外（《使用万能 BFF，将语雀文章 GraphQL 服务化 - Jeff Tian…","id":"8fdab8de-d0dd-5669-8ec8-fd70eb7ac41d","frontmatter":{"title":"AWS API Gateway 踩坑记 -- Binary Media Types","template":"post","has_more_link":null,"more_link_text":null,"excerpt":"","canonical_url":null,"date":"2022-12-30T02:59:36","img_path":null,"positive_reactions_count":null,"stackbit_url_path":"posts/ounr43yge0socg2m"}}},{"node":{"excerpt":"…","id":"a44ec95b-ad4b-5541-88dd-ad7e522130eb","frontmatter":{"title":"还是写下来吧","template":"post","has_more_link":null,"more_link_text":null,"excerpt":"","canonical_url":null,"date":"2022-12-26T04:33:26","img_path":null,"positive_reactions_count":null,"stackbit_url_path":"posts/glrgzvuvauw4vxfl"}}}]}},"pageContext":{"limit":5,"skip":80,"totalPages":159,"totalItems":793,"currentPage":17,"frontmatter":{"canonical_url":null,"comments_count":null,"title":"Home","template":"home","more_link_text":"Keep reading / 查看全部","date":null,"excerpt":"Jeff Tian's homepage","has_more_link":true},"url":"/","relativePath":"/","base":"","site":{"siteMetadata":{"title":"Jeff Tian","author":"@zizhujy","description":"A wild full stack developer","palette":"yellow","header":{"title":"Jeff Tian","tagline":"A wild developer","logo_img":"https://images.ctfassets.net/qixg1o8tujmf/7z1ua3nTOC5B7DwwzAki8I/4e1a05f8db770c285a492eeb1eaa398f/imageedit_3_2509022194.png","background_img":"https://images.ctfassets.net/qixg1o8tujmf/7m0jrKYaDBwEvlc5lo8nt6/6d50a5050d9cdc0d4d2047e35feac292/10648733_696750647079056_2800539603462658695_o.jpg","has_nav":true,"nav_links":[{"label":"Home","url":"/","style":"link","type":"action"},{"label":"About","url":"/about","style":"link","type":"action"},{"label":"关于","url":"https://ggyy.pa-pa.me/about","style":"link","icon_class":"lorem-ipsum","new_window":true,"type":"action"},{"label":"Contact","url":"/contact","style":"link","type":"action"},{"label":"Support Me","url":"/support-me","style":"link","type":"action"},{"label":"叽叽歪歪","url":"https://ggyy.pa-pa.me/","style":"link","icon_class":"lorem-ipsum","new_window":true,"type":"action"}],"has_social":true,"social_links":[{"label":"Twitter","url":"https://twitter.com/zizhujy","style":"icon","icon_class":"fa-twitter","new_window":true,"type":"action"},{"label":"Instagram","url":"https://www.instagram.com/jefftian5","style":"icon","icon_class":"fa-instagram","new_window":true,"type":"action"},{"label":"GitHub","url":"https://github.com/jeff-tian","style":"icon","icon_class":"fa-github","new_window":true,"type":"action"},{"label":"LinkedIn","url":"https://www.linkedin.com/jeff~tian","style":"icon","icon_class":"fa-linkedin","new_window":true,"type":"action"},{"label":"DEV","url":"https://dev.to/jefftian","style":"icon","icon_class":"fa-dev","new_window":true,"type":"action"},{"label":"知乎","url":"https://www.zhihu.com/people/jefftian","style":"icon","icon_class":"fa-zhihu","new_window":true,"type":"action"}],"type":"header"},"footer":{"content":"&copy; All rights reserved.","links":[{"label":"Made with Stackbit.","url":"https://www.stackbit.com","style":"link","new_window":true,"type":"action"},{"label":"紫竹叽歪","url":"https://zizhujy.apphb.com","style":"link","icon_class":"http://zizhujy.apphb.com/Content/Images/logo.png","new_window":true,"type":"action"}],"type":"footer"}},"pathPrefix":"","data":{"data":{"author":{"name":"Jeff Tian","avatar":"https://res.cloudinary.com/practicaldev/image/fetch/s--a5qDZLv3--/c_fill,f_auto,fl_progressive,h_640,q_auto,w_640/https://dev-to-uploads.s3.amazonaws.com/uploads/user/profile_image/318420/3bfd2d99-430c-4049-8dd5-e2adc961e1e0.png"},"social":{"devto":{"username":"jefftian"},"twitter":{"username":"zizhujy"},"github":{"username":"Jeff-Tian"}}}}},"menus":{}}},"staticQueryHashes":[],"slicesMap":{}}