{"componentChunkName":"component---src-templates-home-js","path":"/54/","result":{"data":{"allMarkdownRemark":{"edges":[{"node":{"excerpt":"","id":"60833cf4-799f-5765-84ce-e9c90fcb8c22","frontmatter":{"title":"Windows Phone 如何强制重启","template":"post","has_more_link":null,"more_link_text":null,"excerpt":"","canonical_url":"https://be-net.azurewebsites.net/post/2013/07/25/Windows-Phone-如何强制重启","date":"2013-07-25 22:16:41.9238691","img_path":null,"positive_reactions_count":0,"stackbit_url_path":"posts/Windows-Phone-如何强制重启"}}},{"node":{"excerpt":"","id":"f12a94ec-b440-5873-85a2-2eb5f88fd431","frontmatter":{"title":"*#7370#，记住了！（一切多多尝试）","template":"post","has_more_link":null,"more_link_text":null,"excerpt":"","canonical_url":"https://be-net.azurewebsites.net/post/2013/07/24/7370，记住了！（一切多多尝试）","date":"2013-07-24 06:31:29.1883626","img_path":null,"positive_reactions_count":0,"stackbit_url_path":"posts/7370，记住了！（一切多多尝试）"}}},{"node":{"excerpt":"","id":"6e92b9d6-610f-5901-8546-21d51ac80a2b","frontmatter":{"title":"A navigation control plugin for Flot","template":"post","has_more_link":null,"more_link_text":null,"excerpt":"","canonical_url":"https://be-net.azurewebsites.net/post/2013/07/23/A-navigation-control-plugin-for-Flot","date":"2013-07-23 21:25:07.515957","img_path":null,"positive_reactions_count":0,"stackbit_url_path":"posts/A-navigation-control-plugin-for-Flot"}}},{"node":{"excerpt":"","id":"06f6f2cd-206b-5a18-8497-a3fd5b25f15c","frontmatter":{"title":"How to make tracing log local system date time in tracing (C#)","template":"post","has_more_link":null,"more_link_text":null,"excerpt":"","canonical_url":"https://be-net.azurewebsites.net/post/2013/07/23/How-to-make-tracing-log-local-system-date-time-in-tracing-(C)","date":"2013-07-23 02:56:22.2010679","img_path":null,"positive_reactions_count":0,"stackbit_url_path":"posts/How-to-make-tracing-log-local-system-date-time-in-tracing-(C)"}}},{"node":{"excerpt":"","id":"2ec365fb-1c69-5c80-bc20-dc9ddbb3c829","frontmatter":{"title":"Resolved: Unable to open configSource file when debugging a program","template":"post","has_more_link":null,"more_link_text":null,"excerpt":"","canonical_url":"https://be-net.azurewebsites.net/post/2013/07/11/Resolved-Unable-to-open-configSource-file-when-debugging-a-program","date":"2013-07-11 00:38:00","img_path":null,"positive_reactions_count":0,"stackbit_url_path":"posts/Resolved-Unable-to-open-configSource-file-when-debugging-a-program"}}}]}},"pageContext":{"limit":5,"skip":265,"totalPages":187,"totalItems":931,"currentPage":54,"frontmatter":{"canonical_url":null,"comments_count":null,"title":"Home","template":"home","more_link_text":"Keep reading / 查看全部","date":null,"excerpt":"Jeff Tian's homepage","has_more_link":true},"url":"/","relativePath":"/","base":"","site":{"siteMetadata":{"title":"Jeff Tian","author":"@zizhujy","description":"A wild full stack developer","palette":"yellow","header":{"title":"Jeff Tian","tagline":"A wild developer","logo_img":"https://images.ctfassets.net/qixg1o8tujmf/7z1ua3nTOC5B7DwwzAki8I/4e1a05f8db770c285a492eeb1eaa398f/imageedit_3_2509022194.png","background_img":"https://images.ctfassets.net/qixg1o8tujmf/7m0jrKYaDBwEvlc5lo8nt6/6d50a5050d9cdc0d4d2047e35feac292/10648733_696750647079056_2800539603462658695_o.jpg","has_nav":true,"nav_links":[{"label":"Home","url":"/","style":"link","type":"action"},{"label":"About","url":"/about","style":"link","type":"action"},{"label":"关于","url":"https://ggyy.pa-pa.me/about","style":"link","icon_class":"lorem-ipsum","new_window":true,"type":"action"},{"label":"Contact","url":"/contact","style":"link","type":"action"},{"label":"Support Me","url":"/support-me","style":"link","type":"action"},{"label":"叽叽歪歪","url":"https://ggyy.pa-pa.me/","style":"link","icon_class":"lorem-ipsum","new_window":true,"type":"action"}],"has_social":true,"social_links":[{"label":"Twitter","url":"https://twitter.com/zizhujy","style":"icon","icon_class":"fa-twitter","new_window":true,"type":"action"},{"label":"Instagram","url":"https://www.instagram.com/jefftian5","style":"icon","icon_class":"fa-instagram","new_window":true,"type":"action"},{"label":"GitHub","url":"https://github.com/jeff-tian","style":"icon","icon_class":"fa-github","new_window":true,"type":"action"},{"label":"LinkedIn","url":"https://www.linkedin.com/jeff~tian","style":"icon","icon_class":"fa-linkedin","new_window":true,"type":"action"},{"label":"DEV","url":"https://dev.to/jefftian","style":"icon","icon_class":"fa-dev","new_window":true,"type":"action"},{"label":"知乎","url":"https://www.zhihu.com/people/jefftian","style":"icon","icon_class":"fa-zhihu","new_window":true,"type":"action"}],"type":"header"},"footer":{"content":"&copy; All rights reserved.","links":[{"label":"Made with Stackbit.","url":"https://www.stackbit.com","style":"link","new_window":true,"type":"action"},{"label":"紫竹叽歪","url":"https://zizhujy.apphb.com","style":"link","icon_class":"http://zizhujy.apphb.com/Content/Images/logo.png","new_window":true,"type":"action"}],"type":"footer"}},"pathPrefix":"","data":{"data":{"author":{"name":"Jeff Tian","avatar":"https://res.cloudinary.com/practicaldev/image/fetch/s--a5qDZLv3--/c_fill,f_auto,fl_progressive,h_640,q_auto,w_640/https://dev-to-uploads.s3.amazonaws.com/uploads/user/profile_image/318420/3bfd2d99-430c-4049-8dd5-e2adc961e1e0.png"},"social":{"devto":{"username":"jefftian"},"twitter":{"username":"zizhujy"},"github":{"username":"Jeff-Tian"}}}}},"menus":{}}},"staticQueryHashes":[],"slicesMap":{}}