{"componentChunkName":"component---src-templates-home-js","path":"/8","result":{"data":{"allMarkdownRemark":{"edges":[{"node":{"excerpt":"需求背景 使用前后端分离开发的 Web 应用，想通过 IdentityServer 作为授权服务器将它保护起来，只允许登录后的用户使用。不管是前端页面，还是后端 API…","id":"6d7dea3e-323d-5c42-9ab6-27692a6320a4","frontmatter":{"title":"使用 IdentityServer 保护 Web 应用（AntD Pro 前端 + SpringBoot 后端）","template":"post","has_more_link":null,"more_link_text":null,"excerpt":"","canonical_url":null,"date":"2022-06-23T12:34:00","img_path":null,"positive_reactions_count":null,"stackbit_url_path":"posts/greu6l"}}},{"node":{"excerpt":"在线剪贴板的由来 在《扫二维码登录一定安全吗？》中，提到可以通过一种在线剪贴板的服务，远程拿到通过扫描二维码登录的用户的 cookie，虽然拿到用户的 cookie…","id":"b616ca9b-b8af-5756-b89c-5d1d57b3525f","frontmatter":{"title":"在线剪贴板的妙用——管理第三方全局访问令牌","template":"post","has_more_link":null,"more_link_text":null,"excerpt":"","canonical_url":null,"date":"2022-06-17T11:44:46","img_path":null,"positive_reactions_count":null,"stackbit_url_path":"posts/ep919t"}}},{"node":{"excerpt":"昨天的视频《扫二维码登录一定安全吗？》里，现场演示了通过截获网站 Cookie 的方式，可以轻易盗用别人的账号。其中有个环节，盗取的 Cookie 是手动获取的，要改进成自动上传是很容易的。比如在设置 Cookie 到 LocalStorage…","id":"1c8c1449-05b7-5de1-812d-0f9166746448","frontmatter":{"title":"“在线剪贴板”服务开发实录——逃不过的霍夫施塔特定律","template":"post","has_more_link":null,"more_link_text":null,"excerpt":"","canonical_url":null,"date":"2022-06-10T12:19:13","img_path":null,"positive_reactions_count":null,"stackbit_url_path":"posts/rqmz7r"}}},{"node":{"excerpt":"…","id":"9c4cc9b2-4c0c-5488-974c-08f0c4935811","frontmatter":{"title":"扫二维码登录一定安全吗？","template":"post","has_more_link":null,"more_link_text":null,"excerpt":"","canonical_url":null,"date":"2022-06-10T09:03:08","img_path":null,"positive_reactions_count":null,"stackbit_url_path":"posts/av3i3x"}}},{"node":{"excerpt":"…","id":"bf5bbe70-89e2-547e-9c69-e7b66f08a38c","frontmatter":{"title":"计算机书籍一定要读英文版吗？","template":"post","has_more_link":null,"more_link_text":null,"excerpt":"","canonical_url":null,"date":"2022-06-02T16:35:12","img_path":null,"positive_reactions_count":null,"stackbit_url_path":"posts/dtuh6g"}}}]}},"pageContext":{"limit":5,"skip":35,"totalPages":174,"totalItems":868,"currentPage":8,"frontmatter":{"canonical_url":null,"comments_count":null,"title":"Home","template":"home","more_link_text":"Keep reading / 查看全部","date":null,"excerpt":"Jeff Tian's homepage","has_more_link":true},"url":"/","relativePath":"/","base":"","site":{"siteMetadata":{"title":"Jeff Tian","description":"A wild full stack developer","palette":"yellow","header":{"title":"Jeff Tian","tagline":"A wild developer","logo_img":"https://images.ctfassets.net/qixg1o8tujmf/7z1ua3nTOC5B7DwwzAki8I/4e1a05f8db770c285a492eeb1eaa398f/imageedit_3_2509022194.png","background_img":"https://images.ctfassets.net/qixg1o8tujmf/7m0jrKYaDBwEvlc5lo8nt6/6d50a5050d9cdc0d4d2047e35feac292/10648733_696750647079056_2800539603462658695_o.jpg","has_nav":true,"nav_links":[{"label":"Home","url":"/","style":"link","type":"action"},{"label":"About","url":"/about","style":"link","type":"action"},{"label":"关于","url":"https://ggyy.pa-pa.me/about","style":"link","icon_class":"lorem-ipsum","new_window":true,"type":"action"},{"label":"Contact","url":"/contact","style":"link","type":"action"},{"label":"Support Me","url":"/support-me","style":"link","type":"action"},{"label":"叽叽歪歪","url":"https://ggyy.pa-pa.me/","style":"link","icon_class":"lorem-ipsum","new_window":true,"type":"action"}],"has_social":true,"social_links":[{"label":"Twitter","url":"https://twitter.com/zizhujy","style":"icon","icon_class":"fa-twitter","new_window":true,"type":"action"},{"label":"Instagram","url":"https://www.instagram.com/jefftian5","style":"icon","icon_class":"fa-instagram","new_window":true,"type":"action"},{"label":"GitHub","url":"https://github.com/jeff-tian","style":"icon","icon_class":"fa-github","new_window":true,"type":"action"},{"label":"LinkedIn","url":"https://www.linkedin.com/jeff~tian","style":"icon","icon_class":"fa-linkedin","new_window":true,"type":"action"},{"label":"DEV","url":"https://dev.to/jefftian","style":"icon","icon_class":"fa-dev","new_window":true,"type":"action"},{"label":"知乎","url":"https://www.zhihu.com/people/jefftian","style":"icon","icon_class":"fa-zhihu","new_window":true,"type":"action"}],"type":"header"},"footer":{"content":"&copy; All rights reserved.","links":[{"label":"Made with Stackbit.","url":"https://www.stackbit.com","style":"link","new_window":true,"type":"action"},{"label":"紫竹叽歪","url":"https://zizhujy.apphb.com","style":"link","icon_class":"http://zizhujy.apphb.com/Content/Images/logo.png","new_window":true,"type":"action"}],"type":"footer"}},"pathPrefix":"","data":{"data":{"author":{"name":"Jeff Tian","avatar":"https://res.cloudinary.com/practicaldev/image/fetch/s--a5qDZLv3--/c_fill,f_auto,fl_progressive,h_640,q_auto,w_640/https://dev-to-uploads.s3.amazonaws.com/uploads/user/profile_image/318420/3bfd2d99-430c-4049-8dd5-e2adc961e1e0.png"},"social":{"devto":{"username":"jefftian"},"twitter":{"username":"zizhujy"},"github":{"username":"Jeff-Tian"}}}}},"menus":{}}},"staticQueryHashes":[]}