{"componentChunkName":"component---src-templates-home-js","path":"/173/","result":{"data":{"allMarkdownRemark":{"edges":[{"node":{"excerpt":"","id":"8d190165-5155-5a17-be33-ae5e2cb8c7ed","frontmatter":{"title":"《计算机网络 自顶向下方法》的在线资源网址","template":"post","has_more_link":null,"more_link_text":null,"excerpt":"","canonical_url":"https://be-net.azurewebsites.net/post/2010/01/07/《计算机网络-自顶向下方法》的在线资源网址","date":"2010-01-07 06:23:16","img_path":null,"positive_reactions_count":0,"stackbit_url_path":"posts/《计算机网络-自顶向下方法》的在线资源网址"}}},{"node":{"excerpt":"","id":"6e4655fe-ffae-51c0-8ba9-4ff6fa0e52ab","frontmatter":{"title":"Google English 网站IP地址","template":"post","has_more_link":null,"more_link_text":null,"excerpt":"","canonical_url":"https://be-net.azurewebsites.net/post/2010/01/06/Google-English-网站IP地址","date":"2010-01-06 17:54:33","img_path":null,"positive_reactions_count":0,"stackbit_url_path":"posts/Google-English-网站IP地址"}}},{"node":{"excerpt":"","id":"533d5c6e-4ec3-5f0e-9f7b-798c8e54ca89","frontmatter":{"title":"浏览器首页被篡改","template":"post","has_more_link":null,"more_link_text":null,"excerpt":"","canonical_url":"https://be-net.azurewebsites.net/post/2010/01/06/浏览器首页被篡改","date":"2010-01-06 02:55:53","img_path":null,"positive_reactions_count":0,"stackbit_url_path":"posts/浏览器首页被篡改"}}},{"node":{"excerpt":"//\n// 初始化工作\n// 注意：此过程应该在HTML文档加载完成后再调用\n//\nmfMessage.prototype.init = function() {\nif (this.init) { return; }\nif (!window.isReady) { return…","id":"0d6ab4eb-345a-59a9-a7f2-a5aacc9a4f4b","frontmatter":{"title":"无干扰模式的信息提示 (版本2)","template":"post","has_more_link":null,"more_link_text":null,"excerpt":"","canonical_url":"https://be-net.azurewebsites.net/post/2010/01/04/无干扰模式的信息提示-(版本2)","date":"2010-01-04 16:47:10","img_path":null,"positive_reactions_count":0,"stackbit_url_path":"posts/无干扰模式的信息提示-(版本2)"}}},{"node":{"excerpt":"","id":"8cce25d8-7aae-5bfa-9029-ad83c41beb6f","frontmatter":{"title":"Java 中判断两个字符串是否相同，不能使用 ==","template":"post","has_more_link":null,"more_link_text":null,"excerpt":"","canonical_url":"https://be-net.azurewebsites.net/post/2010/01/01/Java-中判断两个字符串是否相同，不能使用-==","date":"2010-01-01 02:42:51","img_path":null,"positive_reactions_count":0,"stackbit_url_path":"posts/Java-中判断两个字符串是否相同，不能使用-=="}}}]}},"pageContext":{"limit":5,"skip":860,"totalPages":187,"totalItems":931,"currentPage":173,"frontmatter":{"canonical_url":null,"comments_count":null,"title":"Home","template":"home","more_link_text":"Keep reading / 查看全部","date":null,"excerpt":"Jeff Tian's homepage","has_more_link":true},"url":"/","relativePath":"/","base":"","site":{"siteMetadata":{"title":"Jeff Tian","author":"@zizhujy","description":"A wild full stack developer","palette":"yellow","header":{"title":"Jeff Tian","tagline":"A wild developer","logo_img":"https://images.ctfassets.net/qixg1o8tujmf/7z1ua3nTOC5B7DwwzAki8I/4e1a05f8db770c285a492eeb1eaa398f/imageedit_3_2509022194.png","background_img":"https://images.ctfassets.net/qixg1o8tujmf/7m0jrKYaDBwEvlc5lo8nt6/6d50a5050d9cdc0d4d2047e35feac292/10648733_696750647079056_2800539603462658695_o.jpg","has_nav":true,"nav_links":[{"label":"Home","url":"/","style":"link","type":"action"},{"label":"About","url":"/about","style":"link","type":"action"},{"label":"关于","url":"https://ggyy.pa-pa.me/about","style":"link","icon_class":"lorem-ipsum","new_window":true,"type":"action"},{"label":"Contact","url":"/contact","style":"link","type":"action"},{"label":"Support Me","url":"/support-me","style":"link","type":"action"},{"label":"叽叽歪歪","url":"https://ggyy.pa-pa.me/","style":"link","icon_class":"lorem-ipsum","new_window":true,"type":"action"}],"has_social":true,"social_links":[{"label":"Twitter","url":"https://twitter.com/zizhujy","style":"icon","icon_class":"fa-twitter","new_window":true,"type":"action"},{"label":"Instagram","url":"https://www.instagram.com/jefftian5","style":"icon","icon_class":"fa-instagram","new_window":true,"type":"action"},{"label":"GitHub","url":"https://github.com/jeff-tian","style":"icon","icon_class":"fa-github","new_window":true,"type":"action"},{"label":"LinkedIn","url":"https://www.linkedin.com/jeff~tian","style":"icon","icon_class":"fa-linkedin","new_window":true,"type":"action"},{"label":"DEV","url":"https://dev.to/jefftian","style":"icon","icon_class":"fa-dev","new_window":true,"type":"action"},{"label":"知乎","url":"https://www.zhihu.com/people/jefftian","style":"icon","icon_class":"fa-zhihu","new_window":true,"type":"action"}],"type":"header"},"footer":{"content":"&copy; All rights reserved.","links":[{"label":"Made with Stackbit.","url":"https://www.stackbit.com","style":"link","new_window":true,"type":"action"},{"label":"紫竹叽歪","url":"https://zizhujy.apphb.com","style":"link","icon_class":"http://zizhujy.apphb.com/Content/Images/logo.png","new_window":true,"type":"action"}],"type":"footer"}},"pathPrefix":"","data":{"data":{"author":{"name":"Jeff Tian","avatar":"https://res.cloudinary.com/practicaldev/image/fetch/s--a5qDZLv3--/c_fill,f_auto,fl_progressive,h_640,q_auto,w_640/https://dev-to-uploads.s3.amazonaws.com/uploads/user/profile_image/318420/3bfd2d99-430c-4049-8dd5-e2adc961e1e0.png"},"social":{"devto":{"username":"jefftian"},"twitter":{"username":"zizhujy"},"github":{"username":"Jeff-Tian"}}}}},"menus":{}}},"staticQueryHashes":[],"slicesMap":{}}