{"componentChunkName":"component---src-templates-home-js","path":"/7","result":{"data":{"allMarkdownRemark":{"edges":[{"node":{"excerpt":"TDD TDD，即测试驱动开发，要求先写测试，再写实现。除了日常开发外，其实在做开源贡献时，也非常适合。TDD 要细聊的话，内容可以多到写一本书，甚至还有不同的流派存在。 https://www.zhihu.com/zvideo/152582801167319449…","id":"5176ef75-6798-5c67-8c98-ec09da511b4a","frontmatter":{"title":"使用 TDD 做开源贡献","template":"post","has_more_link":null,"more_link_text":null,"excerpt":"","canonical_url":null,"date":"2022-07-20T02:21:04","img_path":null,"positive_reactions_count":null,"stackbit_url_path":"posts/wbgy0f"}}},{"node":{"excerpt":"多年前写的 Koa Js 服务，本来跑在服务器上，要一点花销。后来决定薅各大云厂商的羊毛，就将它容器化了，跑在免费的 Okteto 提供的 K8S 环境里。但是最近 Okteto 提供的 url 访问不了了，虽然发了邮件请 Okteto…","id":"42da0d40-13a5-5575-a509-67101636260e","frontmatter":{"title":"Free Arch：将 Koa 服务部署到 Vercel","template":"post","has_more_link":null,"more_link_text":null,"excerpt":"","canonical_url":null,"date":"2022-07-15T11:40:07","img_path":null,"positive_reactions_count":null,"stackbit_url_path":"posts/sycunq"}}},{"node":{"excerpt":"…","id":"27d5aabc-f784-591f-858d-c1cb4a7ae1ee","frontmatter":{"title":"在视频会议中高效传递知识","template":"post","has_more_link":null,"more_link_text":null,"excerpt":"","canonical_url":null,"date":"2022-07-12T03:41:27","img_path":null,"positive_reactions_count":null,"stackbit_url_path":"posts/xcwkez"}}},{"node":{"excerpt":"7月8日，突闻安倍晋三遭遇枪击，枪手仅距离其两到三米！我当时心想，原来日本政治家这么亲民，一点也不设防。后来才知道，根本不是不设访，而是每年花费了超过2亿日元的安保费用，并且据《AREA…","id":"7940cb7a-9125-5fb0-bc07-685b0b3171e2","frontmatter":{"title":"《重构》三刷有感","template":"post","has_more_link":null,"more_link_text":null,"excerpt":"","canonical_url":null,"date":"2022-07-10T07:52:33","img_path":null,"positive_reactions_count":null,"stackbit_url_path":"posts/domiam"}}},{"node":{"excerpt":"不知不觉，写“哈德韦”专栏已经有一段时间了，最初只顾瞎写，偶然还能解决别人的问题，甚至还收到一 些付费咨询，这真的是意外的惊喜。image.pngimage.png…","id":"d0dc4415-0fff-5f7d-b0b6-58ba605785ae","frontmatter":{"title":"菜鸟大使：菜鸟和大佬的世界是割裂的（以及为什么 Keycloak 的文档或教程如此缺乏？）","template":"post","has_more_link":null,"more_link_text":null,"excerpt":"","canonical_url":null,"date":"2022-07-03T06:35:30","img_path":null,"positive_reactions_count":null,"stackbit_url_path":"posts/yl15qw"}}}]}},"pageContext":{"limit":5,"skip":30,"totalPages":174,"totalItems":868,"currentPage":7,"frontmatter":{"canonical_url":null,"comments_count":null,"title":"Home","template":"home","more_link_text":"Keep reading / 查看全部","date":null,"excerpt":"Jeff Tian's homepage","has_more_link":true},"url":"/","relativePath":"/","base":"","site":{"siteMetadata":{"title":"Jeff Tian","description":"A wild full stack developer","palette":"yellow","header":{"title":"Jeff Tian","tagline":"A wild developer","logo_img":"https://images.ctfassets.net/qixg1o8tujmf/7z1ua3nTOC5B7DwwzAki8I/4e1a05f8db770c285a492eeb1eaa398f/imageedit_3_2509022194.png","background_img":"https://images.ctfassets.net/qixg1o8tujmf/7m0jrKYaDBwEvlc5lo8nt6/6d50a5050d9cdc0d4d2047e35feac292/10648733_696750647079056_2800539603462658695_o.jpg","has_nav":true,"nav_links":[{"label":"Home","url":"/","style":"link","type":"action"},{"label":"About","url":"/about","style":"link","type":"action"},{"label":"关于","url":"https://ggyy.pa-pa.me/about","style":"link","icon_class":"lorem-ipsum","new_window":true,"type":"action"},{"label":"Contact","url":"/contact","style":"link","type":"action"},{"label":"Support Me","url":"/support-me","style":"link","type":"action"},{"label":"叽叽歪歪","url":"https://ggyy.pa-pa.me/","style":"link","icon_class":"lorem-ipsum","new_window":true,"type":"action"}],"has_social":true,"social_links":[{"label":"Twitter","url":"https://twitter.com/zizhujy","style":"icon","icon_class":"fa-twitter","new_window":true,"type":"action"},{"label":"Instagram","url":"https://www.instagram.com/jefftian5","style":"icon","icon_class":"fa-instagram","new_window":true,"type":"action"},{"label":"GitHub","url":"https://github.com/jeff-tian","style":"icon","icon_class":"fa-github","new_window":true,"type":"action"},{"label":"LinkedIn","url":"https://www.linkedin.com/jeff~tian","style":"icon","icon_class":"fa-linkedin","new_window":true,"type":"action"},{"label":"DEV","url":"https://dev.to/jefftian","style":"icon","icon_class":"fa-dev","new_window":true,"type":"action"},{"label":"知乎","url":"https://www.zhihu.com/people/jefftian","style":"icon","icon_class":"fa-zhihu","new_window":true,"type":"action"}],"type":"header"},"footer":{"content":"&copy; All rights reserved.","links":[{"label":"Made with Stackbit.","url":"https://www.stackbit.com","style":"link","new_window":true,"type":"action"},{"label":"紫竹叽歪","url":"https://zizhujy.apphb.com","style":"link","icon_class":"http://zizhujy.apphb.com/Content/Images/logo.png","new_window":true,"type":"action"}],"type":"footer"}},"pathPrefix":"","data":{"data":{"author":{"name":"Jeff Tian","avatar":"https://res.cloudinary.com/practicaldev/image/fetch/s--a5qDZLv3--/c_fill,f_auto,fl_progressive,h_640,q_auto,w_640/https://dev-to-uploads.s3.amazonaws.com/uploads/user/profile_image/318420/3bfd2d99-430c-4049-8dd5-e2adc961e1e0.png"},"social":{"devto":{"username":"jefftian"},"twitter":{"username":"zizhujy"},"github":{"username":"Jeff-Tian"}}}}},"menus":{}}},"staticQueryHashes":[]}