{"componentChunkName":"component---src-templates-home-js","path":"/158","result":{"data":{"allMarkdownRemark":{"edges":[{"node":{"excerpt":"","id":"919de223-85d5-50a4-9c1e-ba495058a5fa","frontmatter":{"title":"解决IE浏览器的“Internet Explorer 遇到问题需要关闭。我们对此引起的不便表示抱歉。”问题","template":"post","has_more_link":null,"more_link_text":null,"excerpt":"","canonical_url":"https://be-net.azurewebsites.net/post/2009/12/31/解决IE浏览器的“Internet-Explorer-遇到问题需要关闭。我们对此引起的不便表示抱歉。”问题","date":"2009-12-31 10:40:12","img_path":null,"positive_reactions_count":0,"stackbit_url_path":"posts/解决IE浏览器的“Internet-Explorer-遇到问题需要关闭。我们对此引起的不便表示抱歉。”问题"}}},{"node":{"excerpt":"","id":"d3f9446c-de57-5a82-9a0c-95a47f49cae1","frontmatter":{"title":"在ASP中使用ADODB.Stream对象以指定编码格式保存文本文件","template":"post","has_more_link":null,"more_link_text":null,"excerpt":"","canonical_url":"https://be-net.azurewebsites.net/post/2009/12/30/在ASP中使用ADODBStream对象以指定编码格式保存文本文件","date":"2009-12-30 03:21:17","img_path":null,"positive_reactions_count":0,"stackbit_url_path":"posts/在ASP中使用ADODBStream对象以指定编码格式保存文本文件"}}},{"node":{"excerpt":"","id":"6d6f906e-ebb2-59e7-9c06-999133efcc56","frontmatter":{"title":"使用 Photoshop 给图片加边框","template":"post","has_more_link":null,"more_link_text":null,"excerpt":"","canonical_url":"https://be-net.azurewebsites.net/post/2009/12/30/使用-Photoshop-给图片加边框","date":"2009-12-30 02:51:39","img_path":null,"positive_reactions_count":0,"stackbit_url_path":"posts/使用-Photoshop-给图片加边框"}}},{"node":{"excerpt":"%>","id":"009844e6-7394-5119-8e4d-ac92b1bcf32b","frontmatter":{"title":"在ASP中使用正则表达式从完整路径中解析出文件名与不含文件名的路径","template":"post","has_more_link":null,"more_link_text":null,"excerpt":"","canonical_url":"https://be-net.azurewebsites.net/post/2009/12/29/在ASP中使用正则表达式从完整路径中解析出文件名与不含文件名的路径","date":"2009-12-29 17:26:19","img_path":null,"positive_reactions_count":0,"stackbit_url_path":"posts/在ASP中使用正则表达式从完整路径中解析出文件名与不含文件名的路径"}}},{"node":{"excerpt":"","id":"3e55f54e-8541-532e-98f6-37bdf9ba8ad6","frontmatter":{"title":"如何以正确的编码格式来读取文本文件？ 使用_autodetect_all","template":"post","has_more_link":null,"more_link_text":null,"excerpt":"","canonical_url":"https://be-net.azurewebsites.net/post/2009/12/26/如何以正确的编码格式来读取文本文件？-使用_autodetect_all","date":"2009-12-26 16:08:34","img_path":null,"positive_reactions_count":0,"stackbit_url_path":"posts/如何以正确的编码格式来读取文本文件？-使用_autodetect_all"}}}]}},"pageContext":{"limit":5,"skip":785,"totalPages":170,"totalItems":850,"currentPage":158,"frontmatter":{"canonical_url":null,"comments_count":null,"title":"Home","template":"home","more_link_text":"Keep reading / 查看全部","date":null,"excerpt":"Jeff Tian's homepage","has_more_link":true},"url":"/","relativePath":"/","base":"","site":{"siteMetadata":{"title":"Jeff Tian","description":"Full Stack Developer, good at OAuth 2.0","palette":"yellow","header":{"title":"Jeff Tian","tagline":"A wild developer","logo_img":"https://images.ctfassets.net/qixg1o8tujmf/7z1ua3nTOC5B7DwwzAki8I/4e1a05f8db770c285a492eeb1eaa398f/imageedit_3_2509022194.png","background_img":"https://images.ctfassets.net/qixg1o8tujmf/7m0jrKYaDBwEvlc5lo8nt6/6d50a5050d9cdc0d4d2047e35feac292/10648733_696750647079056_2800539603462658695_o.jpg","has_nav":true,"nav_links":[{"label":"Home","url":"/","style":"link","type":"action"},{"label":"About","url":"/about","style":"link","type":"action"},{"label":"关于","url":"https://ggyy.pa-pa.me/about","style":"link","icon_class":"lorem-ipsum","new_window":true,"type":"action"},{"label":"Contact","url":"/contact","style":"link","type":"action"},{"label":"Support Me","url":"/support-me","style":"link","type":"action"},{"label":"叽叽歪歪","url":"https://ggyy.pa-pa.me/","style":"link","icon_class":"lorem-ipsum","new_window":true,"type":"action"}],"has_social":true,"social_links":[{"label":"Twitter","url":"https://twitter.com/zizhujy","style":"icon","icon_class":"fa-twitter","new_window":true,"type":"action"},{"label":"Instagram","url":"https://www.instagram.com/jefftian5","style":"icon","icon_class":"fa-instagram","new_window":true,"type":"action"},{"label":"GitHub","url":"https://github.com/jeff-tian","style":"icon","icon_class":"fa-github","new_window":true,"type":"action"},{"label":"LinkedIn","url":"https://www.linkedin.com/jeff~tian","style":"icon","icon_class":"fa-linkedin","new_window":true,"type":"action"},{"label":"DEV","url":"https://dev.to/jefftian","style":"icon","icon_class":"fa-dev","new_window":true,"type":"action"},{"label":"知乎","url":"https://www.zhihu.com/people/jefftian","style":"icon","icon_class":"fa-zhihu","new_window":true,"type":"action"}],"type":"header"},"footer":{"content":"&copy; All rights reserved.","links":[{"label":"本站源码","url":"https://github.com/Jeff-Tian/space","style":"link","icon_class":"fa-github","new_window":true,"type":"action"},{"label":"紫竹叽歪","url":"https://zizhujy.apphb.com","style":"link","icon_class":"http://zizhujy.apphb.com/Content/Images/logo.png","new_window":true,"type":"action"}],"type":"footer"}},"pathPrefix":"","data":{"data":{"author":{"name":"Jeff Tian","avatar":"https://res.cloudinary.com/practicaldev/image/fetch/s--a5qDZLv3--/c_fill,f_auto,fl_progressive,h_640,q_auto,w_640/https://dev-to-uploads.s3.amazonaws.com/uploads/user/profile_image/318420/3bfd2d99-430c-4049-8dd5-e2adc961e1e0.png"},"social":{"devto":{"username":"jefftian"},"twitter":{"username":"zizhujy"},"github":{"username":"Jeff-Tian"}}}}},"menus":{}}},"staticQueryHashes":[]}