{"componentChunkName":"component---src-templates-home-js","path":"/93/","result":{"data":{"allMarkdownRemark":{"edges":[{"node":{"excerpt":"","id":"0394bfaa-ab78-5c8a-a873-c7d465083773","frontmatter":{"title":"癌细胞其实很爱你，比你自己还要爱","template":"post","has_more_link":null,"more_link_text":null,"excerpt":"","canonical_url":"https://be-net.azurewebsites.net/post/2011/04/18/e7998ce7bb86e8839ee585b6e5ae9ee5be88e788b1e4bda0efbc8ce6af94e4bda0e887aae5b7b1e8bf98e8a681e788b1","date":"2011-04-18 07:00:00","img_path":null,"positive_reactions_count":0,"stackbit_url_path":"posts/e7998ce7bb86e8839ee585b6e5ae9ee5be88e788b1e4bda0efbc8ce6af94e4bda0e887aae5b7b1e8bf98e8a681e788b1"}}},{"node":{"excerpt":"BEGIN END","id":"e240c1cf-5f14-5777-88e0-eb217835815b","frontmatter":{"title":"求算法","template":"post","has_more_link":null,"more_link_text":null,"excerpt":"","canonical_url":"https://be-net.azurewebsites.net/post/2011/03/16/e6b182e7ae97e6b395","date":"2011-03-16 06:58:00","img_path":null,"positive_reactions_count":0,"stackbit_url_path":"posts/e6b182e7ae97e6b395"}}},{"node":{"excerpt":"","id":"c37ba6d8-088d-527a-953e-bb9eabee18a6","frontmatter":{"title":"要幸福快乐？开什么玩笑！","template":"post","has_more_link":null,"more_link_text":null,"excerpt":"","canonical_url":"https://be-net.azurewebsites.net/post/2011/03/03/e8a681e5b9b8e7a68fe5bfabe4b990efbc9fe5bc80e4bb80e4b988e78ea9e7ac91efbc81","date":"2011-03-03 05:56:00","img_path":null,"positive_reactions_count":0,"stackbit_url_path":"posts/e8a681e5b9b8e7a68fe5bfabe4b990efbc9fe5bc80e4bb80e4b988e78ea9e7ac91efbc81"}}},{"node":{"excerpt":"","id":"09a7edb4-0d34-5017-8e5b-3e8f5b3c22d2","frontmatter":{"title":"SQL SERVER跨服务器查询(SQL SERVER DBLINK)","template":"post","has_more_link":null,"more_link_text":null,"excerpt":"","canonical_url":"https://be-net.azurewebsites.net/post/2011/03/02/SQL-SERVERe8b7a8e69c8de58aa1e599a8e69fa5e8afa2(SQL-SERVER-DBLINK)","date":"2011-03-02 05:54:00","img_path":null,"positive_reactions_count":0,"stackbit_url_path":"posts/SQL-SERVERe8b7a8e69c8de58aa1e599a8e69fa5e8afa2(SQL-SERVER-DBLINK)"}}},{"node":{"excerpt":"","id":"ac780ee2-e233-5999-bb01-5d4ea228da91","frontmatter":{"title":"office excel 2007 文档双击不能打开","template":"post","has_more_link":null,"more_link_text":null,"excerpt":"","canonical_url":"https://be-net.azurewebsites.net/post/2011/02/24/office-excel-2007-e69687e6a1a3e58f8ce587bbe4b88de883bde68993e5bc80","date":"2011-02-24 05:52:00","img_path":null,"positive_reactions_count":0,"stackbit_url_path":"posts/office-excel-2007-e69687e6a1a3e58f8ce587bbe4b88de883bde68993e5bc80"}}}]}},"pageContext":{"limit":5,"skip":460,"totalPages":187,"totalItems":931,"currentPage":93,"frontmatter":{"canonical_url":null,"comments_count":null,"title":"Home","template":"home","more_link_text":"Keep reading / 查看全部","date":null,"excerpt":"Jeff Tian's homepage","has_more_link":true},"url":"/","relativePath":"/","base":"","site":{"siteMetadata":{"title":"Jeff Tian","author":"@zizhujy","description":"A wild full stack developer","palette":"yellow","header":{"title":"Jeff Tian","tagline":"A wild developer","logo_img":"https://images.ctfassets.net/qixg1o8tujmf/7z1ua3nTOC5B7DwwzAki8I/4e1a05f8db770c285a492eeb1eaa398f/imageedit_3_2509022194.png","background_img":"https://images.ctfassets.net/qixg1o8tujmf/7m0jrKYaDBwEvlc5lo8nt6/6d50a5050d9cdc0d4d2047e35feac292/10648733_696750647079056_2800539603462658695_o.jpg","has_nav":true,"nav_links":[{"label":"Home","url":"/","style":"link","type":"action"},{"label":"About","url":"/about","style":"link","type":"action"},{"label":"关于","url":"https://ggyy.pa-pa.me/about","style":"link","icon_class":"lorem-ipsum","new_window":true,"type":"action"},{"label":"Contact","url":"/contact","style":"link","type":"action"},{"label":"Support Me","url":"/support-me","style":"link","type":"action"},{"label":"叽叽歪歪","url":"https://ggyy.pa-pa.me/","style":"link","icon_class":"lorem-ipsum","new_window":true,"type":"action"}],"has_social":true,"social_links":[{"label":"Twitter","url":"https://twitter.com/zizhujy","style":"icon","icon_class":"fa-twitter","new_window":true,"type":"action"},{"label":"Instagram","url":"https://www.instagram.com/jefftian5","style":"icon","icon_class":"fa-instagram","new_window":true,"type":"action"},{"label":"GitHub","url":"https://github.com/jeff-tian","style":"icon","icon_class":"fa-github","new_window":true,"type":"action"},{"label":"LinkedIn","url":"https://www.linkedin.com/jeff~tian","style":"icon","icon_class":"fa-linkedin","new_window":true,"type":"action"},{"label":"DEV","url":"https://dev.to/jefftian","style":"icon","icon_class":"fa-dev","new_window":true,"type":"action"},{"label":"知乎","url":"https://www.zhihu.com/people/jefftian","style":"icon","icon_class":"fa-zhihu","new_window":true,"type":"action"}],"type":"header"},"footer":{"content":"&copy; All rights reserved.","links":[{"label":"Made with Stackbit.","url":"https://www.stackbit.com","style":"link","new_window":true,"type":"action"},{"label":"紫竹叽歪","url":"https://zizhujy.apphb.com","style":"link","icon_class":"http://zizhujy.apphb.com/Content/Images/logo.png","new_window":true,"type":"action"}],"type":"footer"}},"pathPrefix":"","data":{"data":{"author":{"name":"Jeff Tian","avatar":"https://res.cloudinary.com/practicaldev/image/fetch/s--a5qDZLv3--/c_fill,f_auto,fl_progressive,h_640,q_auto,w_640/https://dev-to-uploads.s3.amazonaws.com/uploads/user/profile_image/318420/3bfd2d99-430c-4049-8dd5-e2adc961e1e0.png"},"social":{"devto":{"username":"jefftian"},"twitter":{"username":"zizhujy"},"github":{"username":"Jeff-Tian"}}}}},"menus":{}}},"staticQueryHashes":[],"slicesMap":{}}