{"componentChunkName":"component---src-templates-home-js","path":"/32","result":{"data":{"allMarkdownRemark":{"edges":[{"node":{"excerpt":"","id":"e6040a04-d4a0-57f8-a44d-051a38eb454a","frontmatter":{"title":"以禁用网页安全模式启动Google Chrome","template":"post","has_more_link":null,"more_link_text":null,"excerpt":"","canonical_url":"https://be-net.azurewebsites.net/post/2011/11/01/以禁用网页安全模式启动Google-Chrome","date":"2011-11-01 02:40:00","img_path":null,"positive_reactions_count":0,"stackbit_url_path":"posts/以禁用网页安全模式启动Google-Chrome"}}},{"node":{"excerpt":"","id":"444ec4f3-a6ab-5c1f-b1cd-4c2113b37e24","frontmatter":{"title":"纪念一个BUG","template":"post","has_more_link":null,"more_link_text":null,"excerpt":"","canonical_url":"https://be-net.azurewebsites.net/post/2011/10/31/纪念一个BUG","date":"2011-10-31 05:08:44.2761799","img_path":null,"positive_reactions_count":0,"stackbit_url_path":"posts/纪念一个BUG"}}},{"node":{"excerpt":"","id":"8919dda0-dec6-5b8d-a811-398bc9868b90","frontmatter":{"title":"给JavaScript的Array对象添加两个最大最小值方法","template":"post","has_more_link":null,"more_link_text":null,"excerpt":"","canonical_url":"https://be-net.azurewebsites.net/post/2011/10/27/给JavaScript的Array对象添加两个最大最小值方法","date":"2011-10-27 08:28:10.5746636","img_path":null,"positive_reactions_count":0,"stackbit_url_path":"posts/给JavaScript的Array对象添加两个最大最小值方法"}}},{"node":{"excerpt":"","id":"b3efa414-440e-5a01-83b8-333b5f68c709","frontmatter":{"title":"断电后数据库文件损坏不能启动SQL Server的解决办法","template":"post","has_more_link":null,"more_link_text":null,"excerpt":"","canonical_url":"https://be-net.azurewebsites.net/post/2011/10/26/断电后数据库文件损坏不能启动SQL-Server的解决办法","date":"2011-10-26 08:19:51.700087","img_path":null,"positive_reactions_count":0,"stackbit_url_path":"posts/断电后数据库文件损坏不能启动SQL-Server的解决办法"}}},{"node":{"excerpt":"","id":"5c975283-506c-5e04-ab25-3761e77fadbf","frontmatter":{"title":"数据点的最小二乘线性拟合","template":"post","has_more_link":null,"more_link_text":null,"excerpt":"","canonical_url":"https://be-net.azurewebsites.net/post/2011/10/15/数据点的最小二乘线性拟合","date":"2011-10-15 10:32:35.1443813","img_path":null,"positive_reactions_count":0,"stackbit_url_path":"posts/数据点的最小二乘线性拟合"}}}]}},"pageContext":{"limit":5,"skip":155,"totalPages":140,"totalItems":699,"currentPage":32,"frontmatter":{"canonical_url":null,"comments_count":null,"title":"Home","template":"home","more_link_text":"Keep reading / 查看全部","date":null,"excerpt":"Jeff Tian's homepage","has_more_link":true},"url":"/","relativePath":"/","base":"","site":{"siteMetadata":{"title":"Jeff Tian","description":"Full Stack Developer, good at OAuth 2.0","palette":"yellow","header":{"title":"Jeff Tian","tagline":"A wild developer","logo_img":"https://images.ctfassets.net/qixg1o8tujmf/7z1ua3nTOC5B7DwwzAki8I/4e1a05f8db770c285a492eeb1eaa398f/imageedit_3_2509022194.png","background_img":"https://images.ctfassets.net/qixg1o8tujmf/7m0jrKYaDBwEvlc5lo8nt6/6d50a5050d9cdc0d4d2047e35feac292/10648733_696750647079056_2800539603462658695_o.jpg","has_nav":true,"nav_links":[{"label":"Home","url":"/","style":"link","type":"action"},{"label":"About","url":"/about","style":"link","type":"action"},{"label":"关于","url":"https://ggyy.pa-pa.me/about","style":"link","icon_class":"lorem-ipsum","new_window":true,"type":"action"},{"label":"Contact","url":"/contact","style":"link","type":"action"},{"label":"Support Me","url":"/support-me","style":"link","type":"action"},{"label":"叽叽歪歪","url":"https://ggyy.pa-pa.me/","style":"link","icon_class":"lorem-ipsum","new_window":true,"type":"action"}],"has_social":true,"social_links":[{"label":"Twitter","url":"https://twitter.com/zizhujy","style":"icon","icon_class":"fa-twitter","new_window":true,"type":"action"},{"label":"Instagram","url":"https://www.instagram.com/jefftian5","style":"icon","icon_class":"fa-instagram","new_window":true,"type":"action"},{"label":"GitHub","url":"https://github.com/jeff-tian","style":"icon","icon_class":"fa-github","new_window":true,"type":"action"},{"label":"LinkedIn","url":"https://www.linkedin.com/jeff~tian","style":"icon","icon_class":"fa-linkedin","new_window":true,"type":"action"},{"label":"DEV","url":"https://dev.to/jefftian","style":"icon","icon_class":"fa-dev","new_window":true,"type":"action"},{"label":"知乎","url":"https://www.zhihu.com/people/jefftian","style":"icon","icon_class":"fa-zhihu","new_window":true,"type":"action"}],"type":"header"},"footer":{"content":"&copy; All rights reserved.","links":[{"label":"本站源码","url":"https://github.com/Jeff-Tian/space","style":"link","icon_class":"fa-github","new_window":true,"type":"action"},{"label":"紫竹叽歪","url":"https://zizhujy.apphb.com","style":"link","icon_class":"http://zizhujy.apphb.com/Content/Images/logo.png","new_window":true,"type":"action"}],"type":"footer"}},"pathPrefix":"","data":{"data":{"author":{"name":"Jeff Tian","avatar":"https://res.cloudinary.com/practicaldev/image/fetch/s--a5qDZLv3--/c_fill,f_auto,fl_progressive,h_640,q_auto,w_640/https://dev-to-uploads.s3.amazonaws.com/uploads/user/profile_image/318420/3bfd2d99-430c-4049-8dd5-e2adc961e1e0.png"},"social":{"devto":{"username":"jefftian"},"twitter":{"username":"zizhujy"},"github":{"username":"Jeff-Tian"}}}}},"menus":{}}},"staticQueryHashes":[]}