{"componentChunkName":"component---src-templates-home-js","path":"/24","result":{"data":{"allMarkdownRemark":{"edges":[{"node":{"excerpt":"…","id":"d9f47cd0-3ded-5e52-adea-e5367186aca9","frontmatter":{"title":"缓存重定向方案设计","template":"post","has_more_link":null,"more_link_text":null,"excerpt":"","canonical_url":null,"date":"2021-03-17T05:39:17","img_path":null,"positive_reactions_count":null,"stackbit_url_path":"posts/bzr09l"}}},{"node":{"excerpt":"…","id":"0740f678-1552-5d2e-8861-52621ec83a18","frontmatter":{"title":"循环 vs 递归（反转链表示例）","template":"post","has_more_link":null,"more_link_text":null,"excerpt":"","canonical_url":null,"date":"2021-03-09T12:04:49","img_path":null,"positive_reactions_count":null,"stackbit_url_path":"posts/nry4dw"}}},{"node":{"excerpt":"…","id":"f707a322-a5e4-5995-9721-9dcce55bc6e5","frontmatter":{"title":"以终为始：假设问题已经解决","template":"post","has_more_link":null,"more_link_text":null,"excerpt":"","canonical_url":null,"date":"2021-03-08T10:43:17","img_path":null,"positive_reactions_count":null,"stackbit_url_path":"posts/gkw7ci"}}},{"node":{"excerpt":"…","id":"13c69638-2e47-547d-a4c1-3c0a3946301b","frontmatter":{"title":"我是如何从焦油坑里爬出来的","template":"post","has_more_link":null,"more_link_text":null,"excerpt":"","canonical_url":null,"date":"2021-03-04T14:57:07","img_path":null,"positive_reactions_count":null,"stackbit_url_path":"posts/cksgeh"}}},{"node":{"excerpt":"似乎是突然间，所有企业都开始大搞特搞“数字化转型”。这个似乎是 10 年前的提法，慢慢地消失后突然间又火了起来。 对于个人，我也想把自己以前的一些零星的散落着的东西收集起来，存在云上，也美名其曰“数字化”。 昨天翻到自己翻译的一首家喻户晓的 4 行诗，今天又翻到一首自己 201…","id":"3fb1ba8b-1144-5998-b30e-fc9cce96b63d","frontmatter":{"title":"译诗一首","template":"post","has_more_link":null,"more_link_text":null,"excerpt":"","canonical_url":null,"date":"2021-03-03T15:30:24","img_path":null,"positive_reactions_count":null,"stackbit_url_path":"posts/ituq7g"}}}]}},"pageContext":{"limit":5,"skip":115,"totalPages":170,"totalItems":850,"currentPage":24,"frontmatter":{"canonical_url":null,"comments_count":null,"title":"Home","template":"home","more_link_text":"Keep reading / 查看全部","date":null,"excerpt":"Jeff Tian's homepage","has_more_link":true},"url":"/","relativePath":"/","base":"","site":{"siteMetadata":{"title":"Jeff Tian","description":"Full Stack Developer, good at OAuth 2.0","palette":"yellow","header":{"title":"Jeff Tian","tagline":"A wild developer","logo_img":"https://images.ctfassets.net/qixg1o8tujmf/7z1ua3nTOC5B7DwwzAki8I/4e1a05f8db770c285a492eeb1eaa398f/imageedit_3_2509022194.png","background_img":"https://images.ctfassets.net/qixg1o8tujmf/7m0jrKYaDBwEvlc5lo8nt6/6d50a5050d9cdc0d4d2047e35feac292/10648733_696750647079056_2800539603462658695_o.jpg","has_nav":true,"nav_links":[{"label":"Home","url":"/","style":"link","type":"action"},{"label":"About","url":"/about","style":"link","type":"action"},{"label":"关于","url":"https://ggyy.pa-pa.me/about","style":"link","icon_class":"lorem-ipsum","new_window":true,"type":"action"},{"label":"Contact","url":"/contact","style":"link","type":"action"},{"label":"Support Me","url":"/support-me","style":"link","type":"action"},{"label":"叽叽歪歪","url":"https://ggyy.pa-pa.me/","style":"link","icon_class":"lorem-ipsum","new_window":true,"type":"action"}],"has_social":true,"social_links":[{"label":"Twitter","url":"https://twitter.com/zizhujy","style":"icon","icon_class":"fa-twitter","new_window":true,"type":"action"},{"label":"Instagram","url":"https://www.instagram.com/jefftian5","style":"icon","icon_class":"fa-instagram","new_window":true,"type":"action"},{"label":"GitHub","url":"https://github.com/jeff-tian","style":"icon","icon_class":"fa-github","new_window":true,"type":"action"},{"label":"LinkedIn","url":"https://www.linkedin.com/jeff~tian","style":"icon","icon_class":"fa-linkedin","new_window":true,"type":"action"},{"label":"DEV","url":"https://dev.to/jefftian","style":"icon","icon_class":"fa-dev","new_window":true,"type":"action"},{"label":"知乎","url":"https://www.zhihu.com/people/jefftian","style":"icon","icon_class":"fa-zhihu","new_window":true,"type":"action"}],"type":"header"},"footer":{"content":"&copy; All rights reserved.","links":[{"label":"本站源码","url":"https://github.com/Jeff-Tian/space","style":"link","icon_class":"fa-github","new_window":true,"type":"action"},{"label":"紫竹叽歪","url":"https://zizhujy.apphb.com","style":"link","icon_class":"http://zizhujy.apphb.com/Content/Images/logo.png","new_window":true,"type":"action"}],"type":"footer"}},"pathPrefix":"","data":{"data":{"author":{"name":"Jeff Tian","avatar":"https://res.cloudinary.com/practicaldev/image/fetch/s--a5qDZLv3--/c_fill,f_auto,fl_progressive,h_640,q_auto,w_640/https://dev-to-uploads.s3.amazonaws.com/uploads/user/profile_image/318420/3bfd2d99-430c-4049-8dd5-e2adc961e1e0.png"},"social":{"devto":{"username":"jefftian"},"twitter":{"username":"zizhujy"},"github":{"username":"Jeff-Tian"}}}}},"menus":{}}},"staticQueryHashes":[]}