{"componentChunkName":"component---src-templates-home-js","path":"/75","result":{"data":{"allMarkdownRemark":{"edges":[{"node":{"excerpt":"","id":"aed09cc6-0b75-5bb3-a875-3d279410e438","frontmatter":{"title":"Excel 的进步","template":"post","has_more_link":null,"more_link_text":null,"excerpt":"","canonical_url":"https://be-net.azurewebsites.net/post/2010/04/09/Excel-的进步","date":"2010-04-09 07:14:52","img_path":null,"positive_reactions_count":0,"stackbit_url_path":"posts/Excel-的进步"}}},{"node":{"excerpt":"","id":"6cf41df3-f1cd-5e13-bca9-b0f576abbda6","frontmatter":{"title":"SQL Server 2008 编程入门经典 第八章练习","template":"post","has_more_link":null,"more_link_text":null,"excerpt":"","canonical_url":"https://be-net.azurewebsites.net/post/2010/04/08/SQL-Server-2008-编程入门经典-第八章练习","date":"2010-04-08 10:01:51","img_path":null,"positive_reactions_count":0,"stackbit_url_path":"posts/SQL-Server-2008-编程入门经典-第八章练习"}}},{"node":{"excerpt":"","id":"e1d30997-41ac-5377-b0f8-3d06d9b7aaa1","frontmatter":{"title":"规范化的总结","template":"post","has_more_link":null,"more_link_text":null,"excerpt":"","canonical_url":"https://be-net.azurewebsites.net/post/2010/04/08/规范化的总结","date":"2010-04-08 08:35:20","img_path":null,"positive_reactions_count":0,"stackbit_url_path":"posts/规范化的总结"}}},{"node":{"excerpt":"","id":"1715c35e-bf14-5e01-a39b-708f9860dbf5","frontmatter":{"title":"用户权限数据库结构设计","template":"post","has_more_link":null,"more_link_text":null,"excerpt":"","canonical_url":"https://be-net.azurewebsites.net/post/2010/04/08/用户权限数据库结构设计","date":"2010-04-08 03:18:11","img_path":null,"positive_reactions_count":0,"stackbit_url_path":"posts/用户权限数据库结构设计"}}},{"node":{"excerpt":"","id":"938395e3-2c06-5c66-b3d3-9d2aa49b58c7","frontmatter":{"title":"【转】一根筷子让我从绝望中重新找到了人生坐标","template":"post","has_more_link":null,"more_link_text":null,"excerpt":"","canonical_url":"https://be-net.azurewebsites.net/post/2010/04/08/【转】一根筷子让我从绝望中重新找到了人生坐标","date":"2010-04-08 01:55:25","img_path":null,"positive_reactions_count":0,"stackbit_url_path":"posts/【转】一根筷子让我从绝望中重新找到了人生坐标"}}}]}},"pageContext":{"limit":5,"skip":370,"totalPages":140,"totalItems":699,"currentPage":75,"frontmatter":{"canonical_url":null,"comments_count":null,"title":"Home","template":"home","more_link_text":"Keep reading / 查看全部","date":null,"excerpt":"Jeff Tian's homepage","has_more_link":true},"url":"/","relativePath":"/","base":"","site":{"siteMetadata":{"title":"Jeff Tian","description":"Full Stack Developer, good at OAuth 2.0","palette":"yellow","header":{"title":"Jeff Tian","tagline":"A wild developer","logo_img":"https://images.ctfassets.net/qixg1o8tujmf/7z1ua3nTOC5B7DwwzAki8I/4e1a05f8db770c285a492eeb1eaa398f/imageedit_3_2509022194.png","background_img":"https://images.ctfassets.net/qixg1o8tujmf/7m0jrKYaDBwEvlc5lo8nt6/6d50a5050d9cdc0d4d2047e35feac292/10648733_696750647079056_2800539603462658695_o.jpg","has_nav":true,"nav_links":[{"label":"Home","url":"/","style":"link","type":"action"},{"label":"About","url":"/about","style":"link","type":"action"},{"label":"关于","url":"https://ggyy.pa-pa.me/about","style":"link","icon_class":"lorem-ipsum","new_window":true,"type":"action"},{"label":"Contact","url":"/contact","style":"link","type":"action"},{"label":"Support Me","url":"/support-me","style":"link","type":"action"},{"label":"叽叽歪歪","url":"https://ggyy.pa-pa.me/","style":"link","icon_class":"lorem-ipsum","new_window":true,"type":"action"}],"has_social":true,"social_links":[{"label":"Twitter","url":"https://twitter.com/zizhujy","style":"icon","icon_class":"fa-twitter","new_window":true,"type":"action"},{"label":"Instagram","url":"https://www.instagram.com/jefftian5","style":"icon","icon_class":"fa-instagram","new_window":true,"type":"action"},{"label":"GitHub","url":"https://github.com/jeff-tian","style":"icon","icon_class":"fa-github","new_window":true,"type":"action"},{"label":"LinkedIn","url":"https://www.linkedin.com/jeff~tian","style":"icon","icon_class":"fa-linkedin","new_window":true,"type":"action"},{"label":"DEV","url":"https://dev.to/jefftian","style":"icon","icon_class":"fa-dev","new_window":true,"type":"action"},{"label":"知乎","url":"https://www.zhihu.com/people/jefftian","style":"icon","icon_class":"fa-zhihu","new_window":true,"type":"action"}],"type":"header"},"footer":{"content":"&copy; All rights reserved.","links":[{"label":"本站源码","url":"https://github.com/Jeff-Tian/space","style":"link","icon_class":"fa-github","new_window":true,"type":"action"},{"label":"紫竹叽歪","url":"https://zizhujy.apphb.com","style":"link","icon_class":"http://zizhujy.apphb.com/Content/Images/logo.png","new_window":true,"type":"action"}],"type":"footer"}},"pathPrefix":"","data":{"data":{"author":{"name":"Jeff Tian","avatar":"https://res.cloudinary.com/practicaldev/image/fetch/s--a5qDZLv3--/c_fill,f_auto,fl_progressive,h_640,q_auto,w_640/https://dev-to-uploads.s3.amazonaws.com/uploads/user/profile_image/318420/3bfd2d99-430c-4049-8dd5-e2adc961e1e0.png"},"social":{"devto":{"username":"jefftian"},"twitter":{"username":"zizhujy"},"github":{"username":"Jeff-Tian"}}}}},"menus":{}}},"staticQueryHashes":[]}