{"componentChunkName":"component---src-templates-home-js","path":"/44/","result":{"data":{"allMarkdownRemark":{"edges":[{"node":{"excerpt":"","id":"3bed6512-20ca-58c4-a03d-7a3ad11b6d80","frontmatter":{"title":"How to quickly filter out the duplicated values","template":"post","has_more_link":null,"more_link_text":null,"excerpt":"","canonical_url":"https://be-net.azurewebsites.net/post/2012/02/19/How-to-quickly-filter-out-the-duplicated-values","date":"2012-02-19 00:24:00","img_path":null,"positive_reactions_count":0,"stackbit_url_path":"posts/How-to-quickly-filter-out-the-duplicated-values"}}},{"node":{"excerpt":"","id":"c2829e73-0cec-5668-b5ba-7ba4656af3aa","frontmatter":{"title":"How to make reCaptcha extension work in your BlogEngine.NET","template":"post","has_more_link":null,"more_link_text":null,"excerpt":"","canonical_url":"https://be-net.azurewebsites.net/post/2012/02/18/How-to-make-reCaptcha-extension-work-in-your-BlogEngineNET","date":"2012-02-18 21:02:21.7681029","img_path":null,"positive_reactions_count":0,"stackbit_url_path":"posts/How-to-make-reCaptcha-extension-work-in-your-BlogEngineNET"}}},{"node":{"excerpt":"","id":"6e828819-16c3-50b8-a06a-c5f9a633183a","frontmatter":{"title":"Upgrade BlogEngine.NET from 2.5 to 2.6","template":"post","has_more_link":null,"more_link_text":null,"excerpt":"","canonical_url":"https://be-net.azurewebsites.net/post/2012/02/15/Upgrade-BlogEngineNET-from-25-to-26","date":"2012-02-15 06:46:00","img_path":null,"positive_reactions_count":0,"stackbit_url_path":"posts/Upgrade-BlogEngineNET-from-25-to-26"}}},{"node":{"excerpt":"","id":"cec7f8cc-45fa-59ff-98eb-ce7087d0bb87","frontmatter":{"title":"如何查询SQLite数据库中的索引信息","template":"post","has_more_link":null,"more_link_text":null,"excerpt":"","canonical_url":"https://be-net.azurewebsites.net/post/2012/02/13/如何查询SQLite数据库中的索引信息","date":"2012-02-13 05:14:33.5864916","img_path":null,"positive_reactions_count":0,"stackbit_url_path":"posts/如何查询SQLite数据库中的索引信息"}}},{"node":{"excerpt":"INSERT INTO be_PostsNew\n(BlogID, PostID, Title, Description, PostContent, DateCreated,\nDateModified, Author, IsPublished, IsCommentEnabled…","id":"3c6d5821-46fa-5985-b0a3-47d4681107ee","frontmatter":{"title":"如何在升级数据表的同时保留原数据","template":"post","has_more_link":null,"more_link_text":null,"excerpt":"","canonical_url":"https://be-net.azurewebsites.net/post/2012/02/13/如何在升级数据表的同时保留原数据","date":"2012-02-13 04:44:00","img_path":null,"positive_reactions_count":0,"stackbit_url_path":"posts/如何在升级数据表的同时保留原数据"}}}]}},"pageContext":{"limit":5,"skip":215,"totalPages":159,"totalItems":793,"currentPage":44,"frontmatter":{"canonical_url":null,"comments_count":null,"title":"Home","template":"home","more_link_text":"Keep reading / 查看全部","date":null,"excerpt":"Jeff Tian's homepage","has_more_link":true},"url":"/","relativePath":"/","base":"","site":{"siteMetadata":{"title":"Jeff Tian","author":"@zizhujy","description":"A wild full stack developer","palette":"yellow","header":{"title":"Jeff Tian","tagline":"A wild developer","logo_img":"https://images.ctfassets.net/qixg1o8tujmf/7z1ua3nTOC5B7DwwzAki8I/4e1a05f8db770c285a492eeb1eaa398f/imageedit_3_2509022194.png","background_img":"https://images.ctfassets.net/qixg1o8tujmf/7m0jrKYaDBwEvlc5lo8nt6/6d50a5050d9cdc0d4d2047e35feac292/10648733_696750647079056_2800539603462658695_o.jpg","has_nav":true,"nav_links":[{"label":"Home","url":"/","style":"link","type":"action"},{"label":"About","url":"/about","style":"link","type":"action"},{"label":"关于","url":"https://ggyy.pa-pa.me/about","style":"link","icon_class":"lorem-ipsum","new_window":true,"type":"action"},{"label":"Contact","url":"/contact","style":"link","type":"action"},{"label":"Support Me","url":"/support-me","style":"link","type":"action"},{"label":"叽叽歪歪","url":"https://ggyy.pa-pa.me/","style":"link","icon_class":"lorem-ipsum","new_window":true,"type":"action"}],"has_social":true,"social_links":[{"label":"Twitter","url":"https://twitter.com/zizhujy","style":"icon","icon_class":"fa-twitter","new_window":true,"type":"action"},{"label":"Instagram","url":"https://www.instagram.com/jefftian5","style":"icon","icon_class":"fa-instagram","new_window":true,"type":"action"},{"label":"GitHub","url":"https://github.com/jeff-tian","style":"icon","icon_class":"fa-github","new_window":true,"type":"action"},{"label":"LinkedIn","url":"https://www.linkedin.com/jeff~tian","style":"icon","icon_class":"fa-linkedin","new_window":true,"type":"action"},{"label":"DEV","url":"https://dev.to/jefftian","style":"icon","icon_class":"fa-dev","new_window":true,"type":"action"},{"label":"知乎","url":"https://www.zhihu.com/people/jefftian","style":"icon","icon_class":"fa-zhihu","new_window":true,"type":"action"}],"type":"header"},"footer":{"content":"&copy; All rights reserved.","links":[{"label":"Made with Stackbit.","url":"https://www.stackbit.com","style":"link","new_window":true,"type":"action"},{"label":"紫竹叽歪","url":"https://zizhujy.apphb.com","style":"link","icon_class":"http://zizhujy.apphb.com/Content/Images/logo.png","new_window":true,"type":"action"}],"type":"footer"}},"pathPrefix":"","data":{"data":{"author":{"name":"Jeff Tian","avatar":"https://res.cloudinary.com/practicaldev/image/fetch/s--a5qDZLv3--/c_fill,f_auto,fl_progressive,h_640,q_auto,w_640/https://dev-to-uploads.s3.amazonaws.com/uploads/user/profile_image/318420/3bfd2d99-430c-4049-8dd5-e2adc961e1e0.png"},"social":{"devto":{"username":"jefftian"},"twitter":{"username":"zizhujy"},"github":{"username":"Jeff-Tian"}}}}}}},"staticQueryHashes":[],"slicesMap":{}}