{"componentChunkName":"component---src-templates-home-js","path":"/41","result":{"data":{"allMarkdownRemark":{"edges":[{"node":{"excerpt":"","id":"e48041ae-c2c5-5705-b125-395ba2535f4c","frontmatter":{"title":"Speed up your copy progress by robocopy command","template":"post","has_more_link":null,"more_link_text":null,"excerpt":"","canonical_url":"https://be-net.azurewebsites.net/post/2012/10/09/Speed-up-your-copy-progress-by-robocopy-command","date":"2012-10-09 20:33:32.8237549","img_path":null,"positive_reactions_count":0,"stackbit_url_path":"posts/Speed-up-your-copy-progress-by-robocopy-command"}}},{"node":{"excerpt":"namespace Learning\r\n{\r\nclass Inspector\r\n{\r\nstatic void Main()\r\n{\r\nA a = new A() { PropA = \"A\", PropB = \"B\", PropC = \"C\" };\r\nConsole…","id":"484043cf-f697-5bbd-b7da-4eda23b86c0c","frontmatter":{"title":"How to iterate through all the properties of a class in C#","template":"post","has_more_link":null,"more_link_text":null,"excerpt":"","canonical_url":"https://be-net.azurewebsites.net/post/2012/09/12/How-to-iterate-through-all-the-properties-of-a-class-in-C","date":"2012-09-12 02:10:14.5387634","img_path":null,"positive_reactions_count":0,"stackbit_url_path":"posts/How-to-iterate-through-all-the-properties-of-a-class-in-C"}}},{"node":{"excerpt":"","id":"b0a8d637-1e25-52d5-81df-24958154470b","frontmatter":{"title":"秋夜","template":"post","has_more_link":null,"more_link_text":null,"excerpt":"","canonical_url":"https://be-net.azurewebsites.net/post/2012/08/26/秋夜","date":"2012-08-26 06:03:47.616713","img_path":null,"positive_reactions_count":0,"stackbit_url_path":"posts/秋夜"}}},{"node":{"excerpt":"","id":"bddb3267-3068-5de6-991d-db76acfd1552","frontmatter":{"title":"在线统计计算器增加多项式函数拟合功能","template":"post","has_more_link":null,"more_link_text":null,"excerpt":"","canonical_url":"https://be-net.azurewebsites.net/post/2012/08/19/在线统计计算器增加多项式函数拟合功能","date":"2012-08-19 06:06:03.3166953","img_path":null,"positive_reactions_count":0,"stackbit_url_path":"posts/在线统计计算器增加多项式函数拟合功能"}}},{"node":{"excerpt":"","id":"e48681cb-2306-5f73-97a9-23830fb743d9","frontmatter":{"title":"周末","template":"post","has_more_link":null,"more_link_text":null,"excerpt":"","canonical_url":"https://be-net.azurewebsites.net/post/2012/08/13/周末","date":"2012-08-13 06:03:22.0720428","img_path":null,"positive_reactions_count":0,"stackbit_url_path":"posts/周末"}}}]}},"pageContext":{"limit":5,"skip":200,"totalPages":169,"totalItems":842,"currentPage":41,"frontmatter":{"canonical_url":null,"comments_count":null,"title":"Home","template":"home","more_link_text":"Keep reading / 查看全部","date":null,"excerpt":"Jeff Tian's homepage","has_more_link":true},"url":"/","relativePath":"/","base":"","site":{"siteMetadata":{"title":"Jeff Tian","description":"A wild full stack developer","palette":"yellow","header":{"title":"Jeff Tian","tagline":"A wild developer","logo_img":"https://images.ctfassets.net/qixg1o8tujmf/7z1ua3nTOC5B7DwwzAki8I/4e1a05f8db770c285a492eeb1eaa398f/imageedit_3_2509022194.png","background_img":"https://images.ctfassets.net/qixg1o8tujmf/7m0jrKYaDBwEvlc5lo8nt6/6d50a5050d9cdc0d4d2047e35feac292/10648733_696750647079056_2800539603462658695_o.jpg","has_nav":true,"nav_links":[{"label":"Home","url":"/","style":"link","type":"action"},{"label":"About","url":"/about","style":"link","type":"action"},{"label":"关于","url":"https://ggyy.pa-pa.me/about","style":"link","icon_class":"lorem-ipsum","new_window":true,"type":"action"},{"label":"Contact","url":"/contact","style":"link","type":"action"},{"label":"Support Me","url":"/support-me","style":"link","type":"action"},{"label":"叽叽歪歪","url":"https://ggyy.pa-pa.me/","style":"link","icon_class":"lorem-ipsum","new_window":true,"type":"action"}],"has_social":true,"social_links":[{"label":"Twitter","url":"https://twitter.com/zizhujy","style":"icon","icon_class":"fa-twitter","new_window":true,"type":"action"},{"label":"Instagram","url":"https://www.instagram.com/jefftian5","style":"icon","icon_class":"fa-instagram","new_window":true,"type":"action"},{"label":"GitHub","url":"https://github.com/jeff-tian","style":"icon","icon_class":"fa-github","new_window":true,"type":"action"},{"label":"LinkedIn","url":"https://www.linkedin.com/jeff~tian","style":"icon","icon_class":"fa-linkedin","new_window":true,"type":"action"},{"label":"DEV","url":"https://dev.to/jefftian","style":"icon","icon_class":"fa-dev","new_window":true,"type":"action"},{"label":"知乎","url":"https://www.zhihu.com/people/jefftian","style":"icon","icon_class":"fa-zhihu","new_window":true,"type":"action"}],"type":"header"},"footer":{"content":"&copy; All rights reserved.","links":[{"label":"本站源码","url":"https://github.com/Jeff-Tian/space","style":"link","icon_class":"fa-github","new_window":true,"type":"action"},{"label":"紫竹叽歪","url":"https://zizhujy.apphb.com","style":"link","icon_class":"http://zizhujy.apphb.com/Content/Images/logo.png","new_window":true,"type":"action"}],"type":"footer"}},"pathPrefix":"","data":{"data":{"author":{"name":"Jeff Tian","avatar":"https://res.cloudinary.com/practicaldev/image/fetch/s--a5qDZLv3--/c_fill,f_auto,fl_progressive,h_640,q_auto,w_640/https://dev-to-uploads.s3.amazonaws.com/uploads/user/profile_image/318420/3bfd2d99-430c-4049-8dd5-e2adc961e1e0.png"},"social":{"devto":{"username":"jefftian"},"twitter":{"username":"zizhujy"},"github":{"username":"Jeff-Tian"}}}}},"menus":{}}},"staticQueryHashes":[]}