{"componentChunkName":"component---src-templates-home-js","path":"/112/","result":{"data":{"allMarkdownRemark":{"edges":[{"node":{"excerpt":"","id":"6daa334f-5a01-5864-930d-f018e99d61af","frontmatter":{"title":"在ASP中创建一个以指定HTML模板显示字典对象内容的方法","template":"post","has_more_link":null,"more_link_text":null,"excerpt":"","canonical_url":"https://be-net.azurewebsites.net/post/2010/03/17/在ASP中创建一个以指定HTML模板显示字典对象内容的方法","date":"2010-03-17 08:09:48","img_path":null,"positive_reactions_count":0,"stackbit_url_path":"posts/在ASP中创建一个以指定HTML模板显示字典对象内容的方法"}}},{"node":{"excerpt":"","id":"2582775b-c606-5bca-ae8f-40115dcc9e00","frontmatter":{"title":"思远人","template":"post","has_more_link":null,"more_link_text":null,"excerpt":"","canonical_url":"https://be-net.azurewebsites.net/post/2010/03/17/思远人","date":"2010-03-17 01:39:16","img_path":null,"positive_reactions_count":0,"stackbit_url_path":"posts/思远人"}}},{"node":{"excerpt":"","id":"2e5c6ddd-69f7-5b13-addb-5ac726463c22","frontmatter":{"title":"在ASP中对数据库进行CRUD操作","template":"post","has_more_link":null,"more_link_text":null,"excerpt":"","canonical_url":"https://be-net.azurewebsites.net/post/2010/03/16/在ASP中对数据库进行CRUD操作","date":"2010-03-16 10:17:20","img_path":null,"positive_reactions_count":0,"stackbit_url_path":"posts/在ASP中对数据库进行CRUD操作"}}},{"node":{"excerpt":"","id":"c1339fe2-6126-5b3a-a255-3d57a19ee571","frontmatter":{"title":"创建存储过程的基本语法","template":"post","has_more_link":null,"more_link_text":null,"excerpt":"","canonical_url":"https://be-net.azurewebsites.net/post/2010/03/16/创建存储过程的基本语法","date":"2010-03-16 09:24:03","img_path":null,"positive_reactions_count":0,"stackbit_url_path":"posts/创建存储过程的基本语法"}}},{"node":{"excerpt":"public class MyFrame extends Frame implements ActionListener {\n// 声明一个 PrintJob 对象。\nPrintJob p = null;\nGraphics g = null;\nTextArea text…","id":"a87bf1c9-9454-5efc-9553-3362d3500c82","frontmatter":{"title":"Java 打印编程一例","template":"post","has_more_link":null,"more_link_text":null,"excerpt":"","canonical_url":"https://be-net.azurewebsites.net/post/2010/03/16/Java-打印编程一例","date":"2010-03-16 09:19:24","img_path":null,"positive_reactions_count":0,"stackbit_url_path":"posts/Java-打印编程一例"}}}]}},"pageContext":{"limit":5,"skip":555,"totalPages":159,"totalItems":793,"currentPage":112,"frontmatter":{"canonical_url":null,"comments_count":null,"title":"Home","template":"home","more_link_text":"Keep reading / 查看全部","date":null,"excerpt":"Jeff Tian's homepage","has_more_link":true},"url":"/","relativePath":"/","base":"","site":{"siteMetadata":{"title":"Jeff Tian","author":"@zizhujy","description":"A wild full stack developer","palette":"yellow","header":{"title":"Jeff Tian","tagline":"A wild developer","logo_img":"https://images.ctfassets.net/qixg1o8tujmf/7z1ua3nTOC5B7DwwzAki8I/4e1a05f8db770c285a492eeb1eaa398f/imageedit_3_2509022194.png","background_img":"https://images.ctfassets.net/qixg1o8tujmf/7m0jrKYaDBwEvlc5lo8nt6/6d50a5050d9cdc0d4d2047e35feac292/10648733_696750647079056_2800539603462658695_o.jpg","has_nav":true,"nav_links":[{"label":"Home","url":"/","style":"link","type":"action"},{"label":"About","url":"/about","style":"link","type":"action"},{"label":"关于","url":"https://ggyy.pa-pa.me/about","style":"link","icon_class":"lorem-ipsum","new_window":true,"type":"action"},{"label":"Contact","url":"/contact","style":"link","type":"action"},{"label":"Support Me","url":"/support-me","style":"link","type":"action"},{"label":"叽叽歪歪","url":"https://ggyy.pa-pa.me/","style":"link","icon_class":"lorem-ipsum","new_window":true,"type":"action"}],"has_social":true,"social_links":[{"label":"Twitter","url":"https://twitter.com/zizhujy","style":"icon","icon_class":"fa-twitter","new_window":true,"type":"action"},{"label":"Instagram","url":"https://www.instagram.com/jefftian5","style":"icon","icon_class":"fa-instagram","new_window":true,"type":"action"},{"label":"GitHub","url":"https://github.com/jeff-tian","style":"icon","icon_class":"fa-github","new_window":true,"type":"action"},{"label":"LinkedIn","url":"https://www.linkedin.com/jeff~tian","style":"icon","icon_class":"fa-linkedin","new_window":true,"type":"action"},{"label":"DEV","url":"https://dev.to/jefftian","style":"icon","icon_class":"fa-dev","new_window":true,"type":"action"},{"label":"知乎","url":"https://www.zhihu.com/people/jefftian","style":"icon","icon_class":"fa-zhihu","new_window":true,"type":"action"}],"type":"header"},"footer":{"content":"&copy; All rights reserved.","links":[{"label":"Made with Stackbit.","url":"https://www.stackbit.com","style":"link","new_window":true,"type":"action"},{"label":"紫竹叽歪","url":"https://zizhujy.apphb.com","style":"link","icon_class":"http://zizhujy.apphb.com/Content/Images/logo.png","new_window":true,"type":"action"}],"type":"footer"}},"pathPrefix":"","data":{"data":{"author":{"name":"Jeff Tian","avatar":"https://res.cloudinary.com/practicaldev/image/fetch/s--a5qDZLv3--/c_fill,f_auto,fl_progressive,h_640,q_auto,w_640/https://dev-to-uploads.s3.amazonaws.com/uploads/user/profile_image/318420/3bfd2d99-430c-4049-8dd5-e2adc961e1e0.png"},"social":{"devto":{"username":"jefftian"},"twitter":{"username":"zizhujy"},"github":{"username":"Jeff-Tian"}}}}}}},"staticQueryHashes":[],"slicesMap":{}}