{"componentChunkName":"component---src-templates-home-js","path":"/141/","result":{"data":{"allMarkdownRemark":{"edges":[{"node":{"excerpt":"","id":"824ba92a-e847-5860-b840-e256569bf517","frontmatter":{"title":"聚众，以降低不确定性","template":"post","has_more_link":null,"more_link_text":null,"excerpt":"","canonical_url":"https://be-net.azurewebsites.net/post/2010/01/20/聚众，以降低不确定性","date":"2010-01-20 13:05:45","img_path":null,"positive_reactions_count":0,"stackbit_url_path":"posts/聚众，以降低不确定性"}}},{"node":{"excerpt":"","id":"629f4614-9fde-5d60-9006-06d9fee50ae2","frontmatter":{"title":"[转] 误删资料恢复","template":"post","has_more_link":null,"more_link_text":null,"excerpt":"","canonical_url":"https://be-net.azurewebsites.net/post/2010/01/20/转-误删资料恢复","date":"2010-01-20 01:49:41","img_path":null,"positive_reactions_count":0,"stackbit_url_path":"posts/转-误删资料恢复"}}},{"node":{"excerpt":"public class TCPServer {\npublic static void main(String argv[]) throws Exception {\n// 客户端来的请求字符串\nString sClientLine;\n// 处理后的字符串\nString…","id":"1fff6cfc-4e90-5f03-842d-6e0e78cb6318","frontmatter":{"title":"如何查看HTTP请求报文 ","template":"post","has_more_link":null,"more_link_text":null,"excerpt":"","canonical_url":"https://be-net.azurewebsites.net/post/2010/01/19/如何查看HTTP请求报文-","date":"2010-01-19 15:42:18","img_path":null,"positive_reactions_count":0,"stackbit_url_path":"posts/如何查看HTTP请求报文-"}}},{"node":{"excerpt":"","id":"dd599665-f85c-5921-a453-41e56d3cab9d","frontmatter":{"title":"Java 中Long型变量赋值问题","template":"post","has_more_link":null,"more_link_text":null,"excerpt":"","canonical_url":"https://be-net.azurewebsites.net/post/2010/01/19/Java-中Long型变量赋值问题","date":"2010-01-19 14:33:10","img_path":null,"positive_reactions_count":0,"stackbit_url_path":"posts/Java-中Long型变量赋值问题"}}},{"node":{"excerpt":"table tr {\nborder: solid 1px black;\n} table tr td {\nborder-top: solid 1px black;\nborder-bottom: solid 1px black;\n}\n -->","id":"d833cf42-183e-5338-aed6-ff0ce4a73d55","frontmatter":{"title":"IE 7 不支持 tr 元素的 border 属性","template":"post","has_more_link":null,"more_link_text":null,"excerpt":"","canonical_url":"https://be-net.azurewebsites.net/post/2010/01/19/IE-7-不支持-tr-元素的-border-属性","date":"2010-01-19 09:50:14","img_path":null,"positive_reactions_count":0,"stackbit_url_path":"posts/IE-7-不支持-tr-元素的-border-属性"}}}]}},"pageContext":{"limit":5,"skip":700,"totalPages":159,"totalItems":793,"currentPage":141,"frontmatter":{"canonical_url":null,"comments_count":null,"title":"Home","template":"home","more_link_text":"Keep reading / 查看全部","date":null,"excerpt":"Jeff Tian's homepage","has_more_link":true},"url":"/","relativePath":"/","base":"","site":{"siteMetadata":{"title":"Jeff Tian","author":"@zizhujy","description":"A wild full stack developer","palette":"yellow","header":{"title":"Jeff Tian","tagline":"A wild developer","logo_img":"https://images.ctfassets.net/qixg1o8tujmf/7z1ua3nTOC5B7DwwzAki8I/4e1a05f8db770c285a492eeb1eaa398f/imageedit_3_2509022194.png","background_img":"https://images.ctfassets.net/qixg1o8tujmf/7m0jrKYaDBwEvlc5lo8nt6/6d50a5050d9cdc0d4d2047e35feac292/10648733_696750647079056_2800539603462658695_o.jpg","has_nav":true,"nav_links":[{"label":"Home","url":"/","style":"link","type":"action"},{"label":"About","url":"/about","style":"link","type":"action"},{"label":"关于","url":"https://ggyy.pa-pa.me/about","style":"link","icon_class":"lorem-ipsum","new_window":true,"type":"action"},{"label":"Contact","url":"/contact","style":"link","type":"action"},{"label":"Support Me","url":"/support-me","style":"link","type":"action"},{"label":"叽叽歪歪","url":"https://ggyy.pa-pa.me/","style":"link","icon_class":"lorem-ipsum","new_window":true,"type":"action"}],"has_social":true,"social_links":[{"label":"Twitter","url":"https://twitter.com/zizhujy","style":"icon","icon_class":"fa-twitter","new_window":true,"type":"action"},{"label":"Instagram","url":"https://www.instagram.com/jefftian5","style":"icon","icon_class":"fa-instagram","new_window":true,"type":"action"},{"label":"GitHub","url":"https://github.com/jeff-tian","style":"icon","icon_class":"fa-github","new_window":true,"type":"action"},{"label":"LinkedIn","url":"https://www.linkedin.com/jeff~tian","style":"icon","icon_class":"fa-linkedin","new_window":true,"type":"action"},{"label":"DEV","url":"https://dev.to/jefftian","style":"icon","icon_class":"fa-dev","new_window":true,"type":"action"},{"label":"知乎","url":"https://www.zhihu.com/people/jefftian","style":"icon","icon_class":"fa-zhihu","new_window":true,"type":"action"}],"type":"header"},"footer":{"content":"&copy; All rights reserved.","links":[{"label":"Made with Stackbit.","url":"https://www.stackbit.com","style":"link","new_window":true,"type":"action"},{"label":"紫竹叽歪","url":"https://zizhujy.apphb.com","style":"link","icon_class":"http://zizhujy.apphb.com/Content/Images/logo.png","new_window":true,"type":"action"}],"type":"footer"}},"pathPrefix":"","data":{"data":{"author":{"name":"Jeff Tian","avatar":"https://res.cloudinary.com/practicaldev/image/fetch/s--a5qDZLv3--/c_fill,f_auto,fl_progressive,h_640,q_auto,w_640/https://dev-to-uploads.s3.amazonaws.com/uploads/user/profile_image/318420/3bfd2d99-430c-4049-8dd5-e2adc961e1e0.png"},"social":{"devto":{"username":"jefftian"},"twitter":{"username":"zizhujy"},"github":{"username":"Jeff-Tian"}}}}}}},"staticQueryHashes":[],"slicesMap":{}}