{"componentChunkName":"component---src-templates-home-js","path":"/94/","result":{"data":{"allMarkdownRemark":{"edges":[{"node":{"excerpt":"","id":"5fffff75-aab9-534c-9b31-2b893d586665","frontmatter":{"title":"在快速启动栏中添加“显示桌面”图标","template":"post","has_more_link":null,"more_link_text":null,"excerpt":"","canonical_url":"https://be-net.azurewebsites.net/post/2011/01/16/e59ca8e5bfabe9809fe590afe58aa8e6a08fe4b8ade6b7bbe58aa0e2809ce698bee7a4bae6a18ce99da2e2809de59bbee6a087","date":"2011-01-16 05:52:00","img_path":null,"positive_reactions_count":0,"stackbit_url_path":"posts/e59ca8e5bfabe9809fe590afe58aa8e6a08fe4b8ade6b7bbe58aa0e2809ce698bee7a4bae6a18ce99da2e2809de59bbee6a087"}}},{"node":{"excerpt":"","id":"e9d00d45-a35e-5b5e-b872-1692cdc3a43d","frontmatter":{"title":"不错的团购网站","template":"post","has_more_link":null,"more_link_text":null,"excerpt":"","canonical_url":"https://be-net.azurewebsites.net/post/2011/01/11/e4b88de99499e79a84e59ba2e8b4ade7bd91e7ab99","date":"2011-01-11 21:50:00","img_path":null,"positive_reactions_count":0,"stackbit_url_path":"posts/e4b88de99499e79a84e59ba2e8b4ade7bd91e7ab99"}}},{"node":{"excerpt":"","id":"a796de8c-fcd3-5ac2-b9d6-9eb6a13cff22","frontmatter":{"title":"宋代游西湖，要门票么？","template":"post","has_more_link":null,"more_link_text":null,"excerpt":"","canonical_url":"https://be-net.azurewebsites.net/post/2011/01/11/e5ae8be4bba3e6b8b8e8a5bfe6b996efbc8ce8a681e997a8e7a5a8e4b988efbc9f","date":"2011-01-11 05:47:00","img_path":null,"positive_reactions_count":0,"stackbit_url_path":"posts/e5ae8be4bba3e6b8b8e8a5bfe6b996efbc8ce8a681e997a8e7a5a8e4b988efbc9f"}}},{"node":{"excerpt":"}","id":"c84d70bb-548a-5485-9f89-982d928a918e","frontmatter":{"title":"ASP.NET 获取服务器上页面的客户端HTML源码","template":"post","has_more_link":null,"more_link_text":null,"excerpt":"","canonical_url":"https://be-net.azurewebsites.net/post/2011/01/10/ASPNET-e88eb7e58f96e69c8de58aa1e599a8e4b88ae9a1b5e99da2e79a84e5aea2e688b7e7abafHTMLe6ba90e7a081","date":"2011-01-10 05:45:00","img_path":null,"positive_reactions_count":0,"stackbit_url_path":"posts/ASPNET-e88eb7e58f96e69c8de58aa1e599a8e4b88ae9a1b5e99da2e79a84e5aea2e688b7e7abafHTMLe6ba90e7a081"}}},{"node":{"excerpt":"","id":"894193d6-041a-5a78-9974-b52ac5a08eec","frontmatter":{"title":"SQL Server 2008 定期自动备份数据库","template":"post","has_more_link":null,"more_link_text":null,"excerpt":"","canonical_url":"https://be-net.azurewebsites.net/post/2011/01/09/SQL-Server-2008-e5ae9ae69c9fe887aae58aa8e5a487e4bbbde695b0e68daee5ba93","date":"2011-01-09 21:41:00","img_path":null,"positive_reactions_count":0,"stackbit_url_path":"posts/SQL-Server-2008-e5ae9ae69c9fe887aae58aa8e5a487e4bbbde695b0e68daee5ba93"}}}]}},"pageContext":{"limit":5,"skip":465,"totalPages":187,"totalItems":931,"currentPage":94,"frontmatter":{"canonical_url":null,"comments_count":null,"title":"Home","template":"home","more_link_text":"Keep reading / 查看全部","date":null,"excerpt":"Jeff Tian's homepage","has_more_link":true},"url":"/","relativePath":"/","base":"","site":{"siteMetadata":{"title":"Jeff Tian","author":"@zizhujy","description":"A wild full stack developer","palette":"yellow","header":{"title":"Jeff Tian","tagline":"A wild developer","logo_img":"https://images.ctfassets.net/qixg1o8tujmf/7z1ua3nTOC5B7DwwzAki8I/4e1a05f8db770c285a492eeb1eaa398f/imageedit_3_2509022194.png","background_img":"https://images.ctfassets.net/qixg1o8tujmf/7m0jrKYaDBwEvlc5lo8nt6/6d50a5050d9cdc0d4d2047e35feac292/10648733_696750647079056_2800539603462658695_o.jpg","has_nav":true,"nav_links":[{"label":"Home","url":"/","style":"link","type":"action"},{"label":"About","url":"/about","style":"link","type":"action"},{"label":"关于","url":"https://ggyy.pa-pa.me/about","style":"link","icon_class":"lorem-ipsum","new_window":true,"type":"action"},{"label":"Contact","url":"/contact","style":"link","type":"action"},{"label":"Support Me","url":"/support-me","style":"link","type":"action"},{"label":"叽叽歪歪","url":"https://ggyy.pa-pa.me/","style":"link","icon_class":"lorem-ipsum","new_window":true,"type":"action"}],"has_social":true,"social_links":[{"label":"Twitter","url":"https://twitter.com/zizhujy","style":"icon","icon_class":"fa-twitter","new_window":true,"type":"action"},{"label":"Instagram","url":"https://www.instagram.com/jefftian5","style":"icon","icon_class":"fa-instagram","new_window":true,"type":"action"},{"label":"GitHub","url":"https://github.com/jeff-tian","style":"icon","icon_class":"fa-github","new_window":true,"type":"action"},{"label":"LinkedIn","url":"https://www.linkedin.com/jeff~tian","style":"icon","icon_class":"fa-linkedin","new_window":true,"type":"action"},{"label":"DEV","url":"https://dev.to/jefftian","style":"icon","icon_class":"fa-dev","new_window":true,"type":"action"},{"label":"知乎","url":"https://www.zhihu.com/people/jefftian","style":"icon","icon_class":"fa-zhihu","new_window":true,"type":"action"}],"type":"header"},"footer":{"content":"&copy; All rights reserved.","links":[{"label":"Made with Stackbit.","url":"https://www.stackbit.com","style":"link","new_window":true,"type":"action"},{"label":"紫竹叽歪","url":"https://zizhujy.apphb.com","style":"link","icon_class":"http://zizhujy.apphb.com/Content/Images/logo.png","new_window":true,"type":"action"}],"type":"footer"}},"pathPrefix":"","data":{"data":{"author":{"name":"Jeff Tian","avatar":"https://res.cloudinary.com/practicaldev/image/fetch/s--a5qDZLv3--/c_fill,f_auto,fl_progressive,h_640,q_auto,w_640/https://dev-to-uploads.s3.amazonaws.com/uploads/user/profile_image/318420/3bfd2d99-430c-4049-8dd5-e2adc961e1e0.png"},"social":{"devto":{"username":"jefftian"},"twitter":{"username":"zizhujy"},"github":{"username":"Jeff-Tian"}}}}},"menus":{}}},"staticQueryHashes":[],"slicesMap":{}}