{"componentChunkName":"component---src-templates-home-js","path":"/13","result":{"data":{"allMarkdownRemark":{"edges":[{"node":{"excerpt":"正如 JSON 已经成为普遍的对象序列化格式一样，cURL 也应该是 HTTP 请求的普遍序列化格式。JSON 原本是为 JavaScript 使用的，其本名是 JavaScript Object Notation，但是各种语言都喜欢用它了，连 Java…","id":"a38e03cd-dcd3-549f-aea5-30cf854e0d78","frontmatter":{"title":"将 axios 的请求记录打印成 cURL","template":"post","has_more_link":null,"more_link_text":null,"excerpt":"","canonical_url":null,"date":"2021-12-14T11:33:45","img_path":null,"positive_reactions_count":null,"stackbit_url_path":"posts/zsld7g"}}},{"node":{"excerpt":"第一次听到编排，还是在学习 K8S 时，了解到容器的编排。后来在微服务架构的实践中，也常听到服务编排这个词组。 对服务编排的实践，主要限于 BFF 层。最近几年的开发工作，主要都在 BFF…","id":"3000d039-9ce6-53c1-9d67-65265b766ccf","frontmatter":{"title":"编排还是编舞，暨近几年工作回顾","template":"post","has_more_link":null,"more_link_text":null,"excerpt":"","canonical_url":null,"date":"2021-12-07T12:23:13","img_path":null,"positive_reactions_count":null,"stackbit_url_path":"posts/ytwbzm"}}},{"node":{"excerpt":"…","id":"0020e21b-a9de-5e5f-991b-ed3946477b24","frontmatter":{"title":"论笔名的重要性","template":"post","has_more_link":null,"more_link_text":null,"excerpt":"","canonical_url":null,"date":"2021-12-05T14:34:06","img_path":null,"positive_reactions_count":null,"stackbit_url_path":"posts/ckayq4"}}},{"node":{"excerpt":"…","id":"df2103e5-d687-5f99-b8b5-96c7c686b5af","frontmatter":{"title":"内卷文化用英语怎么表达？","template":"post","has_more_link":null,"more_link_text":null,"excerpt":"","canonical_url":null,"date":"2021-12-04T10:30:51","img_path":null,"positive_reactions_count":null,"stackbit_url_path":"posts/bhagcw"}}},{"node":{"excerpt":"…","id":"62304c11-c577-5f41-b557-fedbd552ec49","frontmatter":{"title":"我不是奋斗逼，只是不想送外卖而已","template":"post","has_more_link":null,"more_link_text":null,"excerpt":"","canonical_url":null,"date":"2021-12-03T03:57:31","img_path":null,"positive_reactions_count":null,"stackbit_url_path":"posts/nbcgzx"}}}]}},"pageContext":{"limit":5,"skip":60,"totalPages":170,"totalItems":850,"currentPage":13,"frontmatter":{"canonical_url":null,"comments_count":null,"title":"Home","template":"home","more_link_text":"Keep reading / 查看全部","date":null,"excerpt":"Jeff Tian's homepage","has_more_link":true},"url":"/","relativePath":"/","base":"","site":{"siteMetadata":{"title":"Jeff Tian","description":"Full Stack Developer, good at OAuth 2.0","palette":"yellow","header":{"title":"Jeff Tian","tagline":"A wild developer","logo_img":"https://images.ctfassets.net/qixg1o8tujmf/7z1ua3nTOC5B7DwwzAki8I/4e1a05f8db770c285a492eeb1eaa398f/imageedit_3_2509022194.png","background_img":"https://images.ctfassets.net/qixg1o8tujmf/7m0jrKYaDBwEvlc5lo8nt6/6d50a5050d9cdc0d4d2047e35feac292/10648733_696750647079056_2800539603462658695_o.jpg","has_nav":true,"nav_links":[{"label":"Home","url":"/","style":"link","type":"action"},{"label":"About","url":"/about","style":"link","type":"action"},{"label":"关于","url":"https://ggyy.pa-pa.me/about","style":"link","icon_class":"lorem-ipsum","new_window":true,"type":"action"},{"label":"Contact","url":"/contact","style":"link","type":"action"},{"label":"Support Me","url":"/support-me","style":"link","type":"action"},{"label":"叽叽歪歪","url":"https://ggyy.pa-pa.me/","style":"link","icon_class":"lorem-ipsum","new_window":true,"type":"action"}],"has_social":true,"social_links":[{"label":"Twitter","url":"https://twitter.com/zizhujy","style":"icon","icon_class":"fa-twitter","new_window":true,"type":"action"},{"label":"Instagram","url":"https://www.instagram.com/jefftian5","style":"icon","icon_class":"fa-instagram","new_window":true,"type":"action"},{"label":"GitHub","url":"https://github.com/jeff-tian","style":"icon","icon_class":"fa-github","new_window":true,"type":"action"},{"label":"LinkedIn","url":"https://www.linkedin.com/jeff~tian","style":"icon","icon_class":"fa-linkedin","new_window":true,"type":"action"},{"label":"DEV","url":"https://dev.to/jefftian","style":"icon","icon_class":"fa-dev","new_window":true,"type":"action"},{"label":"知乎","url":"https://www.zhihu.com/people/jefftian","style":"icon","icon_class":"fa-zhihu","new_window":true,"type":"action"}],"type":"header"},"footer":{"content":"&copy; All rights reserved.","links":[{"label":"本站源码","url":"https://github.com/Jeff-Tian/space","style":"link","icon_class":"fa-github","new_window":true,"type":"action"},{"label":"紫竹叽歪","url":"https://zizhujy.apphb.com","style":"link","icon_class":"http://zizhujy.apphb.com/Content/Images/logo.png","new_window":true,"type":"action"}],"type":"footer"}},"pathPrefix":"","data":{"data":{"author":{"name":"Jeff Tian","avatar":"https://res.cloudinary.com/practicaldev/image/fetch/s--a5qDZLv3--/c_fill,f_auto,fl_progressive,h_640,q_auto,w_640/https://dev-to-uploads.s3.amazonaws.com/uploads/user/profile_image/318420/3bfd2d99-430c-4049-8dd5-e2adc961e1e0.png"},"social":{"devto":{"username":"jefftian"},"twitter":{"username":"zizhujy"},"github":{"username":"Jeff-Tian"}}}}},"menus":{}}},"staticQueryHashes":[]}