{"componentChunkName":"component---src-templates-home-js","path":"/35","result":{"data":{"allMarkdownRemark":{"edges":[{"node":{"excerpt":"","id":"8fdc013c-8a4a-5a50-bd65-62450ce8b91f","frontmatter":{"title":"使用静态类的构造函数，保证某些操作在整个程序运行过程中只运行一次","template":"post","has_more_link":null,"more_link_text":null,"excerpt":"","canonical_url":"https://be-net.azurewebsites.net/post/2013/06/26/使用静态类的构造函数，保证某些操作在整个程序运行过程中只运行一次","date":"2013-06-26 21:26:59.4572812","img_path":null,"positive_reactions_count":0,"stackbit_url_path":"posts/使用静态类的构造函数，保证某些操作在整个程序运行过程中只运行一次"}}},{"node":{"excerpt":"","id":"bf1f36bb-c6f9-59a0-8803-2267ba401428","frontmatter":{"title":"函数涂鸦板升级啦！Online Function Grapher Updated!","template":"post","has_more_link":null,"more_link_text":null,"excerpt":"","canonical_url":"https://be-net.azurewebsites.net/post/2013/06/12/函数涂鸦板升级啦！","date":"2013-06-12 02:37:05.8729406","img_path":null,"positive_reactions_count":0,"stackbit_url_path":"posts/函数涂鸦板升级啦！"}}},{"node":{"excerpt":"","id":"f51924f1-3c44-5913-a721-01d4d369de14","frontmatter":{"title":"一下思绪飞回从前","template":"post","has_more_link":null,"more_link_text":null,"excerpt":"","canonical_url":"https://be-net.azurewebsites.net/post/2013/04/19/一下思绪飞回从前","date":"2013-04-19 18:57:21.8745349","img_path":null,"positive_reactions_count":0,"stackbit_url_path":"posts/一下思绪飞回从前"}}},{"node":{"excerpt":"","id":"697fccc2-039a-5d08-99c1-f0e3ac5f85c9","frontmatter":{"title":"绞刑架的启示","template":"post","has_more_link":null,"more_link_text":null,"excerpt":"","canonical_url":"https://be-net.azurewebsites.net/post/2013/03/26/绞刑架的启示","date":"2013-03-26 04:57:46.653239","img_path":null,"positive_reactions_count":0,"stackbit_url_path":"posts/绞刑架的启示"}}},{"node":{"excerpt":"","id":"e135e6af-e62d-5f39-b4b2-357281cf3103","frontmatter":{"title":"Resolved: Compound change types like ‘add+branch from’ are not supported.","template":"post","has_more_link":null,"more_link_text":null,"excerpt":"","canonical_url":"https://be-net.azurewebsites.net/post/2013/02/28/Resolve-Compound-change-types-like-add-branch-from-are-not-supported","date":"2013-02-28 05:50:00","img_path":null,"positive_reactions_count":0,"stackbit_url_path":"posts/Resolve-Compound-change-types-like-add-branch-from-are-not-supported"}}}]}},"pageContext":{"limit":5,"skip":170,"totalPages":165,"totalItems":824,"currentPage":35,"frontmatter":{"canonical_url":null,"comments_count":null,"title":"Home","template":"home","more_link_text":"Keep reading / 查看全部","date":null,"excerpt":"Jeff Tian's homepage","has_more_link":true},"url":"/","relativePath":"/","base":"","site":{"siteMetadata":{"title":"Jeff Tian","description":"A wild full stack developer","palette":"yellow","header":{"title":"Jeff Tian","tagline":"A wild developer","logo_img":"https://images.ctfassets.net/qixg1o8tujmf/7z1ua3nTOC5B7DwwzAki8I/4e1a05f8db770c285a492eeb1eaa398f/imageedit_3_2509022194.png","background_img":"https://images.ctfassets.net/qixg1o8tujmf/7m0jrKYaDBwEvlc5lo8nt6/6d50a5050d9cdc0d4d2047e35feac292/10648733_696750647079056_2800539603462658695_o.jpg","has_nav":true,"nav_links":[{"label":"Home","url":"/","style":"link","type":"action"},{"label":"About","url":"/about","style":"link","type":"action"},{"label":"关于","url":"https://ggyy.pa-pa.me/about","style":"link","icon_class":"lorem-ipsum","new_window":true,"type":"action"},{"label":"Contact","url":"/contact","style":"link","type":"action"},{"label":"Support Me","url":"/support-me","style":"link","type":"action"},{"label":"叽叽歪歪","url":"https://ggyy.pa-pa.me/","style":"link","icon_class":"lorem-ipsum","new_window":true,"type":"action"}],"has_social":true,"social_links":[{"label":"Twitter","url":"https://twitter.com/zizhujy","style":"icon","icon_class":"fa-twitter","new_window":true,"type":"action"},{"label":"Instagram","url":"https://www.instagram.com/jefftian5","style":"icon","icon_class":"fa-instagram","new_window":true,"type":"action"},{"label":"GitHub","url":"https://github.com/jeff-tian","style":"icon","icon_class":"fa-github","new_window":true,"type":"action"},{"label":"LinkedIn","url":"https://www.linkedin.com/jeff~tian","style":"icon","icon_class":"fa-linkedin","new_window":true,"type":"action"},{"label":"DEV","url":"https://dev.to/jefftian","style":"icon","icon_class":"fa-dev","new_window":true,"type":"action"},{"label":"知乎","url":"https://www.zhihu.com/people/jefftian","style":"icon","icon_class":"fa-zhihu","new_window":true,"type":"action"}],"type":"header"},"footer":{"content":"&copy; All rights reserved.","links":[{"label":"本站源码","url":"https://github.com/Jeff-Tian/space","style":"link","icon_class":"fa-github","new_window":true,"type":"action"},{"label":"紫竹叽歪","url":"https://zizhujy.apphb.com","style":"link","icon_class":"http://zizhujy.apphb.com/Content/Images/logo.png","new_window":true,"type":"action"}],"type":"footer"}},"pathPrefix":"","data":{"data":{"author":{"name":"Jeff Tian","avatar":"https://res.cloudinary.com/practicaldev/image/fetch/s--a5qDZLv3--/c_fill,f_auto,fl_progressive,h_640,q_auto,w_640/https://dev-to-uploads.s3.amazonaws.com/uploads/user/profile_image/318420/3bfd2d99-430c-4049-8dd5-e2adc961e1e0.png"},"social":{"devto":{"username":"jefftian"},"twitter":{"username":"zizhujy"},"github":{"username":"Jeff-Tian"}}}}},"menus":{}}},"staticQueryHashes":[]}