{"componentChunkName":"component---src-templates-home-js","path":"/80","result":{"data":{"allMarkdownRemark":{"edges":[{"node":{"excerpt":"今天下了一个Eclipse galileo，不过解压后运行有点问题，出现了jvm terminated.Exit code=-1的错误。如下图所示：","id":"81891318-7b1f-5e17-8aa6-8e17726bba42","frontmatter":{"title":"【转】  Eclipse 3.5 中的jvm terminated.Exit code=-1错误的解决 ","template":"post","has_more_link":null,"more_link_text":null,"excerpt":"","canonical_url":"https://be-net.azurewebsites.net/post/2010/04/04/【转】-Eclipse-35-中的jvm-terminatedExit-code=-1错误的解决-","date":"2010-04-04 11:27:32","img_path":null,"positive_reactions_count":0,"stackbit_url_path":"posts/【转】-Eclipse-35-中的jvm-terminatedExit-code=-1错误的解决-"}}},{"node":{"excerpt":"问题描述：","id":"01e98b3f-15e3-5264-ade1-5b26fa0dc501","frontmatter":{"title":"Eclispe JSP \"Your Web Application Project must be configured to use a JDK in order to use JSPs.\"解决方案","template":"post","has_more_link":null,"more_link_text":null,"excerpt":"","canonical_url":"https://be-net.azurewebsites.net/post/2010/04/03/Eclispe-JSP-Your-Web-Application-Project-must-be-configured-to-use-a-JDK-in-order-to-use-JSPs解决方案","date":"2010-04-03 22:28:55","img_path":null,"positive_reactions_count":0,"stackbit_url_path":"posts/Eclispe-JSP-Your-Web-Application-Project-must-be-configured-to-use-a-JDK-in-order-to-use-JSPs解决方案"}}},{"node":{"excerpt":"","id":"e8154fdf-c32e-5a5e-a266-6c1aba05f63f","frontmatter":{"title":"如何引用已知数据左边列的数据","template":"post","has_more_link":null,"more_link_text":null,"excerpt":"","canonical_url":"https://be-net.azurewebsites.net/post/2010/04/03/如何引用已知数据左边列的数据","date":"2010-04-03 18:06:49","img_path":null,"positive_reactions_count":0,"stackbit_url_path":"posts/如何引用已知数据左边列的数据"}}},{"node":{"excerpt":"","id":"f90239ac-c15d-5b79-8b77-f0db431a80e7","frontmatter":{"title":"摘录","template":"post","has_more_link":null,"more_link_text":null,"excerpt":"","canonical_url":"https://be-net.azurewebsites.net/post/2010/04/03/摘录","date":"2010-04-03 09:48:25","img_path":null,"positive_reactions_count":0,"stackbit_url_path":"posts/摘录"}}},{"node":{"excerpt":"","id":"47a62de4-0f92-5afd-8573-69e1229e8895","frontmatter":{"title":"温思罗普谈到的两种自由","template":"post","has_more_link":null,"more_link_text":null,"excerpt":"","canonical_url":"https://be-net.azurewebsites.net/post/2010/04/03/温思罗普谈到的两种自由","date":"2010-04-03 09:42:13","img_path":null,"positive_reactions_count":0,"stackbit_url_path":"posts/温思罗普谈到的两种自由"}}}]}},"pageContext":{"limit":5,"skip":395,"totalPages":140,"totalItems":699,"currentPage":80,"frontmatter":{"canonical_url":null,"comments_count":null,"title":"Home","template":"home","more_link_text":"Keep reading / 查看全部","date":null,"excerpt":"Jeff Tian's homepage","has_more_link":true},"url":"/","relativePath":"/","base":"","site":{"siteMetadata":{"title":"Jeff Tian","description":"Full Stack Developer, good at OAuth 2.0","palette":"yellow","header":{"title":"Jeff Tian","tagline":"A wild developer","logo_img":"https://images.ctfassets.net/qixg1o8tujmf/7z1ua3nTOC5B7DwwzAki8I/4e1a05f8db770c285a492eeb1eaa398f/imageedit_3_2509022194.png","background_img":"https://images.ctfassets.net/qixg1o8tujmf/7m0jrKYaDBwEvlc5lo8nt6/6d50a5050d9cdc0d4d2047e35feac292/10648733_696750647079056_2800539603462658695_o.jpg","has_nav":true,"nav_links":[{"label":"Home","url":"/","style":"link","type":"action"},{"label":"About","url":"/about","style":"link","type":"action"},{"label":"关于","url":"https://ggyy.pa-pa.me/about","style":"link","icon_class":"lorem-ipsum","new_window":true,"type":"action"},{"label":"Contact","url":"/contact","style":"link","type":"action"},{"label":"Support Me","url":"/support-me","style":"link","type":"action"},{"label":"叽叽歪歪","url":"https://ggyy.pa-pa.me/","style":"link","icon_class":"lorem-ipsum","new_window":true,"type":"action"}],"has_social":true,"social_links":[{"label":"Twitter","url":"https://twitter.com/zizhujy","style":"icon","icon_class":"fa-twitter","new_window":true,"type":"action"},{"label":"Instagram","url":"https://www.instagram.com/jefftian5","style":"icon","icon_class":"fa-instagram","new_window":true,"type":"action"},{"label":"GitHub","url":"https://github.com/jeff-tian","style":"icon","icon_class":"fa-github","new_window":true,"type":"action"},{"label":"LinkedIn","url":"https://www.linkedin.com/jeff~tian","style":"icon","icon_class":"fa-linkedin","new_window":true,"type":"action"},{"label":"DEV","url":"https://dev.to/jefftian","style":"icon","icon_class":"fa-dev","new_window":true,"type":"action"},{"label":"知乎","url":"https://www.zhihu.com/people/jefftian","style":"icon","icon_class":"fa-zhihu","new_window":true,"type":"action"}],"type":"header"},"footer":{"content":"&copy; All rights reserved.","links":[{"label":"本站源码","url":"https://github.com/Jeff-Tian/space","style":"link","icon_class":"fa-github","new_window":true,"type":"action"},{"label":"紫竹叽歪","url":"https://zizhujy.apphb.com","style":"link","icon_class":"http://zizhujy.apphb.com/Content/Images/logo.png","new_window":true,"type":"action"}],"type":"footer"}},"pathPrefix":"","data":{"data":{"author":{"name":"Jeff Tian","avatar":"https://res.cloudinary.com/practicaldev/image/fetch/s--a5qDZLv3--/c_fill,f_auto,fl_progressive,h_640,q_auto,w_640/https://dev-to-uploads.s3.amazonaws.com/uploads/user/profile_image/318420/3bfd2d99-430c-4049-8dd5-e2adc961e1e0.png"},"social":{"devto":{"username":"jefftian"},"twitter":{"username":"zizhujy"},"github":{"username":"Jeff-Tian"}}}}},"menus":{}}},"staticQueryHashes":[]}