{"componentChunkName":"component---src-templates-home-js","path":"/45","result":{"data":{"allMarkdownRemark":{"edges":[{"node":{"excerpt":"","id":"aa5e9220-87ee-58f1-b77d-553471d02a5c","frontmatter":{"title":"在线统计计算器增加估计/预测功能","template":"post","has_more_link":null,"more_link_text":null,"excerpt":"","canonical_url":"https://be-net.azurewebsites.net/post/2012/04/22/在线统计计算器增加估计预测功能","date":"2012-04-22 02:53:33.57971","img_path":null,"positive_reactions_count":0,"stackbit_url_path":"posts/在线统计计算器增加估计预测功能"}}},{"node":{"excerpt":"","id":"73d55ccd-a963-5368-8c87-f6068817d1ed","frontmatter":{"title":"Radio Buttons 名字的来历","template":"post","has_more_link":null,"more_link_text":null,"excerpt":"","canonical_url":"https://be-net.azurewebsites.net/post/2012/04/15/Radio-Buttons-名字的来历","date":"2012-04-15 22:23:07.9499925","img_path":null,"positive_reactions_count":0,"stackbit_url_path":"posts/Radio-Buttons-名字的来历"}}},{"node":{"excerpt":"","id":"ad61ed2c-52b8-5da4-8413-546037d690d1","frontmatter":{"title":"指数回归模型的参数估计","template":"post","has_more_link":null,"more_link_text":null,"excerpt":"","canonical_url":"https://be-net.azurewebsites.net/post/2012/04/10/指数回归模型的参数估计","date":"2012-04-10 07:25:17.3761051","img_path":null,"positive_reactions_count":0,"stackbit_url_path":"posts/指数回归模型的参数估计"}}},{"node":{"excerpt":"","id":"aea62d03-931c-5c56-b35f-dd45a954cf65","frontmatter":{"title":"The inverse function of $.param() in jQuery","template":"post","has_more_link":null,"more_link_text":null,"excerpt":"","canonical_url":"https://be-net.azurewebsites.net/post/2012/04/07/The-inverse-function-of-$param()-in-jQuery","date":"2012-04-07 01:55:16.0884502","img_path":null,"positive_reactions_count":0,"stackbit_url_path":"posts/The-inverse-function-of-$param()-in-jQuery"}}},{"node":{"excerpt":"","id":"da44885b-9e82-5704-9cd9-bec0097e9d7c","frontmatter":{"title":"WCF Test Client Error: Assembly was not found.","template":"post","has_more_link":null,"more_link_text":null,"excerpt":"","canonical_url":"https://be-net.azurewebsites.net/post/2012/04/01/WCF-Test-Client-Error-Assembly-was-not-found","date":"2012-04-01 00:52:18.5536395","img_path":null,"positive_reactions_count":0,"stackbit_url_path":"posts/WCF-Test-Client-Error-Assembly-was-not-found"}}}]}},"pageContext":{"limit":5,"skip":220,"totalPages":166,"totalItems":827,"currentPage":45,"frontmatter":{"canonical_url":null,"comments_count":null,"title":"Home","template":"home","more_link_text":"Keep reading / 查看全部","date":null,"excerpt":"Jeff Tian's homepage","has_more_link":true},"url":"/","relativePath":"/","base":"","site":{"siteMetadata":{"title":"Jeff Tian","description":"A wild full stack developer","palette":"yellow","header":{"title":"Jeff Tian","tagline":"A wild developer","logo_img":"https://images.ctfassets.net/qixg1o8tujmf/7z1ua3nTOC5B7DwwzAki8I/4e1a05f8db770c285a492eeb1eaa398f/imageedit_3_2509022194.png","background_img":"https://images.ctfassets.net/qixg1o8tujmf/7m0jrKYaDBwEvlc5lo8nt6/6d50a5050d9cdc0d4d2047e35feac292/10648733_696750647079056_2800539603462658695_o.jpg","has_nav":true,"nav_links":[{"label":"Home","url":"/","style":"link","type":"action"},{"label":"About","url":"/about","style":"link","type":"action"},{"label":"关于","url":"https://ggyy.pa-pa.me/about","style":"link","icon_class":"lorem-ipsum","new_window":true,"type":"action"},{"label":"Contact","url":"/contact","style":"link","type":"action"},{"label":"Support Me","url":"/support-me","style":"link","type":"action"},{"label":"叽叽歪歪","url":"https://ggyy.pa-pa.me/","style":"link","icon_class":"lorem-ipsum","new_window":true,"type":"action"}],"has_social":true,"social_links":[{"label":"Twitter","url":"https://twitter.com/zizhujy","style":"icon","icon_class":"fa-twitter","new_window":true,"type":"action"},{"label":"Instagram","url":"https://www.instagram.com/jefftian5","style":"icon","icon_class":"fa-instagram","new_window":true,"type":"action"},{"label":"GitHub","url":"https://github.com/jeff-tian","style":"icon","icon_class":"fa-github","new_window":true,"type":"action"},{"label":"LinkedIn","url":"https://www.linkedin.com/jeff~tian","style":"icon","icon_class":"fa-linkedin","new_window":true,"type":"action"},{"label":"DEV","url":"https://dev.to/jefftian","style":"icon","icon_class":"fa-dev","new_window":true,"type":"action"},{"label":"知乎","url":"https://www.zhihu.com/people/jefftian","style":"icon","icon_class":"fa-zhihu","new_window":true,"type":"action"}],"type":"header"},"footer":{"content":"&copy; All rights reserved.","links":[{"label":"本站源码","url":"https://github.com/Jeff-Tian/space","style":"link","icon_class":"fa-github","new_window":true,"type":"action"},{"label":"紫竹叽歪","url":"https://zizhujy.apphb.com","style":"link","icon_class":"http://zizhujy.apphb.com/Content/Images/logo.png","new_window":true,"type":"action"}],"type":"footer"}},"pathPrefix":"","data":{"data":{"author":{"name":"Jeff Tian","avatar":"https://res.cloudinary.com/practicaldev/image/fetch/s--a5qDZLv3--/c_fill,f_auto,fl_progressive,h_640,q_auto,w_640/https://dev-to-uploads.s3.amazonaws.com/uploads/user/profile_image/318420/3bfd2d99-430c-4049-8dd5-e2adc961e1e0.png"},"social":{"devto":{"username":"jefftian"},"twitter":{"username":"zizhujy"},"github":{"username":"Jeff-Tian"}}}}},"menus":{}}},"staticQueryHashes":[]}