{"componentChunkName":"component---src-templates-home-js","path":"/102/","result":{"data":{"allMarkdownRemark":{"edges":[{"node":{"excerpt":"","id":"34cd48d9-48be-579b-a7ae-d3205c837387","frontmatter":{"title":"ASP中常见错误 不能打开注册表关键字的一种解决办法","template":"post","has_more_link":null,"more_link_text":null,"excerpt":"","canonical_url":"https://be-net.azurewebsites.net/post/2010/03/28/ASP中常见错误-不能打开注册表关键字的一种解决办法","date":"2010-03-28 03:37:56","img_path":null,"positive_reactions_count":0,"stackbit_url_path":"posts/ASP中常见错误-不能打开注册表关键字的一种解决办法"}}},{"node":{"excerpt":"","id":"6bd494b0-3a06-5d7b-a5f7-12f18ed1da93","frontmatter":{"title":"安装iis5.1时找不到zClientm.exe的解决方法","template":"post","has_more_link":null,"more_link_text":null,"excerpt":"","canonical_url":"https://be-net.azurewebsites.net/post/2010/03/28/安装iis51时找不到zClientmexe的解决方法","date":"2010-03-28 02:47:57","img_path":null,"positive_reactions_count":0,"stackbit_url_path":"posts/安装iis51时找不到zClientmexe的解决方法"}}},{"node":{"excerpt":"","id":"c4187291-3132-5ca6-bb9e-b245634757da","frontmatter":{"title":"localhost:80 服务器要求提供用户名和密码","template":"post","has_more_link":null,"more_link_text":null,"excerpt":"","canonical_url":"https://be-net.azurewebsites.net/post/2010/03/28/localhost80-服务器要求提供用户名和密码","date":"2010-03-28 02:36:19","img_path":null,"positive_reactions_count":0,"stackbit_url_path":"posts/localhost80-服务器要求提供用户名和密码"}}},{"node":{"excerpt":"","id":"e5cbc1b3-9fe0-5879-8628-bd9206c9b6e3","frontmatter":{"title":"面向对象程序设计的主要特征","template":"post","has_more_link":null,"more_link_text":null,"excerpt":"","canonical_url":"https://be-net.azurewebsites.net/post/2010/03/28/面向对象程序设计的主要特征","date":"2010-03-28 02:04:40","img_path":null,"positive_reactions_count":0,"stackbit_url_path":"posts/面向对象程序设计的主要特征"}}},{"node":{"excerpt":"","id":"52cbfb3c-da47-5e6d-9766-cdbc68bf56c9","frontmatter":{"title":"卜算子","template":"post","has_more_link":null,"more_link_text":null,"excerpt":"","canonical_url":"https://be-net.azurewebsites.net/post/2010/03/28/卜算子","date":"2010-03-28 01:44:25","img_path":null,"positive_reactions_count":0,"stackbit_url_path":"posts/卜算子"}}}]}},"pageContext":{"limit":5,"skip":505,"totalPages":159,"totalItems":793,"currentPage":102,"frontmatter":{"canonical_url":null,"comments_count":null,"title":"Home","template":"home","more_link_text":"Keep reading / 查看全部","date":null,"excerpt":"Jeff Tian's homepage","has_more_link":true},"url":"/","relativePath":"/","base":"","site":{"siteMetadata":{"title":"Jeff Tian","author":"@zizhujy","description":"A wild full stack developer","palette":"yellow","header":{"title":"Jeff Tian","tagline":"A wild developer","logo_img":"https://images.ctfassets.net/qixg1o8tujmf/7z1ua3nTOC5B7DwwzAki8I/4e1a05f8db770c285a492eeb1eaa398f/imageedit_3_2509022194.png","background_img":"https://images.ctfassets.net/qixg1o8tujmf/7m0jrKYaDBwEvlc5lo8nt6/6d50a5050d9cdc0d4d2047e35feac292/10648733_696750647079056_2800539603462658695_o.jpg","has_nav":true,"nav_links":[{"label":"Home","url":"/","style":"link","type":"action"},{"label":"About","url":"/about","style":"link","type":"action"},{"label":"关于","url":"https://ggyy.pa-pa.me/about","style":"link","icon_class":"lorem-ipsum","new_window":true,"type":"action"},{"label":"Contact","url":"/contact","style":"link","type":"action"},{"label":"Support Me","url":"/support-me","style":"link","type":"action"},{"label":"叽叽歪歪","url":"https://ggyy.pa-pa.me/","style":"link","icon_class":"lorem-ipsum","new_window":true,"type":"action"}],"has_social":true,"social_links":[{"label":"Twitter","url":"https://twitter.com/zizhujy","style":"icon","icon_class":"fa-twitter","new_window":true,"type":"action"},{"label":"Instagram","url":"https://www.instagram.com/jefftian5","style":"icon","icon_class":"fa-instagram","new_window":true,"type":"action"},{"label":"GitHub","url":"https://github.com/jeff-tian","style":"icon","icon_class":"fa-github","new_window":true,"type":"action"},{"label":"LinkedIn","url":"https://www.linkedin.com/jeff~tian","style":"icon","icon_class":"fa-linkedin","new_window":true,"type":"action"},{"label":"DEV","url":"https://dev.to/jefftian","style":"icon","icon_class":"fa-dev","new_window":true,"type":"action"},{"label":"知乎","url":"https://www.zhihu.com/people/jefftian","style":"icon","icon_class":"fa-zhihu","new_window":true,"type":"action"}],"type":"header"},"footer":{"content":"&copy; All rights reserved.","links":[{"label":"Made with Stackbit.","url":"https://www.stackbit.com","style":"link","new_window":true,"type":"action"},{"label":"紫竹叽歪","url":"https://zizhujy.apphb.com","style":"link","icon_class":"http://zizhujy.apphb.com/Content/Images/logo.png","new_window":true,"type":"action"}],"type":"footer"}},"pathPrefix":"","data":{"data":{"author":{"name":"Jeff Tian","avatar":"https://res.cloudinary.com/practicaldev/image/fetch/s--a5qDZLv3--/c_fill,f_auto,fl_progressive,h_640,q_auto,w_640/https://dev-to-uploads.s3.amazonaws.com/uploads/user/profile_image/318420/3bfd2d99-430c-4049-8dd5-e2adc961e1e0.png"},"social":{"devto":{"username":"jefftian"},"twitter":{"username":"zizhujy"},"github":{"username":"Jeff-Tian"}}}}},"menus":{}}},"staticQueryHashes":[],"slicesMap":{}}